<?xml version="1.0" encoding="utf-8" standalone="no"?>
<!DOCTYPE svg PUBLIC "-//W3C//DTD SVG 1.1//EN"
  "http://www.w3.org/Graphics/SVG/1.1/DTD/svg11.dtd">
<!-- Created with matplotlib (https://matplotlib.org/) -->
<svg height="1099.790938pt" version="1.1" viewBox="0 0 1332.041875 1099.790938" width="1332.041875pt" xmlns="http://www.w3.org/2000/svg" xmlns:xlink="http://www.w3.org/1999/xlink">
 <defs>
  <style type="text/css">
*{stroke-linecap:butt;stroke-linejoin:round;}
  </style>
 </defs>
 <g id="figure_1">
  <g id="patch_1">
   <path d="M 0 1099.790938 
L 1332.041875 1099.790938 
L 1332.041875 0 
L 0 0 
z
" style="fill:#ffffff;"/>
  </g>
  <g id="axes_1">
   <g id="patch_2">
    <path d="M 111.441875 929.6 
L 1321.341875 929.6 
L 1321.341875 10.7 
L 111.441875 10.7 
z
" style="fill:#ffffff;"/>
   </g>
   <g id="matplotlib.axis_1">
    <g id="xtick_1">
     <g id="line2d_1">
      <path clip-path="url(#pd0508fdf89)" d="M 111.441875 929.6 
L 111.441875 10.7 
" style="fill:none;stroke:#000000;stroke-dasharray:1.85,0.8;stroke-dashoffset:0;stroke-width:0.5;"/>
     </g>
     <g id="line2d_2">
      <defs>
       <path d="M 0 0 
L 0 3.5 
" id="m67edbc4dc1" style="stroke:#000000;stroke-width:0.8;"/>
      </defs>
      <g>
       <use style="stroke:#000000;stroke-width:0.8;" x="111.441875" xlink:href="#m67edbc4dc1" y="929.6"/>
      </g>
     </g>
     <g id="text_1">
      <!-- 1+1 -->
      <defs>
       <path d="M 12.40625 8.296875 
L 28.515625 8.296875 
L 28.515625 63.921875 
L 10.984375 60.40625 
L 10.984375 69.390625 
L 28.421875 72.90625 
L 38.28125 72.90625 
L 38.28125 8.296875 
L 54.390625 8.296875 
L 54.390625 0 
L 12.40625 0 
z
" id="DejaVuSans-49"/>
       <path d="M 46 62.703125 
L 46 35.5 
L 73.1875 35.5 
L 73.1875 27.203125 
L 46 27.203125 
L 46 0 
L 37.796875 0 
L 37.796875 27.203125 
L 10.59375 27.203125 
L 10.59375 35.5 
L 37.796875 35.5 
L 37.796875 62.703125 
z
" id="DejaVuSans-43"/>
      </defs>
      <g transform="translate(120.82375 1008.355938)rotate(-90)scale(0.34 -0.34)">
       <use xlink:href="#DejaVuSans-49"/>
       <use x="63.623047" xlink:href="#DejaVuSans-43"/>
       <use x="147.412109" xlink:href="#DejaVuSans-49"/>
      </g>
     </g>
    </g>
    <g id="xtick_2">
     <g id="line2d_3">
      <path clip-path="url(#pd0508fdf89)" d="M 153.162565 929.6 
L 153.162565 10.7 
" style="fill:none;stroke:#000000;stroke-dasharray:1.85,0.8;stroke-dashoffset:0;stroke-width:0.5;"/>
     </g>
     <g id="line2d_4">
      <g>
       <use style="stroke:#000000;stroke-width:0.8;" x="153.162565" xlink:href="#m67edbc4dc1" y="929.6"/>
      </g>
     </g>
     <g id="text_2">
      <!-- 1+2 -->
      <defs>
       <path d="M 19.1875 8.296875 
L 53.609375 8.296875 
L 53.609375 0 
L 7.328125 0 
L 7.328125 8.296875 
Q 12.9375 14.109375 22.625 23.890625 
Q 32.328125 33.6875 34.8125 36.53125 
Q 39.546875 41.84375 41.421875 45.53125 
Q 43.3125 49.21875 43.3125 52.78125 
Q 43.3125 58.59375 39.234375 62.25 
Q 35.15625 65.921875 28.609375 65.921875 
Q 23.96875 65.921875 18.8125 64.3125 
Q 13.671875 62.703125 7.8125 59.421875 
L 7.8125 69.390625 
Q 13.765625 71.78125 18.9375 73 
Q 24.125 74.21875 28.421875 74.21875 
Q 39.75 74.21875 46.484375 68.546875 
Q 53.21875 62.890625 53.21875 53.421875 
Q 53.21875 48.921875 51.53125 44.890625 
Q 49.859375 40.875 45.40625 35.40625 
Q 44.1875 33.984375 37.640625 27.21875 
Q 31.109375 20.453125 19.1875 8.296875 
z
" id="DejaVuSans-50"/>
      </defs>
      <g transform="translate(162.54444 1008.355938)rotate(-90)scale(0.34 -0.34)">
       <use xlink:href="#DejaVuSans-49"/>
       <use x="63.623047" xlink:href="#DejaVuSans-43"/>
       <use x="147.412109" xlink:href="#DejaVuSans-50"/>
      </g>
     </g>
    </g>
    <g id="xtick_3">
     <g id="line2d_5">
      <path clip-path="url(#pd0508fdf89)" d="M 194.883254 929.6 
L 194.883254 10.7 
" style="fill:none;stroke:#000000;stroke-dasharray:1.85,0.8;stroke-dashoffset:0;stroke-width:0.5;"/>
     </g>
     <g id="line2d_6">
      <g>
       <use style="stroke:#000000;stroke-width:0.8;" x="194.883254" xlink:href="#m67edbc4dc1" y="929.6"/>
      </g>
     </g>
     <g id="text_3">
      <!-- 1+4 -->
      <defs>
       <path d="M 37.796875 64.3125 
L 12.890625 25.390625 
L 37.796875 25.390625 
z
M 35.203125 72.90625 
L 47.609375 72.90625 
L 47.609375 25.390625 
L 58.015625 25.390625 
L 58.015625 17.1875 
L 47.609375 17.1875 
L 47.609375 0 
L 37.796875 0 
L 37.796875 17.1875 
L 4.890625 17.1875 
L 4.890625 26.703125 
z
" id="DejaVuSans-52"/>
      </defs>
      <g transform="translate(204.265129 1008.355938)rotate(-90)scale(0.34 -0.34)">
       <use xlink:href="#DejaVuSans-49"/>
       <use x="63.623047" xlink:href="#DejaVuSans-43"/>
       <use x="147.412109" xlink:href="#DejaVuSans-52"/>
      </g>
     </g>
    </g>
    <g id="xtick_4">
     <g id="line2d_7">
      <path clip-path="url(#pd0508fdf89)" d="M 236.603944 929.6 
L 236.603944 10.7 
" style="fill:none;stroke:#000000;stroke-dasharray:1.85,0.8;stroke-dashoffset:0;stroke-width:0.5;"/>
     </g>
     <g id="line2d_8">
      <g>
       <use style="stroke:#000000;stroke-width:0.8;" x="236.603944" xlink:href="#m67edbc4dc1" y="929.6"/>
      </g>
     </g>
     <g id="text_4">
      <!-- 1+8 -->
      <defs>
       <path d="M 31.78125 34.625 
Q 24.75 34.625 20.71875 30.859375 
Q 16.703125 27.09375 16.703125 20.515625 
Q 16.703125 13.921875 20.71875 10.15625 
Q 24.75 6.390625 31.78125 6.390625 
Q 38.8125 6.390625 42.859375 10.171875 
Q 46.921875 13.96875 46.921875 20.515625 
Q 46.921875 27.09375 42.890625 30.859375 
Q 38.875 34.625 31.78125 34.625 
z
M 21.921875 38.8125 
Q 15.578125 40.375 12.03125 44.71875 
Q 8.5 49.078125 8.5 55.328125 
Q 8.5 64.0625 14.71875 69.140625 
Q 20.953125 74.21875 31.78125 74.21875 
Q 42.671875 74.21875 48.875 69.140625 
Q 55.078125 64.0625 55.078125 55.328125 
Q 55.078125 49.078125 51.53125 44.71875 
Q 48 40.375 41.703125 38.8125 
Q 48.828125 37.15625 52.796875 32.3125 
Q 56.78125 27.484375 56.78125 20.515625 
Q 56.78125 9.90625 50.3125 4.234375 
Q 43.84375 -1.421875 31.78125 -1.421875 
Q 19.734375 -1.421875 13.25 4.234375 
Q 6.78125 9.90625 6.78125 20.515625 
Q 6.78125 27.484375 10.78125 32.3125 
Q 14.796875 37.15625 21.921875 38.8125 
z
M 18.3125 54.390625 
Q 18.3125 48.734375 21.84375 45.5625 
Q 25.390625 42.390625 31.78125 42.390625 
Q 38.140625 42.390625 41.71875 45.5625 
Q 45.3125 48.734375 45.3125 54.390625 
Q 45.3125 60.0625 41.71875 63.234375 
Q 38.140625 66.40625 31.78125 66.40625 
Q 25.390625 66.40625 21.84375 63.234375 
Q 18.3125 60.0625 18.3125 54.390625 
z
" id="DejaVuSans-56"/>
      </defs>
      <g transform="translate(245.985819 1008.355938)rotate(-90)scale(0.34 -0.34)">
       <use xlink:href="#DejaVuSans-49"/>
       <use x="63.623047" xlink:href="#DejaVuSans-43"/>
       <use x="147.412109" xlink:href="#DejaVuSans-56"/>
      </g>
     </g>
    </g>
    <g id="xtick_5">
     <g id="line2d_9">
      <path clip-path="url(#pd0508fdf89)" d="M 278.324634 929.6 
L 278.324634 10.7 
" style="fill:none;stroke:#000000;stroke-dasharray:1.85,0.8;stroke-dashoffset:0;stroke-width:0.5;"/>
     </g>
     <g id="line2d_10">
      <g>
       <use style="stroke:#000000;stroke-width:0.8;" x="278.324634" xlink:href="#m67edbc4dc1" y="929.6"/>
      </g>
     </g>
     <g id="text_5">
      <!-- 1+16 -->
      <defs>
       <path d="M 33.015625 40.375 
Q 26.375 40.375 22.484375 35.828125 
Q 18.609375 31.296875 18.609375 23.390625 
Q 18.609375 15.53125 22.484375 10.953125 
Q 26.375 6.390625 33.015625 6.390625 
Q 39.65625 6.390625 43.53125 10.953125 
Q 47.40625 15.53125 47.40625 23.390625 
Q 47.40625 31.296875 43.53125 35.828125 
Q 39.65625 40.375 33.015625 40.375 
z
M 52.59375 71.296875 
L 52.59375 62.3125 
Q 48.875 64.0625 45.09375 64.984375 
Q 41.3125 65.921875 37.59375 65.921875 
Q 27.828125 65.921875 22.671875 59.328125 
Q 17.53125 52.734375 16.796875 39.40625 
Q 19.671875 43.65625 24.015625 45.921875 
Q 28.375 48.1875 33.59375 48.1875 
Q 44.578125 48.1875 50.953125 41.515625 
Q 57.328125 34.859375 57.328125 23.390625 
Q 57.328125 12.15625 50.6875 5.359375 
Q 44.046875 -1.421875 33.015625 -1.421875 
Q 20.359375 -1.421875 13.671875 8.265625 
Q 6.984375 17.96875 6.984375 36.375 
Q 6.984375 53.65625 15.1875 63.9375 
Q 23.390625 74.21875 37.203125 74.21875 
Q 40.921875 74.21875 44.703125 73.484375 
Q 48.484375 72.75 52.59375 71.296875 
z
" id="DejaVuSans-54"/>
      </defs>
      <g transform="translate(287.706509 1029.988438)rotate(-90)scale(0.34 -0.34)">
       <use xlink:href="#DejaVuSans-49"/>
       <use x="63.623047" xlink:href="#DejaVuSans-43"/>
       <use x="147.412109" xlink:href="#DejaVuSans-49"/>
       <use x="211.035156" xlink:href="#DejaVuSans-54"/>
      </g>
     </g>
    </g>
    <g id="xtick_6">
     <g id="line2d_11">
      <path clip-path="url(#pd0508fdf89)" d="M 320.045323 929.6 
L 320.045323 10.7 
" style="fill:none;stroke:#000000;stroke-dasharray:1.85,0.8;stroke-dashoffset:0;stroke-width:0.5;"/>
     </g>
     <g id="line2d_12">
      <g>
       <use style="stroke:#000000;stroke-width:0.8;" x="320.045323" xlink:href="#m67edbc4dc1" y="929.6"/>
      </g>
     </g>
     <g id="text_6">
      <!-- 1+32 -->
      <defs>
       <path d="M 40.578125 39.3125 
Q 47.65625 37.796875 51.625 33 
Q 55.609375 28.21875 55.609375 21.1875 
Q 55.609375 10.40625 48.1875 4.484375 
Q 40.765625 -1.421875 27.09375 -1.421875 
Q 22.515625 -1.421875 17.65625 -0.515625 
Q 12.796875 0.390625 7.625 2.203125 
L 7.625 11.71875 
Q 11.71875 9.328125 16.59375 8.109375 
Q 21.484375 6.890625 26.8125 6.890625 
Q 36.078125 6.890625 40.9375 10.546875 
Q 45.796875 14.203125 45.796875 21.1875 
Q 45.796875 27.640625 41.28125 31.265625 
Q 36.765625 34.90625 28.71875 34.90625 
L 20.21875 34.90625 
L 20.21875 43.015625 
L 29.109375 43.015625 
Q 36.375 43.015625 40.234375 45.921875 
Q 44.09375 48.828125 44.09375 54.296875 
Q 44.09375 59.90625 40.109375 62.90625 
Q 36.140625 65.921875 28.71875 65.921875 
Q 24.65625 65.921875 20.015625 65.03125 
Q 15.375 64.15625 9.8125 62.3125 
L 9.8125 71.09375 
Q 15.4375 72.65625 20.34375 73.4375 
Q 25.25 74.21875 29.59375 74.21875 
Q 40.828125 74.21875 47.359375 69.109375 
Q 53.90625 64.015625 53.90625 55.328125 
Q 53.90625 49.265625 50.4375 45.09375 
Q 46.96875 40.921875 40.578125 39.3125 
z
" id="DejaVuSans-51"/>
      </defs>
      <g transform="translate(329.427198 1029.988438)rotate(-90)scale(0.34 -0.34)">
       <use xlink:href="#DejaVuSans-49"/>
       <use x="63.623047" xlink:href="#DejaVuSans-43"/>
       <use x="147.412109" xlink:href="#DejaVuSans-51"/>
       <use x="211.035156" xlink:href="#DejaVuSans-50"/>
      </g>
     </g>
    </g>
    <g id="xtick_7">
     <g id="line2d_13">
      <path clip-path="url(#pd0508fdf89)" d="M 361.766013 929.6 
L 361.766013 10.7 
" style="fill:none;stroke:#000000;stroke-dasharray:1.85,0.8;stroke-dashoffset:0;stroke-width:0.5;"/>
     </g>
     <g id="line2d_14">
      <g>
       <use style="stroke:#000000;stroke-width:0.8;" x="361.766013" xlink:href="#m67edbc4dc1" y="929.6"/>
      </g>
     </g>
     <g id="text_7">
      <!-- 2+1 -->
      <g transform="translate(371.147888 1008.355938)rotate(-90)scale(0.34 -0.34)">
       <use xlink:href="#DejaVuSans-50"/>
       <use x="63.623047" xlink:href="#DejaVuSans-43"/>
       <use x="147.412109" xlink:href="#DejaVuSans-49"/>
      </g>
     </g>
    </g>
    <g id="xtick_8">
     <g id="line2d_15">
      <path clip-path="url(#pd0508fdf89)" d="M 403.486703 929.6 
L 403.486703 10.7 
" style="fill:none;stroke:#000000;stroke-dasharray:1.85,0.8;stroke-dashoffset:0;stroke-width:0.5;"/>
     </g>
     <g id="line2d_16">
      <g>
       <use style="stroke:#000000;stroke-width:0.8;" x="403.486703" xlink:href="#m67edbc4dc1" y="929.6"/>
      </g>
     </g>
     <g id="text_8">
      <!-- 2+2 -->
      <g transform="translate(412.868578 1008.355938)rotate(-90)scale(0.34 -0.34)">
       <use xlink:href="#DejaVuSans-50"/>
       <use x="63.623047" xlink:href="#DejaVuSans-43"/>
       <use x="147.412109" xlink:href="#DejaVuSans-50"/>
      </g>
     </g>
    </g>
    <g id="xtick_9">
     <g id="line2d_17">
      <path clip-path="url(#pd0508fdf89)" d="M 445.207392 929.6 
L 445.207392 10.7 
" style="fill:none;stroke:#000000;stroke-dasharray:1.85,0.8;stroke-dashoffset:0;stroke-width:0.5;"/>
     </g>
     <g id="line2d_18">
      <g>
       <use style="stroke:#000000;stroke-width:0.8;" x="445.207392" xlink:href="#m67edbc4dc1" y="929.6"/>
      </g>
     </g>
     <g id="text_9">
      <!-- 2+4 -->
      <g transform="translate(454.589267 1008.355938)rotate(-90)scale(0.34 -0.34)">
       <use xlink:href="#DejaVuSans-50"/>
       <use x="63.623047" xlink:href="#DejaVuSans-43"/>
       <use x="147.412109" xlink:href="#DejaVuSans-52"/>
      </g>
     </g>
    </g>
    <g id="xtick_10">
     <g id="line2d_19">
      <path clip-path="url(#pd0508fdf89)" d="M 486.928082 929.6 
L 486.928082 10.7 
" style="fill:none;stroke:#000000;stroke-dasharray:1.85,0.8;stroke-dashoffset:0;stroke-width:0.5;"/>
     </g>
     <g id="line2d_20">
      <g>
       <use style="stroke:#000000;stroke-width:0.8;" x="486.928082" xlink:href="#m67edbc4dc1" y="929.6"/>
      </g>
     </g>
     <g id="text_10">
      <!-- 2+8 -->
      <g transform="translate(496.309957 1008.355938)rotate(-90)scale(0.34 -0.34)">
       <use xlink:href="#DejaVuSans-50"/>
       <use x="63.623047" xlink:href="#DejaVuSans-43"/>
       <use x="147.412109" xlink:href="#DejaVuSans-56"/>
      </g>
     </g>
    </g>
    <g id="xtick_11">
     <g id="line2d_21">
      <path clip-path="url(#pd0508fdf89)" d="M 528.648772 929.6 
L 528.648772 10.7 
" style="fill:none;stroke:#000000;stroke-dasharray:1.85,0.8;stroke-dashoffset:0;stroke-width:0.5;"/>
     </g>
     <g id="line2d_22">
      <g>
       <use style="stroke:#000000;stroke-width:0.8;" x="528.648772" xlink:href="#m67edbc4dc1" y="929.6"/>
      </g>
     </g>
     <g id="text_11">
      <!-- 2+16 -->
      <g transform="translate(538.030647 1029.988438)rotate(-90)scale(0.34 -0.34)">
       <use xlink:href="#DejaVuSans-50"/>
       <use x="63.623047" xlink:href="#DejaVuSans-43"/>
       <use x="147.412109" xlink:href="#DejaVuSans-49"/>
       <use x="211.035156" xlink:href="#DejaVuSans-54"/>
      </g>
     </g>
    </g>
    <g id="xtick_12">
     <g id="line2d_23">
      <path clip-path="url(#pd0508fdf89)" d="M 570.369461 929.6 
L 570.369461 10.7 
" style="fill:none;stroke:#000000;stroke-dasharray:1.85,0.8;stroke-dashoffset:0;stroke-width:0.5;"/>
     </g>
     <g id="line2d_24">
      <g>
       <use style="stroke:#000000;stroke-width:0.8;" x="570.369461" xlink:href="#m67edbc4dc1" y="929.6"/>
      </g>
     </g>
     <g id="text_12">
      <!-- 2+32 -->
      <g transform="translate(579.751336 1029.988438)rotate(-90)scale(0.34 -0.34)">
       <use xlink:href="#DejaVuSans-50"/>
       <use x="63.623047" xlink:href="#DejaVuSans-43"/>
       <use x="147.412109" xlink:href="#DejaVuSans-51"/>
       <use x="211.035156" xlink:href="#DejaVuSans-50"/>
      </g>
     </g>
    </g>
    <g id="xtick_13">
     <g id="line2d_25">
      <path clip-path="url(#pd0508fdf89)" d="M 612.090151 929.6 
L 612.090151 10.7 
" style="fill:none;stroke:#000000;stroke-dasharray:1.85,0.8;stroke-dashoffset:0;stroke-width:0.5;"/>
     </g>
     <g id="line2d_26">
      <g>
       <use style="stroke:#000000;stroke-width:0.8;" x="612.090151" xlink:href="#m67edbc4dc1" y="929.6"/>
      </g>
     </g>
     <g id="text_13">
      <!-- 4+1 -->
      <g transform="translate(621.472026 1008.355938)rotate(-90)scale(0.34 -0.34)">
       <use xlink:href="#DejaVuSans-52"/>
       <use x="63.623047" xlink:href="#DejaVuSans-43"/>
       <use x="147.412109" xlink:href="#DejaVuSans-49"/>
      </g>
     </g>
    </g>
    <g id="xtick_14">
     <g id="line2d_27">
      <path clip-path="url(#pd0508fdf89)" d="M 653.810841 929.6 
L 653.810841 10.7 
" style="fill:none;stroke:#000000;stroke-dasharray:1.85,0.8;stroke-dashoffset:0;stroke-width:0.5;"/>
     </g>
     <g id="line2d_28">
      <g>
       <use style="stroke:#000000;stroke-width:0.8;" x="653.810841" xlink:href="#m67edbc4dc1" y="929.6"/>
      </g>
     </g>
     <g id="text_14">
      <!-- 4+2 -->
      <g transform="translate(663.192716 1008.355938)rotate(-90)scale(0.34 -0.34)">
       <use xlink:href="#DejaVuSans-52"/>
       <use x="63.623047" xlink:href="#DejaVuSans-43"/>
       <use x="147.412109" xlink:href="#DejaVuSans-50"/>
      </g>
     </g>
    </g>
    <g id="xtick_15">
     <g id="line2d_29">
      <path clip-path="url(#pd0508fdf89)" d="M 695.53153 929.6 
L 695.53153 10.7 
" style="fill:none;stroke:#000000;stroke-dasharray:1.85,0.8;stroke-dashoffset:0;stroke-width:0.5;"/>
     </g>
     <g id="line2d_30">
      <g>
       <use style="stroke:#000000;stroke-width:0.8;" x="695.53153" xlink:href="#m67edbc4dc1" y="929.6"/>
      </g>
     </g>
     <g id="text_15">
      <!-- 4+4 -->
      <g transform="translate(704.913405 1008.355938)rotate(-90)scale(0.34 -0.34)">
       <use xlink:href="#DejaVuSans-52"/>
       <use x="63.623047" xlink:href="#DejaVuSans-43"/>
       <use x="147.412109" xlink:href="#DejaVuSans-52"/>
      </g>
     </g>
    </g>
    <g id="xtick_16">
     <g id="line2d_31">
      <path clip-path="url(#pd0508fdf89)" d="M 737.25222 929.6 
L 737.25222 10.7 
" style="fill:none;stroke:#000000;stroke-dasharray:1.85,0.8;stroke-dashoffset:0;stroke-width:0.5;"/>
     </g>
     <g id="line2d_32">
      <g>
       <use style="stroke:#000000;stroke-width:0.8;" x="737.25222" xlink:href="#m67edbc4dc1" y="929.6"/>
      </g>
     </g>
     <g id="text_16">
      <!-- 4+8 -->
      <g transform="translate(746.634095 1008.355938)rotate(-90)scale(0.34 -0.34)">
       <use xlink:href="#DejaVuSans-52"/>
       <use x="63.623047" xlink:href="#DejaVuSans-43"/>
       <use x="147.412109" xlink:href="#DejaVuSans-56"/>
      </g>
     </g>
    </g>
    <g id="xtick_17">
     <g id="line2d_33">
      <path clip-path="url(#pd0508fdf89)" d="M 778.972909 929.6 
L 778.972909 10.7 
" style="fill:none;stroke:#000000;stroke-dasharray:1.85,0.8;stroke-dashoffset:0;stroke-width:0.5;"/>
     </g>
     <g id="line2d_34">
      <g>
       <use style="stroke:#000000;stroke-width:0.8;" x="778.972909" xlink:href="#m67edbc4dc1" y="929.6"/>
      </g>
     </g>
     <g id="text_17">
      <!-- 4+16 -->
      <g transform="translate(788.354784 1029.988438)rotate(-90)scale(0.34 -0.34)">
       <use xlink:href="#DejaVuSans-52"/>
       <use x="63.623047" xlink:href="#DejaVuSans-43"/>
       <use x="147.412109" xlink:href="#DejaVuSans-49"/>
       <use x="211.035156" xlink:href="#DejaVuSans-54"/>
      </g>
     </g>
    </g>
    <g id="xtick_18">
     <g id="line2d_35">
      <path clip-path="url(#pd0508fdf89)" d="M 820.693599 929.6 
L 820.693599 10.7 
" style="fill:none;stroke:#000000;stroke-dasharray:1.85,0.8;stroke-dashoffset:0;stroke-width:0.5;"/>
     </g>
     <g id="line2d_36">
      <g>
       <use style="stroke:#000000;stroke-width:0.8;" x="820.693599" xlink:href="#m67edbc4dc1" y="929.6"/>
      </g>
     </g>
     <g id="text_18">
      <!-- 4+32 -->
      <g transform="translate(830.075474 1029.988438)rotate(-90)scale(0.34 -0.34)">
       <use xlink:href="#DejaVuSans-52"/>
       <use x="63.623047" xlink:href="#DejaVuSans-43"/>
       <use x="147.412109" xlink:href="#DejaVuSans-51"/>
       <use x="211.035156" xlink:href="#DejaVuSans-50"/>
      </g>
     </g>
    </g>
    <g id="xtick_19">
     <g id="line2d_37">
      <path clip-path="url(#pd0508fdf89)" d="M 862.414289 929.6 
L 862.414289 10.7 
" style="fill:none;stroke:#000000;stroke-dasharray:1.85,0.8;stroke-dashoffset:0;stroke-width:0.5;"/>
     </g>
     <g id="line2d_38">
      <g>
       <use style="stroke:#000000;stroke-width:0.8;" x="862.414289" xlink:href="#m67edbc4dc1" y="929.6"/>
      </g>
     </g>
     <g id="text_19">
      <!-- 8+1 -->
      <g transform="translate(871.796164 1008.355938)rotate(-90)scale(0.34 -0.34)">
       <use xlink:href="#DejaVuSans-56"/>
       <use x="63.623047" xlink:href="#DejaVuSans-43"/>
       <use x="147.412109" xlink:href="#DejaVuSans-49"/>
      </g>
     </g>
    </g>
    <g id="xtick_20">
     <g id="line2d_39">
      <path clip-path="url(#pd0508fdf89)" d="M 904.134978 929.6 
L 904.134978 10.7 
" style="fill:none;stroke:#000000;stroke-dasharray:1.85,0.8;stroke-dashoffset:0;stroke-width:0.5;"/>
     </g>
     <g id="line2d_40">
      <g>
       <use style="stroke:#000000;stroke-width:0.8;" x="904.134978" xlink:href="#m67edbc4dc1" y="929.6"/>
      </g>
     </g>
     <g id="text_20">
      <!-- 8+2 -->
      <g transform="translate(913.516853 1008.355938)rotate(-90)scale(0.34 -0.34)">
       <use xlink:href="#DejaVuSans-56"/>
       <use x="63.623047" xlink:href="#DejaVuSans-43"/>
       <use x="147.412109" xlink:href="#DejaVuSans-50"/>
      </g>
     </g>
    </g>
    <g id="xtick_21">
     <g id="line2d_41">
      <path clip-path="url(#pd0508fdf89)" d="M 945.855668 929.6 
L 945.855668 10.7 
" style="fill:none;stroke:#000000;stroke-dasharray:1.85,0.8;stroke-dashoffset:0;stroke-width:0.5;"/>
     </g>
     <g id="line2d_42">
      <g>
       <use style="stroke:#000000;stroke-width:0.8;" x="945.855668" xlink:href="#m67edbc4dc1" y="929.6"/>
      </g>
     </g>
     <g id="text_21">
      <!-- 8+4 -->
      <g transform="translate(955.237543 1008.355938)rotate(-90)scale(0.34 -0.34)">
       <use xlink:href="#DejaVuSans-56"/>
       <use x="63.623047" xlink:href="#DejaVuSans-43"/>
       <use x="147.412109" xlink:href="#DejaVuSans-52"/>
      </g>
     </g>
    </g>
    <g id="xtick_22">
     <g id="line2d_43">
      <path clip-path="url(#pd0508fdf89)" d="M 987.576358 929.6 
L 987.576358 10.7 
" style="fill:none;stroke:#000000;stroke-dasharray:1.85,0.8;stroke-dashoffset:0;stroke-width:0.5;"/>
     </g>
     <g id="line2d_44">
      <g>
       <use style="stroke:#000000;stroke-width:0.8;" x="987.576358" xlink:href="#m67edbc4dc1" y="929.6"/>
      </g>
     </g>
     <g id="text_22">
      <!-- 8+8 -->
      <g transform="translate(996.958233 1008.355938)rotate(-90)scale(0.34 -0.34)">
       <use xlink:href="#DejaVuSans-56"/>
       <use x="63.623047" xlink:href="#DejaVuSans-43"/>
       <use x="147.412109" xlink:href="#DejaVuSans-56"/>
      </g>
     </g>
    </g>
    <g id="xtick_23">
     <g id="line2d_45">
      <path clip-path="url(#pd0508fdf89)" d="M 1029.297047 929.6 
L 1029.297047 10.7 
" style="fill:none;stroke:#000000;stroke-dasharray:1.85,0.8;stroke-dashoffset:0;stroke-width:0.5;"/>
     </g>
     <g id="line2d_46">
      <g>
       <use style="stroke:#000000;stroke-width:0.8;" x="1029.297047" xlink:href="#m67edbc4dc1" y="929.6"/>
      </g>
     </g>
     <g id="text_23">
      <!-- 8+16 -->
      <g transform="translate(1038.678922 1029.988438)rotate(-90)scale(0.34 -0.34)">
       <use xlink:href="#DejaVuSans-56"/>
       <use x="63.623047" xlink:href="#DejaVuSans-43"/>
       <use x="147.412109" xlink:href="#DejaVuSans-49"/>
       <use x="211.035156" xlink:href="#DejaVuSans-54"/>
      </g>
     </g>
    </g>
    <g id="xtick_24">
     <g id="line2d_47">
      <path clip-path="url(#pd0508fdf89)" d="M 1071.017737 929.6 
L 1071.017737 10.7 
" style="fill:none;stroke:#000000;stroke-dasharray:1.85,0.8;stroke-dashoffset:0;stroke-width:0.5;"/>
     </g>
     <g id="line2d_48">
      <g>
       <use style="stroke:#000000;stroke-width:0.8;" x="1071.017737" xlink:href="#m67edbc4dc1" y="929.6"/>
      </g>
     </g>
     <g id="text_24">
      <!-- 8+32 -->
      <g transform="translate(1080.399612 1029.988438)rotate(-90)scale(0.34 -0.34)">
       <use xlink:href="#DejaVuSans-56"/>
       <use x="63.623047" xlink:href="#DejaVuSans-43"/>
       <use x="147.412109" xlink:href="#DejaVuSans-51"/>
       <use x="211.035156" xlink:href="#DejaVuSans-50"/>
      </g>
     </g>
    </g>
    <g id="xtick_25">
     <g id="line2d_49">
      <path clip-path="url(#pd0508fdf89)" d="M 1112.738427 929.6 
L 1112.738427 10.7 
" style="fill:none;stroke:#000000;stroke-dasharray:1.85,0.8;stroke-dashoffset:0;stroke-width:0.5;"/>
     </g>
     <g id="line2d_50">
      <g>
       <use style="stroke:#000000;stroke-width:0.8;" x="1112.738427" xlink:href="#m67edbc4dc1" y="929.6"/>
      </g>
     </g>
     <g id="text_25">
      <!-- 16+1 -->
      <g transform="translate(1122.120302 1029.988438)rotate(-90)scale(0.34 -0.34)">
       <use xlink:href="#DejaVuSans-49"/>
       <use x="63.623047" xlink:href="#DejaVuSans-54"/>
       <use x="127.246094" xlink:href="#DejaVuSans-43"/>
       <use x="211.035156" xlink:href="#DejaVuSans-49"/>
      </g>
     </g>
    </g>
    <g id="xtick_26">
     <g id="line2d_51">
      <path clip-path="url(#pd0508fdf89)" d="M 1154.459116 929.6 
L 1154.459116 10.7 
" style="fill:none;stroke:#000000;stroke-dasharray:1.85,0.8;stroke-dashoffset:0;stroke-width:0.5;"/>
     </g>
     <g id="line2d_52">
      <g>
       <use style="stroke:#000000;stroke-width:0.8;" x="1154.459116" xlink:href="#m67edbc4dc1" y="929.6"/>
      </g>
     </g>
     <g id="text_26">
      <!-- 16+2 -->
      <g transform="translate(1163.840991 1029.988438)rotate(-90)scale(0.34 -0.34)">
       <use xlink:href="#DejaVuSans-49"/>
       <use x="63.623047" xlink:href="#DejaVuSans-54"/>
       <use x="127.246094" xlink:href="#DejaVuSans-43"/>
       <use x="211.035156" xlink:href="#DejaVuSans-50"/>
      </g>
     </g>
    </g>
    <g id="xtick_27">
     <g id="line2d_53">
      <path clip-path="url(#pd0508fdf89)" d="M 1196.179806 929.6 
L 1196.179806 10.7 
" style="fill:none;stroke:#000000;stroke-dasharray:1.85,0.8;stroke-dashoffset:0;stroke-width:0.5;"/>
     </g>
     <g id="line2d_54">
      <g>
       <use style="stroke:#000000;stroke-width:0.8;" x="1196.179806" xlink:href="#m67edbc4dc1" y="929.6"/>
      </g>
     </g>
     <g id="text_27">
      <!-- 16+4 -->
      <g transform="translate(1205.561681 1029.988438)rotate(-90)scale(0.34 -0.34)">
       <use xlink:href="#DejaVuSans-49"/>
       <use x="63.623047" xlink:href="#DejaVuSans-54"/>
       <use x="127.246094" xlink:href="#DejaVuSans-43"/>
       <use x="211.035156" xlink:href="#DejaVuSans-52"/>
      </g>
     </g>
    </g>
    <g id="xtick_28">
     <g id="line2d_55">
      <path clip-path="url(#pd0508fdf89)" d="M 1237.900496 929.6 
L 1237.900496 10.7 
" style="fill:none;stroke:#000000;stroke-dasharray:1.85,0.8;stroke-dashoffset:0;stroke-width:0.5;"/>
     </g>
     <g id="line2d_56">
      <g>
       <use style="stroke:#000000;stroke-width:0.8;" x="1237.900496" xlink:href="#m67edbc4dc1" y="929.6"/>
      </g>
     </g>
     <g id="text_28">
      <!-- 16+8 -->
      <g transform="translate(1247.282371 1029.988438)rotate(-90)scale(0.34 -0.34)">
       <use xlink:href="#DejaVuSans-49"/>
       <use x="63.623047" xlink:href="#DejaVuSans-54"/>
       <use x="127.246094" xlink:href="#DejaVuSans-43"/>
       <use x="211.035156" xlink:href="#DejaVuSans-56"/>
      </g>
     </g>
    </g>
    <g id="xtick_29">
     <g id="line2d_57">
      <path clip-path="url(#pd0508fdf89)" d="M 1279.621185 929.6 
L 1279.621185 10.7 
" style="fill:none;stroke:#000000;stroke-dasharray:1.85,0.8;stroke-dashoffset:0;stroke-width:0.5;"/>
     </g>
     <g id="line2d_58">
      <g>
       <use style="stroke:#000000;stroke-width:0.8;" x="1279.621185" xlink:href="#m67edbc4dc1" y="929.6"/>
      </g>
     </g>
     <g id="text_29">
      <!-- 16+16 -->
      <g transform="translate(1289.00306 1051.620938)rotate(-90)scale(0.34 -0.34)">
       <use xlink:href="#DejaVuSans-49"/>
       <use x="63.623047" xlink:href="#DejaVuSans-54"/>
       <use x="127.246094" xlink:href="#DejaVuSans-43"/>
       <use x="211.035156" xlink:href="#DejaVuSans-49"/>
       <use x="274.658203" xlink:href="#DejaVuSans-54"/>
      </g>
     </g>
    </g>
    <g id="xtick_30">
     <g id="line2d_59">
      <path clip-path="url(#pd0508fdf89)" d="M 1321.341875 929.6 
L 1321.341875 10.7 
" style="fill:none;stroke:#000000;stroke-dasharray:1.85,0.8;stroke-dashoffset:0;stroke-width:0.5;"/>
     </g>
     <g id="line2d_60">
      <g>
       <use style="stroke:#000000;stroke-width:0.8;" x="1321.341875" xlink:href="#m67edbc4dc1" y="929.6"/>
      </g>
     </g>
    </g>
    <g id="text_30">
     <!-- Number of processes - MPI (num. nodes) + OpenMP (num. threads) -->
     <defs>
      <path d="M 9.1875 72.90625 
L 30.171875 72.90625 
L 56.6875 22.90625 
L 56.6875 72.90625 
L 74.515625 72.90625 
L 74.515625 0 
L 53.515625 0 
L 27 50 
L 27 0 
L 9.1875 0 
z
" id="DejaVuSans-Bold-78"/>
      <path d="M 7.8125 21.296875 
L 7.8125 54.6875 
L 25.390625 54.6875 
L 25.390625 49.21875 
Q 25.390625 44.78125 25.34375 38.0625 
Q 25.296875 31.34375 25.296875 29.109375 
Q 25.296875 22.515625 25.640625 19.609375 
Q 25.984375 16.703125 26.8125 15.375 
Q 27.875 13.671875 29.609375 12.734375 
Q 31.34375 11.8125 33.59375 11.8125 
Q 39.0625 11.8125 42.1875 16.015625 
Q 45.3125 20.21875 45.3125 27.6875 
L 45.3125 54.6875 
L 62.796875 54.6875 
L 62.796875 0 
L 45.3125 0 
L 45.3125 7.90625 
Q 41.359375 3.125 36.9375 0.84375 
Q 32.515625 -1.421875 27.203125 -1.421875 
Q 17.71875 -1.421875 12.765625 4.390625 
Q 7.8125 10.203125 7.8125 21.296875 
z
" id="DejaVuSans-Bold-117"/>
      <path d="M 59.078125 45.609375 
Q 62.40625 50.6875 66.96875 53.34375 
Q 71.53125 56 77 56 
Q 86.421875 56 91.359375 50.1875 
Q 96.296875 44.390625 96.296875 33.296875 
L 96.296875 0 
L 78.71875 0 
L 78.71875 28.515625 
Q 78.765625 29.15625 78.78125 29.828125 
Q 78.8125 30.515625 78.8125 31.78125 
Q 78.8125 37.59375 77.09375 40.203125 
Q 75.390625 42.828125 71.578125 42.828125 
Q 66.609375 42.828125 63.890625 38.71875 
Q 61.1875 34.625 61.078125 26.859375 
L 61.078125 0 
L 43.5 0 
L 43.5 28.515625 
Q 43.5 37.59375 41.9375 40.203125 
Q 40.375 42.828125 36.375 42.828125 
Q 31.34375 42.828125 28.609375 38.703125 
Q 25.875 34.578125 25.875 26.90625 
L 25.875 0 
L 8.296875 0 
L 8.296875 54.6875 
L 25.875 54.6875 
L 25.875 46.6875 
Q 29.109375 51.3125 33.28125 53.65625 
Q 37.453125 56 42.484375 56 
Q 48.140625 56 52.484375 53.265625 
Q 56.84375 50.53125 59.078125 45.609375 
z
" id="DejaVuSans-Bold-109"/>
      <path d="M 37.5 11.28125 
Q 43.109375 11.28125 46.0625 15.375 
Q 49.03125 19.484375 49.03125 27.296875 
Q 49.03125 35.109375 46.0625 39.203125 
Q 43.109375 43.3125 37.5 43.3125 
Q 31.890625 43.3125 28.875 39.1875 
Q 25.875 35.0625 25.875 27.296875 
Q 25.875 19.53125 28.875 15.40625 
Q 31.890625 11.28125 37.5 11.28125 
z
M 25.875 46.6875 
Q 29.5 51.46875 33.890625 53.734375 
Q 38.28125 56 44 56 
Q 54.109375 56 60.59375 47.96875 
Q 67.09375 39.9375 67.09375 27.296875 
Q 67.09375 14.65625 60.59375 6.609375 
Q 54.109375 -1.421875 44 -1.421875 
Q 38.28125 -1.421875 33.890625 0.84375 
Q 29.5 3.125 25.875 7.90625 
L 25.875 0 
L 8.40625 0 
L 8.40625 75.984375 
L 25.875 75.984375 
z
" id="DejaVuSans-Bold-98"/>
      <path d="M 62.984375 27.484375 
L 62.984375 22.515625 
L 22.125 22.515625 
Q 22.75 16.359375 26.5625 13.28125 
Q 30.375 10.203125 37.203125 10.203125 
Q 42.71875 10.203125 48.5 11.84375 
Q 54.296875 13.484375 60.40625 16.796875 
L 60.40625 3.328125 
Q 54.203125 0.984375 48 -0.21875 
Q 41.796875 -1.421875 35.59375 -1.421875 
Q 20.75 -1.421875 12.515625 6.125 
Q 4.296875 13.671875 4.296875 27.296875 
Q 4.296875 40.671875 12.375 48.328125 
Q 20.453125 56 34.625 56 
Q 47.515625 56 55.25 48.234375 
Q 62.984375 40.484375 62.984375 27.484375 
z
M 45.015625 33.296875 
Q 45.015625 38.28125 42.109375 41.328125 
Q 39.203125 44.390625 34.515625 44.390625 
Q 29.4375 44.390625 26.265625 41.53125 
Q 23.09375 38.671875 22.3125 33.296875 
z
" id="DejaVuSans-Bold-101"/>
      <path d="M 49.03125 39.796875 
Q 46.734375 40.875 44.453125 41.375 
Q 42.1875 41.890625 39.890625 41.890625 
Q 33.15625 41.890625 29.515625 37.5625 
Q 25.875 33.25 25.875 25.203125 
L 25.875 0 
L 8.40625 0 
L 8.40625 54.6875 
L 25.875 54.6875 
L 25.875 45.703125 
Q 29.25 51.078125 33.609375 53.53125 
Q 37.984375 56 44.09375 56 
Q 44.96875 56 45.984375 55.921875 
Q 47.015625 55.859375 48.96875 55.609375 
z
" id="DejaVuSans-Bold-114"/>
      <path id="DejaVuSans-Bold-32"/>
      <path d="M 34.421875 43.5 
Q 28.609375 43.5 25.5625 39.328125 
Q 22.515625 35.15625 22.515625 27.296875 
Q 22.515625 19.4375 25.5625 15.25 
Q 28.609375 11.078125 34.421875 11.078125 
Q 40.140625 11.078125 43.15625 15.25 
Q 46.1875 19.4375 46.1875 27.296875 
Q 46.1875 35.15625 43.15625 39.328125 
Q 40.140625 43.5 34.421875 43.5 
z
M 34.421875 56 
Q 48.53125 56 56.46875 48.375 
Q 64.40625 40.765625 64.40625 27.296875 
Q 64.40625 13.8125 56.46875 6.1875 
Q 48.53125 -1.421875 34.421875 -1.421875 
Q 20.265625 -1.421875 12.28125 6.1875 
Q 4.296875 13.8125 4.296875 27.296875 
Q 4.296875 40.765625 12.28125 48.375 
Q 20.265625 56 34.421875 56 
z
" id="DejaVuSans-Bold-111"/>
      <path d="M 44.390625 75.984375 
L 44.390625 64.5 
L 34.71875 64.5 
Q 31 64.5 29.53125 63.15625 
Q 28.078125 61.8125 28.078125 58.5 
L 28.078125 54.6875 
L 43.015625 54.6875 
L 43.015625 42.1875 
L 28.078125 42.1875 
L 28.078125 0 
L 10.59375 0 
L 10.59375 42.1875 
L 1.90625 42.1875 
L 1.90625 54.6875 
L 10.59375 54.6875 
L 10.59375 58.5 
Q 10.59375 67.4375 15.578125 71.703125 
Q 20.5625 75.984375 31 75.984375 
z
" id="DejaVuSans-Bold-102"/>
      <path d="M 25.875 7.90625 
L 25.875 -20.796875 
L 8.40625 -20.796875 
L 8.40625 54.6875 
L 25.875 54.6875 
L 25.875 46.6875 
Q 29.5 51.46875 33.890625 53.734375 
Q 38.28125 56 44 56 
Q 54.109375 56 60.59375 47.96875 
Q 67.09375 39.9375 67.09375 27.296875 
Q 67.09375 14.65625 60.59375 6.609375 
Q 54.109375 -1.421875 44 -1.421875 
Q 38.28125 -1.421875 33.890625 0.84375 
Q 29.5 3.125 25.875 7.90625 
z
M 37.5 43.3125 
Q 31.890625 43.3125 28.875 39.1875 
Q 25.875 35.0625 25.875 27.296875 
Q 25.875 19.53125 28.875 15.40625 
Q 31.890625 11.28125 37.5 11.28125 
Q 43.109375 11.28125 46.0625 15.375 
Q 49.03125 19.484375 49.03125 27.296875 
Q 49.03125 35.109375 46.0625 39.203125 
Q 43.109375 43.3125 37.5 43.3125 
z
" id="DejaVuSans-Bold-112"/>
      <path d="M 52.59375 52.984375 
L 52.59375 38.71875 
Q 49.03125 41.15625 45.4375 42.328125 
Q 41.84375 43.5 37.984375 43.5 
Q 30.671875 43.5 26.59375 39.234375 
Q 22.515625 34.96875 22.515625 27.296875 
Q 22.515625 19.625 26.59375 15.34375 
Q 30.671875 11.078125 37.984375 11.078125 
Q 42.09375 11.078125 45.78125 12.296875 
Q 49.46875 13.53125 52.59375 15.921875 
L 52.59375 1.609375 
Q 48.484375 0.09375 44.265625 -0.65625 
Q 40.046875 -1.421875 35.796875 -1.421875 
Q 21 -1.421875 12.640625 6.171875 
Q 4.296875 13.765625 4.296875 27.296875 
Q 4.296875 40.828125 12.640625 48.40625 
Q 21 56 35.796875 56 
Q 40.09375 56 44.265625 55.25 
Q 48.4375 54.5 52.59375 52.984375 
z
" id="DejaVuSans-Bold-99"/>
      <path d="M 51.125 52.984375 
L 51.125 39.703125 
Q 45.515625 42.046875 40.28125 43.21875 
Q 35.0625 44.390625 30.421875 44.390625 
Q 25.4375 44.390625 23.015625 43.140625 
Q 20.609375 41.890625 20.609375 39.3125 
Q 20.609375 37.203125 22.4375 36.078125 
Q 24.265625 34.96875 29 34.421875 
L 32.078125 33.984375 
Q 45.515625 32.28125 50.140625 28.375 
Q 54.78125 24.46875 54.78125 16.109375 
Q 54.78125 7.375 48.328125 2.96875 
Q 41.890625 -1.421875 29.109375 -1.421875 
Q 23.6875 -1.421875 17.890625 -0.5625 
Q 12.109375 0.296875 6 2 
L 6 15.28125 
Q 11.234375 12.75 16.71875 11.46875 
Q 22.21875 10.203125 27.875 10.203125 
Q 33.015625 10.203125 35.59375 11.609375 
Q 38.1875 13.03125 38.1875 15.828125 
Q 38.1875 18.171875 36.40625 19.3125 
Q 34.625 20.453125 29.296875 21.09375 
L 26.21875 21.484375 
Q 14.546875 22.953125 9.859375 26.90625 
Q 5.171875 30.859375 5.171875 38.921875 
Q 5.171875 47.609375 11.125 51.796875 
Q 17.09375 56 29.390625 56 
Q 34.234375 56 39.546875 55.265625 
Q 44.875 54.546875 51.125 52.984375 
z
" id="DejaVuSans-Bold-115"/>
      <path d="M 5.421875 35.890625 
L 36.078125 35.890625 
L 36.078125 21.6875 
L 5.421875 21.6875 
z
" id="DejaVuSans-Bold-45"/>
      <path d="M 9.1875 72.90625 
L 33.109375 72.90625 
L 49.703125 33.890625 
L 66.40625 72.90625 
L 90.28125 72.90625 
L 90.28125 0 
L 72.515625 0 
L 72.515625 53.328125 
L 55.71875 14.015625 
L 43.796875 14.015625 
L 27 53.328125 
L 27 0 
L 9.1875 0 
z
" id="DejaVuSans-Bold-77"/>
      <path d="M 9.1875 72.90625 
L 40.375 72.90625 
Q 54.296875 72.90625 61.734375 66.71875 
Q 69.1875 60.546875 69.1875 49.125 
Q 69.1875 37.640625 61.734375 31.46875 
Q 54.296875 25.296875 40.375 25.296875 
L 27.984375 25.296875 
L 27.984375 0 
L 9.1875 0 
z
M 27.984375 59.28125 
L 27.984375 38.921875 
L 38.375 38.921875 
Q 43.84375 38.921875 46.828125 41.578125 
Q 49.8125 44.234375 49.8125 49.125 
Q 49.8125 54 46.828125 56.640625 
Q 43.84375 59.28125 38.375 59.28125 
z
" id="DejaVuSans-Bold-80"/>
      <path d="M 9.1875 72.90625 
L 27.984375 72.90625 
L 27.984375 0 
L 9.1875 0 
z
" id="DejaVuSans-Bold-73"/>
      <path d="M 37.703125 -13.1875 
L 23.1875 -13.1875 
Q 15.71875 -1.125 12.15625 9.734375 
Q 8.59375 20.609375 8.59375 31.296875 
Q 8.59375 42 12.171875 52.953125 
Q 15.765625 63.921875 23.1875 75.875 
L 37.703125 75.875 
Q 31.453125 64.3125 28.328125 53.25 
Q 25.203125 42.1875 25.203125 31.390625 
Q 25.203125 20.609375 28.296875 9.515625 
Q 31.390625 -1.5625 37.703125 -13.1875 
z
" id="DejaVuSans-Bold-40"/>
      <path d="M 63.375 33.296875 
L 63.375 0 
L 45.796875 0 
L 45.796875 5.421875 
L 45.796875 25.484375 
Q 45.796875 32.5625 45.484375 35.25 
Q 45.171875 37.9375 44.390625 39.203125 
Q 43.359375 40.921875 41.59375 41.875 
Q 39.84375 42.828125 37.59375 42.828125 
Q 32.125 42.828125 29 38.59375 
Q 25.875 34.375 25.875 26.90625 
L 25.875 0 
L 8.40625 0 
L 8.40625 54.6875 
L 25.875 54.6875 
L 25.875 46.6875 
Q 29.828125 51.46875 34.265625 53.734375 
Q 38.71875 56 44.09375 56 
Q 53.5625 56 58.46875 50.1875 
Q 63.375 44.390625 63.375 33.296875 
z
" id="DejaVuSans-Bold-110"/>
      <path d="M 10.203125 18.890625 
L 27.78125 18.890625 
L 27.78125 0 
L 10.203125 0 
z
" id="DejaVuSans-Bold-46"/>
      <path d="M 45.609375 46.6875 
L 45.609375 75.984375 
L 63.1875 75.984375 
L 63.1875 0 
L 45.609375 0 
L 45.609375 7.90625 
Q 42 3.078125 37.640625 0.828125 
Q 33.296875 -1.421875 27.59375 -1.421875 
Q 17.484375 -1.421875 10.984375 6.609375 
Q 4.5 14.65625 4.5 27.296875 
Q 4.5 39.9375 10.984375 47.96875 
Q 17.484375 56 27.59375 56 
Q 33.25 56 37.625 53.734375 
Q 42 51.46875 45.609375 46.6875 
z
M 34.078125 11.28125 
Q 39.703125 11.28125 42.65625 15.375 
Q 45.609375 19.484375 45.609375 27.296875 
Q 45.609375 35.109375 42.65625 39.203125 
Q 39.703125 43.3125 34.078125 43.3125 
Q 28.515625 43.3125 25.5625 39.203125 
Q 22.609375 35.109375 22.609375 27.296875 
Q 22.609375 19.484375 25.5625 15.375 
Q 28.515625 11.28125 34.078125 11.28125 
z
" id="DejaVuSans-Bold-100"/>
      <path d="M 8.015625 -13.1875 
Q 14.265625 -1.5625 17.390625 9.515625 
Q 20.515625 20.609375 20.515625 31.390625 
Q 20.515625 42.1875 17.390625 53.25 
Q 14.265625 64.3125 8.015625 75.875 
L 22.515625 75.875 
Q 29.9375 63.921875 33.515625 52.953125 
Q 37.109375 42 37.109375 31.296875 
Q 37.109375 20.609375 33.546875 9.734375 
Q 29.984375 -1.125 22.515625 -13.1875 
z
" id="DejaVuSans-Bold-41"/>
      <path d="M 47.703125 62.703125 
L 47.703125 37.109375 
L 73.1875 37.109375 
L 73.1875 25.59375 
L 47.703125 25.59375 
L 47.703125 0 
L 36.078125 0 
L 36.078125 25.59375 
L 10.59375 25.59375 
L 10.59375 37.109375 
L 36.078125 37.109375 
L 36.078125 62.703125 
z
" id="DejaVuSans-Bold-43"/>
      <path d="M 42.484375 60.59375 
Q 33.890625 60.59375 29.15625 54.25 
Q 24.421875 47.90625 24.421875 36.375 
Q 24.421875 24.90625 29.15625 18.546875 
Q 33.890625 12.203125 42.484375 12.203125 
Q 51.125 12.203125 55.859375 18.546875 
Q 60.59375 24.90625 60.59375 36.375 
Q 60.59375 47.90625 55.859375 54.25 
Q 51.125 60.59375 42.484375 60.59375 
z
M 42.484375 74.21875 
Q 60.0625 74.21875 70.015625 64.15625 
Q 79.984375 54.109375 79.984375 36.375 
Q 79.984375 18.703125 70.015625 8.640625 
Q 60.0625 -1.421875 42.484375 -1.421875 
Q 24.953125 -1.421875 14.96875 8.640625 
Q 4.984375 18.703125 4.984375 36.375 
Q 4.984375 54.109375 14.96875 64.15625 
Q 24.953125 74.21875 42.484375 74.21875 
z
" id="DejaVuSans-Bold-79"/>
      <path d="M 27.484375 70.21875 
L 27.484375 54.6875 
L 45.515625 54.6875 
L 45.515625 42.1875 
L 27.484375 42.1875 
L 27.484375 19 
Q 27.484375 15.1875 29 13.84375 
Q 30.515625 12.5 35.015625 12.5 
L 44 12.5 
L 44 0 
L 29 0 
Q 18.65625 0 14.328125 4.3125 
Q 10.015625 8.640625 10.015625 19 
L 10.015625 42.1875 
L 1.3125 42.1875 
L 1.3125 54.6875 
L 10.015625 54.6875 
L 10.015625 70.21875 
z
" id="DejaVuSans-Bold-116"/>
      <path d="M 63.375 33.296875 
L 63.375 0 
L 45.796875 0 
L 45.796875 5.421875 
L 45.796875 25.390625 
Q 45.796875 32.5625 45.484375 35.25 
Q 45.171875 37.9375 44.390625 39.203125 
Q 43.359375 40.921875 41.59375 41.875 
Q 39.84375 42.828125 37.59375 42.828125 
Q 32.125 42.828125 29 38.59375 
Q 25.875 34.375 25.875 26.90625 
L 25.875 0 
L 8.40625 0 
L 8.40625 75.984375 
L 25.875 75.984375 
L 25.875 46.6875 
Q 29.828125 51.46875 34.265625 53.734375 
Q 38.71875 56 44.09375 56 
Q 53.5625 56 58.46875 50.1875 
Q 63.375 44.390625 63.375 33.296875 
z
" id="DejaVuSans-Bold-104"/>
      <path d="M 32.90625 24.609375 
Q 27.4375 24.609375 24.671875 22.75 
Q 21.921875 20.90625 21.921875 17.28125 
Q 21.921875 13.96875 24.140625 12.078125 
Q 26.375 10.203125 30.328125 10.203125 
Q 35.25 10.203125 38.625 13.734375 
Q 42 17.28125 42 22.609375 
L 42 24.609375 
z
M 59.625 31.203125 
L 59.625 0 
L 42 0 
L 42 8.109375 
Q 38.484375 3.125 34.078125 0.84375 
Q 29.6875 -1.421875 23.390625 -1.421875 
Q 14.890625 -1.421875 9.59375 3.53125 
Q 4.296875 8.5 4.296875 16.40625 
Q 4.296875 26.03125 10.90625 30.515625 
Q 17.53125 35.015625 31.6875 35.015625 
L 42 35.015625 
L 42 36.375 
Q 42 40.53125 38.71875 42.453125 
Q 35.453125 44.390625 28.515625 44.390625 
Q 22.90625 44.390625 18.0625 43.265625 
Q 13.234375 42.140625 9.078125 39.890625 
L 9.078125 53.21875 
Q 14.703125 54.59375 20.359375 55.296875 
Q 26.03125 56 31.6875 56 
Q 46.484375 56 53.046875 50.171875 
Q 59.625 44.34375 59.625 31.203125 
z
" id="DejaVuSans-Bold-97"/>
     </defs>
     <g style="fill:#1f77b4;" transform="translate(108.329375 1085.935938)scale(0.32 -0.32)">
      <use xlink:href="#DejaVuSans-Bold-78"/>
      <use x="83.691406" xlink:href="#DejaVuSans-Bold-117"/>
      <use x="154.882812" xlink:href="#DejaVuSans-Bold-109"/>
      <use x="259.082031" xlink:href="#DejaVuSans-Bold-98"/>
      <use x="330.664062" xlink:href="#DejaVuSans-Bold-101"/>
      <use x="398.486328" xlink:href="#DejaVuSans-Bold-114"/>
      <use x="447.802734" xlink:href="#DejaVuSans-Bold-32"/>
      <use x="482.617188" xlink:href="#DejaVuSans-Bold-111"/>
      <use x="551.318359" xlink:href="#DejaVuSans-Bold-102"/>
      <use x="594.824219" xlink:href="#DejaVuSans-Bold-32"/>
      <use x="629.638672" xlink:href="#DejaVuSans-Bold-112"/>
      <use x="701.220703" xlink:href="#DejaVuSans-Bold-114"/>
      <use x="750.537109" xlink:href="#DejaVuSans-Bold-111"/>
      <use x="819.238281" xlink:href="#DejaVuSans-Bold-99"/>
      <use x="878.515625" xlink:href="#DejaVuSans-Bold-101"/>
      <use x="946.337891" xlink:href="#DejaVuSans-Bold-115"/>
      <use x="1005.859375" xlink:href="#DejaVuSans-Bold-115"/>
      <use x="1065.380859" xlink:href="#DejaVuSans-Bold-101"/>
      <use x="1133.203125" xlink:href="#DejaVuSans-Bold-115"/>
      <use x="1192.724609" xlink:href="#DejaVuSans-Bold-32"/>
      <use x="1227.539062" xlink:href="#DejaVuSans-Bold-45"/>
      <use x="1269.042969" xlink:href="#DejaVuSans-Bold-32"/>
      <use x="1303.857422" xlink:href="#DejaVuSans-Bold-77"/>
      <use x="1403.369141" xlink:href="#DejaVuSans-Bold-80"/>
      <use x="1476.660156" xlink:href="#DejaVuSans-Bold-73"/>
      <use x="1513.867188" xlink:href="#DejaVuSans-Bold-32"/>
      <use x="1548.681641" xlink:href="#DejaVuSans-Bold-40"/>
      <use x="1594.384766" xlink:href="#DejaVuSans-Bold-110"/>
      <use x="1665.576172" xlink:href="#DejaVuSans-Bold-117"/>
      <use x="1736.767578" xlink:href="#DejaVuSans-Bold-109"/>
      <use x="1840.966797" xlink:href="#DejaVuSans-Bold-46"/>
      <use x="1878.955078" xlink:href="#DejaVuSans-Bold-32"/>
      <use x="1913.769531" xlink:href="#DejaVuSans-Bold-110"/>
      <use x="1984.960938" xlink:href="#DejaVuSans-Bold-111"/>
      <use x="2053.662109" xlink:href="#DejaVuSans-Bold-100"/>
      <use x="2125.244141" xlink:href="#DejaVuSans-Bold-101"/>
      <use x="2193.066406" xlink:href="#DejaVuSans-Bold-115"/>
      <use x="2252.587891" xlink:href="#DejaVuSans-Bold-41"/>
      <use x="2298.291016" xlink:href="#DejaVuSans-Bold-32"/>
      <use x="2333.105469" xlink:href="#DejaVuSans-Bold-43"/>
      <use x="2416.894531" xlink:href="#DejaVuSans-Bold-32"/>
      <use x="2451.708984" xlink:href="#DejaVuSans-Bold-79"/>
      <use x="2536.71875" xlink:href="#DejaVuSans-Bold-112"/>
      <use x="2608.300781" xlink:href="#DejaVuSans-Bold-101"/>
      <use x="2676.123047" xlink:href="#DejaVuSans-Bold-110"/>
      <use x="2747.314453" xlink:href="#DejaVuSans-Bold-77"/>
      <use x="2846.826172" xlink:href="#DejaVuSans-Bold-80"/>
      <use x="2920.117188" xlink:href="#DejaVuSans-Bold-32"/>
      <use x="2954.931641" xlink:href="#DejaVuSans-Bold-40"/>
      <use x="3000.634766" xlink:href="#DejaVuSans-Bold-110"/>
      <use x="3071.826172" xlink:href="#DejaVuSans-Bold-117"/>
      <use x="3143.017578" xlink:href="#DejaVuSans-Bold-109"/>
      <use x="3247.216797" xlink:href="#DejaVuSans-Bold-46"/>
      <use x="3285.205078" xlink:href="#DejaVuSans-Bold-32"/>
      <use x="3320.019531" xlink:href="#DejaVuSans-Bold-116"/>
      <use x="3367.822266" xlink:href="#DejaVuSans-Bold-104"/>
      <use x="3439.013672" xlink:href="#DejaVuSans-Bold-114"/>
      <use x="3488.330078" xlink:href="#DejaVuSans-Bold-101"/>
      <use x="3556.152344" xlink:href="#DejaVuSans-Bold-97"/>
      <use x="3623.632812" xlink:href="#DejaVuSans-Bold-100"/>
      <use x="3695.214844" xlink:href="#DejaVuSans-Bold-115"/>
      <use x="3754.736328" xlink:href="#DejaVuSans-Bold-41"/>
     </g>
    </g>
   </g>
   <g id="matplotlib.axis_2">
    <g id="ytick_1">
     <g id="line2d_61">
      <defs>
       <path d="M 0 0 
L -3.5 0 
" id="mba5ceafdc7" style="stroke:#000000;stroke-width:0.8;"/>
      </defs>
      <g>
       <use style="stroke:#000000;stroke-width:0.8;" x="111.441875" xlink:href="#mba5ceafdc7" y="929.6"/>
      </g>
     </g>
     <g id="text_31">
      <!-- 0.1 -->
      <defs>
       <path d="M 31.78125 66.40625 
Q 24.171875 66.40625 20.328125 58.90625 
Q 16.5 51.421875 16.5 36.375 
Q 16.5 21.390625 20.328125 13.890625 
Q 24.171875 6.390625 31.78125 6.390625 
Q 39.453125 6.390625 43.28125 13.890625 
Q 47.125 21.390625 47.125 36.375 
Q 47.125 51.421875 43.28125 58.90625 
Q 39.453125 66.40625 31.78125 66.40625 
z
M 31.78125 74.21875 
Q 44.046875 74.21875 50.515625 64.515625 
Q 56.984375 54.828125 56.984375 36.375 
Q 56.984375 17.96875 50.515625 8.265625 
Q 44.046875 -1.421875 31.78125 -1.421875 
Q 19.53125 -1.421875 13.0625 8.265625 
Q 6.59375 17.96875 6.59375 36.375 
Q 6.59375 54.828125 13.0625 64.515625 
Q 19.53125 74.21875 31.78125 74.21875 
z
" id="DejaVuSans-48"/>
       <path d="M 10.6875 12.40625 
L 21 12.40625 
L 21 0 
L 10.6875 0 
z
" id="DejaVuSans-46"/>
      </defs>
      <g transform="translate(50.37125 942.517344)scale(0.34 -0.34)">
       <use xlink:href="#DejaVuSans-48"/>
       <use x="63.623047" xlink:href="#DejaVuSans-46"/>
       <use x="95.410156" xlink:href="#DejaVuSans-49"/>
      </g>
     </g>
    </g>
    <g id="ytick_2">
     <g id="line2d_62">
      <g>
       <use style="stroke:#000000;stroke-width:0.8;" x="111.441875" xlink:href="#mba5ceafdc7" y="836.754621"/>
      </g>
     </g>
     <g id="text_32">
      <!-- 0.2 -->
      <g transform="translate(50.37125 849.671965)scale(0.34 -0.34)">
       <use xlink:href="#DejaVuSans-48"/>
       <use x="63.623047" xlink:href="#DejaVuSans-46"/>
       <use x="95.410156" xlink:href="#DejaVuSans-50"/>
      </g>
     </g>
    </g>
    <g id="ytick_3">
     <g id="line2d_63">
      <g>
       <use style="stroke:#000000;stroke-width:0.8;" x="111.441875" xlink:href="#mba5ceafdc7" y="743.909242"/>
      </g>
     </g>
     <g id="text_33">
      <!-- 0.3 -->
      <g transform="translate(50.37125 756.826586)scale(0.34 -0.34)">
       <use xlink:href="#DejaVuSans-48"/>
       <use x="63.623047" xlink:href="#DejaVuSans-46"/>
       <use x="95.410156" xlink:href="#DejaVuSans-51"/>
      </g>
     </g>
    </g>
    <g id="ytick_4">
     <g id="line2d_64">
      <g>
       <use style="stroke:#000000;stroke-width:0.8;" x="111.441875" xlink:href="#mba5ceafdc7" y="651.063863"/>
      </g>
     </g>
     <g id="text_34">
      <!-- 0.4 -->
      <g transform="translate(50.37125 663.981207)scale(0.34 -0.34)">
       <use xlink:href="#DejaVuSans-48"/>
       <use x="63.623047" xlink:href="#DejaVuSans-46"/>
       <use x="95.410156" xlink:href="#DejaVuSans-52"/>
      </g>
     </g>
    </g>
    <g id="ytick_5">
     <g id="line2d_65">
      <g>
       <use style="stroke:#000000;stroke-width:0.8;" x="111.441875" xlink:href="#mba5ceafdc7" y="558.218484"/>
      </g>
     </g>
     <g id="text_35">
      <!-- 0.5 -->
      <defs>
       <path d="M 10.796875 72.90625 
L 49.515625 72.90625 
L 49.515625 64.59375 
L 19.828125 64.59375 
L 19.828125 46.734375 
Q 21.96875 47.46875 24.109375 47.828125 
Q 26.265625 48.1875 28.421875 48.1875 
Q 40.625 48.1875 47.75 41.5 
Q 54.890625 34.8125 54.890625 23.390625 
Q 54.890625 11.625 47.5625 5.09375 
Q 40.234375 -1.421875 26.90625 -1.421875 
Q 22.3125 -1.421875 17.546875 -0.640625 
Q 12.796875 0.140625 7.71875 1.703125 
L 7.71875 11.625 
Q 12.109375 9.234375 16.796875 8.0625 
Q 21.484375 6.890625 26.703125 6.890625 
Q 35.15625 6.890625 40.078125 11.328125 
Q 45.015625 15.765625 45.015625 23.390625 
Q 45.015625 31 40.078125 35.4375 
Q 35.15625 39.890625 26.703125 39.890625 
Q 22.75 39.890625 18.8125 39.015625 
Q 14.890625 38.140625 10.796875 36.28125 
z
" id="DejaVuSans-53"/>
      </defs>
      <g transform="translate(50.37125 571.135828)scale(0.34 -0.34)">
       <use xlink:href="#DejaVuSans-48"/>
       <use x="63.623047" xlink:href="#DejaVuSans-46"/>
       <use x="95.410156" xlink:href="#DejaVuSans-53"/>
      </g>
     </g>
    </g>
    <g id="ytick_6">
     <g id="line2d_66">
      <g>
       <use style="stroke:#000000;stroke-width:0.8;" x="111.441875" xlink:href="#mba5ceafdc7" y="465.373105"/>
      </g>
     </g>
     <g id="text_36">
      <!-- 0.6 -->
      <g transform="translate(50.37125 478.290449)scale(0.34 -0.34)">
       <use xlink:href="#DejaVuSans-48"/>
       <use x="63.623047" xlink:href="#DejaVuSans-46"/>
       <use x="95.410156" xlink:href="#DejaVuSans-54"/>
      </g>
     </g>
    </g>
    <g id="ytick_7">
     <g id="line2d_67">
      <g>
       <use style="stroke:#000000;stroke-width:0.8;" x="111.441875" xlink:href="#mba5ceafdc7" y="372.527726"/>
      </g>
     </g>
     <g id="text_37">
      <!-- 0.7 -->
      <defs>
       <path d="M 8.203125 72.90625 
L 55.078125 72.90625 
L 55.078125 68.703125 
L 28.609375 0 
L 18.3125 0 
L 43.21875 64.59375 
L 8.203125 64.59375 
z
" id="DejaVuSans-55"/>
      </defs>
      <g transform="translate(50.37125 385.44507)scale(0.34 -0.34)">
       <use xlink:href="#DejaVuSans-48"/>
       <use x="63.623047" xlink:href="#DejaVuSans-46"/>
       <use x="95.410156" xlink:href="#DejaVuSans-55"/>
      </g>
     </g>
    </g>
    <g id="ytick_8">
     <g id="line2d_68">
      <g>
       <use style="stroke:#000000;stroke-width:0.8;" x="111.441875" xlink:href="#mba5ceafdc7" y="279.682347"/>
      </g>
     </g>
     <g id="text_38">
      <!-- 0.8 -->
      <g transform="translate(50.37125 292.599691)scale(0.34 -0.34)">
       <use xlink:href="#DejaVuSans-48"/>
       <use x="63.623047" xlink:href="#DejaVuSans-46"/>
       <use x="95.410156" xlink:href="#DejaVuSans-56"/>
      </g>
     </g>
    </g>
    <g id="ytick_9">
     <g id="line2d_69">
      <g>
       <use style="stroke:#000000;stroke-width:0.8;" x="111.441875" xlink:href="#mba5ceafdc7" y="186.836968"/>
      </g>
     </g>
     <g id="text_39">
      <!-- 0.9 -->
      <defs>
       <path d="M 10.984375 1.515625 
L 10.984375 10.5 
Q 14.703125 8.734375 18.5 7.8125 
Q 22.3125 6.890625 25.984375 6.890625 
Q 35.75 6.890625 40.890625 13.453125 
Q 46.046875 20.015625 46.78125 33.40625 
Q 43.953125 29.203125 39.59375 26.953125 
Q 35.25 24.703125 29.984375 24.703125 
Q 19.046875 24.703125 12.671875 31.3125 
Q 6.296875 37.9375 6.296875 49.421875 
Q 6.296875 60.640625 12.9375 67.421875 
Q 19.578125 74.21875 30.609375 74.21875 
Q 43.265625 74.21875 49.921875 64.515625 
Q 56.59375 54.828125 56.59375 36.375 
Q 56.59375 19.140625 48.40625 8.859375 
Q 40.234375 -1.421875 26.421875 -1.421875 
Q 22.703125 -1.421875 18.890625 -0.6875 
Q 15.09375 0.046875 10.984375 1.515625 
z
M 30.609375 32.421875 
Q 37.25 32.421875 41.125 36.953125 
Q 45.015625 41.5 45.015625 49.421875 
Q 45.015625 57.28125 41.125 61.84375 
Q 37.25 66.40625 30.609375 66.40625 
Q 23.96875 66.40625 20.09375 61.84375 
Q 16.21875 57.28125 16.21875 49.421875 
Q 16.21875 41.5 20.09375 36.953125 
Q 23.96875 32.421875 30.609375 32.421875 
z
" id="DejaVuSans-57"/>
      </defs>
      <g transform="translate(50.37125 199.754312)scale(0.34 -0.34)">
       <use xlink:href="#DejaVuSans-48"/>
       <use x="63.623047" xlink:href="#DejaVuSans-46"/>
       <use x="95.410156" xlink:href="#DejaVuSans-57"/>
      </g>
     </g>
    </g>
    <g id="ytick_10">
     <g id="line2d_70">
      <g>
       <use style="stroke:#000000;stroke-width:0.8;" x="111.441875" xlink:href="#mba5ceafdc7" y="93.991589"/>
      </g>
     </g>
     <g id="text_40">
      <!-- 1.0 -->
      <g transform="translate(50.37125 106.908933)scale(0.34 -0.34)">
       <use xlink:href="#DejaVuSans-49"/>
       <use x="63.623047" xlink:href="#DejaVuSans-46"/>
       <use x="95.410156" xlink:href="#DejaVuSans-48"/>
      </g>
     </g>
    </g>
    <g id="text_41">
     <!-- Efficiency -->
     <defs>
      <path d="M 9.1875 72.90625 
L 59.90625 72.90625 
L 59.90625 58.6875 
L 27.984375 58.6875 
L 27.984375 45.125 
L 58.015625 45.125 
L 58.015625 30.90625 
L 27.984375 30.90625 
L 27.984375 14.203125 
L 60.984375 14.203125 
L 60.984375 0 
L 9.1875 0 
z
" id="DejaVuSans-Bold-69"/>
      <path d="M 8.40625 54.6875 
L 25.875 54.6875 
L 25.875 0 
L 8.40625 0 
z
M 8.40625 75.984375 
L 25.875 75.984375 
L 25.875 61.71875 
L 8.40625 61.71875 
z
" id="DejaVuSans-Bold-105"/>
      <path d="M 1.21875 54.6875 
L 18.703125 54.6875 
L 33.40625 17.578125 
L 45.90625 54.6875 
L 63.375 54.6875 
L 40.375 -5.171875 
Q 36.921875 -14.3125 32.296875 -17.9375 
Q 27.6875 -21.578125 20.125 -21.578125 
L 10.015625 -21.578125 
L 10.015625 -10.109375 
L 15.484375 -10.109375 
Q 19.921875 -10.109375 21.9375 -8.6875 
Q 23.96875 -7.28125 25.09375 -3.609375 
L 25.59375 -2.09375 
z
" id="DejaVuSans-Bold-121"/>
     </defs>
     <g style="fill:#1f77b4;" transform="translate(33.034687 563.078906)rotate(-90)scale(0.34 -0.34)">
      <use xlink:href="#DejaVuSans-Bold-69"/>
      <use x="68.310547" xlink:href="#DejaVuSans-Bold-102"/>
      <use x="111.816406" xlink:href="#DejaVuSans-Bold-102"/>
      <use x="155.322266" xlink:href="#DejaVuSans-Bold-105"/>
      <use x="189.599609" xlink:href="#DejaVuSans-Bold-99"/>
      <use x="248.876953" xlink:href="#DejaVuSans-Bold-105"/>
      <use x="283.154297" xlink:href="#DejaVuSans-Bold-101"/>
      <use x="350.976562" xlink:href="#DejaVuSans-Bold-110"/>
      <use x="422.167969" xlink:href="#DejaVuSans-Bold-99"/>
      <use x="481.445312" xlink:href="#DejaVuSans-Bold-121"/>
     </g>
    </g>
   </g>
   <g id="line2d_71">
    <path clip-path="url(#pd0508fdf89)" d="M 111.441875 93.991589 
L 153.162565 116.08879 
L 194.883254 117.574316 
L 236.603944 406.044908 
L 278.324634 532.686005 
L 320.045323 623.210249 
L 361.766013 55.832139 
L 403.486703 92.041836 
L 445.207392 274.297315 
L 486.928082 442.440297 
L 528.648772 484.870635 
L 570.369461 625.160002 
L 612.090151 50.632797 
L 653.810841 69.201873 
L 695.53153 423.128458 
L 737.25222 467.230013 
L 778.972909 508.917588 
L 820.693599 635.001613 
L 862.414289 94.734352 
L 904.134978 304.564909 
L 945.855668 400.009958 
L 987.576358 488.862986 
L 1029.297047 522.658704 
L 1071.017737 678.174714 
L 1112.738427 365.750014 
L 1154.459116 263.805788 
L 1196.179806 422.849922 
L 1237.900496 661.276855 
L 1279.621185 849.288747 
" style="fill:none;stroke:#1f77b4;stroke-linecap:square;stroke-width:7.5;"/>
    <defs>
     <path d="M -11 11 
L 11 11 
L 11 -11 
L -11 -11 
z
" id="mf9a0196da1" style="stroke:#1f77b4;stroke-linejoin:miter;"/>
    </defs>
    <g clip-path="url(#pd0508fdf89)">
     <use style="fill:#1f77b4;stroke:#1f77b4;stroke-linejoin:miter;" x="111.441875" xlink:href="#mf9a0196da1" y="93.991589"/>
     <use style="fill:#1f77b4;stroke:#1f77b4;stroke-linejoin:miter;" x="153.162565" xlink:href="#mf9a0196da1" y="116.08879"/>
     <use style="fill:#1f77b4;stroke:#1f77b4;stroke-linejoin:miter;" x="194.883254" xlink:href="#mf9a0196da1" y="117.574316"/>
     <use style="fill:#1f77b4;stroke:#1f77b4;stroke-linejoin:miter;" x="236.603944" xlink:href="#mf9a0196da1" y="406.044908"/>
     <use style="fill:#1f77b4;stroke:#1f77b4;stroke-linejoin:miter;" x="278.324634" xlink:href="#mf9a0196da1" y="532.686005"/>
     <use style="fill:#1f77b4;stroke:#1f77b4;stroke-linejoin:miter;" x="320.045323" xlink:href="#mf9a0196da1" y="623.210249"/>
     <use style="fill:#1f77b4;stroke:#1f77b4;stroke-linejoin:miter;" x="361.766013" xlink:href="#mf9a0196da1" y="55.832139"/>
     <use style="fill:#1f77b4;stroke:#1f77b4;stroke-linejoin:miter;" x="403.486703" xlink:href="#mf9a0196da1" y="92.041836"/>
     <use style="fill:#1f77b4;stroke:#1f77b4;stroke-linejoin:miter;" x="445.207392" xlink:href="#mf9a0196da1" y="274.297315"/>
     <use style="fill:#1f77b4;stroke:#1f77b4;stroke-linejoin:miter;" x="486.928082" xlink:href="#mf9a0196da1" y="442.440297"/>
     <use style="fill:#1f77b4;stroke:#1f77b4;stroke-linejoin:miter;" x="528.648772" xlink:href="#mf9a0196da1" y="484.870635"/>
     <use style="fill:#1f77b4;stroke:#1f77b4;stroke-linejoin:miter;" x="570.369461" xlink:href="#mf9a0196da1" y="625.160002"/>
     <use style="fill:#1f77b4;stroke:#1f77b4;stroke-linejoin:miter;" x="612.090151" xlink:href="#mf9a0196da1" y="50.632797"/>
     <use style="fill:#1f77b4;stroke:#1f77b4;stroke-linejoin:miter;" x="653.810841" xlink:href="#mf9a0196da1" y="69.201873"/>
     <use style="fill:#1f77b4;stroke:#1f77b4;stroke-linejoin:miter;" x="695.53153" xlink:href="#mf9a0196da1" y="423.128458"/>
     <use style="fill:#1f77b4;stroke:#1f77b4;stroke-linejoin:miter;" x="737.25222" xlink:href="#mf9a0196da1" y="467.230013"/>
     <use style="fill:#1f77b4;stroke:#1f77b4;stroke-linejoin:miter;" x="778.972909" xlink:href="#mf9a0196da1" y="508.917588"/>
     <use style="fill:#1f77b4;stroke:#1f77b4;stroke-linejoin:miter;" x="820.693599" xlink:href="#mf9a0196da1" y="635.001613"/>
     <use style="fill:#1f77b4;stroke:#1f77b4;stroke-linejoin:miter;" x="862.414289" xlink:href="#mf9a0196da1" y="94.734352"/>
     <use style="fill:#1f77b4;stroke:#1f77b4;stroke-linejoin:miter;" x="904.134978" xlink:href="#mf9a0196da1" y="304.564909"/>
     <use style="fill:#1f77b4;stroke:#1f77b4;stroke-linejoin:miter;" x="945.855668" xlink:href="#mf9a0196da1" y="400.009958"/>
     <use style="fill:#1f77b4;stroke:#1f77b4;stroke-linejoin:miter;" x="987.576358" xlink:href="#mf9a0196da1" y="488.862986"/>
     <use style="fill:#1f77b4;stroke:#1f77b4;stroke-linejoin:miter;" x="1029.297047" xlink:href="#mf9a0196da1" y="522.658704"/>
     <use style="fill:#1f77b4;stroke:#1f77b4;stroke-linejoin:miter;" x="1071.017737" xlink:href="#mf9a0196da1" y="678.174714"/>
     <use style="fill:#1f77b4;stroke:#1f77b4;stroke-linejoin:miter;" x="1112.738427" xlink:href="#mf9a0196da1" y="365.750014"/>
     <use style="fill:#1f77b4;stroke:#1f77b4;stroke-linejoin:miter;" x="1154.459116" xlink:href="#mf9a0196da1" y="263.805788"/>
     <use style="fill:#1f77b4;stroke:#1f77b4;stroke-linejoin:miter;" x="1196.179806" xlink:href="#mf9a0196da1" y="422.849922"/>
     <use style="fill:#1f77b4;stroke:#1f77b4;stroke-linejoin:miter;" x="1237.900496" xlink:href="#mf9a0196da1" y="661.276855"/>
     <use style="fill:#1f77b4;stroke:#1f77b4;stroke-linejoin:miter;" x="1279.621185" xlink:href="#mf9a0196da1" y="849.288747"/>
    </g>
   </g>
   <g id="line2d_72">
    <path clip-path="url(#pd0508fdf89)" d="M 111.441875 93.991589 
L 153.162565 99.933694 
L 194.883254 103.8332 
L 236.603944 150.905807 
L 278.324634 415.515137 
L 320.045323 430.370397 
L 361.766013 54.903685 
L 403.486703 56.760592 
L 445.207392 80.900391 
L 486.928082 411.708476 
L 528.648772 444.018668 
L 570.369461 526.465365 
L 612.090151 52.304014 
L 653.810841 60.381562 
L 695.53153 287.295668 
L 737.25222 291.009484 
L 778.972909 390.53973 
L 820.693599 373.363335 
L 862.414289 74.122678 
L 904.134978 322.298376 
L 945.855668 343.838504 
L 987.576358 480.878284 
L 1029.297047 829.419836 
L 1071.017737 348.016546 
L 1112.738427 363.336034 
L 1154.459116 252.757187 
L 1196.179806 316.263427 
L 1237.900496 798.038098 
L 1279.621185 822.734969 
" style="fill:none;stroke:#ff7f0e;stroke-linecap:square;stroke-width:7.5;"/>
    <defs>
     <path d="M -5.5 11 
L 0 5.5 
L 5.5 11 
L 11 5.5 
L 5.5 0 
L 11 -5.5 
L 5.5 -11 
L 0 -5.5 
L -5.5 -11 
L -11 -5.5 
L -5.5 0 
L -11 5.5 
z
" id="mb781c89f0a" style="stroke:#ff7f0e;stroke-linejoin:miter;"/>
    </defs>
    <g clip-path="url(#pd0508fdf89)">
     <use style="fill:#ff7f0e;stroke:#ff7f0e;stroke-linejoin:miter;" x="111.441875" xlink:href="#mb781c89f0a" y="93.991589"/>
     <use style="fill:#ff7f0e;stroke:#ff7f0e;stroke-linejoin:miter;" x="153.162565" xlink:href="#mb781c89f0a" y="99.933694"/>
     <use style="fill:#ff7f0e;stroke:#ff7f0e;stroke-linejoin:miter;" x="194.883254" xlink:href="#mb781c89f0a" y="103.8332"/>
     <use style="fill:#ff7f0e;stroke:#ff7f0e;stroke-linejoin:miter;" x="236.603944" xlink:href="#mb781c89f0a" y="150.905807"/>
     <use style="fill:#ff7f0e;stroke:#ff7f0e;stroke-linejoin:miter;" x="278.324634" xlink:href="#mb781c89f0a" y="415.515137"/>
     <use style="fill:#ff7f0e;stroke:#ff7f0e;stroke-linejoin:miter;" x="320.045323" xlink:href="#mb781c89f0a" y="430.370397"/>
     <use style="fill:#ff7f0e;stroke:#ff7f0e;stroke-linejoin:miter;" x="361.766013" xlink:href="#mb781c89f0a" y="54.903685"/>
     <use style="fill:#ff7f0e;stroke:#ff7f0e;stroke-linejoin:miter;" x="403.486703" xlink:href="#mb781c89f0a" y="56.760592"/>
     <use style="fill:#ff7f0e;stroke:#ff7f0e;stroke-linejoin:miter;" x="445.207392" xlink:href="#mb781c89f0a" y="80.900391"/>
     <use style="fill:#ff7f0e;stroke:#ff7f0e;stroke-linejoin:miter;" x="486.928082" xlink:href="#mb781c89f0a" y="411.708476"/>
     <use style="fill:#ff7f0e;stroke:#ff7f0e;stroke-linejoin:miter;" x="528.648772" xlink:href="#mb781c89f0a" y="444.018668"/>
     <use style="fill:#ff7f0e;stroke:#ff7f0e;stroke-linejoin:miter;" x="570.369461" xlink:href="#mb781c89f0a" y="526.465365"/>
     <use style="fill:#ff7f0e;stroke:#ff7f0e;stroke-linejoin:miter;" x="612.090151" xlink:href="#mb781c89f0a" y="52.304014"/>
     <use style="fill:#ff7f0e;stroke:#ff7f0e;stroke-linejoin:miter;" x="653.810841" xlink:href="#mb781c89f0a" y="60.381562"/>
     <use style="fill:#ff7f0e;stroke:#ff7f0e;stroke-linejoin:miter;" x="695.53153" xlink:href="#mb781c89f0a" y="287.295668"/>
     <use style="fill:#ff7f0e;stroke:#ff7f0e;stroke-linejoin:miter;" x="737.25222" xlink:href="#mb781c89f0a" y="291.009484"/>
     <use style="fill:#ff7f0e;stroke:#ff7f0e;stroke-linejoin:miter;" x="778.972909" xlink:href="#mb781c89f0a" y="390.53973"/>
     <use style="fill:#ff7f0e;stroke:#ff7f0e;stroke-linejoin:miter;" x="820.693599" xlink:href="#mb781c89f0a" y="373.363335"/>
     <use style="fill:#ff7f0e;stroke:#ff7f0e;stroke-linejoin:miter;" x="862.414289" xlink:href="#mb781c89f0a" y="74.122678"/>
     <use style="fill:#ff7f0e;stroke:#ff7f0e;stroke-linejoin:miter;" x="904.134978" xlink:href="#mb781c89f0a" y="322.298376"/>
     <use style="fill:#ff7f0e;stroke:#ff7f0e;stroke-linejoin:miter;" x="945.855668" xlink:href="#mb781c89f0a" y="343.838504"/>
     <use style="fill:#ff7f0e;stroke:#ff7f0e;stroke-linejoin:miter;" x="987.576358" xlink:href="#mb781c89f0a" y="480.878284"/>
     <use style="fill:#ff7f0e;stroke:#ff7f0e;stroke-linejoin:miter;" x="1029.297047" xlink:href="#mb781c89f0a" y="829.419836"/>
     <use style="fill:#ff7f0e;stroke:#ff7f0e;stroke-linejoin:miter;" x="1071.017737" xlink:href="#mb781c89f0a" y="348.016546"/>
     <use style="fill:#ff7f0e;stroke:#ff7f0e;stroke-linejoin:miter;" x="1112.738427" xlink:href="#mb781c89f0a" y="363.336034"/>
     <use style="fill:#ff7f0e;stroke:#ff7f0e;stroke-linejoin:miter;" x="1154.459116" xlink:href="#mb781c89f0a" y="252.757187"/>
     <use style="fill:#ff7f0e;stroke:#ff7f0e;stroke-linejoin:miter;" x="1196.179806" xlink:href="#mb781c89f0a" y="316.263427"/>
     <use style="fill:#ff7f0e;stroke:#ff7f0e;stroke-linejoin:miter;" x="1237.900496" xlink:href="#mb781c89f0a" y="798.038098"/>
     <use style="fill:#ff7f0e;stroke:#ff7f0e;stroke-linejoin:miter;" x="1279.621185" xlink:href="#mb781c89f0a" y="822.734969"/>
    </g>
   </g>
   <g id="line2d_73">
    <path clip-path="url(#pd0508fdf89)" d="M 111.441875 93.991589 
L 153.162565 85.078433 
L 194.883254 83.12868 
L 236.603944 94.270126 
L 278.324634 217.290253 
L 320.045323 349.223536 
L 361.766013 61.310016 
L 403.486703 65.580903 
L 445.207392 62.888388 
L 486.928082 148.863208 
L 528.648772 193.614681 
L 570.369461 289.802494 
L 612.090151 54.99653 
L 653.810841 64.281068 
L 695.53153 131.872504 
L 737.25222 146.077847 
L 778.972909 245.608093 
L 820.693599 434.455594 
L 862.414289 62.609851 
L 904.134978 132.15104 
L 945.855668 133.543721 
L 987.576358 170.031955 
L 1029.297047 395.181999 
L 1071.017737 450.239308 
L 1112.738427 82.107381 
L 1154.459116 152.669869 
L 1196.179806 193.150454 
L 1237.900496 258.420756 
L 1279.621185 259.720591 
" style="fill:none;stroke:#2ca02c;stroke-linecap:square;stroke-width:7.5;"/>
    <defs>
     <path d="M 0 11 
C 2.917234 11 5.715379 9.840971 7.778175 7.778175 
C 9.840971 5.715379 11 2.917234 11 0 
C 11 -2.917234 9.840971 -5.715379 7.778175 -7.778175 
C 5.715379 -9.840971 2.917234 -11 0 -11 
C -2.917234 -11 -5.715379 -9.840971 -7.778175 -7.778175 
C -9.840971 -5.715379 -11 -2.917234 -11 0 
C -11 2.917234 -9.840971 5.715379 -7.778175 7.778175 
C -5.715379 9.840971 -2.917234 11 0 11 
z
" id="m2a7f1e8661" style="stroke:#2ca02c;"/>
    </defs>
    <g clip-path="url(#pd0508fdf89)">
     <use style="fill:#2ca02c;stroke:#2ca02c;" x="111.441875" xlink:href="#m2a7f1e8661" y="93.991589"/>
     <use style="fill:#2ca02c;stroke:#2ca02c;" x="153.162565" xlink:href="#m2a7f1e8661" y="85.078433"/>
     <use style="fill:#2ca02c;stroke:#2ca02c;" x="194.883254" xlink:href="#m2a7f1e8661" y="83.12868"/>
     <use style="fill:#2ca02c;stroke:#2ca02c;" x="236.603944" xlink:href="#m2a7f1e8661" y="94.270126"/>
     <use style="fill:#2ca02c;stroke:#2ca02c;" x="278.324634" xlink:href="#m2a7f1e8661" y="217.290253"/>
     <use style="fill:#2ca02c;stroke:#2ca02c;" x="320.045323" xlink:href="#m2a7f1e8661" y="349.223536"/>
     <use style="fill:#2ca02c;stroke:#2ca02c;" x="361.766013" xlink:href="#m2a7f1e8661" y="61.310016"/>
     <use style="fill:#2ca02c;stroke:#2ca02c;" x="403.486703" xlink:href="#m2a7f1e8661" y="65.580903"/>
     <use style="fill:#2ca02c;stroke:#2ca02c;" x="445.207392" xlink:href="#m2a7f1e8661" y="62.888388"/>
     <use style="fill:#2ca02c;stroke:#2ca02c;" x="486.928082" xlink:href="#m2a7f1e8661" y="148.863208"/>
     <use style="fill:#2ca02c;stroke:#2ca02c;" x="528.648772" xlink:href="#m2a7f1e8661" y="193.614681"/>
     <use style="fill:#2ca02c;stroke:#2ca02c;" x="570.369461" xlink:href="#m2a7f1e8661" y="289.802494"/>
     <use style="fill:#2ca02c;stroke:#2ca02c;" x="612.090151" xlink:href="#m2a7f1e8661" y="54.99653"/>
     <use style="fill:#2ca02c;stroke:#2ca02c;" x="653.810841" xlink:href="#m2a7f1e8661" y="64.281068"/>
     <use style="fill:#2ca02c;stroke:#2ca02c;" x="695.53153" xlink:href="#m2a7f1e8661" y="131.872504"/>
     <use style="fill:#2ca02c;stroke:#2ca02c;" x="737.25222" xlink:href="#m2a7f1e8661" y="146.077847"/>
     <use style="fill:#2ca02c;stroke:#2ca02c;" x="778.972909" xlink:href="#m2a7f1e8661" y="245.608093"/>
     <use style="fill:#2ca02c;stroke:#2ca02c;" x="820.693599" xlink:href="#m2a7f1e8661" y="434.455594"/>
     <use style="fill:#2ca02c;stroke:#2ca02c;" x="862.414289" xlink:href="#m2a7f1e8661" y="62.609851"/>
     <use style="fill:#2ca02c;stroke:#2ca02c;" x="904.134978" xlink:href="#m2a7f1e8661" y="132.15104"/>
     <use style="fill:#2ca02c;stroke:#2ca02c;" x="945.855668" xlink:href="#m2a7f1e8661" y="133.543721"/>
     <use style="fill:#2ca02c;stroke:#2ca02c;" x="987.576358" xlink:href="#m2a7f1e8661" y="170.031955"/>
     <use style="fill:#2ca02c;stroke:#2ca02c;" x="1029.297047" xlink:href="#m2a7f1e8661" y="395.181999"/>
     <use style="fill:#2ca02c;stroke:#2ca02c;" x="1071.017737" xlink:href="#m2a7f1e8661" y="450.239308"/>
     <use style="fill:#2ca02c;stroke:#2ca02c;" x="1112.738427" xlink:href="#m2a7f1e8661" y="82.107381"/>
     <use style="fill:#2ca02c;stroke:#2ca02c;" x="1154.459116" xlink:href="#m2a7f1e8661" y="152.669869"/>
     <use style="fill:#2ca02c;stroke:#2ca02c;" x="1196.179806" xlink:href="#m2a7f1e8661" y="193.150454"/>
     <use style="fill:#2ca02c;stroke:#2ca02c;" x="1237.900496" xlink:href="#m2a7f1e8661" y="258.420756"/>
     <use style="fill:#2ca02c;stroke:#2ca02c;" x="1279.621185" xlink:href="#m2a7f1e8661" y="259.720591"/>
    </g>
   </g>
   <g id="line2d_74">
    <path clip-path="url(#pd0508fdf89)" d="M 111.441875 93.991589 
L 361.766013 55.832139 
L 612.090151 50.632797 
L 862.414289 94.734352 
L 1154.459116 263.805788 
" style="fill:none;"/>
   </g>
   <g id="line2d_75">
    <path clip-path="url(#pd0508fdf89)" d="M 111.441875 93.991589 
L 361.766013 54.903685 
L 612.090151 52.304014 
L 862.414289 74.122678 
L 1154.459116 252.757187 
" style="fill:none;"/>
   </g>
   <g id="line2d_76">
    <path clip-path="url(#pd0508fdf89)" d="M 194.883254 83.12868 
L 361.766013 61.310016 
L 612.090151 54.99653 
L 862.414289 62.609851 
L 1112.738427 82.107381 
" style="fill:none;"/>
   </g>
   <g id="line2d_77">
    <path clip-path="url(#pd0508fdf89)" d="M 111.441875 929.6 
L 111.441875 10.7 
" style="fill:none;stroke:#000000;stroke-linecap:square;stroke-width:1.2;"/>
   </g>
   <g id="line2d_78">
    <path clip-path="url(#pd0508fdf89)" d="M 361.766013 929.6 
L 361.766013 10.7 
" style="fill:none;stroke:#000000;stroke-linecap:square;stroke-width:1.2;"/>
   </g>
   <g id="line2d_79">
    <path clip-path="url(#pd0508fdf89)" d="M 612.090151 929.6 
L 612.090151 10.7 
" style="fill:none;stroke:#000000;stroke-linecap:square;stroke-width:1.2;"/>
   </g>
   <g id="line2d_80">
    <path clip-path="url(#pd0508fdf89)" d="M 862.414289 929.6 
L 862.414289 10.7 
" style="fill:none;stroke:#000000;stroke-linecap:square;stroke-width:1.2;"/>
   </g>
   <g id="line2d_81">
    <path clip-path="url(#pd0508fdf89)" d="M 1112.738427 929.6 
L 1112.738427 10.7 
" style="fill:none;stroke:#000000;stroke-linecap:square;stroke-width:1.2;"/>
   </g>
   <g id="line2d_82">
    <path clip-path="url(#pd0508fdf89)" d="M 1154.459116 929.6 
L 1154.459116 10.7 
" style="fill:none;stroke:#000000;stroke-linecap:square;stroke-width:1.2;"/>
   </g>
   <g id="line2d_83">
    <path clip-path="url(#pd0508fdf89)" d="M 111.441875 93.991589 
L 1321.341875 93.991589 
" style="fill:none;stroke:#696969;stroke-dasharray:2,3.3;stroke-dashoffset:0;stroke-width:2;"/>
   </g>
   <g id="line2d_84">
    <path clip-path="url(#pd0508fdf89)" d="M 111.441875 55.832139 
L 1321.341875 55.832139 
" style="fill:none;stroke:#696969;stroke-dasharray:2,3.3;stroke-dashoffset:0;stroke-width:2;"/>
   </g>
   <g id="line2d_85">
    <path clip-path="url(#pd0508fdf89)" d="M 111.441875 50.632797 
L 1321.341875 50.632797 
" style="fill:none;stroke:#696969;stroke-dasharray:2,3.3;stroke-dashoffset:0;stroke-width:2;"/>
   </g>
   <g id="line2d_86">
    <path clip-path="url(#pd0508fdf89)" d="M 111.441875 94.734352 
L 1321.341875 94.734352 
" style="fill:none;stroke:#696969;stroke-dasharray:2,3.3;stroke-dashoffset:0;stroke-width:2;"/>
   </g>
   <g id="line2d_87">
    <path clip-path="url(#pd0508fdf89)" d="M 111.441875 263.805788 
L 1321.341875 263.805788 
" style="fill:none;stroke:#696969;stroke-dasharray:2,3.3;stroke-dashoffset:0;stroke-width:2;"/>
   </g>
   <g id="line2d_88">
    <path clip-path="url(#pd0508fdf89)" d="M 111.441875 93.991589 
L 1321.341875 93.991589 
" style="fill:none;stroke:#696969;stroke-dasharray:2,3.3;stroke-dashoffset:0;stroke-width:2;"/>
   </g>
   <g id="line2d_89">
    <path clip-path="url(#pd0508fdf89)" d="M 111.441875 54.903685 
L 1321.341875 54.903685 
" style="fill:none;stroke:#696969;stroke-dasharray:2,3.3;stroke-dashoffset:0;stroke-width:2;"/>
   </g>
   <g id="line2d_90">
    <path clip-path="url(#pd0508fdf89)" d="M 111.441875 52.304014 
L 1321.341875 52.304014 
" style="fill:none;stroke:#696969;stroke-dasharray:2,3.3;stroke-dashoffset:0;stroke-width:2;"/>
   </g>
   <g id="line2d_91">
    <path clip-path="url(#pd0508fdf89)" d="M 111.441875 74.122678 
L 1321.341875 74.122678 
" style="fill:none;stroke:#696969;stroke-dasharray:2,3.3;stroke-dashoffset:0;stroke-width:2;"/>
   </g>
   <g id="line2d_92">
    <path clip-path="url(#pd0508fdf89)" d="M 111.441875 252.757187 
L 1321.341875 252.757187 
" style="fill:none;stroke:#696969;stroke-dasharray:2,3.3;stroke-dashoffset:0;stroke-width:2;"/>
   </g>
   <g id="line2d_93">
    <path clip-path="url(#pd0508fdf89)" d="M 111.441875 83.12868 
L 1321.341875 83.12868 
" style="fill:none;stroke:#696969;stroke-dasharray:2,3.3;stroke-dashoffset:0;stroke-width:2;"/>
   </g>
   <g id="line2d_94">
    <path clip-path="url(#pd0508fdf89)" d="M 111.441875 61.310016 
L 1321.341875 61.310016 
" style="fill:none;stroke:#696969;stroke-dasharray:2,3.3;stroke-dashoffset:0;stroke-width:2;"/>
   </g>
   <g id="line2d_95">
    <path clip-path="url(#pd0508fdf89)" d="M 111.441875 54.99653 
L 1321.341875 54.99653 
" style="fill:none;stroke:#696969;stroke-dasharray:2,3.3;stroke-dashoffset:0;stroke-width:2;"/>
   </g>
   <g id="line2d_96">
    <path clip-path="url(#pd0508fdf89)" d="M 111.441875 62.609851 
L 1321.341875 62.609851 
" style="fill:none;stroke:#696969;stroke-dasharray:2,3.3;stroke-dashoffset:0;stroke-width:2;"/>
   </g>
   <g id="line2d_97">
    <path clip-path="url(#pd0508fdf89)" d="M 111.441875 82.107381 
L 1321.341875 82.107381 
" style="fill:none;stroke:#696969;stroke-dasharray:2,3.3;stroke-dashoffset:0;stroke-width:2;"/>
   </g>
   <g id="patch_3">
    <path d="M 111.441875 929.6 
L 111.441875 10.7 
" style="fill:none;stroke:#000000;stroke-linecap:square;stroke-linejoin:miter;stroke-width:2;"/>
   </g>
   <g id="patch_4">
    <path d="M 1321.341875 929.6 
L 1321.341875 10.7 
" style="fill:none;stroke:#000000;stroke-linecap:square;stroke-linejoin:miter;stroke-width:2;"/>
   </g>
   <g id="patch_5">
    <path d="M 111.441875 929.6 
L 1321.341875 929.6 
" style="fill:none;stroke:#000000;stroke-linecap:square;stroke-linejoin:miter;stroke-width:2;"/>
   </g>
   <g id="patch_6">
    <path d="M 111.441875 10.7 
L 1321.341875 10.7 
" style="fill:none;stroke:#000000;stroke-linecap:square;stroke-linejoin:miter;stroke-width:2;"/>
   </g>
   <g id="legend_1">
    <g id="patch_7">
     <path d="M 142.439875 865.277 
L 293.373312 865.277 
Q 300.173313 865.277 300.173313 858.477 
L 300.173313 712.160125 
Q 300.173313 705.360125 293.373312 705.360125 
L 142.439875 705.360125 
Q 135.639875 705.360125 135.639875 712.160125 
L 135.639875 858.477 
Q 135.639875 865.277 142.439875 865.277 
z
" style="fill:#ffffff;opacity:0.8;stroke:#cccccc;stroke-linejoin:miter;"/>
    </g>
    <g id="line2d_98">
     <path d="M 149.239875 732.894813 
L 217.239875 732.894813 
" style="fill:none;stroke:#1f77b4;stroke-linecap:square;stroke-width:7.5;"/>
    </g>
    <g id="line2d_99">
     <g>
      <use style="fill:#1f77b4;stroke:#1f77b4;stroke-linejoin:miter;" x="183.239875" xlink:href="#mf9a0196da1" y="732.894813"/>
     </g>
    </g>
    <g id="text_42">
     <!-- P1 -->
     <defs>
      <path d="M 19.671875 64.796875 
L 19.671875 37.40625 
L 32.078125 37.40625 
Q 38.96875 37.40625 42.71875 40.96875 
Q 46.484375 44.53125 46.484375 51.125 
Q 46.484375 57.671875 42.71875 61.234375 
Q 38.96875 64.796875 32.078125 64.796875 
z
M 9.8125 72.90625 
L 32.078125 72.90625 
Q 44.34375 72.90625 50.609375 67.359375 
Q 56.890625 61.8125 56.890625 51.125 
Q 56.890625 40.328125 50.609375 34.8125 
Q 44.34375 29.296875 32.078125 29.296875 
L 19.671875 29.296875 
L 19.671875 0 
L 9.8125 0 
z
" id="DejaVuSans-80"/>
     </defs>
     <g transform="translate(244.439875 744.794813)scale(0.34 -0.34)">
      <use xlink:href="#DejaVuSans-80"/>
      <use x="60.302734" xlink:href="#DejaVuSans-49"/>
     </g>
    </g>
    <g id="line2d_100">
     <path d="M 149.239875 782.800438 
L 217.239875 782.800438 
" style="fill:none;stroke:#ff7f0e;stroke-linecap:square;stroke-width:7.5;"/>
    </g>
    <g id="line2d_101">
     <g>
      <use style="fill:#ff7f0e;stroke:#ff7f0e;stroke-linejoin:miter;" x="183.239875" xlink:href="#mb781c89f0a" y="782.800438"/>
     </g>
    </g>
    <g id="text_43">
     <!-- P2 -->
     <g transform="translate(244.439875 794.700438)scale(0.34 -0.34)">
      <use xlink:href="#DejaVuSans-80"/>
      <use x="60.302734" xlink:href="#DejaVuSans-50"/>
     </g>
    </g>
    <g id="line2d_102">
     <path d="M 149.239875 832.706063 
L 217.239875 832.706063 
" style="fill:none;stroke:#2ca02c;stroke-linecap:square;stroke-width:7.5;"/>
    </g>
    <g id="line2d_103">
     <g>
      <use style="fill:#2ca02c;stroke:#2ca02c;" x="183.239875" xlink:href="#m2a7f1e8661" y="832.706063"/>
     </g>
    </g>
    <g id="text_44">
     <!-- P4 -->
     <g transform="translate(244.439875 844.606063)scale(0.34 -0.34)">
      <use xlink:href="#DejaVuSans-80"/>
      <use x="60.302734" xlink:href="#DejaVuSans-52"/>
     </g>
    </g>
   </g>
  </g>
 </g>
 <defs>
  <clipPath id="pd0508fdf89">
   <rect height="918.9" width="1209.9" x="111.441875" y="10.7"/>
  </clipPath>
 </defs>
</svg>
