%!PS-Adobe-2.0 EPSF-2.0
%%Title: hexacoord.fig
%%Creator: fig2dev Version 3.1 Patchlevel 2
%%CreationDate: Mon Jul 12 13:43:43 2004
%%For: marianav@lumina.dpm.fem.unicamp.br (Mariana Godoy Vazquez,12/08/03,12/08/02,DPM,posgrad,Marco Lucio Bittencourt)
%Magnification: 1.00
%%Orientation: Portrait
%%BoundingBox: 0 0 236 183
%%Pages: 0
%%BeginSetup
%%IncludeFeature: *PageSize A4
%%EndSetup
%%EndComments
/$F2psDict 200 dict def
$F2psDict begin
$F2psDict /mtrx matrix put
/col-1 {0 setgray} bind def
/col0 {0.000 0.000 0.000 srgb} bind def
/col1 {0.000 0.000 1.000 srgb} bind def
/col2 {0.000 1.000 0.000 srgb} bind def
/col3 {0.000 1.000 1.000 srgb} bind def
/col4 {1.000 0.000 0.000 srgb} bind def
/col5 {1.000 0.000 1.000 srgb} bind def
/col6 {1.000 1.000 0.000 srgb} bind def
/col7 {1.000 1.000 1.000 srgb} bind def
/col8 {0.000 0.000 0.560 srgb} bind def
/col9 {0.000 0.000 0.690 srgb} bind def
/col10 {0.000 0.000 0.820 srgb} bind def
/col11 {0.530 0.810 1.000 srgb} bind def
/col12 {0.000 0.560 0.000 srgb} bind def
/col13 {0.000 0.690 0.000 srgb} bind def
/col14 {0.000 0.820 0.000 srgb} bind def
/col15 {0.000 0.560 0.560 srgb} bind def
/col16 {0.000 0.690 0.690 srgb} bind def
/col17 {0.000 0.820 0.820 srgb} bind def
/col18 {0.560 0.000 0.000 srgb} bind def
/col19 {0.690 0.000 0.000 srgb} bind def
/col20 {0.820 0.000 0.000 srgb} bind def
/col21 {0.560 0.000 0.560 srgb} bind def
/col22 {0.690 0.000 0.690 srgb} bind def
/col23 {0.820 0.000 0.820 srgb} bind def
/col24 {0.500 0.190 0.000 srgb} bind def
/col25 {0.630 0.250 0.000 srgb} bind def
/col26 {0.750 0.380 0.000 srgb} bind def
/col27 {1.000 0.500 0.500 srgb} bind def
/col28 {1.000 0.630 0.630 srgb} bind def
/col29 {1.000 0.750 0.750 srgb} bind def
/col30 {1.000 0.880 0.880 srgb} bind def
/col31 {1.000 0.840 0.000 srgb} bind def

end
save
-45.0 217.0 translate
1 -1 scale

/cp {closepath} bind def
/ef {eofill} bind def
/gr {grestore} bind def
/gs {gsave} bind def
/sa {save} bind def
/rs {restore} bind def
/l {lineto} bind def
/m {moveto} bind def
/rm {rmoveto} bind def
/n {newpath} bind def
/s {stroke} bind def
/sh {show} bind def
/slc {setlinecap} bind def
/slj {setlinejoin} bind def
/slw {setlinewidth} bind def
/srgb {setrgbcolor} bind def
/rot {rotate} bind def
/sc {scale} bind def
/sd {setdash} bind def
/ff {findfont} bind def
/sf {setfont} bind def
/scf {scalefont} bind def
/sw {stringwidth} bind def
/tr {translate} bind def
/tnt {dup dup currentrgbcolor
  4 -2 roll dup 1 exch sub 3 -1 roll mul add
  4 -2 roll dup 1 exch sub 3 -1 roll mul add
  4 -2 roll dup 1 exch sub 3 -1 roll mul add srgb}
  bind def
/shd {dup dup currentrgbcolor 4 -2 roll mul 4 -2 roll mul
  4 -2 roll mul srgb} bind def
 /DrawEllipse {
	/endangle exch def
	/startangle exch def
	/yrad exch def
	/xrad exch def
	/y exch def
	/x exch def
	/savematrix mtrx currentmatrix def
	x y tr xrad yrad sc 0 0 1 startangle endangle arc
	closepath
	savematrix setmatrix
	} def

/$F2psBegin {$F2psDict begin /$F2psEnteredState save def} def
/$F2psEnd {$F2psEnteredState restore end} def
%%EndProlog

$F2psBegin
10 setmiterlimit
n 0 842 m 0 0 l 595 0 l 595 842 l cp clip
 0.06000 0.06000 sc
7.500 slw
% Polyline
n 1200 1800 m 3000 1800 l 3000 3600 l 1200 3600 l cp gs col-1 s gr 
% Polyline
n 1800 1200 m 3600 1200 l 3600 3000 l 1800 3000 l cp gs col-1 s gr 
% Polyline
n 1200 1800 m 1200 1800 l gs col-1 s gr
% Polyline
n 1200 1800 m 1800 1200 l gs col-1 s gr 
% Polyline
n 3000 1800 m 3600 1200 l gs col-1 s gr 
% Polyline
n 3000 3600 m 3600 3000 l gs col-1 s gr 
% Polyline
n 1200 3600 m 1800 3000 l gs col-1 s gr 
% Polyline
gs  clippath
1917 3206 m 1817 3279 l 1871 3168 l 1767 3292 l 1813 3331 l  cp clip
n 2550 2400 m 1800 3300 l gs col-1 s gr gr

% arrowhead
n 1917 3206 m 1817 3279 l 1871 3168 l  col-1 s
% Ellipse
n 1800 3000 75 75 0 360 DrawEllipse gs 0.00 setgray ef gr gs col-1 s gr

% Polyline
gs  clippath
2520 822 m 2550 702 l 2580 822 l 2580 660 l 2520 660 l  cp clip
n 2550 675 m 2550 2400 l gs col-1 s gr gr

% arrowhead
n 2520 822 m 2550 702 l 2580 822 l  col-1 s
/Times-Roman ff 180.00 scf sf
2775 825 m
gs 1 -1 sc (2) col-1 sh gr
% Polyline
gs  clippath
4203 2370 m 4323 2400 l 4203 2430 l 4365 2430 l 4365 2370 l  cp clip
n 2550 2400 m 4350 2400 l gs col-1 s gr gr

% arrowhead
n 4203 2370 m 4323 2400 l 4203 2430 l  col-1 s
/Times-Roman ff 210.00 scf sf
3750 1200 m
gs 1 -1 sc (\(1,1,1\)) col-1 sh gr
/Symbol ff 210.00 scf sf
1950 3300 m
gs 1 -1 sc (x) col-1 sh gr
/Symbol ff 210.00 scf sf
4425 2475 m
gs 1 -1 sc (x) col-1 sh gr
/Symbol ff 210.00 scf sf
2625 750 m
gs 1 -1 sc (x) col-1 sh gr
/Times-Roman ff 210.00 scf sf
750 3000 m
gs 1 -1 sc (\(-1,-1,-1\)) col-1 sh gr
/Times-Roman ff 180.00 scf sf
2100 3375 m
gs 1 -1 sc (3) col-1 sh gr
/Times-Roman ff 180.00 scf sf
4575 2550 m
gs 1 -1 sc (1) col-1 sh gr
$F2psEnd
rs
