%!PS-Adobe-2.0 EPSF-2.0
%%Title: C:\Users\mlb\AppData\Local\Temp\jfig-tmp2110417793199817480.fig
%%Creator: /cygdrive/c/fig2dev/fig2dev3.2.3d/fig2dev Version 3.2 Patchlevel 3d
%%CreationDate: Tue Aug 20 01:20:10 2013
%%For: mlb@MLB-PC ()
%%BoundingBox: 0 0 263 66
%%Magnification: 1.0000
%%EndComments
/$F2psDict 200 dict def
$F2psDict begin
$F2psDict /mtrx matrix put
/col-1 {0 setgray} bind def
/col0 {0.000 0.000 0.000 srgb} bind def
/col1 {0.000 0.000 1.000 srgb} bind def
/col2 {0.000 1.000 0.000 srgb} bind def
/col3 {0.000 1.000 1.000 srgb} bind def
/col4 {1.000 0.000 0.000 srgb} bind def
/col5 {1.000 0.000 1.000 srgb} bind def
/col6 {1.000 1.000 0.000 srgb} bind def
/col7 {1.000 1.000 1.000 srgb} bind def
/col8 {0.000 0.000 0.560 srgb} bind def
/col9 {0.000 0.000 0.690 srgb} bind def
/col10 {0.000 0.000 0.820 srgb} bind def
/col11 {0.530 0.810 1.000 srgb} bind def
/col12 {0.000 0.560 0.000 srgb} bind def
/col13 {0.000 0.690 0.000 srgb} bind def
/col14 {0.000 0.820 0.000 srgb} bind def
/col15 {0.000 0.560 0.560 srgb} bind def
/col16 {0.000 0.690 0.690 srgb} bind def
/col17 {0.000 0.820 0.820 srgb} bind def
/col18 {0.560 0.000 0.000 srgb} bind def
/col19 {0.690 0.000 0.000 srgb} bind def
/col20 {0.820 0.000 0.000 srgb} bind def
/col21 {0.560 0.000 0.560 srgb} bind def
/col22 {0.690 0.000 0.690 srgb} bind def
/col23 {0.820 0.000 0.820 srgb} bind def
/col24 {0.500 0.190 0.000 srgb} bind def
/col25 {0.630 0.250 0.000 srgb} bind def
/col26 {0.750 0.380 0.000 srgb} bind def
/col27 {1.000 0.500 0.500 srgb} bind def
/col28 {1.000 0.630 0.630 srgb} bind def
/col29 {1.000 0.750 0.750 srgb} bind def
/col30 {1.000 0.880 0.880 srgb} bind def
/col31 {1.000 0.840 0.000 srgb} bind def
/col32 {0.388 0.388 0.388 srgb} bind def
/col33 {0.804 0.804 0.804 srgb} bind def
/col34 {0.424 0.424 0.424 srgb} bind def
/col35 {0.906 0.906 0.906 srgb} bind def
/col36 {0.443 0.459 0.443 srgb} bind def
/col37 {0.800 0.800 0.800 srgb} bind def
/col38 {0.557 0.557 0.557 srgb} bind def
/col39 {0.776 0.718 0.592 srgb} bind def
/col40 {0.937 0.973 1.000 srgb} bind def
/col41 {0.863 0.796 0.651 srgb} bind def
/col42 {0.251 0.251 0.251 srgb} bind def
/col43 {0.502 0.502 0.502 srgb} bind def
/col44 {0.753 0.753 0.753 srgb} bind def
/col45 {0.878 0.878 0.878 srgb} bind def
/col46 {0.557 0.561 0.557 srgb} bind def
/col47 {0.667 0.667 0.667 srgb} bind def
/col48 {0.333 0.333 0.333 srgb} bind def
/col49 {0.843 0.843 0.843 srgb} bind def
/col50 {0.682 0.682 0.682 srgb} bind def
/col51 {0.745 0.745 0.745 srgb} bind def
/col52 {0.318 0.318 0.318 srgb} bind def
/col53 {0.906 0.890 0.906 srgb} bind def
/col54 {0.000 0.000 0.286 srgb} bind def
/col55 {0.475 0.475 0.475 srgb} bind def
/col56 {0.188 0.204 0.188 srgb} bind def
/col57 {0.255 0.255 0.255 srgb} bind def
/col58 {0.780 0.714 0.588 srgb} bind def
/col59 {0.255 0.271 0.255 srgb} bind def
/col60 {0.580 0.580 0.604 srgb} bind def
/col61 {0.859 0.859 0.859 srgb} bind def
/col62 {0.631 0.631 0.718 srgb} bind def
/col63 {0.929 0.929 0.929 srgb} bind def
/col64 {0.878 0.878 0.878 srgb} bind def
/col65 {0.525 0.675 1.000 srgb} bind def
/col66 {0.439 0.439 1.000 srgb} bind def
/col67 {0.776 0.718 0.592 srgb} bind def
/col68 {0.937 0.973 1.000 srgb} bind def
/col69 {0.863 0.796 0.651 srgb} bind def
/col70 {0.251 0.251 0.251 srgb} bind def
/col71 {0.502 0.502 0.502 srgb} bind def
/col72 {0.753 0.753 0.753 srgb} bind def
/col73 {0.667 0.667 0.667 srgb} bind def
/col74 {0.843 0.843 0.843 srgb} bind def
/col75 {0.745 0.745 0.745 srgb} bind def
/col76 {0.318 0.318 0.318 srgb} bind def
/col77 {0.906 0.890 0.906 srgb} bind def
/col78 {0.000 0.000 0.286 srgb} bind def
/col79 {0.475 0.475 0.475 srgb} bind def
/col80 {0.188 0.204 0.188 srgb} bind def
/col81 {0.255 0.255 0.255 srgb} bind def
/col82 {0.780 0.714 0.588 srgb} bind def
/col83 {0.255 0.271 0.255 srgb} bind def
/col84 {0.867 0.616 0.576 srgb} bind def
/col85 {0.945 0.925 0.878 srgb} bind def
/col86 {0.886 0.784 0.659 srgb} bind def
/col87 {0.882 0.882 0.882 srgb} bind def
/col88 {0.824 0.824 0.824 srgb} bind def
/col89 {0.855 0.478 0.102 srgb} bind def
/col90 {0.945 0.894 0.102 srgb} bind def
/col91 {0.533 0.490 0.761 srgb} bind def
/col92 {0.839 0.839 0.839 srgb} bind def
/col93 {0.549 0.549 0.647 srgb} bind def
/col94 {0.290 0.290 0.290 srgb} bind def
/col95 {0.549 0.420 0.420 srgb} bind def
/col96 {0.353 0.353 0.353 srgb} bind def
/col97 {0.718 0.608 0.451 srgb} bind def
/col98 {0.255 0.576 1.000 srgb} bind def
/col99 {0.749 0.439 0.231 srgb} bind def
/col100 {0.859 0.467 0.000 srgb} bind def
/col101 {0.855 0.722 0.000 srgb} bind def
/col102 {0.000 0.392 0.000 srgb} bind def
/col103 {0.353 0.420 0.231 srgb} bind def
/col104 {0.827 0.827 0.827 srgb} bind def
/col105 {0.557 0.557 0.643 srgb} bind def
/col106 {0.953 0.725 0.365 srgb} bind def
/col107 {0.537 0.600 0.420 srgb} bind def
/col108 {0.392 0.392 0.392 srgb} bind def
/col109 {0.718 0.902 1.000 srgb} bind def
/col110 {0.525 0.753 0.925 srgb} bind def
/col111 {0.741 0.741 0.741 srgb} bind def
/col112 {0.827 0.584 0.322 srgb} bind def
/col113 {0.596 0.824 0.996 srgb} bind def
/col114 {0.549 0.612 0.420 srgb} bind def
/col115 {0.969 0.420 0.000 srgb} bind def
/col116 {0.353 0.420 0.224 srgb} bind def
/col117 {0.549 0.612 0.420 srgb} bind def
/col118 {0.549 0.612 0.482 srgb} bind def
/col119 {0.094 0.290 0.094 srgb} bind def
/col120 {0.678 0.678 0.678 srgb} bind def
/col121 {0.969 0.741 0.353 srgb} bind def
/col122 {0.388 0.420 0.612 srgb} bind def
/col123 {0.969 0.969 0.969 srgb} bind def
/col124 {0.871 0.000 0.000 srgb} bind def
/col125 {0.678 0.678 0.678 srgb} bind def
/col126 {0.969 0.741 0.353 srgb} bind def
/col127 {0.678 0.678 0.678 srgb} bind def
/col128 {0.969 0.741 0.353 srgb} bind def
/col129 {0.388 0.420 0.612 srgb} bind def
/col130 {0.322 0.420 0.161 srgb} bind def
/col131 {0.580 0.580 0.580 srgb} bind def
/col132 {0.000 0.388 0.000 srgb} bind def
/col133 {0.000 0.388 0.290 srgb} bind def
/col134 {0.482 0.518 0.290 srgb} bind def
/col135 {0.906 0.741 0.482 srgb} bind def
/col136 {0.647 0.710 0.776 srgb} bind def
/col137 {0.420 0.420 0.580 srgb} bind def
/col138 {0.518 0.420 0.420 srgb} bind def
/col139 {0.322 0.612 0.290 srgb} bind def
/col140 {0.839 0.906 0.906 srgb} bind def
/col141 {0.322 0.388 0.388 srgb} bind def
/col142 {0.094 0.420 0.290 srgb} bind def
/col143 {0.612 0.647 0.710 srgb} bind def
/col144 {1.000 0.580 0.000 srgb} bind def
/col145 {1.000 0.580 0.000 srgb} bind def
/col146 {0.000 0.388 0.290 srgb} bind def
/col147 {0.482 0.518 0.290 srgb} bind def
/col148 {0.388 0.451 0.482 srgb} bind def
/col149 {0.906 0.741 0.482 srgb} bind def
/col150 {0.094 0.290 0.094 srgb} bind def
/col151 {0.969 0.741 0.353 srgb} bind def
/col152 {0.871 0.871 0.871 srgb} bind def
/col153 {0.953 0.933 0.827 srgb} bind def
/col154 {0.961 0.682 0.365 srgb} bind def
/col155 {0.584 0.808 0.600 srgb} bind def
/col156 {0.710 0.082 0.490 srgb} bind def
/col157 {0.933 0.933 0.933 srgb} bind def
/col158 {0.518 0.518 0.518 srgb} bind def
/col159 {0.482 0.482 0.482 srgb} bind def
/col160 {0.000 0.353 0.000 srgb} bind def
/col161 {0.906 0.451 0.451 srgb} bind def
/col162 {1.000 0.796 0.192 srgb} bind def
/col163 {0.161 0.475 0.290 srgb} bind def
/col164 {0.871 0.157 0.129 srgb} bind def
/col165 {0.129 0.349 0.776 srgb} bind def
/col166 {0.973 0.973 0.973 srgb} bind def
/col167 {0.902 0.902 0.902 srgb} bind def
/col168 {0.129 0.518 0.353 srgb} bind def

end
save
newpath 0 66 moveto 0 0 lineto 263 0 lineto 263 66 lineto closepath clip newpath
82.4 84.4 translate
1 -1 scale

/cp {closepath} bind def
/ef {eofill} bind def
/gr {grestore} bind def
/gs {gsave} bind def
/sa {save} bind def
/rs {restore} bind def
/l {lineto} bind def
/m {moveto} bind def
/rm {rmoveto} bind def
/n {newpath} bind def
/s {stroke} bind def
/sh {show} bind def
/slc {setlinecap} bind def
/slj {setlinejoin} bind def
/slw {setlinewidth} bind def
/srgb {setrgbcolor} bind def
/rot {rotate} bind def
/sc {scale} bind def
/sd {setdash} bind def
/ff {findfont} bind def
/sf {setfont} bind def
/scf {scalefont} bind def
/sw {stringwidth} bind def
/tr {translate} bind def
/tnt {dup dup currentrgbcolor
  4 -2 roll dup 1 exch sub 3 -1 roll mul add
  4 -2 roll dup 1 exch sub 3 -1 roll mul add
  4 -2 roll dup 1 exch sub 3 -1 roll mul add srgb}
  bind def
/shd {dup dup currentrgbcolor 4 -2 roll mul 4 -2 roll mul
  4 -2 roll mul srgb} bind def
/reencdict 12 dict def /ReEncode { reencdict begin
/newcodesandnames exch def /newfontname exch def /basefontname exch def
/basefontdict basefontname findfont def /newfont basefontdict maxlength dict def
basefontdict { exch dup /FID ne { dup /Encoding eq
{ exch dup length array copy newfont 3 1 roll put }
{ exch newfont 3 1 roll put } ifelse } { pop pop } ifelse } forall
newfont /FontName newfontname put newcodesandnames aload pop
128 1 255 { newfont /Encoding get exch /.notdef put } for
newcodesandnames length 2 idiv { newfont /Encoding get 3 1 roll put } repeat
newfontname newfont definefont pop end } def
/isovec [
8#055 /minus 8#200 /grave 8#201 /acute 8#202 /circumflex 8#203 /tilde
8#204 /macron 8#205 /breve 8#206 /dotaccent 8#207 /dieresis
8#210 /ring 8#211 /cedilla 8#212 /hungarumlaut 8#213 /ogonek 8#214 /caron
8#220 /dotlessi 8#230 /oe 8#231 /OE
8#240 /space 8#241 /exclamdown 8#242 /cent 8#243 /sterling
8#244 /currency 8#245 /yen 8#246 /brokenbar 8#247 /section 8#250 /dieresis
8#251 /copyright 8#252 /ordfeminine 8#253 /guillemotleft 8#254 /logicalnot
8#255 /hyphen 8#256 /registered 8#257 /macron 8#260 /degree 8#261 /plusminus
8#262 /twosuperior 8#263 /threesuperior 8#264 /acute 8#265 /mu 8#266 /paragraph
8#267 /periodcentered 8#270 /cedilla 8#271 /onesuperior 8#272 /ordmasculine
8#273 /guillemotright 8#274 /onequarter 8#275 /onehalf
8#276 /threequarters 8#277 /questiondown 8#300 /Agrave 8#301 /Aacute
8#302 /Acircumflex 8#303 /Atilde 8#304 /Adieresis 8#305 /Aring
8#306 /AE 8#307 /Ccedilla 8#310 /Egrave 8#311 /Eacute
8#312 /Ecircumflex 8#313 /Edieresis 8#314 /Igrave 8#315 /Iacute
8#316 /Icircumflex 8#317 /Idieresis 8#320 /Eth 8#321 /Ntilde 8#322 /Ograve
8#323 /Oacute 8#324 /Ocircumflex 8#325 /Otilde 8#326 /Odieresis 8#327 /multiply
8#330 /Oslash 8#331 /Ugrave 8#332 /Uacute 8#333 /Ucircumflex
8#334 /Udieresis 8#335 /Yacute 8#336 /Thorn 8#337 /germandbls 8#340 /agrave
8#341 /aacute 8#342 /acircumflex 8#343 /atilde 8#344 /adieresis 8#345 /aring
8#346 /ae 8#347 /ccedilla 8#350 /egrave 8#351 /eacute
8#352 /ecircumflex 8#353 /edieresis 8#354 /igrave 8#355 /iacute
8#356 /icircumflex 8#357 /idieresis 8#360 /eth 8#361 /ntilde 8#362 /ograve
8#363 /oacute 8#364 /ocircumflex 8#365 /otilde 8#366 /odieresis 8#367 /divide
8#370 /oslash 8#371 /ugrave 8#372 /uacute 8#373 /ucircumflex
8#374 /udieresis 8#375 /yacute 8#376 /thorn 8#377 /ydieresis] def
/Times-Roman /Times-Roman-iso isovec ReEncode
 /DrawEllipse {
	/endangle exch def
	/startangle exch def
	/yrad exch def
	/xrad exch def
	/y exch def
	/x exch def
	/savematrix mtrx currentmatrix def
	x y tr xrad yrad sc 0 0 1 startangle endangle arc
	closepath
	savematrix setmatrix
	} def

/$F2psBegin {$F2psDict begin /$F2psEnteredState save def} def
/$F2psEnd {$F2psEnteredState restore end} def

$F2psBegin
10 setmiterlimit
 0.06299 0.06299 sc
%
% Fig objects follow
%
/Times-Roman-iso ff 150.00 scf sf
1955 819 m
gs 1 -1 sc (P1) col0 sh gr
/Times-Roman-iso ff 180.00 scf sf
1871 769 m
gs 1 -1 sc (1) col0 sh gr
/Times-Roman-iso ff 150.00 scf sf
812 819 m
gs 1 -1 sc (3) col0 sh gr
/Times-Roman-iso ff 150.00 scf sf
194 819 m
gs 1 -1 sc (2) col0 sh gr
/Times-Roman-iso ff 180.00 scf sf
111 769 m
gs 1 -1 sc (1) col0 sh gr
/Times-Roman-iso ff 180.00 scf sf
-481 769 m
gs 1 -1 sc (1) col0 sh gr
/Times-Roman-iso ff 150.00 scf sf
-398 819 m
gs 1 -1 sc (1) col0 sh gr
/Times-Roman-iso ff 150.00 scf sf
-1082 819 m
gs 1 -1 sc (0) col0 sh gr
/Times-Roman-iso ff 180.00 scf sf
-1165 769 m
gs 1 -1 sc (1) col0 sh gr
/Times-Roman-iso ff 180.00 scf sf
2762 1158 m
gs 1 -1 sc (1) col0 sh gr
% Polyline
7.500 slw
gs  clippath
2558 1017 m 2558 921 l 2218 921 l 2518 969 l 2218 1017 l cp
eoclip
n 2043 969 m
 2543 969 l gs col0 s gr gr

% arrowhead
n 2218 1017 m 2518 969 l 2218 921 l 2278 969 l 2218 1017 l 
 cp gs 0.00 setgray ef gr  col0 s
/Times-Roman-iso ff 240.00 scf sf
1851 1340 m
gs 1 -1 sc (1) col0 sh gr
/Times-Roman-iso ff 240.00 scf sf
-1308 1324 m
gs 1 -1 sc (-1) col0 sh gr
/Times-Roman-iso ff 240.00 scf sf
1126 649 m
gs 1 -1 sc (. . .) col0 sh gr
/Times-Roman-iso ff 180.00 scf sf
728 769 m
gs 1 -1 sc (1) col0 sh gr
% Ellipse
n -462 960 60 60 0 360 DrawEllipse gs 0.00 setgray ef gr gs col-1 s gr

% Ellipse
n 129 960 60 60 0 360 DrawEllipse gs 0.00 setgray ef gr gs col-1 s gr

% Ellipse
n 755 960 60 60 0 360 DrawEllipse gs 0.00 setgray ef gr gs col-1 s gr

/Symbol ff 240.00 scf sf
607 680 m
gs 1 -1 sc (x) col0 sh gr
% Ellipse
n 1914 960 60 60 0 360 DrawEllipse gs 0.00 setgray ef gr gs col-1 s gr

/Symbol ff 240.00 scf sf
-1286 680 m
gs 1 -1 sc (x) col0 sh gr
/Symbol ff 240.00 scf sf
-10 680 m
gs 1 -1 sc (x) col0 sh gr
% Polyline
30.000 slw
n -1099 960 m
 1895 960 l gs col0 s gr 
/Symbol ff 240.00 scf sf
2641 1069 m
gs 1 -1 sc (x) col0 sh gr
/Symbol ff 240.00 scf sf
-602 680 m
gs 1 -1 sc (x) col0 sh gr
7.500 slw
% Ellipse
n -1113 960 60 60 0 360 DrawEllipse gs 0.00 setgray ef gr gs col-1 s gr

/Symbol ff 240.00 scf sf
1750 680 m
gs 1 -1 sc (x) col0 sh gr
$F2psEnd
rs
