%!PS-Adobe-3.0 EPSF-3.0
%%Title: /Users/mlb/Documents/mlb/livros/crc_press/english/Chapters/chapter8/figures/xfig/solidoaproxf12.fig
%%Creator: fig2dev Version 3.2 Patchlevel 5d
%%CreationDate: Sun May 25 21:58:45 2014
%%For: mlb@MacBook-Air-de-Marco.local (Marco Lucio Bittencourt)
%%BoundingBox: 0 0 399 133
%Magnification: 1.0000
%%EndComments
%%BeginProlog
/$F2psDict 200 dict def
$F2psDict begin
$F2psDict /mtrx matrix put
/col-1 {0 setgray} bind def
/col0 {0.000 0.000 0.000 srgb} bind def
/col1 {0.000 0.000 1.000 srgb} bind def
/col2 {0.000 1.000 0.000 srgb} bind def
/col3 {0.000 1.000 1.000 srgb} bind def
/col4 {1.000 0.000 0.000 srgb} bind def
/col5 {1.000 0.000 1.000 srgb} bind def
/col6 {1.000 1.000 0.000 srgb} bind def
/col7 {1.000 1.000 1.000 srgb} bind def
/col8 {0.000 0.000 0.560 srgb} bind def
/col9 {0.000 0.000 0.690 srgb} bind def
/col10 {0.000 0.000 0.820 srgb} bind def
/col11 {0.530 0.810 1.000 srgb} bind def
/col12 {0.000 0.560 0.000 srgb} bind def
/col13 {0.000 0.690 0.000 srgb} bind def
/col14 {0.000 0.820 0.000 srgb} bind def
/col15 {0.000 0.560 0.560 srgb} bind def
/col16 {0.000 0.690 0.690 srgb} bind def
/col17 {0.000 0.820 0.820 srgb} bind def
/col18 {0.560 0.000 0.000 srgb} bind def
/col19 {0.690 0.000 0.000 srgb} bind def
/col20 {0.820 0.000 0.000 srgb} bind def
/col21 {0.560 0.000 0.560 srgb} bind def
/col22 {0.690 0.000 0.690 srgb} bind def
/col23 {0.820 0.000 0.820 srgb} bind def
/col24 {0.500 0.190 0.000 srgb} bind def
/col25 {0.630 0.250 0.000 srgb} bind def
/col26 {0.750 0.380 0.000 srgb} bind def
/col27 {1.000 0.500 0.500 srgb} bind def
/col28 {1.000 0.630 0.630 srgb} bind def
/col29 {1.000 0.750 0.750 srgb} bind def
/col30 {1.000 0.880 0.880 srgb} bind def
/col31 {1.000 0.840 0.000 srgb} bind def

end

/cp {closepath} bind def
/ef {eofill} bind def
/gr {grestore} bind def
/gs {gsave} bind def
/sa {save} bind def
/rs {restore} bind def
/l {lineto} bind def
/m {moveto} bind def
/rm {rmoveto} bind def
/n {newpath} bind def
/s {stroke} bind def
/sh {show} bind def
/slc {setlinecap} bind def
/slj {setlinejoin} bind def
/slw {setlinewidth} bind def
/srgb {setrgbcolor} bind def
/rot {rotate} bind def
/sc {scale} bind def
/sd {setdash} bind def
/ff {findfont} bind def
/sf {setfont} bind def
/scf {scalefont} bind def
/sw {stringwidth} bind def
/tr {translate} bind def
/tnt {dup dup currentrgbcolor
  4 -2 roll dup 1 exch sub 3 -1 roll mul add
  4 -2 roll dup 1 exch sub 3 -1 roll mul add
  4 -2 roll dup 1 exch sub 3 -1 roll mul add srgb}
  bind def
/shd {dup dup currentrgbcolor 4 -2 roll mul 4 -2 roll mul
  4 -2 roll mul srgb} bind def
/reencdict 12 dict def /ReEncode { reencdict begin
/newcodesandnames exch def /newfontname exch def /basefontname exch def
/basefontdict basefontname findfont def /newfont basefontdict maxlength dict def
basefontdict { exch dup /FID ne { dup /Encoding eq
{ exch dup length array copy newfont 3 1 roll put }
{ exch newfont 3 1 roll put } ifelse } { pop pop } ifelse } forall
newfont /FontName newfontname put newcodesandnames aload pop
128 1 255 { newfont /Encoding get exch /.notdef put } for
newcodesandnames length 2 idiv { newfont /Encoding get 3 1 roll put } repeat
newfontname newfont definefont pop end } def
/isovec [
8#055 /minus 8#200 /grave 8#201 /acute 8#202 /circumflex 8#203 /tilde
8#204 /macron 8#205 /breve 8#206 /dotaccent 8#207 /dieresis
8#210 /ring 8#211 /cedilla 8#212 /hungarumlaut 8#213 /ogonek 8#214 /caron
8#220 /dotlessi 8#230 /oe 8#231 /OE
8#240 /space 8#241 /exclamdown 8#242 /cent 8#243 /sterling
8#244 /currency 8#245 /yen 8#246 /brokenbar 8#247 /section 8#250 /dieresis
8#251 /copyright 8#252 /ordfeminine 8#253 /guillemotleft 8#254 /logicalnot
8#255 /hyphen 8#256 /registered 8#257 /macron 8#260 /degree 8#261 /plusminus
8#262 /twosuperior 8#263 /threesuperior 8#264 /acute 8#265 /mu 8#266 /paragraph
8#267 /periodcentered 8#270 /cedilla 8#271 /onesuperior 8#272 /ordmasculine
8#273 /guillemotright 8#274 /onequarter 8#275 /onehalf
8#276 /threequarters 8#277 /questiondown 8#300 /Agrave 8#301 /Aacute
8#302 /Acircumflex 8#303 /Atilde 8#304 /Adieresis 8#305 /Aring
8#306 /AE 8#307 /Ccedilla 8#310 /Egrave 8#311 /Eacute
8#312 /Ecircumflex 8#313 /Edieresis 8#314 /Igrave 8#315 /Iacute
8#316 /Icircumflex 8#317 /Idieresis 8#320 /Eth 8#321 /Ntilde 8#322 /Ograve
8#323 /Oacute 8#324 /Ocircumflex 8#325 /Otilde 8#326 /Odieresis 8#327 /multiply
8#330 /Oslash 8#331 /Ugrave 8#332 /Uacute 8#333 /Ucircumflex
8#334 /Udieresis 8#335 /Yacute 8#336 /Thorn 8#337 /germandbls 8#340 /agrave
8#341 /aacute 8#342 /acircumflex 8#343 /atilde 8#344 /adieresis 8#345 /aring
8#346 /ae 8#347 /ccedilla 8#350 /egrave 8#351 /eacute
8#352 /ecircumflex 8#353 /edieresis 8#354 /igrave 8#355 /iacute
8#356 /icircumflex 8#357 /idieresis 8#360 /eth 8#361 /ntilde 8#362 /ograve
8#363 /oacute 8#364 /ocircumflex 8#365 /otilde 8#366 /odieresis 8#367 /divide
8#370 /oslash 8#371 /ugrave 8#372 /uacute 8#373 /ucircumflex
8#374 /udieresis 8#375 /yacute 8#376 /thorn 8#377 /ydieresis] def
/Times-Bold /Times-Bold-iso isovec ReEncode
/NewCenturySchlbk-Bold /NewCenturySchlbk-Bold-iso isovec ReEncode
/Times-Roman /Times-Roman-iso isovec ReEncode
 /DrawEllipse {
	/endangle exch def
	/startangle exch def
	/yrad exch def
	/xrad exch def
	/y exch def
	/x exch def
	/savematrix mtrx currentmatrix def
	x y tr xrad yrad sc 0 0 1 startangle endangle arc
	closepath
	savematrix setmatrix
	} def

/$F2psBegin {$F2psDict begin /$F2psEnteredState save def} def
/$F2psEnd {$F2psEnteredState restore end} def

/pageheader {
save
newpath 0 133 moveto 0 0 lineto 399 0 lineto 399 133 lineto closepath clip newpath
-8.1 150.3 translate
1 -1 scale
$F2psBegin
10 setmiterlimit
0 slj 0 slc
 0.06000 0.06000 sc
} bind def
/pagefooter {
$F2psEnd
restore
} bind def
%%EndProlog
pageheader
%
% Fig objects follow
%
% 
% here starts figure with depth 50
/Times-Roman-iso ff 133.33 scf sf
1001 2278 m
gs 1 -1 sc (3) col0 sh gr
/Times-Roman-iso ff 133.33 scf sf
4235 1865 m
gs 1 -1 sc (1) col0 sh gr
/Times-Roman-iso ff 133.33 scf sf
1588 484 m
gs 1 -1 sc (2) col0 sh gr
/Times-Roman-iso ff 133.33 scf sf
5164 1063 m
gs 1 -1 sc (2) col0 sh gr
/Times-Roman-iso ff 133.33 scf sf
2517 1833 m
gs 1 -1 sc (1) col0 sh gr
/Times-Roman-iso ff 133.33 scf sf
5858 2437 m
gs 1 -1 sc (3) col0 sh gr
% here ends figure;
% 
% here starts figure with depth 0
% Ellipse
7.500 slw
n 375 2370 45 45 0 360 DrawEllipse gs 0.00 setgray ef gr gs col-1 s gr

% Ellipse
n 1500 2370 45 45 0 360 DrawEllipse gs 0.00 setgray ef gr gs col-1 s gr

% Ellipse
n 2100 1785 45 45 0 360 DrawEllipse gs 0.00 setgray ef gr gs col-1 s gr

% Ellipse
n 2100 615 45 45 0 360 DrawEllipse gs 0.00 setgray ef gr gs col-1 s gr

% Ellipse
n 1500 1200 45 45 0 360 DrawEllipse gs 0.00 setgray ef gr gs col-1 s gr

% Ellipse
n 975 615 45 45 0 360 DrawEllipse gs 0.00 setgray ef gr gs col-1 s gr

% Ellipse
n 375 1200 45 45 0 360 DrawEllipse gs 0.00 setgray ef gr gs col-1 s gr

% Ellipse
n 960 1785 45 45 0 360 DrawEllipse gs 0.00 setgray ef gr gs col-1 s gr

% Ellipse
n 2985 1590 45 45 0 360 DrawEllipse gs 0.00 setgray ef gr gs col-1 s gr

% Ellipse
n 3930 1590 45 45 0 360 DrawEllipse gs 0.00 setgray ef gr gs col-1 s gr

% Ellipse
n 4950 2145 45 45 0 360 DrawEllipse gs 0.00 setgray ef gr gs col-1 s gr

% Ellipse
n 4950 1200 45 45 0 360 DrawEllipse gs 0.00 setgray ef gr gs col-1 s gr

% Ellipse
n 5940 1950 45 45 0 360 DrawEllipse gs 0.00 setgray ef gr gs col-1 s gr

% Ellipse
n 6585 1305 45 45 0 360 DrawEllipse gs 0.00 setgray ef gr gs col-1 s gr

% Polyline
0 slj
0 slc
gs  clippath
795 2116 m 688 2224 l 730 2266 l 838 2159 l 838 2159 l 732 2223 l 795 2116 l cp
eoclip
n 720 2235 m
 1380 1575 l gs col0 s gr gr

% arrowhead
n 795 2116 m 732 2223 l 838 2159 l  col0 s
% Polyline
15.000 slw
n 945 1785 m 2115 1785 l 2115 615 l 945 615 l
 cp gs col0 s gr 
% Polyline
7.500 slw
gs  clippath
1410 452 m 1410 300 l 1350 300 l 1350 452 l 1350 452 l 1380 332 l 1410 452 l cp
eoclip
n 1380 1575 m
 1380 315 l gs col0 s gr gr

% arrowhead
n 1410 452 m 1380 332 l 1350 452 l  col0 s
% Polyline
gs  clippath
2263 1605 m 2415 1605 l 2415 1545 l 2263 1545 l 2263 1545 l 2383 1575 l 2263 1605 l cp
eoclip
n 1380 1575 m
 2400 1575 l gs col0 s gr gr

% arrowhead
n 2263 1605 m 2383 1575 l 2263 1545 l  col0 s
% Polyline
15.000 slw
n 345 1185 m
 945 615 l gs col0 s gr 
% Polyline
n 345 2370 m
 945 1785 l gs col0 s gr 
% Polyline
n 1515 1185 m
 2115 615 l gs col0 s gr 
% Polyline
n 1515 2370 m
 2115 1785 l gs col0 s gr 
% Polyline
n 345 2370 m 1515 2370 l 1515 1185 l 345 1185 l
 cp gs col0 s gr 
% Polyline
n 3001 1591 m
 3906 1583 l gs col0 s gr 
% Polyline
7.500 slw
gs  clippath
4181 1613 m 4333 1617 l 4334 1557 l 4182 1553 l 4182 1553 l 4302 1587 l 4181 1613 l cp
eoclip
n 4019 1579 m
 4319 1587 l gs col0 s gr gr

% arrowhead
n 4181 1613 m 4302 1587 l 4182 1553 l  col0 s
% Polyline
15.000 slw
n 4957 1229 m
 4965 2134 l gs col0 s gr 
% Polyline
7.500 slw
gs  clippath
4978 957 m 4982 805 l 4922 804 l 4918 956 l 4918 956 l 4952 837 l 4978 957 l cp
eoclip
n 4944 1120 m
 4952 820 l gs col0 s gr gr

% arrowhead
n 4978 957 m 4952 837 l 4918 956 l  col0 s
% Polyline
15.000 slw
n 6585 1301 m
 5954 1937 l gs col0 s gr 
% Polyline
7.500 slw
gs  clippath
5790 2062 m 5677 2162 l 5716 2207 l 5830 2107 l 5830 2107 l 5720 2164 l 5790 2062 l cp
eoclip
n 5891 2016 m
 5708 2175 l gs col0 s gr gr

% arrowhead
n 5790 2062 m 5720 2164 l 5830 2107 l  col0 s
/Times-Bold-iso ff 133.33 scf sf
795 555 m
gs 1 -1 sc (5) col-1 sh gr
/Times-Bold-iso ff 133.33 scf sf
2220 660 m
gs 1 -1 sc (8) col-1 sh gr
/Times-Bold-iso ff 133.33 scf sf
2220 1845 m
gs 1 -1 sc (4) col-1 sh gr
/Times-Bold-iso ff 133.33 scf sf
1620 2490 m
gs 1 -1 sc (3) col-1 sh gr
/Times-Bold-iso ff 133.33 scf sf
1680 1260 m
gs 1 -1 sc (7) col-1 sh gr
/Times-Bold-iso ff 133.33 scf sf
795 1725 m
gs 1 -1 sc (1) col-1 sh gr
/NewCenturySchlbk-Bold-iso ff 166.67 scf sf
2655 1620 m
gs 1 -1 sc (=) col-1 sh gr
/Times-Bold-iso ff 166.67 scf sf
4455 1635 m
gs 1 -1 sc (X) col-1 sh gr
/Times-Bold-iso ff 166.67 scf sf
5430 1650 m
gs 1 -1 sc (X) col-1 sh gr
/Times-Bold-iso ff 133.33 scf sf
2865 1875 m
gs 1 -1 sc (-1) col-1 sh gr
/Times-Bold-iso ff 133.33 scf sf
3870 1875 m
gs 1 -1 sc (1) col-1 sh gr
/Times-Bold-iso ff 133.33 scf sf
2925 1470 m
gs 1 -1 sc (1) col-1 sh gr
/Times-Bold-iso ff 133.33 scf sf
3870 1470 m
gs 1 -1 sc (2) col-1 sh gr
/Times-Bold-iso ff 133.33 scf sf
4725 2205 m
gs 1 -1 sc (1) col-1 sh gr
/Times-Bold-iso ff 133.33 scf sf
4725 1260 m
gs 1 -1 sc (2) col-1 sh gr
/Times-Bold-iso ff 133.33 scf sf
5130 1260 m
gs 1 -1 sc (1) col-1 sh gr
/Times-Bold-iso ff 133.33 scf sf
5130 2205 m
gs 1 -1 sc (-1) col-1 sh gr
/Times-Bold-iso ff 133.33 scf sf
6390 1275 m
gs 1 -1 sc (1) col-1 sh gr
/Times-Bold-iso ff 133.33 scf sf
5745 1935 m
gs 1 -1 sc (2) col-1 sh gr
/Times-Bold-iso ff 133.33 scf sf
6660 1455 m
gs 1 -1 sc (-1) col-1 sh gr
/Times-Bold-iso ff 133.33 scf sf
210 1140 m
gs 1 -1 sc (6) col-1 sh gr
/Times-Bold-iso ff 133.33 scf sf
150 2430 m
gs 1 -1 sc (2) col-1 sh gr
/Symbol ff 166.67 scf sf
2415 1785 m
gs 1 -1 sc (x) col-1 sh gr
/Times-Bold-iso ff 133.33 scf sf
6000 2160 m
gs 1 -1 sc (1) col-1 sh gr
/Symbol ff 166.67 scf sf
1486 436 m
gs 1 -1 sc (x) col-1 sh gr
/Symbol ff 166.67 scf sf
899 2230 m
gs 1 -1 sc (x) col-1 sh gr
/Symbol ff 166.67 scf sf
5062 1015 m
gs 1 -1 sc (x) col-1 sh gr
/Symbol ff 166.67 scf sf
5756 2389 m
gs 1 -1 sc (x) col-1 sh gr
/Symbol ff 166.67 scf sf
4133 1817 m
gs 1 -1 sc (x) col-1 sh gr
% here ends figure;
pagefooter
showpage
%%Trailer
%EOF
