%!PS-Adobe-3.0 EPSF-3.0
%%Title: /Users/mlb/Documents/mlb/livros/crc_press/english/Chapters/chapter8/figures/xfig/solidoaproxf13c.fig
%%Creator: fig2dev Version 3.2 Patchlevel 5d
%%CreationDate: Mon May 26 21:50:52 2014
%%For: mlb@MacBook-Air-de-Marco.local (Marco Lucio Bittencourt)
%%BoundingBox: 0 0 108 107
%Magnification: 1.0000
%%EndComments
%%BeginProlog
/$F2psDict 200 dict def
$F2psDict begin
$F2psDict /mtrx matrix put
/col-1 {0 setgray} bind def
/col0 {0.000 0.000 0.000 srgb} bind def
/col1 {0.000 0.000 1.000 srgb} bind def
/col2 {0.000 1.000 0.000 srgb} bind def
/col3 {0.000 1.000 1.000 srgb} bind def
/col4 {1.000 0.000 0.000 srgb} bind def
/col5 {1.000 0.000 1.000 srgb} bind def
/col6 {1.000 1.000 0.000 srgb} bind def
/col7 {1.000 1.000 1.000 srgb} bind def
/col8 {0.000 0.000 0.560 srgb} bind def
/col9 {0.000 0.000 0.690 srgb} bind def
/col10 {0.000 0.000 0.820 srgb} bind def
/col11 {0.530 0.810 1.000 srgb} bind def
/col12 {0.000 0.560 0.000 srgb} bind def
/col13 {0.000 0.690 0.000 srgb} bind def
/col14 {0.000 0.820 0.000 srgb} bind def
/col15 {0.000 0.560 0.560 srgb} bind def
/col16 {0.000 0.690 0.690 srgb} bind def
/col17 {0.000 0.820 0.820 srgb} bind def
/col18 {0.560 0.000 0.000 srgb} bind def
/col19 {0.690 0.000 0.000 srgb} bind def
/col20 {0.820 0.000 0.000 srgb} bind def
/col21 {0.560 0.000 0.560 srgb} bind def
/col22 {0.690 0.000 0.690 srgb} bind def
/col23 {0.820 0.000 0.820 srgb} bind def
/col24 {0.500 0.190 0.000 srgb} bind def
/col25 {0.630 0.250 0.000 srgb} bind def
/col26 {0.750 0.380 0.000 srgb} bind def
/col27 {1.000 0.500 0.500 srgb} bind def
/col28 {1.000 0.630 0.630 srgb} bind def
/col29 {1.000 0.750 0.750 srgb} bind def
/col30 {1.000 0.880 0.880 srgb} bind def
/col31 {1.000 0.840 0.000 srgb} bind def

end

/cp {closepath} bind def
/ef {eofill} bind def
/gr {grestore} bind def
/gs {gsave} bind def
/sa {save} bind def
/rs {restore} bind def
/l {lineto} bind def
/m {moveto} bind def
/rm {rmoveto} bind def
/n {newpath} bind def
/s {stroke} bind def
/sh {show} bind def
/slc {setlinecap} bind def
/slj {setlinejoin} bind def
/slw {setlinewidth} bind def
/srgb {setrgbcolor} bind def
/rot {rotate} bind def
/sc {scale} bind def
/sd {setdash} bind def
/ff {findfont} bind def
/sf {setfont} bind def
/scf {scalefont} bind def
/sw {stringwidth} bind def
/tr {translate} bind def
/tnt {dup dup currentrgbcolor
  4 -2 roll dup 1 exch sub 3 -1 roll mul add
  4 -2 roll dup 1 exch sub 3 -1 roll mul add
  4 -2 roll dup 1 exch sub 3 -1 roll mul add srgb}
  bind def
/shd {dup dup currentrgbcolor 4 -2 roll mul 4 -2 roll mul
  4 -2 roll mul srgb} bind def
/$F2psBegin {$F2psDict begin /$F2psEnteredState save def} def
/$F2psEnd {$F2psEnteredState restore end} def

/pageheader {
save
newpath 0 107 moveto 0 0 lineto 108 0 lineto 108 107 lineto closepath clip newpath
-20.0 142.9 translate
1 -1 scale
$F2psBegin
10 setmiterlimit
0 slj 0 slc
 0.06000 0.06000 sc
} bind def
/pagefooter {
$F2psEnd
restore
} bind def
%%EndProlog
pageheader
%
% Fig objects follow
%
% 
% here starts figure with depth 50
/Times-Bold ff 133.33 scf sf
588 1575 m
gs 1 -1 sc (F) col0 sh gr
/Times-Bold ff 100.00 scf sf
664 1599 m
gs 1 -1 sc (1) col0 sh gr
/Times-Bold ff 133.33 scf sf
1133 2077 m
gs 1 -1 sc (F) col0 sh gr
/Times-Bold ff 100.00 scf sf
1209 2101 m
gs 1 -1 sc (2) col0 sh gr
/Times-Bold ff 133.33 scf sf
1763 1487 m
gs 1 -1 sc (F) col0 sh gr
/Times-Bold ff 100.00 scf sf
1839 1511 m
gs 1 -1 sc (3) col0 sh gr
/Times-Bold ff 133.33 scf sf
1206 958 m
gs 1 -1 sc (F) col0 sh gr
/Times-Bold ff 100.00 scf sf
1282 982 m
gs 1 -1 sc (4) col0 sh gr
/Times-Bold ff 133.33 scf sf
640 2273 m
gs 1 -1 sc (F) col0 sh gr
/Times-Bold ff 100.00 scf sf
716 2297 m
gs 1 -1 sc (6) col0 sh gr
/Times-Bold ff 133.33 scf sf
1058 1573 m
gs 1 -1 sc (F) col0 sh gr
/Times-Bold ff 100.00 scf sf
1134 1597 m
gs 1 -1 sc (5) col0 sh gr
/Times-Bold ff 133.33 scf sf
1249 1661 m
gs 1 -1 sc (B) col0 sh gr
/Times-Bold ff 100.00 scf sf
1325 1685 m
gs 1 -1 sc (1) col0 sh gr
% here ends figure;
% 
% here starts figure with depth 0
% Polyline
0 slj
0 slc
7.500 slw
n 345 1185 m
 945 615 l gs col0 s gr 
% Polyline
n 1515 1185 m
 2115 615 l gs col0 s gr 
% Polyline
n 1515 2370 m
 2115 1785 l gs col0 s gr 
% Polyline
n 945 1785 m 2115 1785 l 2115 615 l 945 615 l
 cp gs col0 s gr 
% Polyline
n 345 2370 m
 945 1785 l gs col0 s gr 
% Polyline
n 345 2370 m 1515 2370 l 1515 1185 l 345 1185 l
 cp gs col0 s gr 
% here ends figure;
pagefooter
showpage
%%Trailer
%EOF
