%!PS-Adobe-3.0 EPSF-3.0
%%Title: /Users/mlb/Documents/mlb/livros/crc_press/english/Chapters/chapter8/figures/xfig/solidoaproxf3a.fig
%%Creator: fig2dev Version 3.2 Patchlevel 5d
%%CreationDate: Mon May 26 08:08:04 2014
%%For: mlb@MacBook-Air-de-Marco.local (Marco Lucio Bittencourt)
%%BoundingBox: 0 0 98 102
%Magnification: 1.0000
%%EndComments
%%BeginProlog
/$F2psDict 200 dict def
$F2psDict begin
$F2psDict /mtrx matrix put
/col-1 {0 setgray} bind def
/col0 {0.000 0.000 0.000 srgb} bind def
/col1 {0.000 0.000 1.000 srgb} bind def
/col2 {0.000 1.000 0.000 srgb} bind def
/col3 {0.000 1.000 1.000 srgb} bind def
/col4 {1.000 0.000 0.000 srgb} bind def
/col5 {1.000 0.000 1.000 srgb} bind def
/col6 {1.000 1.000 0.000 srgb} bind def
/col7 {1.000 1.000 1.000 srgb} bind def
/col8 {0.000 0.000 0.560 srgb} bind def
/col9 {0.000 0.000 0.690 srgb} bind def
/col10 {0.000 0.000 0.820 srgb} bind def
/col11 {0.530 0.810 1.000 srgb} bind def
/col12 {0.000 0.560 0.000 srgb} bind def
/col13 {0.000 0.690 0.000 srgb} bind def
/col14 {0.000 0.820 0.000 srgb} bind def
/col15 {0.000 0.560 0.560 srgb} bind def
/col16 {0.000 0.690 0.690 srgb} bind def
/col17 {0.000 0.820 0.820 srgb} bind def
/col18 {0.560 0.000 0.000 srgb} bind def
/col19 {0.690 0.000 0.000 srgb} bind def
/col20 {0.820 0.000 0.000 srgb} bind def
/col21 {0.560 0.000 0.560 srgb} bind def
/col22 {0.690 0.000 0.690 srgb} bind def
/col23 {0.820 0.000 0.820 srgb} bind def
/col24 {0.500 0.190 0.000 srgb} bind def
/col25 {0.630 0.250 0.000 srgb} bind def
/col26 {0.750 0.380 0.000 srgb} bind def
/col27 {1.000 0.500 0.500 srgb} bind def
/col28 {1.000 0.630 0.630 srgb} bind def
/col29 {1.000 0.750 0.750 srgb} bind def
/col30 {1.000 0.880 0.880 srgb} bind def
/col31 {1.000 0.840 0.000 srgb} bind def

end

/cp {closepath} bind def
/ef {eofill} bind def
/gr {grestore} bind def
/gs {gsave} bind def
/sa {save} bind def
/rs {restore} bind def
/l {lineto} bind def
/m {moveto} bind def
/rm {rmoveto} bind def
/n {newpath} bind def
/s {stroke} bind def
/sh {show} bind def
/slc {setlinecap} bind def
/slj {setlinejoin} bind def
/slw {setlinewidth} bind def
/srgb {setrgbcolor} bind def
/rot {rotate} bind def
/sc {scale} bind def
/sd {setdash} bind def
/ff {findfont} bind def
/sf {setfont} bind def
/scf {scalefont} bind def
/sw {stringwidth} bind def
/tr {translate} bind def
/tnt {dup dup currentrgbcolor
  4 -2 roll dup 1 exch sub 3 -1 roll mul add
  4 -2 roll dup 1 exch sub 3 -1 roll mul add
  4 -2 roll dup 1 exch sub 3 -1 roll mul add srgb}
  bind def
/shd {dup dup currentrgbcolor 4 -2 roll mul 4 -2 roll mul
  4 -2 roll mul srgb} bind def
/$F2psBegin {$F2psDict begin /$F2psEnteredState save def} def
/$F2psEnd {$F2psEnteredState restore end} def

/pageheader {
save
newpath 0 102 moveto 0 0 lineto 98 0 lineto 98 102 lineto closepath clip newpath
-13.0 172.1 translate
1 -1 scale
$F2psBegin
10 setmiterlimit
0 slj 0 slc
 0.06000 0.06000 sc
} bind def
/pagefooter {
$F2psEnd
restore
} bind def
%%EndProlog
pageheader
%
% Fig objects follow
%
% 
% here starts figure with depth 50
/Times-Bold ff 166.67 scf sf
363 1303 m
gs 1 -1 sc (P) col0 sh gr
/Times-Bold ff 133.33 scf sf
462 1332 m
gs 1 -1 sc (2) col0 sh gr
/Times-Bold ff 166.67 scf sf
1672 2637 m
gs 1 -1 sc (P) col0 sh gr
/Times-Bold ff 133.33 scf sf
1771 2666 m
gs 1 -1 sc (1) col0 sh gr
/Times-Bold ff 166.67 scf sf
578 2630 m
gs 1 -1 sc (0) col0 sh gr
/Times-Bold ff 166.67 scf sf
1057 2818 m
gs 1 -1 sc (p) col0 sh gr
/Times-Bold ff 166.67 scf sf
232 1873 m
gs 1 -1 sc (q) col0 sh gr
/Times-Bold ff 166.67 scf sf
404 2432 m
gs 1 -1 sc (0) col0 sh gr
% here ends figure;
% 
% here starts figure with depth 0
% Polyline
0 slj
0 slc
7.500 slw
n 600 2400 m 1800 2400 l 1800 1200 l 600 1200 l
 cp gs col-1 s gr 
% Polyline
15.000 slw
gs  clippath
466 1495 m 466 1343 l 406 1343 l 406 1495 l 406 1495 l 436 1375 l 466 1495 l cp
eoclip
n 436 2247 m
 436 1358 l gs col0 s gr gr

% arrowhead
7.500 slw
n 466 1495 m 436 1375 l 406 1495 l  col0 s
% Polyline
15.000 slw
gs  clippath
1509 2616 m 1661 2616 l 1661 2556 l 1509 2556 l 1509 2556 l 1629 2586 l 1509 2616 l cp
eoclip
n 719 2586 m
 1646 2586 l gs col0 s gr gr

% arrowhead
7.500 slw
n 1509 2616 m 1629 2586 l 1509 2556 l  col0 s
% here ends figure;
pagefooter
showpage
%%Trailer
%EOF
