%!PS-Adobe-3.0 EPSF-3.0
%%Title: /Users/mlb/Documents/mlb/livros/crc_press/english/Chapters/chapter8/figures/xfig/solidoaproxf13b.fig
%%Creator: fig2dev Version 3.2 Patchlevel 5d
%%CreationDate: Mon May 26 21:50:36 2014
%%For: mlb@MacBook-Air-de-Marco.local (Marco Lucio Bittencourt)
%%BoundingBox: 0 0 133 128
%Magnification: 1.0000
%%EndComments
%%BeginProlog
/$F2psDict 200 dict def
$F2psDict begin
$F2psDict /mtrx matrix put
/col-1 {0 setgray} bind def
/col0 {0.000 0.000 0.000 srgb} bind def
/col1 {0.000 0.000 1.000 srgb} bind def
/col2 {0.000 1.000 0.000 srgb} bind def
/col3 {0.000 1.000 1.000 srgb} bind def
/col4 {1.000 0.000 0.000 srgb} bind def
/col5 {1.000 0.000 1.000 srgb} bind def
/col6 {1.000 1.000 0.000 srgb} bind def
/col7 {1.000 1.000 1.000 srgb} bind def
/col8 {0.000 0.000 0.560 srgb} bind def
/col9 {0.000 0.000 0.690 srgb} bind def
/col10 {0.000 0.000 0.820 srgb} bind def
/col11 {0.530 0.810 1.000 srgb} bind def
/col12 {0.000 0.560 0.000 srgb} bind def
/col13 {0.000 0.690 0.000 srgb} bind def
/col14 {0.000 0.820 0.000 srgb} bind def
/col15 {0.000 0.560 0.560 srgb} bind def
/col16 {0.000 0.690 0.690 srgb} bind def
/col17 {0.000 0.820 0.820 srgb} bind def
/col18 {0.560 0.000 0.000 srgb} bind def
/col19 {0.690 0.000 0.000 srgb} bind def
/col20 {0.820 0.000 0.000 srgb} bind def
/col21 {0.560 0.000 0.560 srgb} bind def
/col22 {0.690 0.000 0.690 srgb} bind def
/col23 {0.820 0.000 0.820 srgb} bind def
/col24 {0.500 0.190 0.000 srgb} bind def
/col25 {0.630 0.250 0.000 srgb} bind def
/col26 {0.750 0.380 0.000 srgb} bind def
/col27 {1.000 0.500 0.500 srgb} bind def
/col28 {1.000 0.630 0.630 srgb} bind def
/col29 {1.000 0.750 0.750 srgb} bind def
/col30 {1.000 0.880 0.880 srgb} bind def
/col31 {1.000 0.840 0.000 srgb} bind def

end

/cp {closepath} bind def
/ef {eofill} bind def
/gr {grestore} bind def
/gs {gsave} bind def
/sa {save} bind def
/rs {restore} bind def
/l {lineto} bind def
/m {moveto} bind def
/rm {rmoveto} bind def
/n {newpath} bind def
/s {stroke} bind def
/sh {show} bind def
/slc {setlinecap} bind def
/slj {setlinejoin} bind def
/slw {setlinewidth} bind def
/srgb {setrgbcolor} bind def
/rot {rotate} bind def
/sc {scale} bind def
/sd {setdash} bind def
/ff {findfont} bind def
/sf {setfont} bind def
/scf {scalefont} bind def
/sw {stringwidth} bind def
/tr {translate} bind def
/tnt {dup dup currentrgbcolor
  4 -2 roll dup 1 exch sub 3 -1 roll mul add
  4 -2 roll dup 1 exch sub 3 -1 roll mul add
  4 -2 roll dup 1 exch sub 3 -1 roll mul add srgb}
  bind def
/shd {dup dup currentrgbcolor 4 -2 roll mul 4 -2 roll mul
  4 -2 roll mul srgb} bind def
/$F2psBegin {$F2psDict begin /$F2psEnteredState save def} def
/$F2psEnd {$F2psEnteredState restore end} def

/pageheader {
save
newpath 0 128 moveto 0 0 lineto 133 0 lineto 133 128 lineto closepath clip newpath
-8.6 153.1 translate
1 -1 scale
$F2psBegin
10 setmiterlimit
0 slj 0 slc
 0.06000 0.06000 sc
} bind def
/pagefooter {
$F2psEnd
restore
} bind def
%%EndProlog
pageheader
%
% Fig objects follow
%
% 
% here starts figure with depth 50
/Times-Bold ff 133.33 scf sf
159 1148 m
gs 1 -1 sc (V) col0 sh gr
/Times-Bold ff 100.00 scf sf
822 1767 m
gs 1 -1 sc (1) col0 sh gr
/Times-Bold ff 133.33 scf sf
2174 1787 m
gs 1 -1 sc (V) col0 sh gr
/Times-Bold ff 100.00 scf sf
2250 1811 m
gs 1 -1 sc (4) col0 sh gr
/Times-Bold ff 133.33 scf sf
827 521 m
gs 1 -1 sc (V) col0 sh gr
/Times-Bold ff 100.00 scf sf
903 545 m
gs 1 -1 sc (5) col0 sh gr
/Times-Bold ff 133.33 scf sf
2159 557 m
gs 1 -1 sc (V) col0 sh gr
/Times-Bold ff 100.00 scf sf
2235 581 m
gs 1 -1 sc (8) col0 sh gr
/Times-Bold ff 133.33 scf sf
1595 1255 m
gs 1 -1 sc (V) col0 sh gr
/Times-Bold ff 100.00 scf sf
1671 1279 m
gs 1 -1 sc (7) col0 sh gr
/Times-Bold ff 133.33 scf sf
746 1743 m
gs 1 -1 sc (V) col0 sh gr
/Times-Bold ff 100.00 scf sf
235 1172 m
gs 1 -1 sc (6) col0 sh gr
/Times-Bold ff 133.33 scf sf
1502 2513 m
gs 1 -1 sc (V) col0 sh gr
/Times-Bold ff 100.00 scf sf
1578 2537 m
gs 1 -1 sc (3) col0 sh gr
/Times-Bold ff 133.33 scf sf
190 2476 m
gs 1 -1 sc (V) col0 sh gr
/Times-Bold ff 100.00 scf sf
266 2500 m
gs 1 -1 sc (2) col0 sh gr
/Times-Bold ff 133.33 scf sf
555 1962 m
gs 1 -1 sc (E) col0 sh gr
/Times-Bold ff 100.00 scf sf
631 1986 m
gs 1 -1 sc (1) col0 sh gr
/Times-Bold ff 133.33 scf sf
850 2488 m
gs 1 -1 sc (E) col0 sh gr
/Times-Bold ff 100.00 scf sf
926 2512 m
gs 1 -1 sc (2) col0 sh gr
/Times-Bold ff 133.33 scf sf
1873 2138 m
gs 1 -1 sc (E) col0 sh gr
/Times-Bold ff 100.00 scf sf
1949 2162 m
gs 1 -1 sc (3) col0 sh gr
/Times-Bold ff 133.33 scf sf
1350 1724 m
gs 1 -1 sc (E) col0 sh gr
/Times-Bold ff 100.00 scf sf
1426 1748 m
gs 1 -1 sc (4) col0 sh gr
/Times-Bold ff 133.33 scf sf
1015 1115 m
gs 1 -1 sc (E) col0 sh gr
/Times-Bold ff 100.00 scf sf
1091 1139 m
gs 1 -1 sc (6) col0 sh gr
/Times-Bold ff 133.33 scf sf
1623 911 m
gs 1 -1 sc (E) col0 sh gr
/Times-Bold ff 100.00 scf sf
1699 935 m
gs 1 -1 sc (7) col0 sh gr
/Times-Bold ff 133.33 scf sf
1368 719 m
gs 1 -1 sc (E) col0 sh gr
/Times-Bold ff 100.00 scf sf
1444 743 m
gs 1 -1 sc (8) col0 sh gr
/Times-Bold ff 133.33 scf sf
704 956 m
gs 1 -1 sc (E) col0 sh gr
/Times-Bold ff 100.00 scf sf
780 980 m
gs 1 -1 sc (5) col0 sh gr
/Times-Bold ff 133.33 scf sf
168 1755 m
gs 1 -1 sc (E) col0 sh gr
/Times-Bold ff 100.00 scf sf
244 1779 m
gs 1 -1 sc (9) col0 sh gr
/Times-Bold ff 133.33 scf sf
1560 1530 m
gs 1 -1 sc (E) col0 sh gr
/Times-Bold ff 100.00 scf sf
1636 1554 m
gs 1 -1 sc (10) col0 sh gr
/Times-Bold ff 133.33 scf sf
2162 1198 m
gs 1 -1 sc (E) col0 sh gr
/Times-Bold ff 100.00 scf sf
2238 1222 m
gs 1 -1 sc (11) col0 sh gr
/Times-Bold ff 133.33 scf sf
990 1442 m
gs 1 -1 sc (E) col0 sh gr
/Times-Bold ff 100.00 scf sf
1066 1466 m
gs 1 -1 sc (12) col0 sh gr
% here ends figure;
% 
% here starts figure with depth 0
% Polyline
0 slj
0 slc
7.500 slw
n 345 1185 m
 945 615 l gs col0 s gr 
% Polyline
n 1515 1185 m
 2115 615 l gs col0 s gr 
% Polyline
n 1515 2370 m
 2115 1785 l gs col0 s gr 
% Polyline
n 945 1785 m 2115 1785 l 2115 615 l 945 615 l
 cp gs col0 s gr 
% Polyline
n 345 2370 m
 945 1785 l gs col0 s gr 
% Polyline
n 345 2370 m 1515 2370 l 1515 1185 l 345 1185 l
 cp gs col0 s gr 
% here ends figure;
pagefooter
showpage
%%Trailer
%EOF
