%!PS-Adobe-3.0 EPSF-3.0
%%Creator: MATLAB, The MathWorks, Inc. Version 8.3.0.532 (R2014a). Operating System: Linux 4.15.0-112-generic #113-Ubuntu SMP Thu Jul 9 23:41:39 UTC 2020 x86_64.
%%Title: /home/doc/Work/Doutorado/thesis/thesis/eps/MPICommunication.eps
%%CreationDate: 08/04/2020  13:59:49
%%DocumentNeededFonts: Helvetica
%%+ Helvetica-Bold
%%DocumentProcessColors: Cyan Magenta Yellow Black
%%LanguageLevel: 2
%%Pages: 1
%%BoundingBox:   -72   149   685   643
%%EndComments

%%BeginProlog
% MathWorks dictionary
/MathWorks 160 dict begin
% definition operators
/bdef {bind def} bind def
/ldef {load def} bind def
/xdef {exch def} bdef
/xstore {exch store} bdef
% operator abbreviations
/c  /clip ldef
/cc /concat ldef
/cp /closepath ldef
/gr /grestore ldef
/gs /gsave ldef
/mt /moveto ldef
/np /newpath ldef
/cm /currentmatrix ldef
/sm /setmatrix ldef
/rm /rmoveto ldef
/rl /rlineto ldef
/s {show newpath} bdef
/sc {setcmykcolor} bdef
/sr /setrgbcolor ldef
/sg /setgray ldef
/w /setlinewidth ldef
/j /setlinejoin ldef
/cap /setlinecap ldef
/rc {rectclip} bdef
/rf {rectfill} bdef
% page state control
/pgsv () def
/bpage {/pgsv save def} bdef
/epage {pgsv restore} bdef
/bplot /gsave ldef
/eplot {stroke grestore} bdef
% orientation switch
/portraitMode 0 def /landscapeMode 1 def /rotateMode 2 def
% coordinate system mappings
/dpi2point 0 def
% font control
/FontSize 0 def
/FMS {/FontSize xstore findfont [FontSize 0 0 FontSize neg 0 0]
  makefont setfont} bdef
/reencode {exch dup where {pop load} {pop StandardEncoding} ifelse
  exch dup 3 1 roll findfont dup length dict begin
  { 1 index /FID ne {def}{pop pop} ifelse } forall
  /Encoding exch def currentdict end definefont pop} bdef
/isroman {findfont /CharStrings get /Agrave known} bdef
/FMSR {3 1 roll 1 index dup isroman {reencode} {pop pop} ifelse
  exch FMS} bdef
/csm {1 dpi2point div -1 dpi2point div scale neg translate
 dup landscapeMode eq {pop -90 rotate}
  {rotateMode eq {90 rotate} if} ifelse} bdef
% line types: solid, dotted, dashed, dotdash
/SO { [] 0 setdash } bdef
/DO { [.5 dpi2point mul 4 dpi2point mul] 0 setdash } bdef
/DA { [6 dpi2point mul] 0 setdash } bdef
/DD { [.5 dpi2point mul 4 dpi2point mul 6 dpi2point mul 4
  dpi2point mul] 0 setdash } bdef
% macros for lines and objects
/L {lineto stroke} bdef
/MP {3 1 roll moveto 1 sub {rlineto} repeat} bdef
/AP {{rlineto} repeat} bdef
/PDlw -1 def
/W {/PDlw currentlinewidth def setlinewidth} def
/PP {closepath eofill} bdef
/DP {closepath stroke} bdef
/MR {4 -2 roll moveto dup  0 exch rlineto exch 0 rlineto
  neg 0 exch rlineto closepath} bdef
/FR {MR stroke} bdef
/PR {MR fill} bdef
/L1i {{currentfile picstr readhexstring pop} image} bdef
/tMatrix matrix def
/MakeOval {newpath tMatrix currentmatrix pop translate scale
0 0 1 0 360 arc tMatrix setmatrix} bdef
/FO {MakeOval stroke} bdef
/PO {MakeOval fill} bdef
/PD {currentlinewidth 2 div 0 360 arc fill
   PDlw -1 eq not {PDlw w /PDlw -1 def} if} def
/FA {newpath tMatrix currentmatrix pop translate scale
  0 0 1 5 -2 roll arc tMatrix setmatrix stroke} bdef
/PA {newpath tMatrix currentmatrix pop	translate 0 0 moveto scale
  0 0 1 5 -2 roll arc closepath tMatrix setmatrix fill} bdef
/FAn {newpath tMatrix currentmatrix pop translate scale
  0 0 1 5 -2 roll arcn tMatrix setmatrix stroke} bdef
/PAn {newpath tMatrix currentmatrix pop translate 0 0 moveto scale
  0 0 1 5 -2 roll arcn closepath tMatrix setmatrix fill} bdef
/vradius 0 def /hradius 0 def /lry 0 def
/lrx 0 def /uly 0 def /ulx 0 def /rad 0 def
/MRR {/vradius xdef /hradius xdef /lry xdef /lrx xdef /uly xdef
  /ulx xdef newpath tMatrix currentmatrix pop ulx hradius add uly
  vradius add translate hradius vradius scale 0 0 1 180 270 arc 
  tMatrix setmatrix lrx hradius sub uly vradius add translate
  hradius vradius scale 0 0 1 270 360 arc tMatrix setmatrix
  lrx hradius sub lry vradius sub translate hradius vradius scale
  0 0 1 0 90 arc tMatrix setmatrix ulx hradius add lry vradius sub
  translate hradius vradius scale 0 0 1 90 180 arc tMatrix setmatrix
  closepath} bdef
/FRR {MRR stroke } bdef
/PRR {MRR fill } bdef
/MlrRR {/lry xdef /lrx xdef /uly xdef /ulx xdef /rad lry uly sub 2 div def
  newpath tMatrix currentmatrix pop ulx rad add uly rad add translate
  rad rad scale 0 0 1 90 270 arc tMatrix setmatrix lrx rad sub lry rad
  sub translate rad rad scale 0 0 1 270 90 arc tMatrix setmatrix
  closepath} bdef
/FlrRR {MlrRR stroke } bdef
/PlrRR {MlrRR fill } bdef
/MtbRR {/lry xdef /lrx xdef /uly xdef /ulx xdef /rad lrx ulx sub 2 div def
  newpath tMatrix currentmatrix pop ulx rad add uly rad add translate
  rad rad scale 0 0 1 180 360 arc tMatrix setmatrix lrx rad sub lry rad
  sub translate rad rad scale 0 0 1 0 180 arc tMatrix setmatrix
  closepath} bdef
/FtbRR {MtbRR stroke } bdef
/PtbRR {MtbRR fill } bdef
/stri 6 array def /dtri 6 array def
/smat 6 array def /dmat 6 array def
/tmat1 6 array def /tmat2 6 array def /dif 3 array def
/asub {/ind2 exch def /ind1 exch def dup dup
  ind1 get exch ind2 get sub exch } bdef
/tri_to_matrix {
  2 0 asub 3 1 asub 4 0 asub 5 1 asub
  dup 0 get exch 1 get 7 -1 roll astore } bdef
/compute_transform {
  dmat dtri tri_to_matrix tmat1 invertmatrix 
  smat stri tri_to_matrix tmat2 concatmatrix } bdef
/ds {stri astore pop} bdef
/dt {dtri astore pop} bdef
/db {2 copy /cols xdef /rows xdef mul dup 3 mul string
  currentfile 
  3 index 0 eq {/ASCIIHexDecode filter}
  {/ASCII85Decode filter 3 index 2 eq {/RunLengthDecode filter} if }
  ifelse exch readstring pop
  dup 0 3 index getinterval /rbmap xdef
  dup 2 index dup getinterval /gbmap xdef
  1 index dup 2 mul exch getinterval /bbmap xdef pop pop}bdef
/it {gs np dtri aload pop moveto lineto lineto cp c
  cols rows 8 compute_transform 
  rbmap gbmap bbmap true 3 colorimage gr}bdef
/il {newpath moveto lineto stroke}bdef
currentdict end def
%%EndProlog

%%BeginSetup
MathWorks begin

0 cap

end
%%EndSetup

%%Page: 1 1
%%BeginPageSetup
%%PageBoundingBox:   -72   149   685   643
MathWorks begin
bpage
%%EndPageSetup

%%BeginObject: obj1
bplot

/dpi2point 12 def
portraitMode -0864 7716 csm

    0     0  9090  5923 rc
86 dict begin %Colortable dictionary
/c0 { 0.000000 0.000000 0.000000 sr} bdef
/c1 { 1.000000 1.000000 1.000000 sr} bdef
/c2 { 0.900000 0.000000 0.000000 sr} bdef
/c3 { 0.000000 0.820000 0.000000 sr} bdef
/c4 { 0.000000 0.000000 0.800000 sr} bdef
/c5 { 0.910000 0.820000 0.320000 sr} bdef
/c6 { 1.000000 0.260000 0.820000 sr} bdef
/c7 { 0.000000 0.820000 0.820000 sr} bdef
c0
1 j
1 sg
   0    0 9091 5924 rf
6 w
0 5059 8298 0 0 -5059 604 5156 4 MP
PP
-8298 0 0 5059 8298 0 0 -5059 604 5156 5 MP stroke
4 w
DO
0 sg
 604 5156 mt  604   97 L
 604   97 mt  604   97 L
1415 5156 mt 1415   97 L
1415   97 mt 1415   97 L
2226 5156 mt 2226   97 L
2226   97 mt 2226   97 L
3037 5156 mt 3037   97 L
3037   97 mt 3037   97 L
3848 5156 mt 3848   97 L
3848   97 mt 3848   97 L
4660 5156 mt 4660   97 L
4660   97 mt 4660   97 L
5471 5156 mt 5471   97 L
5471   97 mt 5471   97 L
6282 5156 mt 6282   97 L
6282   97 mt 6282   97 L
7093 5156 mt 7093   97 L
7093   97 mt 7093   97 L
7905 5156 mt 7905   97 L
7905   97 mt 7905   97 L
8716 5156 mt 8716   97 L
8716   97 mt 8716   97 L
 604 5156 mt 8902 5156 L
8902 5156 mt 8902 5156 L
 604 4523 mt 8902 4523 L
8902 4523 mt 8902 4523 L
 604 3891 mt 8902 3891 L
8902 3891 mt 8902 3891 L
 604 3258 mt 8902 3258 L
8902 3258 mt 8902 3258 L
 604 2626 mt 8902 2626 L
8902 2626 mt 8902 2626 L
 604 1994 mt 8902 1994 L
8902 1994 mt 8902 1994 L
 604 1361 mt 8902 1361 L
8902 1361 mt 8902 1361 L
 604  729 mt 8902  729 L
8902  729 mt 8902  729 L
 604   97 mt 8902   97 L
8902   97 mt 8902   97 L
SO
6 w
 604 5156 mt 8902 5156 L
 604   97 mt 8902   97 L
 604 5156 mt  604   97 L
8902 5156 mt 8902   97 L
 604 5156 mt 8902 5156 L
 604 5156 mt  604   97 L
 604 5156 mt  604 5073 L
 604   97 mt  604  179 L
%%IncludeResource: font Helvetica
/Helvetica /ISOLatin1Encoding 300 FMSR

 521 5469 mt 
(1) s
1415 5156 mt 1415 5073 L
1415   97 mt 1415  179 L
1332 5469 mt 
(2) s
1415 5156 mt 1415 5114 L
1415   97 mt 1415  138 L
DO
1415 5156 mt 1415   97 L
1415   97 mt 1415   97 L
SO
1415 5156 mt 1415 5114 L
1415   97 mt 1415  138 L
DO
1415 5156 mt 1415   97 L
1415   97 mt 1415   97 L
SO
1415 5156 mt 1415 5114 L
1415   97 mt 1415  138 L
DO
1415 5156 mt 1415   97 L
1415   97 mt 1415   97 L
SO
1415 5156 mt 1415 5114 L
1415   97 mt 1415  138 L
DO
1415 5156 mt 1415   97 L
1415   97 mt 1415   97 L
SO
1415 5156 mt 1415 5114 L
1415   97 mt 1415  138 L
DO
1415 5156 mt 1415   97 L
1415   97 mt 1415   97 L
SO
1415 5156 mt 1415 5114 L
1415   97 mt 1415  138 L
DO
1415 5156 mt 1415   97 L
1415   97 mt 1415   97 L
SO
1415 5156 mt 1415 5114 L
1415   97 mt 1415  138 L
DO
1415 5156 mt 1415   97 L
1415   97 mt 1415   97 L
SO
1415 5156 mt 1415 5114 L
1415   97 mt 1415  138 L
DO
1415 5156 mt 1415   97 L
1415   97 mt 1415   97 L
SO
1415 5156 mt 1415 5114 L
1415   97 mt 1415  138 L
DO
1415 5156 mt 1415   97 L
1415   97 mt 1415   97 L
SO
2226 5156 mt 2226 5073 L
2226   97 mt 2226  179 L
2143 5469 mt 
(4) s
2226 5156 mt 2226 5114 L
2226   97 mt 2226  138 L
DO
2226 5156 mt 2226   97 L
2226   97 mt 2226   97 L
SO
2226 5156 mt 2226 5114 L
2226   97 mt 2226  138 L
DO
2226 5156 mt 2226   97 L
2226   97 mt 2226   97 L
SO
2226 5156 mt 2226 5114 L
2226   97 mt 2226  138 L
DO
2226 5156 mt 2226   97 L
2226   97 mt 2226   97 L
SO
2226 5156 mt 2226 5114 L
2226   97 mt 2226  138 L
DO
2226 5156 mt 2226   97 L
2226   97 mt 2226   97 L
SO
2226 5156 mt 2226 5114 L
2226   97 mt 2226  138 L
DO
2226 5156 mt 2226   97 L
2226   97 mt 2226   97 L
SO
2226 5156 mt 2226 5114 L
2226   97 mt 2226  138 L
DO
2226 5156 mt 2226   97 L
2226   97 mt 2226   97 L
SO
2226 5156 mt 2226 5114 L
2226   97 mt 2226  138 L
DO
2226 5156 mt 2226   97 L
2226   97 mt 2226   97 L
SO
2226 5156 mt 2226 5114 L
2226   97 mt 2226  138 L
DO
2226 5156 mt 2226   97 L
2226   97 mt 2226   97 L
SO
2226 5156 mt 2226 5114 L
2226   97 mt 2226  138 L
DO
2226 5156 mt 2226   97 L
2226   97 mt 2226   97 L
SO
3037 5156 mt 3037 5073 L
3037   97 mt 3037  179 L
2954 5469 mt 
(8) s
3037 5156 mt 3037 5114 L
3037   97 mt 3037  138 L
DO
3037 5156 mt 3037   97 L
3037   97 mt 3037   97 L
SO
3037 5156 mt 3037 5114 L
3037   97 mt 3037  138 L
DO
3037 5156 mt 3037   97 L
3037   97 mt 3037   97 L
SO
3037 5156 mt 3037 5114 L
3037   97 mt 3037  138 L
DO
3037 5156 mt 3037   97 L
3037   97 mt 3037   97 L
SO
3037 5156 mt 3037 5114 L
3037   97 mt 3037  138 L
DO
3037 5156 mt 3037   97 L
3037   97 mt 3037   97 L
SO
3037 5156 mt 3037 5114 L
3037   97 mt 3037  138 L
DO
3037 5156 mt 3037   97 L
3037   97 mt 3037   97 L
SO
3037 5156 mt 3037 5114 L
3037   97 mt 3037  138 L
DO
3037 5156 mt 3037   97 L
3037   97 mt 3037   97 L
SO
3037 5156 mt 3037 5114 L
3037   97 mt 3037  138 L
DO
3037 5156 mt 3037   97 L
3037   97 mt 3037   97 L
SO
3037 5156 mt 3037 5114 L
3037   97 mt 3037  138 L
DO
3037 5156 mt 3037   97 L
3037   97 mt 3037   97 L
SO
3037 5156 mt 3037 5114 L
3037   97 mt 3037  138 L
DO
3037 5156 mt 3037   97 L
3037   97 mt 3037   97 L
SO
3848 5156 mt 3848 5073 L
3848   97 mt 3848  179 L
3682 5469 mt 
(16) s
3848 5156 mt 3848 5114 L
3848   97 mt 3848  138 L
DO
3848 5156 mt 3848   97 L
3848   97 mt 3848   97 L
SO
3848 5156 mt 3848 5114 L
3848   97 mt 3848  138 L
DO
3848 5156 mt 3848   97 L
3848   97 mt 3848   97 L
SO
3848 5156 mt 3848 5114 L
3848   97 mt 3848  138 L
DO
3848 5156 mt 3848   97 L
3848   97 mt 3848   97 L
SO
3848 5156 mt 3848 5114 L
3848   97 mt 3848  138 L
DO
3848 5156 mt 3848   97 L
3848   97 mt 3848   97 L
SO
3848 5156 mt 3848 5114 L
3848   97 mt 3848  138 L
DO
3848 5156 mt 3848   97 L
3848   97 mt 3848   97 L
SO
3848 5156 mt 3848 5114 L
3848   97 mt 3848  138 L
DO
3848 5156 mt 3848   97 L
3848   97 mt 3848   97 L
SO
3848 5156 mt 3848 5114 L
3848   97 mt 3848  138 L
DO
3848 5156 mt 3848   97 L
3848   97 mt 3848   97 L
SO
3848 5156 mt 3848 5114 L
3848   97 mt 3848  138 L
DO
3848 5156 mt 3848   97 L
3848   97 mt 3848   97 L
SO
3848 5156 mt 3848 5114 L
3848   97 mt 3848  138 L
DO
3848 5156 mt 3848   97 L
3848   97 mt 3848   97 L
SO
4660 5156 mt 4660 5073 L
4660   97 mt 4660  179 L
4494 5469 mt 
(32) s
4660 5156 mt 4660 5114 L
4660   97 mt 4660  138 L
DO
4660 5156 mt 4660   97 L
4660   97 mt 4660   97 L
SO
4660 5156 mt 4660 5114 L
4660   97 mt 4660  138 L
DO
4660 5156 mt 4660   97 L
4660   97 mt 4660   97 L
SO
4660 5156 mt 4660 5114 L
4660   97 mt 4660  138 L
DO
4660 5156 mt 4660   97 L
4660   97 mt 4660   97 L
SO
4660 5156 mt 4660 5114 L
4660   97 mt 4660  138 L
DO
4660 5156 mt 4660   97 L
4660   97 mt 4660   97 L
SO
4660 5156 mt 4660 5114 L
4660   97 mt 4660  138 L
DO
4660 5156 mt 4660   97 L
4660   97 mt 4660   97 L
SO
4660 5156 mt 4660 5114 L
4660   97 mt 4660  138 L
DO
4660 5156 mt 4660   97 L
4660   97 mt 4660   97 L
SO
4660 5156 mt 4660 5114 L
4660   97 mt 4660  138 L
DO
4660 5156 mt 4660   97 L
4660   97 mt 4660   97 L
SO
4660 5156 mt 4660 5114 L
4660   97 mt 4660  138 L
DO
4660 5156 mt 4660   97 L
4660   97 mt 4660   97 L
SO
4660 5156 mt 4660 5114 L
4660   97 mt 4660  138 L
DO
4660 5156 mt 4660   97 L
4660   97 mt 4660   97 L
SO
5471 5156 mt 5471 5073 L
5471   97 mt 5471  179 L
5305 5469 mt 
(64) s
5471 5156 mt 5471 5114 L
5471   97 mt 5471  138 L
DO
5471 5156 mt 5471   97 L
5471   97 mt 5471   97 L
SO
5471 5156 mt 5471 5114 L
5471   97 mt 5471  138 L
DO
5471 5156 mt 5471   97 L
5471   97 mt 5471   97 L
SO
5471 5156 mt 5471 5114 L
5471   97 mt 5471  138 L
DO
5471 5156 mt 5471   97 L
5471   97 mt 5471   97 L
SO
5471 5156 mt 5471 5114 L
5471   97 mt 5471  138 L
DO
5471 5156 mt 5471   97 L
5471   97 mt 5471   97 L
SO
5471 5156 mt 5471 5114 L
5471   97 mt 5471  138 L
DO
5471 5156 mt 5471   97 L
5471   97 mt 5471   97 L
SO
5471 5156 mt 5471 5114 L
5471   97 mt 5471  138 L
DO
5471 5156 mt 5471   97 L
5471   97 mt 5471   97 L
SO
5471 5156 mt 5471 5114 L
5471   97 mt 5471  138 L
DO
5471 5156 mt 5471   97 L
5471   97 mt 5471   97 L
SO
5471 5156 mt 5471 5114 L
5471   97 mt 5471  138 L
DO
5471 5156 mt 5471   97 L
5471   97 mt 5471   97 L
SO
5471 5156 mt 5471 5114 L
5471   97 mt 5471  138 L
DO
5471 5156 mt 5471   97 L
5471   97 mt 5471   97 L
SO
6282 5156 mt 6282 5073 L
6282   97 mt 6282  179 L
6032 5469 mt 
(128) s
6282 5156 mt 6282 5114 L
6282   97 mt 6282  138 L
DO
6282 5156 mt 6282   97 L
6282   97 mt 6282   97 L
SO
6282 5156 mt 6282 5114 L
6282   97 mt 6282  138 L
DO
6282 5156 mt 6282   97 L
6282   97 mt 6282   97 L
SO
6282 5156 mt 6282 5114 L
6282   97 mt 6282  138 L
DO
6282 5156 mt 6282   97 L
6282   97 mt 6282   97 L
SO
6282 5156 mt 6282 5114 L
6282   97 mt 6282  138 L
DO
6282 5156 mt 6282   97 L
6282   97 mt 6282   97 L
SO
6282 5156 mt 6282 5114 L
6282   97 mt 6282  138 L
DO
6282 5156 mt 6282   97 L
6282   97 mt 6282   97 L
SO
6282 5156 mt 6282 5114 L
6282   97 mt 6282  138 L
DO
6282 5156 mt 6282   97 L
6282   97 mt 6282   97 L
SO
6282 5156 mt 6282 5114 L
6282   97 mt 6282  138 L
DO
6282 5156 mt 6282   97 L
6282   97 mt 6282   97 L
SO
6282 5156 mt 6282 5114 L
6282   97 mt 6282  138 L
DO
6282 5156 mt 6282   97 L
6282   97 mt 6282   97 L
SO
6282 5156 mt 6282 5114 L
6282   97 mt 6282  138 L
DO
6282 5156 mt 6282   97 L
6282   97 mt 6282   97 L
SO
7093 5156 mt 7093 5073 L
7093   97 mt 7093  179 L
6843 5469 mt 
(256) s
7093 5156 mt 7093 5114 L
7093   97 mt 7093  138 L
DO
7093 5156 mt 7093   97 L
7093   97 mt 7093   97 L
SO
7093 5156 mt 7093 5114 L
7093   97 mt 7093  138 L
DO
7093 5156 mt 7093   97 L
7093   97 mt 7093   97 L
SO
7093 5156 mt 7093 5114 L
7093   97 mt 7093  138 L
DO
7093 5156 mt 7093   97 L
7093   97 mt 7093   97 L
SO
7093 5156 mt 7093 5114 L
7093   97 mt 7093  138 L
DO
7093 5156 mt 7093   97 L
7093   97 mt 7093   97 L
SO
7093 5156 mt 7093 5114 L
7093   97 mt 7093  138 L
DO
7093 5156 mt 7093   97 L
7093   97 mt 7093   97 L
SO
7093 5156 mt 7093 5114 L
7093   97 mt 7093  138 L
DO
7093 5156 mt 7093   97 L
7093   97 mt 7093   97 L
SO
7093 5156 mt 7093 5114 L
7093   97 mt 7093  138 L
DO
7093 5156 mt 7093   97 L
7093   97 mt 7093   97 L
SO
7093 5156 mt 7093 5114 L
7093   97 mt 7093  138 L
DO
7093 5156 mt 7093   97 L
7093   97 mt 7093   97 L
SO
7093 5156 mt 7093 5114 L
7093   97 mt 7093  138 L
DO
7093 5156 mt 7093   97 L
7093   97 mt 7093   97 L
SO
7905 5156 mt 7905 5073 L
7905   97 mt 7905  179 L
7655 5469 mt 
(512) s
7905 5156 mt 7905 5114 L
7905   97 mt 7905  138 L
DO
7905 5156 mt 7905   97 L
7905   97 mt 7905   97 L
SO
7905 5156 mt 7905 5114 L
7905   97 mt 7905  138 L
DO
7905 5156 mt 7905   97 L
7905   97 mt 7905   97 L
SO
7905 5156 mt 7905 5114 L
7905   97 mt 7905  138 L
DO
7905 5156 mt 7905   97 L
7905   97 mt 7905   97 L
SO
7905 5156 mt 7905 5114 L
7905   97 mt 7905  138 L
DO
7905 5156 mt 7905   97 L
7905   97 mt 7905   97 L
SO
7905 5156 mt 7905 5114 L
7905   97 mt 7905  138 L
DO
7905 5156 mt 7905   97 L
7905   97 mt 7905   97 L
SO
7905 5156 mt 7905 5114 L
7905   97 mt 7905  138 L
DO
7905 5156 mt 7905   97 L
7905   97 mt 7905   97 L
SO
7905 5156 mt 7905 5114 L
7905   97 mt 7905  138 L
DO
7905 5156 mt 7905   97 L
7905   97 mt 7905   97 L
SO
7905 5156 mt 7905 5114 L
7905   97 mt 7905  138 L
DO
7905 5156 mt 7905   97 L
7905   97 mt 7905   97 L
SO
7905 5156 mt 7905 5114 L
7905   97 mt 7905  138 L
DO
7905 5156 mt 7905   97 L
7905   97 mt 7905   97 L
SO
8716 5156 mt 8716 5073 L
8716   97 mt 8716  179 L
8383 5469 mt 
(1024) s
8716 5156 mt 8716 5114 L
8716   97 mt 8716  138 L
DO
8716 5156 mt 8716   97 L
8716   97 mt 8716   97 L
SO
 604 5156 mt  686 5156 L
8902 5156 mt 8819 5156 L
 403 5267 mt 
(0) s
 604 4523 mt  686 4523 L
8902 4523 mt 8819 4523 L
 403 4634 mt 
(1) s
 604 3891 mt  686 3891 L
8902 3891 mt 8819 3891 L
 403 4002 mt 
(2) s
 604 3258 mt  686 3258 L
8902 3258 mt 8819 3258 L
 403 3369 mt 
(3) s
 604 2626 mt  686 2626 L
8902 2626 mt 8819 2626 L
 403 2737 mt 
(4) s
 604 1994 mt  686 1994 L
8902 1994 mt 8819 1994 L
 403 2105 mt 
(5) s
 604 1361 mt  686 1361 L
8902 1361 mt 8819 1361 L
 403 1472 mt 
(6) s
 604  729 mt  686  729 L
8902  729 mt 8819  729 L
 403  840 mt 
(7) s
 604   97 mt  686   97 L
8902   97 mt 8819   97 L
 403  208 mt 
(8) s
 604 5156 mt 8902 5156 L
 604   97 mt 8902   97 L
 604 5156 mt  604   97 L
8902 5156 mt 8902   97 L
gs 604 97 8299 5060 rc
48 w
/c8 { 0.000000 0.000000 1.000000 sr} bdef
c8
811 -212 812 373 811 -161 811 -372 811 -88 812 -119 811 -2 811 29 
811 -2 811 -132 604 5156 11 MP stroke
gr

48 w
c8
gs 410 4115 8501 1236 rc
0 j
0 -114 -114 0 0 114 114 0 547 5099 5 MP
gs
PP
gr
DP
0 -114 -114 0 0 114 114 0 1358 4967 5 MP
gs
PP
gr
DP
0 -114 -114 0 0 114 114 0 2169 4965 5 MP
gs
PP
gr
DP
0 -114 -114 0 0 114 114 0 2980 4994 5 MP
gs
PP
gr
DP
0 -114 -114 0 0 114 114 0 3791 4992 5 MP
gs
PP
gr
DP
0 -114 -114 0 0 114 114 0 4603 4873 5 MP
gs
PP
gr
DP
0 -114 -114 0 0 114 114 0 5414 4785 5 MP
gs
PP
gr
DP
0 -114 -114 0 0 114 114 0 6225 4413 5 MP
gs
PP
gr
DP
0 -114 -114 0 0 114 114 0 7036 4252 5 MP
gs
PP
gr
DP
0 -114 -114 0 0 114 114 0 7848 4625 5 MP
gs
PP
gr
DP
0 -114 -114 0 0 114 114 0 8659 4413 5 MP
gs
PP
gr
DP
gr

gs 604 97 8299 5060 rc
/c9 { 0.000000 0.500000 0.000000 sr} bdef
c9
811 -30 812 -197 811 -426 811 -74 811 -478 812 -537 811 -191 811 -16 
811 31 811 -50 604 5156 11 MP stroke
gr

c9
gs 410 2994 8501 2357 rc
0 j
72 95 -72 95 -72 -95 72 -95 604 5251 5 MP
/c10 { 0.000000 0.498039 0.000000 sr} bdef
c10
gs
PP
gr
c9
DP
72 95 -72 95 -72 -95 72 -95 1415 5201 5 MP
c10
gs
PP
gr
c9
DP
72 95 -72 95 -72 -95 72 -95 2226 5232 5 MP
c10
gs
PP
gr
c9
DP
72 95 -72 95 -72 -95 72 -95 3037 5216 5 MP
c10
gs
PP
gr
c9
DP
72 95 -72 95 -72 -95 72 -95 3848 5025 5 MP
c10
gs
PP
gr
c9
DP
72 95 -72 95 -72 -95 72 -95 4660 4488 5 MP
c10
gs
PP
gr
c9
DP
72 95 -72 95 -72 -95 72 -95 5471 4010 5 MP
c10
gs
PP
gr
c9
DP
72 95 -72 95 -72 -95 72 -95 6282 3936 5 MP
c10
gs
PP
gr
c9
DP
72 95 -72 95 -72 -95 72 -95 7093 3510 5 MP
c10
gs
PP
gr
c9
DP
72 95 -72 95 -72 -95 72 -95 7905 3313 5 MP
c10
gs
PP
gr
c9
DP
72 95 -72 95 -72 -95 72 -95 8716 3283 5 MP
c10
gs
PP
gr
c9
DP
gr

gs 604 97 8299 5060 rc
/c11 { 1.000000 0.000000 0.000000 sr} bdef
c11
811 14 812 -1492 811 -1710 811 -753 811 -201 812 -479 811 -283 811 -23 
811 -2 811 0 604 5156 11 MP stroke
gr

c11
gs 410 19 8501 5332 rc
  72   72  604 5156 PO
  72   72 1415 5156 PO
  72   72 2226 5154 PO
  72   72 3037 5131 PO
  72   72 3848 4848 PO
  72   72 4660 4369 PO
  72   72 5471 4168 PO
  72   72 6282 3415 PO
  72   72 7093 1705 PO
  72   72 7905  213 PO
  72   72 8716  227 PO
  72   72  604 5156 FO
  72   72 1415 5156 FO
  72   72 2226 5154 FO
  72   72 3037 5131 FO
  72   72 3848 4848 FO
  72   72 4660 4369 FO
  72   72 5471 4168 FO
  72   72 6282 3415 FO
  72   72 7093 1705 FO
  72   72 7905  213 FO
  72   72 8716  227 FO
gs 604 97 8299 5060 rc
gr
gr

0 sg
%%IncludeResource: font Helvetica-Bold
/Helvetica-Bold /ISOLatin1Encoding 300 FMSR

3143 5775 mt 
(Number of processors) s
 262 3553 mt  -90 rotate
(% of runtime) s
90 rotate
%%IncludeResource: font Helvetica
/Helvetica /ISOLatin1Encoding 120 FMSR

 587 5199 mt 
( ) s
8886  139 mt 
( ) s
6 w
1 sg
0 1183 3480 0 0 -1183 874 1477 4 MP
PP
-3480 0 0 1183 3480 0 0 -1183 874 1477 5 MP stroke
4 w
DO
SO
6 w
0 sg
 874 1477 mt 4354 1477 L
 874  294 mt 4354  294 L
 874 1477 mt  874  294 L
4354 1477 mt 4354  294 L
 874 1477 mt 4354 1477 L
 874 1477 mt  874  294 L
 874 1477 mt 4354 1477 L
 874  294 mt 4354  294 L
 874 1477 mt  874  294 L
4354 1477 mt 4354  294 L
%%IncludeResource: font Helvetica
/Helvetica /ISOLatin1Encoding 300 FMSR

1374  611 mt 
(Polynomial order = 3) s
gs 874 294 3481 1184 rc
48 w
c8
385 0 950 505 2 MP stroke
gs 949 311 389 389 rc
0 j
0 -114 -114 0 0 114 114 0 1086 448 5 MP
gs
PP
gr
DP
gr

gr

48 w
c8
0 sg
1374  992 mt 
(Polynomial order = 6) s
gs 874 294 3481 1184 rc
c9
385 0 950 885 2 MP stroke
gs 949 691 389 389 rc
0 j
72 95 -72 95 -72 -95 72 -95 1143 980 5 MP
c10
gs
PP
gr
c9
DP
gr

gr

c9
0 sg
1374 1373 mt 
(Polynomial order = 9) s
gs 874 294 3481 1184 rc
c11
385 0 950 1265 2 MP stroke
gs 949 1071 389 389 rc
  72   72 1143 1265 PO
  72   72 1143 1265 FO
gr

6 w
gr

6 w
c11

end %%Color Dict

eplot
%%EndObject

epage
end

showpage

%%Trailer
%%EOF
