%!PS-Adobe-3.0 EPSF-3.0
%%Creator: cairo 1.15.10 (http://cairographics.org)
%%CreationDate: Sun Aug 23 15:07:14 2020
%%Pages: 1
%%DocumentData: Clean7Bit
%%LanguageLevel: 2
%%BoundingBox: 0 0 658 459
%%EndComments
%%BeginProlog
50 dict begin
/q { gsave } bind def
/Q { grestore } bind def
/cm { 6 array astore concat } bind def
/w { setlinewidth } bind def
/J { setlinecap } bind def
/j { setlinejoin } bind def
/M { setmiterlimit } bind def
/d { setdash } bind def
/m { moveto } bind def
/l { lineto } bind def
/c { curveto } bind def
/h { closepath } bind def
/re { exch dup neg 3 1 roll 5 3 roll moveto 0 rlineto
      0 exch rlineto 0 rlineto closepath } bind def
/S { stroke } bind def
/f { fill } bind def
/f* { eofill } bind def
/n { newpath } bind def
/W { clip } bind def
/W* { eoclip } bind def
/BT { } bind def
/ET { } bind def
/BDC { mark 3 1 roll /BDC pdfmark } bind def
/EMC { mark /EMC pdfmark } bind def
/cairo_store_point { /cairo_point_y exch def /cairo_point_x exch def } def
/Tj { show currentpoint cairo_store_point } bind def
/TJ {
  {
    dup
    type /stringtype eq
    { show } { -0.001 mul 0 cairo_font_matrix dtransform rmoveto } ifelse
  } forall
  currentpoint cairo_store_point
} bind def
/cairo_selectfont { cairo_font_matrix aload pop pop pop 0 0 6 array astore
    cairo_font exch selectfont cairo_point_x cairo_point_y moveto } bind def
/Tf { pop /cairo_font exch def /cairo_font_matrix where
      { pop cairo_selectfont } if } bind def
/Td { matrix translate cairo_font_matrix matrix concatmatrix dup
      /cairo_font_matrix exch def dup 4 get exch 5 get cairo_store_point
      /cairo_font where { pop cairo_selectfont } if } bind def
/Tm { 2 copy 8 2 roll 6 array astore /cairo_font_matrix exch def
      cairo_store_point /cairo_font where { pop cairo_selectfont } if } bind def
/g { setgray } bind def
/rg { setrgbcolor } bind def
/d1 { setcachedevice } bind def
/cairo_data_source {
  CairoDataIndex CairoData length lt
    { CairoData CairoDataIndex get /CairoDataIndex CairoDataIndex 1 add def }
    { () } ifelse
} def
/cairo_flush_ascii85_file { cairo_ascii85_file status { cairo_ascii85_file flushfile } if } def
/cairo_image { image cairo_flush_ascii85_file } def
/cairo_imagemask { imagemask cairo_flush_ascii85_file } def
%%EndProlog
%%BeginSetup
%%EndSetup
%%Page: 1 1
%%BeginPageSetup
%%PageBoundingBox: 0 0 658 459
%%EndPageSetup
q 0 0 658 459 rectclip
1 0 0 -1 0 459 cm q
1 g
0 0 657.637 458.645 re f
96.379 12.059 558 434.879 re f
Q q
96.379 12.059 558 434.879 re W n
q
96 12 559 435 re W n
[ 1 0 0 1 0 0 ] concat
  q
0.121569 0.466667 0.705882 rg
121.742 49.832 69.969 397.105 re f
  Q
Q
q
96 12 559 435 re W n
[ 1 0 0 1 0 0 ] concat
  q
0.121569 0.466667 0.705882 rg
209.203 162.59 69.969 284.348 re f
  Q
Q
q
96 12 559 435 re W n
[ 1 0 0 1 0 0 ] concat
  q
0.121569 0.466667 0.705882 rg
296.664 239.312 69.969 207.625 re f
  Q
Q
q
96 12 559 435 re W n
[ 1 0 0 1 0 0 ] concat
  q
0.121569 0.466667 0.705882 rg
384.125 292.371 69.969 154.566 re f
  Q
Q
q
96 12 559 435 re W n
[ 1 0 0 1 0 0 ] concat
  q
0.121569 0.466667 0.705882 rg
471.586 300.445 69.969 146.492 re f
  Q
Q
q
96 12 559 435 re W n
[ 1 0 0 1 0 0 ] concat
  q
0.121569 0.466667 0.705882 rg
559.047 359.156 69.969 87.781 re f
  Q
Q
Q q
0 g
0.8 w
0 J
1 j
[] 0.0 d
4 M q 1 0 0 1 0 0 cm
160.449 4.023 m 160.449 7.523 l S Q
0 0 0.545098 rg
147.883 46.578 m 151.605 42.145 l 152.953 43.277 l 149.23 47.711 l h
147.883 46.578 m f
152.004 29.75 m 150.988 30.957 150.633 32.297 150.938 33.762 c 151.242 
35.227 152.172 36.609 153.723 37.914 c 155.27 39.211 156.793 39.883 158.289
 39.93 c 159.781 39.973 161.039 39.391 162.051 38.184 c 163.062 36.977 163.414
 35.645 163.109 34.184 c 162.801 32.723 161.871 31.344 160.324 30.047 c 
158.773 28.742 157.25 28.066 155.758 28.016 c 154.266 27.969 153.016 28.547
 152.004 29.75 c h
150.652 28.621 m 152.098 26.898 153.832 26.008 155.852 25.945 c 157.871
 25.883 159.855 26.664 161.797 28.293 c 163.73 29.918 164.844 31.73 165.133
 33.734 c 165.426 35.734 164.848 37.594 163.402 39.316 c 161.953 41.043 
160.219 41.941 158.195 42.012 c 156.176 42.078 154.195 41.297 152.254 39.668
 c 150.312 38.039 149.195 36.223 148.91 34.219 c 148.621 32.215 149.203 
30.348 150.652 28.621 c h
150.652 28.621 m f
167.832 20.094 m 168.672 19.441 169.547 19.117 170.461 19.125 c 171.371
 19.129 172.223 19.461 173.012 20.125 c 174.227 21.141 174.812 22.344 174.777
 23.734 c 174.742 25.125 174.082 26.59 172.793 28.125 c 172.359 28.641 171.863
 29.129 171.305 29.59 c 170.742 30.051 170.117 30.484 169.426 30.895 c 167.824
 29.551 l 168.477 29.316 169.102 28.98 169.699 28.547 c 170.297 28.113 170.848
 27.598 171.352 27 c 172.223 25.957 172.684 24.992 172.73 24.102 c 172.777
 23.211 172.41 22.434 171.625 21.777 c 170.902 21.168 170.121 20.945 169.289
 21.113 c 168.453 21.277 167.656 21.812 166.898 22.715 c 165.695 24.148 
l 164.328 23 l 165.586 21.504 l 166.273 20.688 166.633 19.926 166.672 19.215
 c 166.707 18.508 166.418 17.898 165.805 17.383 c 165.176 16.852 164.504
 16.672 163.789 16.836 c 163.078 16.996 162.371 17.496 161.672 18.328 c 
161.289 18.785 160.93 19.316 160.59 19.922 c 160.25 20.527 159.922 21.227
 159.605 22.027 c 158.125 20.785 l 158.48 20.004 158.848 19.301 159.219 
18.68 c 159.594 18.055 159.988 17.496 160.398 17.008 c 161.457 15.746 162.582
 14.988 163.77 14.738 c 164.961 14.48 166.043 14.762 167.02 15.582 c 167.699
 16.152 168.109 16.832 168.254 17.613 c 168.395 18.398 168.254 19.223 167.832
 20.094 c h
167.832 20.094 m f
0 g
q 1 0 0 1 0 0 cm
244.188 446.938 m 244.188 450.438 l S Q
0 0 0.545098 rg
235.699 154.109 m 240.199 157.883 l 242.438 155.215 l 243.188 154.324 243.559
 153.504 243.547 152.766 c 243.539 152.023 243.156 151.332 242.395 150.691
 c 241.625 150.047 240.879 149.789 240.152 149.914 c 239.426 150.039 238.688
 150.547 237.938 151.441 c h
230.645 149.867 m 234.348 152.973 l 236.414 150.512 l 237.094 149.699 237.449
 148.969 237.48 148.316 c 237.508 147.664 237.211 147.074 236.586 146.551
 c 235.965 146.027 235.336 145.84 234.691 145.98 c 234.055 146.121 233.395
 146.594 232.711 147.406 c h
227.887 150.383 m 231.449 146.133 l 232.512 144.867 233.594 144.113 234.695
 143.871 c 235.801 143.625 236.836 143.91 237.805 144.723 c 238.559 145.355
 239.012 146.035 239.16 146.758 c 239.309 147.48 239.152 148.23 238.691 
149.004 c 239.555 148.332 240.453 148.004 241.391 148.02 c 242.328 148.035
 243.215 148.391 244.047 149.09 c 245.145 150.012 245.68 151.094 245.652
 152.344 c 245.621 153.59 245.031 154.902 243.875 156.281 c 240.172 160.691
 l h
227.887 150.383 m f
237.586 138.82 m 238.98 137.16 l 249.871 146.297 l 254.891 140.312 l 256.289
 141.484 l 249.875 149.129 l h
237.586 138.82 m f
250.555 126.691 m 254.777 134.078 l 258.566 129.562 l h
248.129 126.258 m 249.711 124.371 l 265.926 130 l 264.477 131.727 l 260.387
 130.203 l 255.738 135.738 l 257.949 139.504 l 256.48 141.258 l h
248.129 126.258 m f
261.727 110.871 m 263.348 112.23 l 262.52 112.609 261.793 113.016 261.176
 113.449 c 260.559 113.887 260.027 114.363 259.59 114.887 c 258.832 115.789
 258.422 116.633 258.363 117.422 c 258.301 118.207 258.594 118.871 259.242
 119.414 c 259.785 119.871 260.332 120.055 260.883 119.961 c 261.434 119.863
 262.176 119.434 263.109 118.664 c 264.16 117.832 l 265.434 116.793 266.617
 116.227 267.711 116.137 c 268.801 116.047 269.844 116.418 270.84 117.254
 c 272.031 118.258 272.602 119.414 272.543 120.727 c 272.488 122.039 271.816
 123.469 270.523 125.008 c 270.035 125.59 269.449 126.152 268.766 126.699
 c 268.086 127.242 267.32 127.758 266.477 128.246 c 264.762 126.809 l 265.707
 126.449 266.547 126.027 267.281 125.543 c 268.02 125.055 268.648 124.5 
269.172 123.875 c 269.969 122.926 270.395 122.039 270.457 121.211 c 270.516
 120.379 270.199 119.676 269.508 119.094 c 268.906 118.59 268.277 118.379
 267.629 118.465 c 266.977 118.547 266.211 118.941 265.332 119.645 c 264.285
 120.492 l 262.996 121.523 261.859 122.098 260.867 122.211 c 259.875 122.32
 258.91 121.984 257.973 121.195 c 256.887 120.281 256.352 119.184 256.367
 117.891 c 256.387 116.602 256.957 115.285 258.086 113.941 c 258.57 113.367
 259.113 112.824 259.719 112.312 c 260.328 111.801 260.996 111.32 261.727
 110.871 c h
261.727 110.871 m f
0 g
q 1 0 0 1 0 0 cm
334.75 175.855 m 334.75 179.355 l S Q
0 0 0.545098 rg
316.184 232.715 m 319.906 228.281 l 321.254 229.41 l 317.531 233.848 l 
h
316.184 232.715 m f
323.379 225.543 m 324.488 226.477 325.555 226.98 326.574 227.055 c 327.594
 227.129 328.438 226.766 329.109 225.965 c 329.781 225.164 329.992 224.266
 329.746 223.277 c 329.5 222.281 328.82 221.32 327.707 220.383 c 326.594
 219.449 325.527 218.949 324.504 218.879 c 323.484 218.809 322.641 219.172
 321.969 219.973 c 321.297 220.773 321.086 221.668 321.332 222.656 c 321.582
 223.648 322.266 224.609 323.379 225.543 c h
330.922 223.086 m 331.203 223.863 331.273 224.605 331.133 225.316 c 330.992
 226.023 330.637 226.719 330.066 227.398 c 329.133 228.512 327.926 229.047
 326.453 229.004 c 324.977 228.953 323.512 228.324 322.066 227.105 c 320.617
 225.891 319.742 224.562 319.438 223.117 c 319.137 221.672 319.457 220.395
 320.391 219.281 c 320.961 218.598 321.582 218.129 322.258 217.867 c 322.93
 217.605 323.672 217.543 324.488 217.684 c 323.09 216.512 l 324.359 214.996
 l 337.082 225.672 l 335.812 227.188 l h
330.922 223.086 m f
337.059 207.281 m 342.625 211.949 l 341.352 213.461 l 335.84 208.836 l 
334.965 208.105 334.172 207.727 333.453 207.703 c 332.734 207.684 332.09
 208.008 331.52 208.688 c 330.832 209.508 330.551 210.371 330.68 211.281
 c 330.801 212.188 331.312 213.02 332.215 213.777 c 337.422 218.148 l 336.145
 219.668 l 323.34 208.926 l 324.617 207.402 l 329.637 211.617 l 329.387 
210.785 329.332 210.012 329.469 209.293 c 329.609 208.57 329.945 207.891
 330.484 207.246 c 331.375 206.188 332.375 205.664 333.484 205.668 c 334.594
 205.676 335.785 206.211 337.059 207.281 c h
337.059 207.281 m f
339.996 198.516 m 339.316 199.328 339.094 200.234 339.332 201.238 c 339.57
 202.242 340.242 203.207 341.344 204.133 c 342.445 205.059 343.512 205.551
 344.535 205.613 c 345.566 205.676 346.422 205.297 347.105 204.48 c 347.785
 203.676 348.004 202.77 347.762 201.766 c 347.523 200.758 346.852 199.793
 345.754 198.875 c 344.664 197.957 343.602 197.469 342.566 197.402 c 341.531
 197.336 340.676 197.707 339.996 198.516 c h
338.715 197.441 m 339.82 196.125 341.117 195.449 342.602 195.418 c 344.09
 195.379 345.59 195.996 347.102 197.27 c 348.609 198.531 349.48 199.902 
349.707 201.379 c 349.934 202.852 349.496 204.242 348.391 205.559 c 347.281
 206.883 345.984 207.559 344.496 207.586 c 343.008 207.613 341.512 206.992
 340.004 205.727 c 338.492 204.457 337.621 203.09 337.395 201.625 c 337.164
 200.156 337.605 198.762 338.715 197.441 c h
338.715 197.441 m f
343.23 187.191 m 345.848 189.387 l 348.465 186.27 l 349.641 187.258 l 347.027
 190.375 l 352.031 194.574 l 352.781 195.203 353.352 195.508 353.734 195.48
 c 354.121 195.453 354.582 195.125 355.113 194.492 c 356.414 192.941 l 357.684
 194.004 l 356.379 195.559 l 355.398 196.727 354.504 197.352 353.695 197.43
 c 352.883 197.508 351.902 197.062 350.754 196.094 c 345.75 191.898 l 344.816
 193.008 l 343.641 192.02 l 344.57 190.91 l 341.953 188.715 l h
343.23 187.191 m f
0 g
q 1 0 0 1 0 0 cm
447.023 161.586 m 447.023 165.086 l S Q
0 0 0.545098 rg
395.773 274.637 m 397.852 272.156 l 408.84 276.039 l 403.125 265.871 l 
405.207 263.395 l 417.492 273.703 l 416.129 275.324 l 405.344 266.273 l 
411.109 276.512 l 409.711 278.18 l 398.625 274.277 l 409.414 283.332 l 408.059
 284.945 l h
395.773 274.637 m f
419.09 262.395 m 418.062 263.617 417.488 264.582 417.371 265.289 c 417.254
 265.996 417.535 266.633 418.211 267.199 c 418.75 267.648 419.324 267.832
 419.938 267.742 c 420.547 267.648 421.109 267.301 421.621 266.695 c 422.324
 265.852 422.594 264.93 422.422 263.922 c 422.254 262.914 421.676 262 420.691
 261.172 c 420.352 260.887 l h
420.996 258.848 m 426.254 263.262 l 424.984 264.773 l 423.586 263.602 l
 423.855 264.414 423.906 265.191 423.738 265.934 c 423.574 266.672 423.176
 267.414 422.551 268.16 c 421.758 269.105 420.863 269.633 419.867 269.746
 c 418.867 269.855 417.926 269.539 417.039 268.797 c 416.004 267.926 415.512
 266.922 415.566 265.789 c 415.625 264.652 416.23 263.395 417.383 262.02
 c 419.168 259.895 l 419.016 259.766 l 418.32 259.184 417.59 258.961 416.824
 259.098 c 416.059 259.238 415.328 259.719 414.633 260.547 c 414.191 261.074
 413.824 261.641 413.531 262.25 c 413.238 262.852 413.023 263.492 412.891
 264.164 c 411.492 262.988 l 411.742 262.254 412.031 261.582 412.363 260.973
 c 412.695 260.363 413.066 259.809 413.48 259.316 c 414.602 257.984 415.781
 257.277 417.027 257.199 c 418.27 257.121 419.594 257.668 420.996 258.848
 c h
420.996 258.848 m f
429.738 247.812 m 435.301 252.48 l 434.031 253.992 l 428.516 249.367 l 
427.645 248.637 426.848 248.258 426.133 248.234 c 425.41 248.215 424.766
 248.539 424.195 249.219 c 423.512 250.039 423.23 250.902 423.355 251.812
 c 423.477 252.719 423.988 253.551 424.891 254.309 c 430.098 258.68 l 428.82
 260.199 l 419.605 252.469 l 420.883 250.945 l 422.316 252.148 l 422.066
 251.316 422.008 250.543 422.145 249.824 c 422.285 249.102 422.625 248.422
 423.164 247.777 c 424.051 246.719 425.051 246.195 426.16 246.199 c 427.273
 246.207 428.465 246.742 429.738 247.812 c h
429.738 247.812 m f
434.066 246.566 m 428.488 241.883 l 429.758 240.367 l 435.277 245.004 l
 436.152 245.734 436.949 246.113 437.668 246.145 c 438.391 246.168 439.039
 245.84 439.609 245.156 c 440.293 244.344 440.574 243.477 440.449 242.566
 c 440.328 241.652 439.816 240.82 438.918 240.062 c 433.691 235.68 l 434.961
 234.164 l 444.18 241.898 l 442.91 243.414 l 441.492 242.223 l 441.746 243.062
 441.801 243.836 441.668 244.551 c 441.531 245.266 441.195 245.941 440.656
 246.586 c 439.77 247.645 438.766 248.172 437.645 248.168 c 436.527 248.164
 435.332 247.629 434.066 246.566 c h
434.066 246.566 m f
445.68 230.703 m 444.652 231.926 444.082 232.895 443.965 233.598 c 443.848
 234.305 444.125 234.941 444.801 235.508 c 445.34 235.961 445.914 236.141
 446.527 236.051 c 447.141 235.961 447.699 235.609 448.211 235.004 c 448.914
 234.164 449.184 233.238 449.016 232.23 c 448.844 231.227 448.266 230.309
 447.281 229.48 c 446.945 229.199 l h
447.586 227.156 m 452.848 231.57 l 451.574 233.086 l 450.176 231.91 l 450.445
 232.727 450.496 233.504 450.328 234.242 c 450.164 234.984 449.766 235.727
 449.141 236.473 c 448.352 237.414 447.457 237.941 446.457 238.055 c 445.461
 238.168 444.516 237.852 443.629 237.105 c 442.594 236.234 442.102 235.234
 442.156 234.098 c 442.215 232.961 442.82 231.703 443.977 230.328 c 445.758
 228.203 l 445.609 228.078 l 444.91 227.492 444.18 227.27 443.414 227.406
 c 442.648 227.547 441.918 228.031 441.223 228.859 c 440.781 229.387 440.414
 229.953 440.121 230.559 c 439.828 231.164 439.617 231.801 439.484 232.473
 c 438.082 231.297 l 438.332 230.566 438.621 229.895 438.957 229.285 c 439.285
 228.672 439.656 228.121 440.07 227.629 c 441.191 226.293 442.371 225.586
 443.617 225.508 c 444.859 225.43 446.184 225.98 447.586 227.156 c h
447.586 227.156 m f
442.656 217.707 m 443.926 216.195 l 456.73 226.938 l 455.461 228.453 l 
h
442.656 217.707 m f
451.652 208.039 m 453.047 206.375 l 463.938 215.512 l 468.957 209.531 l
 470.355 210.703 l 463.941 218.348 l h
451.652 208.039 m f
459.531 198.648 m 460.926 196.988 l 473.215 207.297 l 471.82 208.957 l 
h
459.531 198.648 m f
472.371 185.273 m 474.121 186.742 l 473.133 186.863 472.242 187.137 471.453
 187.555 c 470.664 187.973 469.969 188.535 469.371 189.25 c 468.191 190.652
 467.719 192.09 467.953 193.555 c 468.184 195.023 469.113 196.438 470.738
 197.797 c 472.355 199.156 473.906 199.824 475.391 199.797 c 476.875 199.77
 478.207 199.055 479.387 197.652 c 479.984 196.938 480.422 196.156 480.695
 195.309 c 480.969 194.457 481.078 193.535 481.027 192.535 c 482.766 193.992
 l 482.672 194.906 482.453 195.773 482.105 196.59 c 481.754 197.402 481.277
 198.172 480.672 198.895 c 479.109 200.758 477.312 201.746 475.273 201.863
 c 473.238 201.977 471.234 201.207 469.266 199.551 c 467.289 197.895 466.184
 196.055 465.941 194.031 c 465.703 192.004 466.363 190.059 467.922 188.199
 c 468.539 187.465 469.219 186.855 469.957 186.371 c 470.699 185.883 471.504
 185.516 472.371 185.273 c h
472.371 185.273 m f
473.578 181.91 m 475.656 179.434 l 486.648 183.316 l 480.93 173.148 l 483.012
 170.668 l 495.297 180.98 l 493.938 182.602 l 483.148 173.547 l 488.914 
183.785 l 487.516 185.457 l 476.43 181.555 l 487.219 190.605 l 485.863 192.219
 l h
473.578 181.91 m f
0 g
q 1 0 0 1 0 0 cm
520.84 213.695 m 520.84 217.195 l S Q
0 0 0.545098 rg
487.145 284.891 m 488.539 283.23 l 499.426 292.367 l 504.449 286.383 l 
505.844 287.559 l 499.43 295.203 l h
487.145 284.891 m f
500.113 272.766 m 504.332 280.152 l 508.125 275.633 l h
497.684 272.328 m 499.266 270.445 l 515.484 276.07 l 514.035 277.801 l 
509.941 276.273 l 505.297 281.812 l 507.508 285.574 l 506.035 287.328 l 
h
497.684 272.328 m f
507.461 263.453 m 512.078 267.328 l 513.832 265.234 l 514.48 264.461 514.785
 263.695 514.738 262.938 c 514.691 262.18 514.297 261.488 513.559 260.867
 c 512.824 260.25 512.078 259.984 511.32 260.074 c 510.566 260.16 509.867
 260.59 509.215 261.363 c h
504.703 263.969 m 507.852 260.215 l 509.008 258.84 510.191 258.059 511.406
 257.879 c 512.621 257.695 513.828 258.105 515.031 259.113 c 516.242 260.133
 516.863 261.254 516.891 262.48 c 516.918 263.703 516.355 265.004 515.199
 266.383 c 513.445 268.473 l 518.383 272.617 l 516.988 274.277 l h
504.703 263.969 m f
518.301 251.09 m 522.52 258.477 l 526.312 253.957 l h
515.875 250.652 m 517.457 248.77 l 533.672 254.395 l 532.223 256.125 l 
528.129 254.598 l 523.484 260.137 l 525.695 263.898 l 524.227 265.652 l 
h
515.875 250.652 m f
531.555 233.891 m 533.305 235.359 l 532.316 235.48 531.426 235.754 530.637
 236.172 c 529.848 236.59 529.152 237.152 528.555 237.867 c 527.379 239.27
 526.902 240.707 527.137 242.172 c 527.367 243.641 528.297 245.055 529.922
 246.414 c 531.539 247.773 533.09 248.441 534.574 248.414 c 536.059 248.391
 537.391 247.672 538.57 246.27 c 539.168 245.555 539.605 244.773 539.879
 243.926 c 540.152 243.074 540.262 242.152 540.211 241.152 c 541.949 242.613
 l 541.855 243.523 541.637 244.391 541.289 245.207 c 540.941 246.02 540.461
 246.789 539.855 247.512 c 538.293 249.375 536.496 250.363 534.457 250.48
 c 532.422 250.594 530.418 249.824 528.449 248.168 c 526.473 246.512 525.367
 244.672 525.125 242.648 c 524.887 240.621 525.547 238.676 527.105 236.816
 c 527.723 236.082 528.402 235.473 529.141 234.988 c 529.883 234.5 530.688
 234.133 531.555 233.891 c h
531.555 233.891 m f
532.762 230.527 m 534.156 228.867 l 539.348 233.223 l 538.781 223.352 l
 540.578 221.211 l 541.188 232.117 l 553.23 231.086 l 551.395 233.273 l 
540.523 234.211 l 546.441 239.176 l 545.047 240.836 l h
532.762 230.527 m f
0 g
q 1 0 0 1 0 0 cm
607.68 236.027 m 607.68 239.527 l S Q
0 0 0.545098 rg
561.699 342.574 m 571.254 350.59 l 572.938 348.582 l 574.359 346.887 575.02
 345.324 574.91 343.891 c 574.801 342.461 573.918 341.051 572.262 339.66
 c 570.617 338.277 569.082 337.66 567.656 337.805 c 566.23 337.949 564.809
 338.871 563.383 340.566 c h
558.938 343.09 m 561.805 339.672 l 563.801 337.293 565.762 335.961 567.688
 335.68 c 569.609 335.395 571.629 336.137 573.734 337.906 c 575.852 339.684
 576.938 341.551 576.992 343.504 c 577.047 345.453 576.078 347.613 574.09
 349.984 c 571.223 353.398 l h
558.938 343.09 m f
581.082 338.812 m 583.359 336.098 l 573.984 328.23 l 572.098 331.684 l 
570.586 330.41 l 572.457 326.977 l 573.852 325.312 l 584.742 334.449 l 587.02
 331.734 l 588.418 332.91 l 582.48 339.984 l h
581.082 338.812 m f
585.125 326.09 m 588.844 321.656 l 590.195 322.785 l 586.473 327.223 l 
h
585.125 326.09 m f
583.926 313.309 m 586.004 310.832 l 596.996 314.711 l 591.281 304.543 l
 593.359 302.066 l 605.645 312.375 l 604.285 314 l 593.496 304.945 l 599.266
 315.184 l 597.863 316.855 l 586.781 312.953 l 597.566 322.004 l 596.215
 323.617 l h
583.926 313.309 m f
607.242 301.066 m 606.215 302.289 605.645 303.254 605.527 303.961 c 605.41
 304.668 605.688 305.305 606.363 305.871 c 606.902 306.324 607.477 306.504
 608.09 306.414 c 608.703 306.324 609.266 305.973 609.773 305.367 c 610.48
 304.527 610.746 303.602 610.578 302.594 c 610.41 301.59 609.832 300.672
 608.844 299.844 c 608.508 299.562 l h
609.152 297.52 m 614.41 301.934 l 613.137 303.449 l 611.742 302.273 l 612.008
 303.09 612.059 303.867 611.895 304.605 c 611.727 305.348 611.332 306.09
 610.703 306.836 c 609.914 307.777 609.02 308.305 608.02 308.418 c 607.023
 308.531 606.082 308.215 605.191 307.469 c 604.156 306.598 603.668 305.598
 603.723 304.461 c 603.777 303.324 604.383 302.066 605.539 300.691 c 607.32
 298.566 l 607.172 298.441 l 606.477 297.855 605.742 297.633 604.977 297.77
 c 604.211 297.91 603.48 298.395 602.785 299.223 c 602.344 299.75 601.977
 300.316 601.684 300.922 c 601.391 301.527 601.18 302.164 601.047 302.836
 c 599.645 301.66 l 599.895 300.93 600.188 300.258 600.52 299.648 c 600.848
 299.035 601.223 298.484 601.637 297.992 c 602.754 296.656 603.938 295.949
 605.18 295.871 c 606.422 295.793 607.746 296.344 609.152 297.52 c h
609.152 297.52 m f
606.449 287.387 m 609.066 289.586 l 611.684 286.465 l 612.859 287.453 l
 610.242 290.57 l 615.246 294.77 l 615.996 295.402 616.566 295.703 616.953
 295.676 c 617.34 295.652 617.797 295.324 618.328 294.691 c 619.633 293.137
 l 620.898 294.199 l 619.594 295.754 l 618.613 296.922 617.719 297.547 616.91
 297.625 c 616.102 297.703 615.121 297.258 613.969 296.293 c 608.965 292.094
 l 608.035 293.207 l 606.855 292.219 l 607.789 291.105 l 605.172 288.91 
l h
606.449 287.387 m f
619.25 280.32 m 619.008 280.41 618.781 280.535 618.566 280.695 c 618.352
 280.855 618.141 281.055 617.941 281.297 c 617.223 282.152 616.949 283.043
 617.121 283.969 c 617.293 284.895 617.898 285.793 618.941 286.668 c 623.797
 290.742 l 622.52 292.266 l 613.305 284.531 l 614.582 283.012 l 616.016 
284.211 l 615.723 283.422 615.656 282.66 615.812 281.926 c 615.969 281.184
 616.352 280.449 616.965 279.719 c 617.051 279.617 617.156 279.508 617.277
 279.395 c 617.395 279.277 617.531 279.152 617.688 279.023 c h
619.25 280.32 m f
619.168 277.547 m 620.438 276.031 l 629.652 283.766 l 628.383 285.281 l
 h
615.578 274.535 m 616.848 273.02 l 618.77 274.629 l 617.496 276.145 l h
615.578 274.535 m f
629.016 266.527 m 630.43 267.715 l 629.836 267.945 629.297 268.227 628.82
 268.555 c 628.34 268.887 627.918 269.273 627.551 269.711 c 626.723 270.695
 626.395 271.719 626.562 272.789 c 626.727 273.852 627.375 274.855 628.5
 275.801 c 629.625 276.742 630.727 277.207 631.805 277.188 c 632.883 277.164
 633.832 276.66 634.66 275.676 c 635.027 275.238 635.332 274.754 635.574
 274.227 c 635.82 273.699 636.004 273.121 636.125 272.492 c 637.527 273.668
 l 637.367 274.254 637.148 274.816 636.867 275.352 c 636.586 275.887 636.234
 276.41 635.805 276.922 c 634.641 278.309 633.277 279.047 631.719 279.133
 c 630.16 279.219 628.641 278.637 627.16 277.395 c 625.656 276.133 624.82
 274.73 624.652 273.184 c 624.484 271.633 625.004 270.141 626.211 268.703
 c 626.602 268.238 627.031 267.82 627.5 267.461 c 627.969 267.094 628.473
 266.785 629.016 266.527 c h
629.016 266.527 m f
641.715 259.262 m 642.457 259.883 l 636.613 266.844 l 637.711 267.652 638.77
 268.008 639.789 267.902 c 640.805 267.797 641.734 267.246 642.578 266.242
 c 643.066 265.66 643.465 265.035 643.781 264.371 c 644.098 263.707 644.34
 262.984 644.504 262.203 c 645.938 263.406 l 645.711 264.145 645.418 264.848
 645.062 265.52 c 644.703 266.191 644.281 266.82 643.789 267.41 c 642.555
 268.879 641.148 269.688 639.574 269.828 c 637.996 269.965 636.477 269.422
 635.016 268.199 c 633.508 266.934 632.652 265.52 632.453 263.965 c 632.25
 262.406 632.727 260.934 633.891 259.551 c 634.93 258.312 636.152 257.668
 637.555 257.617 c 638.957 257.562 640.344 258.113 641.715 259.262 c h
640 260.402 m 639.164 259.719 638.309 259.398 637.438 259.438 c 636.562
 259.473 635.812 259.867 635.184 260.613 c 634.477 261.457 634.148 262.332
 634.199 263.242 c 634.25 264.148 634.68 265.004 635.48 265.809 c h
640 260.402 m f
644.773 247.582 m 646.203 248.785 l 645.629 249.027 645.09 249.332 644.594
 249.703 c 644.098 250.07 643.641 250.5 643.227 250.996 c 642.598 251.746
 642.238 252.406 642.152 252.977 c 642.066 253.547 642.254 254.023 642.719
 254.41 c 643.07 254.707 643.457 254.801 643.883 254.703 c 644.309 254.602
 644.953 254.219 645.816 253.559 c 646.367 253.137 l 647.496 252.258 648.465
 251.766 649.262 251.664 c 650.062 251.562 650.836 251.828 651.59 252.457
 c 652.445 253.176 652.84 254.086 652.773 255.184 c 652.703 256.277 652.168
 257.418 651.176 258.605 c 650.762 259.098 650.281 259.57 649.734 260.027
 c 649.191 260.48 648.574 260.922 647.887 261.355 c 646.32 260.043 l 647.082
 259.727 647.762 259.359 648.363 258.938 c 648.965 258.516 649.488 258.039
 649.934 257.504 c 650.531 256.793 650.871 256.141 650.949 255.555 c 651.027
 254.965 650.844 254.484 650.398 254.113 c 649.988 253.766 649.559 253.641
 649.105 253.734 c 648.652 253.824 647.934 254.258 646.941 255.023 c 646.375
 255.445 l 645.391 256.219 644.52 256.645 643.762 256.719 c 643.004 256.789
 642.266 256.527 641.555 255.93 c 640.688 255.203 640.277 254.332 640.32
 253.324 c 640.363 252.312 640.859 251.242 641.809 250.113 c 642.277 249.555
 642.762 249.062 643.258 248.641 c 643.754 248.211 644.258 247.859 644.773
 247.582 c h
644.773 247.582 m f
0 g
q 1 0 0 1 0 0 cm
96.379 446.938 m 92.879 446.938 l S Q
61.383 440.688 m 60.27 440.688 59.43 441.238 58.863 442.336 c 58.305 443.434
 58.023 445.086 58.023 447.293 c 58.023 449.492 58.305 451.141 58.863 452.242
 c 59.43 453.34 60.27 453.891 61.383 453.891 c 62.512 453.891 63.352 453.34
 63.914 452.242 c 64.477 451.141 64.762 449.492 64.762 447.293 c 64.762 
445.086 64.477 443.434 63.914 442.336 c 63.352 441.238 62.512 440.688 61.383
 440.688 c h
61.383 438.969 m 63.184 438.969 64.559 439.68 65.508 441.102 c 66.453 442.523
 66.93 444.586 66.93 447.293 c 66.93 449.992 66.453 452.055 65.508 453.477
 c 64.559 454.898 63.184 455.609 61.383 455.609 c 59.59 455.609 58.215 454.898
 57.266 453.477 c 56.316 452.055 55.844 449.992 55.844 447.293 c 55.844 
444.586 56.316 442.523 57.266 441.102 c 58.215 439.68 59.59 438.969 61.383
 438.969 c h
61.383 438.969 m f
70.742 452.566 2.27 2.73 re f
82.375 440.688 m 81.258 440.688 80.418 441.238 79.855 442.336 c 79.293 
443.434 79.012 445.086 79.012 447.293 c 79.012 449.492 79.293 451.141 79.855
 452.242 c 80.418 453.34 81.258 453.891 82.375 453.891 c 83.5 453.891 84.344
 453.34 84.906 452.242 c 85.469 451.141 85.75 449.492 85.75 447.293 c 85.75
 445.086 85.469 443.434 84.906 442.336 c 84.344 441.238 83.5 440.688 82.375
 440.688 c h
82.375 438.969 m 84.176 438.969 85.547 439.68 86.496 441.102 c 87.445 442.523
 87.918 444.586 87.918 447.293 c 87.918 449.992 87.445 452.055 86.496 453.477
 c 85.547 454.898 84.176 455.609 82.375 455.609 c 80.578 455.609 79.207 
454.898 78.258 453.477 c 77.309 452.055 76.832 449.992 76.832 447.293 c 
76.832 444.586 77.309 442.523 78.258 441.102 c 79.207 439.68 80.578 438.969
 82.375 438.969 c h
82.375 438.969 m f
q 1 0 0 1 0 0 cm
96.379 384.812 m 92.879 384.812 l S Q
43.125 391.344 m 46.668 391.344 l 46.668 379.109 l 42.812 379.883 l 42.812
 377.906 l 46.648 377.133 l 48.816 377.133 l 48.816 391.344 l 52.359 391.344
 l 52.359 393.172 l 43.125 393.172 l h
43.125 391.344 m f
61.383 378.562 m 60.27 378.562 59.43 379.113 58.863 380.211 c 58.305 381.309
 58.023 382.961 58.023 385.168 c 58.023 387.367 58.305 389.016 58.863 390.113
 c 59.43 391.215 60.27 391.766 61.383 391.766 c 62.508 391.766 63.352 391.215
 63.914 390.113 c 64.477 389.016 64.762 387.367 64.762 385.168 c 64.762 
382.961 64.477 381.309 63.914 380.211 c 63.352 379.113 62.508 378.562 61.383
 378.562 c h
61.383 376.844 m 63.184 376.844 64.559 377.555 65.504 378.977 c 66.453 
380.398 66.93 382.461 66.93 385.168 c 66.93 387.867 66.453 389.93 65.504
 391.352 c 64.559 392.773 63.184 393.484 61.383 393.484 c 59.586 393.484
 58.215 392.773 57.266 391.352 c 56.316 389.93 55.844 387.867 55.844 385.168
 c 55.844 382.461 56.316 380.398 57.266 378.977 c 58.215 377.555 59.586 
376.844 61.383 376.844 c h
61.383 376.844 m f
70.742 390.441 2.266 2.73 re f
82.375 378.562 m 81.258 378.562 80.418 379.113 79.855 380.211 c 79.293 
381.309 79.012 382.961 79.012 385.168 c 79.012 387.367 79.293 389.016 79.855
 390.113 c 80.418 391.215 81.258 391.766 82.375 391.766 c 83.5 391.766 84.344
 391.215 84.906 390.113 c 85.469 389.016 85.75 387.367 85.75 385.168 c 85.75
 382.961 85.469 381.309 84.906 380.211 c 84.344 379.113 83.5 378.562 82.375
 378.562 c h
82.375 376.844 m 84.172 376.844 85.547 377.555 86.496 378.977 c 87.445 
380.398 87.918 382.461 87.918 385.168 c 87.918 387.867 87.445 389.93 86.496
 391.352 c 85.547 392.773 84.172 393.484 82.375 393.484 c 80.578 393.484
 79.207 392.773 78.258 391.352 c 77.309 389.93 76.832 387.867 76.832 385.168
 c 76.832 382.461 77.309 380.398 78.258 378.977 c 79.207 377.555 80.578 
376.844 82.375 376.844 c h
82.375 376.844 m f
q 1 0 0 1 0 0 cm
96.379 322.688 m 92.879 322.688 l S Q
44.617 329.219 m 52.188 329.219 l 52.188 331.047 l 42.008 331.047 l 42.008
 329.219 l 42.832 328.367 43.953 327.223 45.371 325.789 c 46.797 324.352
 47.691 323.426 48.055 323.008 c 48.75 322.23 49.234 321.57 49.508 321.027
 c 49.785 320.488 49.926 319.957 49.926 319.434 c 49.926 318.582 49.625 
317.887 49.027 317.352 c 48.43 316.812 47.648 316.543 46.688 316.543 c 46.008
 316.543 45.289 316.66 44.535 316.895 c 43.781 317.133 42.973 317.492 42.113
 317.973 c 42.113 315.777 l 42.988 315.43 43.805 315.164 44.562 314.984 
c 45.324 314.805 46.02 314.719 46.648 314.719 c 48.309 314.719 49.633 315.133
 50.621 315.965 c 51.609 316.793 52.102 317.902 52.102 319.293 c 52.102 
319.953 51.98 320.578 51.73 321.168 c 51.488 321.758 51.039 322.453 50.383
 323.254 c 50.207 323.465 49.637 324.066 48.676 325.059 c 47.719 326.051
 46.363 327.438 44.617 329.219 c h
44.617 329.219 m f
61.383 316.438 m 60.27 316.438 59.43 316.984 58.863 318.086 c 58.305 319.184
 58.023 320.836 58.023 323.043 c 58.023 325.242 58.305 326.891 58.863 327.988
 c 59.43 329.09 60.27 329.641 61.383 329.641 c 62.508 329.641 63.352 329.09
 63.914 327.988 c 64.477 326.891 64.762 325.242 64.762 323.043 c 64.762 
320.836 64.477 319.184 63.914 318.086 c 63.352 316.984 62.508 316.438 61.383
 316.438 c h
61.383 314.719 m 63.184 314.719 64.559 315.43 65.504 316.852 c 66.453 318.273
 66.93 320.336 66.93 323.043 c 66.93 325.742 66.453 327.805 65.504 329.227
 c 64.559 330.648 63.184 331.359 61.383 331.359 c 59.586 331.359 58.215 
330.648 57.266 329.227 c 56.316 327.805 55.844 325.742 55.844 323.043 c 
55.844 320.336 56.316 318.273 57.266 316.852 c 58.215 315.43 59.586 314.719
 61.383 314.719 c h
61.383 314.719 m f
70.742 328.316 2.266 2.73 re f
82.375 316.438 m 81.258 316.438 80.418 316.984 79.855 318.086 c 79.293 
319.184 79.012 320.836 79.012 323.043 c 79.012 325.242 79.293 326.891 79.855
 327.988 c 80.418 329.09 81.258 329.641 82.375 329.641 c 83.5 329.641 84.344
 329.09 84.906 327.988 c 85.469 326.891 85.75 325.242 85.75 323.043 c 85.75
 320.836 85.469 319.184 84.906 318.086 c 84.344 316.984 83.5 316.438 82.375
 316.438 c h
82.375 314.719 m 84.172 314.719 85.547 315.43 86.496 316.852 c 87.445 318.273
 87.918 320.336 87.918 323.043 c 87.918 325.742 87.445 327.805 86.496 329.227
 c 85.547 330.648 84.172 331.359 82.375 331.359 c 80.578 331.359 79.207 
330.648 78.258 329.227 c 77.309 327.805 76.832 325.742 76.832 323.043 c 
76.832 320.336 77.309 318.273 78.258 316.852 c 79.207 315.43 80.578 314.719
 82.375 314.719 c h
82.375 314.719 m f
q 1 0 0 1 0 0 cm
96.379 260.562 m 92.879 260.562 l S Q
49.324 260.27 m 50.359 260.492 51.172 260.957 51.754 261.66 c 52.336 262.359
 52.629 263.227 52.629 264.258 c 52.629 265.84 52.086 267.062 50.996 267.934
 c 49.906 268.801 48.359 269.23 46.355 269.23 c 45.684 269.23 44.992 269.164
 44.281 269.031 c 43.566 268.898 42.832 268.699 42.074 268.434 c 42.074 
266.34 l 42.672 266.691 43.332 266.957 44.047 267.137 c 44.762 267.312 45.512
 267.402 46.293 267.402 c 47.652 267.402 48.688 267.137 49.402 266.598 c
 50.113 266.062 50.469 265.281 50.469 264.258 c 50.469 263.312 50.141 262.574
 49.477 262.039 c 48.816 261.508 47.895 261.238 46.715 261.238 c 44.844 
261.238 l 44.844 259.457 l 46.801 259.457 l 47.863 259.457 48.68 259.242
 49.246 258.816 c 49.812 258.391 50.098 257.777 50.098 256.973 c 50.098 
256.152 49.805 255.52 49.219 255.078 c 48.637 254.637 47.801 254.418 46.715
 254.418 c 46.117 254.418 45.48 254.48 44.797 254.613 c 44.117 254.742 43.371
 254.941 42.555 255.211 c 42.555 253.277 l 43.379 253.051 44.152 252.879
 44.871 252.762 c 45.59 252.648 46.27 252.59 46.906 252.59 c 48.555 252.59
 49.855 252.965 50.812 253.715 c 51.773 254.461 52.254 255.473 52.254 256.746
 c 52.254 257.637 52 258.387 51.492 259 c 50.984 259.609 50.262 260.035 
49.324 260.27 c h
49.324 260.27 m f
61.383 254.309 m 60.27 254.309 59.43 254.859 58.863 255.961 c 58.305 257.059
 58.023 258.711 58.023 260.918 c 58.023 263.113 58.305 264.762 58.863 265.863
 c 59.43 266.965 60.27 267.512 61.383 267.512 c 62.508 267.512 63.352 266.965
 63.914 265.863 c 64.477 264.762 64.762 263.113 64.762 260.918 c 64.762 
258.711 64.477 257.059 63.914 255.961 c 63.352 254.859 62.508 254.309 61.383
 254.309 c h
61.383 252.59 m 63.184 252.59 64.559 253.305 65.504 254.727 c 66.453 256.148
 66.93 258.211 66.93 260.918 c 66.93 263.617 66.453 265.68 65.504 267.102
 c 64.559 268.523 63.184 269.23 61.383 269.23 c 59.586 269.23 58.215 268.523
 57.266 267.102 c 56.316 265.68 55.844 263.617 55.844 260.918 c 55.844 258.211
 56.316 256.148 57.266 254.727 c 58.215 253.305 59.586 252.59 61.383 252.59
 c h
61.383 252.59 m f
70.742 266.191 2.266 2.727 re f
82.375 254.309 m 81.258 254.309 80.418 254.859 79.855 255.961 c 79.293 
257.059 79.012 258.711 79.012 260.918 c 79.012 263.113 79.293 264.762 79.855
 265.863 c 80.418 266.965 81.258 267.512 82.375 267.512 c 83.5 267.512 84.344
 266.965 84.906 265.863 c 85.469 264.762 85.75 263.113 85.75 260.918 c 85.75
 258.711 85.469 257.059 84.906 255.961 c 84.344 254.859 83.5 254.309 82.375
 254.309 c h
82.375 252.59 m 84.172 252.59 85.547 253.305 86.496 254.727 c 87.445 256.148
 87.918 258.211 87.918 260.918 c 87.918 263.617 87.445 265.68 86.496 267.102
 c 85.547 268.523 84.172 269.23 82.375 269.23 c 80.578 269.23 79.207 268.523
 78.258 267.102 c 77.309 265.68 76.832 263.617 76.832 260.918 c 76.832 258.211
 77.309 256.148 78.258 254.727 c 79.207 253.305 80.578 252.59 82.375 252.59
 c h
82.375 252.59 m f
q 1 0 0 1 0 0 cm
96.379 198.434 m 92.879 198.434 l S Q
48.711 192.645 m 43.23 201.207 l 48.711 201.207 l h
48.141 190.754 m 50.871 190.754 l 50.871 201.207 l 53.16 201.207 l 53.16
 203.012 l 50.871 203.012 l 50.871 206.793 l 48.711 206.793 l 48.711 203.012
 l 41.473 203.012 l 41.473 200.918 l h
48.141 190.754 m f
61.383 192.184 m 60.27 192.184 59.43 192.734 58.863 193.836 c 58.305 194.934
 58.023 196.586 58.023 198.793 c 58.023 200.988 58.305 202.637 58.863 203.738
 c 59.43 204.836 60.27 205.387 61.383 205.387 c 62.508 205.387 63.352 204.836
 63.914 203.738 c 64.477 202.637 64.762 200.988 64.762 198.793 c 64.762 
196.586 64.477 194.934 63.914 193.836 c 63.352 192.734 62.508 192.184 61.383
 192.184 c h
61.383 190.465 m 63.184 190.465 64.559 191.176 65.504 192.602 c 66.453 
194.02 66.93 196.086 66.93 198.793 c 66.93 201.492 66.453 203.551 65.504
 204.977 c 64.559 206.395 63.184 207.105 61.383 207.105 c 59.586 207.105
 58.215 206.395 57.266 204.977 c 56.316 203.551 55.844 201.492 55.844 198.793
 c 55.844 196.086 56.316 194.02 57.266 192.602 c 58.215 191.176 59.586 190.465
 61.383 190.465 c h
61.383 190.465 m f
70.742 204.062 2.266 2.73 re f
82.375 192.184 m 81.258 192.184 80.418 192.734 79.855 193.836 c 79.293 
194.934 79.012 196.586 79.012 198.793 c 79.012 200.988 79.293 202.637 79.855
 203.738 c 80.418 204.836 81.258 205.387 82.375 205.387 c 83.5 205.387 84.344
 204.836 84.906 203.738 c 85.469 202.637 85.75 200.988 85.75 198.793 c 85.75
 196.586 85.469 194.934 84.906 193.836 c 84.344 192.734 83.5 192.184 82.375
 192.184 c h
82.375 190.465 m 84.172 190.465 85.547 191.176 86.496 192.602 c 87.445 
194.02 87.918 196.086 87.918 198.793 c 87.918 201.492 87.445 203.551 86.496
 204.977 c 85.547 206.395 84.172 207.105 82.375 207.105 c 80.578 207.105
 79.207 206.395 78.258 204.977 c 77.309 203.551 76.832 201.492 76.832 198.793
 c 76.832 196.086 77.309 194.02 78.258 192.602 c 79.207 191.176 80.578 190.465
 82.375 190.465 c h
82.375 190.465 m f
q 1 0 0 1 0 0 cm
96.379 136.309 m 92.879 136.309 l S Q
42.77 128.629 m 51.289 128.629 l 51.289 130.457 l 44.758 130.457 l 44.758
 134.387 l 45.07 134.277 45.387 134.199 45.699 134.145 c 46.016 134.094 
46.332 134.066 46.648 134.066 c 48.438 134.066 49.855 134.559 50.898 135.539
 c 51.949 136.52 52.473 137.848 52.473 139.523 c 52.473 141.246 51.934 142.59
 50.859 143.547 c 49.785 144.504 48.27 144.98 46.316 144.98 c 45.641 144.98
 44.953 144.922 44.254 144.809 c 43.559 144.695 42.84 144.523 42.094 144.293
 c 42.094 142.109 l 42.738 142.461 43.402 142.723 44.09 142.895 c 44.777
 143.066 45.504 143.152 46.27 143.152 c 47.512 143.152 48.492 142.828 49.211
 142.176 c 49.938 141.523 50.297 140.641 50.297 139.523 c 50.297 138.406
 49.938 137.523 49.211 136.871 c 48.492 136.219 47.512 135.891 46.27 135.891
 c 45.691 135.891 45.113 135.957 44.535 136.086 c 43.957 136.215 43.371 
136.414 42.77 136.688 c h
42.77 128.629 m f
61.383 130.059 m 60.27 130.059 59.43 130.609 58.863 131.707 c 58.305 132.805
 58.023 134.457 58.023 136.664 c 58.023 138.863 58.305 140.512 58.863 141.613
 c 59.43 142.711 60.27 143.262 61.383 143.262 c 62.508 143.262 63.352 142.711
 63.914 141.613 c 64.477 140.512 64.762 138.863 64.762 136.664 c 64.762 
134.457 64.477 132.805 63.914 131.707 c 63.352 130.609 62.508 130.059 61.383
 130.059 c h
61.383 128.34 m 63.184 128.34 64.559 129.051 65.504 130.473 c 66.453 131.895
 66.93 133.961 66.93 136.664 c 66.93 139.363 66.453 141.426 65.504 142.848
 c 64.559 144.27 63.184 144.98 61.383 144.98 c 59.586 144.98 58.215 144.27
 57.266 142.848 c 56.316 141.426 55.844 139.363 55.844 136.664 c 55.844 
133.961 56.316 131.895 57.266 130.473 c 58.215 129.051 59.586 128.34 61.383
 128.34 c h
61.383 128.34 m f
70.742 141.938 2.266 2.73 re f
82.375 130.059 m 81.258 130.059 80.418 130.609 79.855 131.707 c 79.293 
132.805 79.012 134.457 79.012 136.664 c 79.012 138.863 79.293 140.512 79.855
 141.613 c 80.418 142.711 81.258 143.262 82.375 143.262 c 83.5 143.262 84.344
 142.711 84.906 141.613 c 85.469 140.512 85.75 138.863 85.75 136.664 c 85.75
 134.457 85.469 132.805 84.906 131.707 c 84.344 130.609 83.5 130.059 82.375
 130.059 c h
82.375 128.34 m 84.172 128.34 85.547 129.051 86.496 130.473 c 87.445 131.895
 87.918 133.961 87.918 136.664 c 87.918 139.363 87.445 141.426 86.496 142.848
 c 85.547 144.27 84.172 144.98 82.375 144.98 c 80.578 144.98 79.207 144.27
 78.258 142.848 c 77.309 141.426 76.832 139.363 76.832 136.664 c 76.832 
133.961 77.309 131.895 78.258 130.473 c 79.207 129.051 80.578 128.34 82.375
 128.34 c h
82.375 128.34 m f
q 1 0 0 1 0 0 cm
96.379 74.184 m 92.879 74.184 l S Q
47.66 73.66 m 46.684 73.66 45.914 73.992 45.344 74.66 c 44.773 75.324 44.488
 76.238 44.488 77.395 c 44.488 78.551 44.773 79.461 45.344 80.133 c 45.914
 80.801 46.684 81.137 47.66 81.137 c 48.633 81.137 49.402 80.801 49.973 
80.133 c 50.539 79.461 50.824 78.551 50.824 77.395 c 50.824 76.238 50.539
 75.324 49.973 74.66 c 49.402 73.992 48.633 73.66 47.66 73.66 c h
51.965 66.855 m 51.965 68.832 l 51.422 68.578 50.871 68.383 50.316 68.246
 c 49.762 68.109 49.211 68.039 48.664 68.039 c 47.234 68.039 46.141 68.523
 45.383 69.488 c 44.629 70.457 44.199 71.918 44.09 73.871 c 44.512 73.25
 45.043 72.773 45.68 72.441 c 46.316 72.105 47.02 71.941 47.785 71.941 c
 49.398 71.941 50.672 72.43 51.605 73.41 c 52.539 74.387 53.008 75.715 53.008
 77.395 c 53.008 79.043 52.52 80.367 51.547 81.363 c 50.574 82.359 49.277
 82.855 47.66 82.855 c 45.801 82.855 44.383 82.145 43.402 80.723 c 42.422
 79.301 41.934 77.238 41.934 74.539 c 41.934 72.004 42.535 69.984 43.738
 68.477 c 44.941 66.969 46.555 66.215 48.578 66.215 c 49.125 66.215 49.676
 66.27 50.23 66.375 c 50.785 66.484 51.363 66.645 51.965 66.855 c h
51.965 66.855 m f
61.383 67.934 m 60.27 67.934 59.43 68.484 58.863 69.582 c 58.305 70.68 
58.023 72.332 58.023 74.539 c 58.023 76.738 58.305 78.387 58.863 79.488 
c 59.43 80.586 60.27 81.137 61.383 81.137 c 62.508 81.137 63.352 80.586 
63.914 79.488 c 64.477 78.387 64.762 76.738 64.762 74.539 c 64.762 72.332
 64.477 70.68 63.914 69.582 c 63.352 68.484 62.508 67.934 61.383 67.934 
c h
61.383 66.215 m 63.184 66.215 64.559 66.926 65.504 68.348 c 66.453 69.77
 66.93 71.832 66.93 74.539 c 66.93 77.238 66.453 79.301 65.504 80.723 c 
64.559 82.145 63.184 82.855 61.383 82.855 c 59.586 82.855 58.215 82.145 
57.266 80.723 c 56.316 79.301 55.844 77.238 55.844 74.539 c 55.844 71.832
 56.316 69.77 57.266 68.348 c 58.215 66.926 59.586 66.215 61.383 66.215 
c h
61.383 66.215 m f
70.742 79.812 2.266 2.73 re f
82.375 67.934 m 81.258 67.934 80.418 68.484 79.855 69.582 c 79.293 70.68
 79.012 72.332 79.012 74.539 c 79.012 76.738 79.293 78.387 79.855 79.488
 c 80.418 80.586 81.258 81.137 82.375 81.137 c 83.5 81.137 84.344 80.586
 84.906 79.488 c 85.469 78.387 85.75 76.738 85.75 74.539 c 85.75 72.332 
85.469 70.68 84.906 69.582 c 84.344 68.484 83.5 67.934 82.375 67.934 c h
82.375 66.215 m 84.172 66.215 85.547 66.926 86.496 68.348 c 87.445 69.77
 87.918 71.832 87.918 74.539 c 87.918 77.238 87.445 79.301 86.496 80.723
 c 85.547 82.145 84.172 82.855 82.375 82.855 c 80.578 82.855 79.207 82.145
 78.258 80.723 c 77.309 79.301 76.832 77.238 76.832 74.539 c 76.832 71.832
 77.309 69.77 78.258 68.348 c 79.207 66.926 80.578 66.215 82.375 66.215 
c h
82.375 66.215 m f
q 1 0 0 1 0 0 cm
96.379 12.059 m 92.879 12.059 l S Q
42.199 4.379 m 52.512 4.379 l 52.512 5.301 l 46.688 20.418 l 44.426 20.418
 l 49.902 6.207 l 42.199 6.207 l h
42.199 4.379 m f
61.383 5.809 m 60.27 5.809 59.43 6.355 58.863 7.457 c 58.305 8.555 58.023
 10.207 58.023 12.414 c 58.023 14.613 58.305 16.262 58.863 17.359 c 59.43
 18.461 60.27 19.012 61.383 19.012 c 62.508 19.012 63.352 18.461 63.914 
17.359 c 64.477 16.262 64.762 14.613 64.762 12.414 c 64.762 10.207 64.477
 8.555 63.914 7.457 c 63.352 6.355 62.508 5.809 61.383 5.809 c h
61.383 4.09 m 63.184 4.09 64.559 4.801 65.504 6.223 c 66.453 7.645 66.93
 9.707 66.93 12.414 c 66.93 15.113 66.453 17.176 65.504 18.598 c 64.559 
20.02 63.184 20.73 61.383 20.73 c 59.586 20.73 58.215 20.02 57.266 18.598
 c 56.316 17.176 55.844 15.113 55.844 12.414 c 55.844 9.707 56.316 7.645
 57.266 6.223 c 58.215 4.801 59.586 4.09 61.383 4.09 c h
61.383 4.09 m f
70.742 17.688 2.266 2.73 re f
82.375 5.809 m 81.258 5.809 80.418 6.355 79.855 7.457 c 79.293 8.555 79.012
 10.207 79.012 12.414 c 79.012 14.613 79.293 16.262 79.855 17.359 c 80.418
 18.461 81.258 19.012 82.375 19.012 c 83.5 19.012 84.344 18.461 84.906 17.359
 c 85.469 16.262 85.75 14.613 85.75 12.414 c 85.75 10.207 85.469 8.555 84.906
 7.457 c 84.344 6.355 83.5 5.809 82.375 5.809 c h
82.375 4.09 m 84.172 4.09 85.547 4.801 86.496 6.223 c 87.445 7.645 87.918
 9.707 87.918 12.414 c 87.918 15.113 87.445 17.176 86.496 18.598 c 85.547
 20.02 84.172 20.73 82.375 20.73 c 80.578 20.73 79.207 20.02 78.258 18.598
 c 77.309 17.176 76.832 15.113 76.832 12.414 c 76.832 9.707 77.309 7.645
 78.258 6.223 c 79.207 4.801 80.578 4.09 82.375 4.09 c h
82.375 4.09 m f
0 0 0.545098 rg
17.648 291.402 m 17.828 290.871 18.211 290.359 18.797 289.859 c 19.383 
289.359 20.191 288.855 21.215 288.352 c 26.195 285.848 l 26.195 288.5 l 
21.52 290.828 l 20.301 291.43 19.488 292.016 19.09 292.582 c 18.691 293.145
 18.492 293.918 18.492 294.895 c 18.492 297.582 l 26.195 297.582 l 26.195
 300.047 l 7.969 300.047 l 7.969 294.48 l 7.969 292.395 8.406 290.84 9.277
 289.816 c 10.148 288.789 11.461 288.277 13.219 288.277 c 14.367 288.277
 15.32 288.543 16.078 289.078 c 16.836 289.609 17.359 290.387 17.648 291.402
 c h
9.996 297.582 m 16.465 297.582 l 16.465 294.48 l 16.465 293.293 16.191 
292.395 15.641 291.789 c 15.094 291.18 14.285 290.879 13.219 290.879 c 12.156
 290.879 11.352 291.18 10.809 291.789 c 10.27 292.395 9.996 293.293 9.996
 294.48 c h
9.996 297.582 m f
20.801 283.02 m 12.523 283.02 l 12.523 280.773 l 20.715 280.773 l 22.012
 280.773 22.98 280.52 23.629 280.02 c 24.277 279.512 24.598 278.754 24.598
 277.746 c 24.598 276.535 24.211 275.578 23.438 274.875 c 22.664 274.168
 21.609 273.816 20.273 273.816 c 12.523 273.816 l 12.523 271.57 l 26.195
 271.57 l 26.195 273.816 l 24.094 273.816 l 24.926 274.359 25.543 274.992
 25.945 275.715 c 26.352 276.434 26.551 277.27 26.551 278.223 c 26.551 279.793
 26.062 280.984 25.086 281.801 c 24.109 282.613 22.684 283.02 20.801 283.02
 c h
20.801 283.02 m f
17.941 255.574 m 26.195 255.574 l 26.195 257.82 l 18.016 257.82 l 16.723
 257.82 15.754 258.074 15.113 258.578 c 14.473 259.086 14.148 259.84 14.148
 260.848 c 14.148 262.062 14.535 263.02 15.309 263.719 c 16.082 264.422 
17.133 264.77 18.469 264.77 c 26.195 264.77 l 26.195 267.027 l 12.523 267.027
 l 12.523 264.77 l 14.648 264.77 l 13.828 264.23 13.211 263.598 12.805 262.871
 c 12.398 262.145 12.195 261.301 12.195 260.348 c 12.195 258.777 12.684 
257.59 13.652 256.785 c 14.625 255.98 16.055 255.574 17.941 255.574 c h
17.941 255.574 m f
8.641 248.875 m 12.523 248.875 l 12.523 244.25 l 14.27 244.25 l 14.27 248.875
 l 21.691 248.875 l 22.809 248.875 23.523 248.723 23.84 248.418 c 24.16 
248.113 24.316 247.492 24.316 246.555 c 24.316 244.25 l 26.195 244.25 l 
26.195 246.555 l 26.195 248.289 25.875 249.488 25.227 250.145 c 24.578 250.805
 23.402 251.133 21.691 251.133 c 14.27 251.133 l 14.27 252.781 l 12.523 
252.781 l 12.523 251.133 l 8.641 251.133 l h
8.641 248.875 m f
12.523 241.297 m 12.523 239.051 l 26.195 239.051 l 26.195 241.297 l h
7.199 241.297 m 7.199 239.051 l 10.047 239.051 l 10.047 241.297 l h
7.199 241.297 m f
15.148 223.707 m 14.141 223.145 13.395 222.473 12.914 221.691 c 12.438 
220.91 12.195 219.988 12.195 218.934 c 12.195 217.508 12.695 216.41 13.691
 215.637 c 14.688 214.863 16.105 214.477 17.941 214.477 c 26.195 214.477
 l 26.195 216.734 l 18.016 216.734 l 16.707 216.734 15.734 216.965 15.102
 217.434 c 14.469 217.895 14.148 218.602 14.148 219.555 c 14.148 220.719
 14.535 221.637 15.309 222.316 c 16.082 222.988 17.133 223.328 18.469 223.328
 c 26.195 223.328 l 26.195 225.586 l 18.016 225.586 l 16.699 225.586 15.727
 225.816 15.094 226.281 c 14.465 226.742 14.148 227.461 14.148 228.43 c 
14.148 229.578 14.539 230.488 15.312 231.168 c 16.09 231.84 17.141 232.18
 18.469 232.18 c 26.195 232.18 l 26.195 234.438 l 12.523 234.438 l 12.523
 232.18 l 14.648 232.18 l 13.812 231.664 13.191 231.051 12.793 230.336 c
 12.395 229.617 12.195 228.77 12.195 227.785 c 12.195 226.789 12.449 225.945
 12.953 225.25 c 13.457 224.555 14.188 224.039 15.148 223.707 c h
15.148 223.707 m f
18.797 198.301 m 19.895 198.301 l 19.895 208.629 l 21.441 208.531 22.621
 208.066 23.43 207.23 c 24.242 206.398 24.645 205.238 24.645 203.746 c 24.645
 202.887 24.539 202.051 24.328 201.238 c 24.117 200.43 23.801 199.625 23.375
 198.824 c 25.5 198.824 l 25.844 199.633 26.102 200.461 26.281 201.305 c
 26.461 202.152 26.551 203.012 26.551 203.879 c 26.551 206.062 25.918 207.789
 24.648 209.062 c 23.379 210.336 21.66 210.973 19.492 210.973 c 17.258 210.973
 15.48 210.371 14.168 209.16 c 12.855 207.953 12.195 206.324 12.195 204.27
 c 12.195 202.434 12.789 200.977 13.973 199.906 c 15.156 198.836 16.766 
198.301 18.797 198.301 c h
18.137 200.547 m 16.91 200.562 15.934 200.906 15.199 201.578 c 14.465 202.25
 14.098 203.141 14.098 204.246 c 14.098 205.5 14.453 206.504 15.16 207.254
 c 15.871 208.008 16.867 208.441 18.152 208.555 c h
18.137 200.547 m f
7.227 181.273 m 9.098 182.363 10.949 183.172 12.781 183.703 c 14.613 184.234
 16.469 184.496 18.348 184.496 c 20.227 184.496 22.086 184.23 23.93 183.695
 c 25.773 183.164 27.629 182.355 29.492 181.273 c 29.492 183.227 l 27.578
 184.445 25.699 185.359 23.852 185.965 c 22.008 186.574 20.172 186.875 18.348
 186.875 c 16.535 186.875 14.707 186.574 12.867 185.973 c 11.027 185.371
 9.148 184.453 7.227 183.227 c h
7.227 181.273 m f
12.926 168.203 m 15.051 168.203 l 14.727 168.836 14.484 169.492 14.32 170.18
 c 14.156 170.859 14.074 171.57 14.074 172.305 c 14.074 173.418 14.246 174.254
 14.586 174.812 c 14.93 175.367 15.441 175.648 16.125 175.648 c 16.648 175.648
 17.055 175.449 17.352 175.051 c 17.648 174.652 17.934 173.848 18.199 172.645
 c 18.371 171.875 l 18.715 170.281 19.195 169.148 19.816 168.477 c 20.441
 167.805 21.309 167.469 22.422 167.469 c 23.695 167.469 24.699 167.969 25.441
 168.977 c 26.184 169.98 26.551 171.363 26.551 173.121 c 26.551 173.852 
26.48 174.613 26.336 175.41 c 26.195 176.203 25.98 177.039 25.695 177.918
 c 23.375 177.918 l 23.809 177.086 24.133 176.27 24.348 175.465 c 24.562
 174.66 24.668 173.859 24.668 173.07 c 24.668 172.012 24.488 171.199 24.125
 170.633 c 23.766 170.062 23.254 169.777 22.594 169.777 c 21.984 169.777
 21.52 169.98 21.191 170.395 c 20.867 170.801 20.555 171.703 20.25 173.098
 c 20.066 173.879 l 19.777 175.27 19.328 176.273 18.719 176.895 c 18.113
 177.512 17.281 177.82 16.223 177.82 c 14.938 177.82 13.945 177.363 13.246
 176.453 c 12.547 175.539 12.195 174.246 12.195 172.57 c 12.195 171.742 
12.258 170.961 12.379 170.23 c 12.5 169.496 12.684 168.82 12.926 168.203
 c h
12.926 168.203 m f
7.227 164.242 m 7.227 162.289 l 9.148 161.07 11.027 160.16 12.867 159.551
 c 14.707 158.945 16.535 158.641 18.348 158.641 c 20.172 158.641 22.008 
158.945 23.852 159.551 c 25.699 160.16 27.578 161.07 29.492 162.289 c 29.492
 164.242 l 27.629 163.164 25.773 162.355 23.93 161.82 c 22.086 161.289 20.227
 161.02 18.348 161.02 c 16.469 161.02 14.613 161.289 12.781 161.82 c 10.949
 162.355 9.098 163.164 7.227 164.242 c h
7.227 164.242 m f
Q q
96.379 12.059 558 434.879 re W n
q
96 12 559 435 re W n
[ 1 0 0 1 0 0 ] concat
  q
0.411765 g
1.3 w
0 J
1 j
[ 4.81 2.08] 0 d
4 M q 1 0 0 1 0 0 cm
96.379 49.832 m 654.379 49.832 l S Q
  Q
Q
q
96 12 559 435 re W n
[ 1 0 0 1 0 0 ] concat
  q
0.411765 g
1.3 w
0 J
1 j
[ 4.81 2.08] 0 d
4 M q 1 0 0 1 0 0 cm
96.379 162.59 m 654.379 162.59 l S Q
  Q
Q
q
96 12 559 435 re W n
[ 1 0 0 1 0 0 ] concat
  q
0.411765 g
1.3 w
0 J
1 j
[ 4.81 2.08] 0 d
4 M q 1 0 0 1 0 0 cm
96.379 239.312 m 654.379 239.312 l S Q
  Q
Q
q
96 12 559 435 re W n
[ 1 0 0 1 0 0 ] concat
  q
0.411765 g
1.3 w
0 J
1 j
[ 4.81 2.08] 0 d
4 M q 1 0 0 1 0 0 cm
96.379 292.371 m 654.379 292.371 l S Q
  Q
Q
q
96 12 559 435 re W n
[ 1 0 0 1 0 0 ] concat
  q
0.411765 g
1.3 w
0 J
1 j
[ 4.81 2.08] 0 d
4 M q 1 0 0 1 0 0 cm
96.379 300.445 m 654.379 300.445 l S Q
  Q
Q
q
96 12 559 435 re W n
[ 1 0 0 1 0 0 ] concat
  q
0.411765 g
1.3 w
0 J
1 j
[ 4.81 2.08] 0 d
4 M q 1 0 0 1 0 0 cm
96.379 359.156 m 654.379 359.156 l S Q
  Q
Q
q
96 12 559 435 re W n
[ 1 0 0 1 0 0 ] concat
  q
0.411765 g
0.8 w
0 J
1 j
[ 2.96 1.28] 0 d
4 M q 1 0 0 1 0 0 cm
96.379 446.938 m 654.379 446.938 l S Q
  Q
Q
q
96 12 559 435 re W n
[ 1 0 0 1 0 0 ] concat
  q
0.411765 g
0.8 w
0 J
1 j
[ 2.96 1.28] 0 d
4 M q 1 0 0 1 0 0 cm
96.379 12.059 m 654.379 12.059 l S Q
  Q
Q
Q q
0 g
2 w
2 J
0 j
[] 0.0 d
4 M q 1 0 0 1 0 0 cm
96.379 446.938 m 96.379 12.059 l S Q
q 1 0 0 1 0 0 cm
654.379 446.938 m 654.379 12.059 l S Q
q 1 0 0 1 0 0 cm
96.379 446.938 m 654.379 446.938 l S Q
q 1 0 0 1 0 0 cm
96.379 12.059 m 654.379 12.059 l S Q
Q Q
showpage
%%Trailer
end
%%EOF
