%!PS-Adobe-3.0 EPSF-3.0
%%Creator: (MATLAB, The Mathworks, Inc. Version 8.5.0.197613 \(R2015a\). Operating System: Linux)
%%Title: /home/betogil/hp2fem-article/Text/eps/Scalability_Hexa_10000_P9.eps
%%CreationDate: 2016-05-23T18:56:24
%%Pages: (atend)
%%BoundingBox: 0 0 694 443
%%LanguageLevel: 2
%%EndComments
%%BeginProlog
%%BeginResource: procset (Apache XML Graphics Std ProcSet) 1.2 0
%%Version: 1.2 0
%%Copyright: (Copyright 2001-2003,2010 The Apache Software Foundation. License terms: http://www.apache.org/licenses/LICENSE-2.0)
/bd{bind def}bind def
/ld{load def}bd
/GR/grestore ld
/M/moveto ld
/LJ/setlinejoin ld
/C/curveto ld
/f/fill ld
/LW/setlinewidth ld
/GC/setgray ld
/t/show ld
/N/newpath ld
/CT/concat ld
/cp/closepath ld
/S/stroke ld
/L/lineto ld
/CC/setcmykcolor ld
/A/ashow ld
/GS/gsave ld
/RC/setrgbcolor ld
/RM/rmoveto ld
/ML/setmiterlimit ld
/re {4 2 roll M
1 index 0 rlineto
0 exch rlineto
neg 0 rlineto
cp } bd
/_ctm matrix def
/_tm matrix def
/BT { _ctm currentmatrix pop matrix _tm copy pop 0 0 moveto } bd
/ET { _ctm setmatrix } bd
/iTm { _ctm setmatrix _tm concat } bd
/Tm { _tm astore pop iTm 0 0 moveto } bd
/ux 0.0 def
/uy 0.0 def
/F {
  /Tp exch def
  /Tf exch def
  Tf findfont Tp scalefont setfont
  /cf Tf def  /cs Tp def
} bd
/ULS {currentpoint /uy exch def /ux exch def} bd
/ULE {
  /Tcx currentpoint pop def
  gsave
  newpath
  cf findfont cs scalefont dup
  /FontMatrix get 0 get /Ts exch def /FontInfo get dup
  /UnderlinePosition get Ts mul /To exch def
  /UnderlineThickness get Ts mul /Tt exch def
  ux uy To add moveto  Tcx uy To add lineto
  Tt setlinewidth stroke
  grestore
} bd
/OLE {
  /Tcx currentpoint pop def
  gsave
  newpath
  cf findfont cs scalefont dup
  /FontMatrix get 0 get /Ts exch def /FontInfo get dup
  /UnderlinePosition get Ts mul /To exch def
  /UnderlineThickness get Ts mul /Tt exch def
  ux uy To add cs add moveto Tcx uy To add cs add lineto
  Tt setlinewidth stroke
  grestore
} bd
/SOE {
  /Tcx currentpoint pop def
  gsave
  newpath
  cf findfont cs scalefont dup
  /FontMatrix get 0 get /Ts exch def /FontInfo get dup
  /UnderlinePosition get Ts mul /To exch def
  /UnderlineThickness get Ts mul /Tt exch def
  ux uy To add cs 10 mul 26 idiv add moveto Tcx uy To add cs 10 mul 26 idiv add lineto
  Tt setlinewidth stroke
  grestore
} bd
/QT {
/Y22 exch store
/X22 exch store
/Y21 exch store
/X21 exch store
currentpoint
/Y21 load 2 mul add 3 div exch
/X21 load 2 mul add 3 div exch
/X21 load 2 mul /X22 load add 3 div
/Y21 load 2 mul /Y22 load add 3 div
/X22 load /Y22 load curveto
} bd
/SSPD {
dup length /d exch dict def
{
/v exch def
/k exch def
currentpagedevice k known {
/cpdv currentpagedevice k get def
v cpdv ne {
/upd false def
/nullv v type /nulltype eq def
/nullcpdv cpdv type /nulltype eq def
nullv nullcpdv or
{
/upd true def
} {
/sametype v type cpdv type eq def
sametype {
v type /arraytype eq {
/vlen v length def
/cpdvlen cpdv length def
vlen cpdvlen eq {
0 1 vlen 1 sub {
/i exch def
/obj v i get def
/cpdobj cpdv i get def
obj cpdobj ne {
/upd true def
exit
} if
} for
} {
/upd true def
} ifelse
} {
v type /dicttype eq {
v {
/dv exch def
/dk exch def
/cpddv cpdv dk get def
dv cpddv ne {
/upd true def
exit
} if
} forall
} {
/upd true def
} ifelse
} ifelse
} if
} ifelse
upd true eq {
d k v put
} if
} if
} if
} forall
d length 0 gt {
d setpagedevice
} if
} bd
%%EndResource
%%BeginResource: procset (Apache XML Graphics EPS ProcSet) 1.0 0
%%Version: 1.0 0
%%Copyright: (Copyright 2002-2003 The Apache Software Foundation. License terms: http://www.apache.org/licenses/LICENSE-2.0)
/BeginEPSF { %def
/b4_Inc_state save def         % Save state for cleanup
/dict_count countdictstack def % Count objects on dict stack
/op_count count 1 sub def      % Count objects on operand stack
userdict begin                 % Push userdict on dict stack
/showpage { } def              % Redefine showpage, { } = null proc
0 setgray 0 setlinecap         % Prepare graphics state
1 setlinewidth 0 setlinejoin
10 setmiterlimit [ ] 0 setdash newpath
/languagelevel where           % If level not equal to 1 then
{pop languagelevel             % set strokeadjust and
1 ne                           % overprint to their defaults.
{false setstrokeadjust false setoverprint
} if
} if
} bd
/EndEPSF { %def
count op_count sub {pop} repeat            % Clean up stacks
countdictstack dict_count sub {end} repeat
b4_Inc_state restore
} bd
%%EndResource
%FOPBeginFontDict
%%IncludeResource: font Courier-Bold
%%IncludeResource: font Helvetica
%%IncludeResource: font Courier-BoldOblique
%%IncludeResource: font Courier-Oblique
%%IncludeResource: font Times-Roman
%%IncludeResource: font Helvetica-BoldOblique
%%IncludeResource: font Helvetica-Bold
%%IncludeResource: font Helvetica-Oblique
%%IncludeResource: font Times-BoldItalic
%%IncludeResource: font Courier
%%IncludeResource: font Times-Italic
%%IncludeResource: font Times-Bold
%%IncludeResource: font Symbol
%%IncludeResource: font ZapfDingbats
%FOPEndFontDict
%%BeginResource: encoding WinAnsiEncoding
/WinAnsiEncoding [
/.notdef /.notdef /.notdef /.notdef /.notdef
/.notdef /.notdef /.notdef /.notdef /.notdef
/.notdef /.notdef /.notdef /.notdef /.notdef
/.notdef /.notdef /.notdef /.notdef /.notdef
/.notdef /.notdef /.notdef /.notdef /.notdef
/.notdef /.notdef /.notdef /.notdef /.notdef
/.notdef /.notdef /space /exclam /quotedbl
/numbersign /dollar /percent /ampersand /quotesingle
/parenleft /parenright /asterisk /plus /comma
/hyphen /period /slash /zero /one
/two /three /four /five /six
/seven /eight /nine /colon /semicolon
/less /equal /greater /question /at
/A /B /C /D /E
/F /G /H /I /J
/K /L /M /N /O
/P /Q /R /S /T
/U /V /W /X /Y
/Z /bracketleft /backslash /bracketright /asciicircum
/underscore /quoteleft /a /b /c
/d /e /f /g /h
/i /j /k /l /m
/n /o /p /q /r
/s /t /u /v /w
/x /y /z /braceleft /bar
/braceright /asciitilde /bullet /Euro /bullet
/quotesinglbase /florin /quotedblbase /ellipsis /dagger
/daggerdbl /circumflex /perthousand /Scaron /guilsinglleft
/OE /bullet /Zcaron /bullet /bullet
/quoteleft /quoteright /quotedblleft /quotedblright /bullet
/endash /emdash /asciitilde /trademark /scaron
/guilsinglright /oe /bullet /zcaron /Ydieresis
/space /exclamdown /cent /sterling /currency
/yen /brokenbar /section /dieresis /copyright
/ordfeminine /guillemotleft /logicalnot /sfthyphen /registered
/macron /degree /plusminus /twosuperior /threesuperior
/acute /mu /paragraph /middot /cedilla
/onesuperior /ordmasculine /guillemotright /onequarter /onehalf
/threequarters /questiondown /Agrave /Aacute /Acircumflex
/Atilde /Adieresis /Aring /AE /Ccedilla
/Egrave /Eacute /Ecircumflex /Edieresis /Igrave
/Iacute /Icircumflex /Idieresis /Eth /Ntilde
/Ograve /Oacute /Ocircumflex /Otilde /Odieresis
/multiply /Oslash /Ugrave /Uacute /Ucircumflex
/Udieresis /Yacute /Thorn /germandbls /agrave
/aacute /acircumflex /atilde /adieresis /aring
/ae /ccedilla /egrave /eacute /ecircumflex
/edieresis /igrave /iacute /icircumflex /idieresis
/eth /ntilde /ograve /oacute /ocircumflex
/otilde /odieresis /divide /oslash /ugrave
/uacute /ucircumflex /udieresis /yacute /thorn
/ydieresis
] def
%%EndResource
%FOPBeginFontReencode
/Courier-Bold findfont
dup length dict begin
  {1 index /FID ne {def} {pop pop} ifelse} forall
  /Encoding WinAnsiEncoding def
  currentdict
end
/Courier-Bold exch definefont pop
/Helvetica findfont
dup length dict begin
  {1 index /FID ne {def} {pop pop} ifelse} forall
  /Encoding WinAnsiEncoding def
  currentdict
end
/Helvetica exch definefont pop
/Courier-BoldOblique findfont
dup length dict begin
  {1 index /FID ne {def} {pop pop} ifelse} forall
  /Encoding WinAnsiEncoding def
  currentdict
end
/Courier-BoldOblique exch definefont pop
/Courier-Oblique findfont
dup length dict begin
  {1 index /FID ne {def} {pop pop} ifelse} forall
  /Encoding WinAnsiEncoding def
  currentdict
end
/Courier-Oblique exch definefont pop
/Times-Roman findfont
dup length dict begin
  {1 index /FID ne {def} {pop pop} ifelse} forall
  /Encoding WinAnsiEncoding def
  currentdict
end
/Times-Roman exch definefont pop
/Helvetica-BoldOblique findfont
dup length dict begin
  {1 index /FID ne {def} {pop pop} ifelse} forall
  /Encoding WinAnsiEncoding def
  currentdict
end
/Helvetica-BoldOblique exch definefont pop
/Helvetica-Bold findfont
dup length dict begin
  {1 index /FID ne {def} {pop pop} ifelse} forall
  /Encoding WinAnsiEncoding def
  currentdict
end
/Helvetica-Bold exch definefont pop
/Helvetica-Oblique findfont
dup length dict begin
  {1 index /FID ne {def} {pop pop} ifelse} forall
  /Encoding WinAnsiEncoding def
  currentdict
end
/Helvetica-Oblique exch definefont pop
/Times-BoldItalic findfont
dup length dict begin
  {1 index /FID ne {def} {pop pop} ifelse} forall
  /Encoding WinAnsiEncoding def
  currentdict
end
/Times-BoldItalic exch definefont pop
/Courier findfont
dup length dict begin
  {1 index /FID ne {def} {pop pop} ifelse} forall
  /Encoding WinAnsiEncoding def
  currentdict
end
/Courier exch definefont pop
/Times-Italic findfont
dup length dict begin
  {1 index /FID ne {def} {pop pop} ifelse} forall
  /Encoding WinAnsiEncoding def
  currentdict
end
/Times-Italic exch definefont pop
/Times-Bold findfont
dup length dict begin
  {1 index /FID ne {def} {pop pop} ifelse} forall
  /Encoding WinAnsiEncoding def
  currentdict
end
/Times-Bold exch definefont pop
%FOPEndFontReencode
%%EndProlog
%%Page: 1 1
%%PageBoundingBox: 0 0 694 443
%%BeginPageSetup
[1 0 0 -1 0 443] CT
%%EndPageSetup
GS
[0.75 0 0 0.75 0 -0.25] CT
1 GC
N
0 0 925 591 re
f
GR
GS
[0.75 0 0 0.75 0 -0.25] CT
1 GC
N
0 0 925 591 re
f
GR
GS
[0.75 0 0 0.75 0 -0.25] CT
1 GC
N
132 506 M
889 506 L
889 15 L
132 15 L
cp
f
GR
GS
[0.75 0 0 0.75 0 -0.25] CT
0.873 GC
2 setlinecap
10.0 ML
N
281.852 506 M
281.852 15 L
S
GR
GS
[0.75 0 0 0.75 0 -0.25] CT
0.873 GC
2 setlinecap
10.0 ML
N
356.778 506 M
356.778 15 L
S
GR
GS
[0.75 0 0 0.75 0 -0.25] CT
0.873 GC
2 setlinecap
10.0 ML
N
431.704 506 M
431.704 15 L
S
GR
GS
[0.75 0 0 0.75 0 -0.25] CT
0.873 GC
2 setlinecap
10.0 ML
N
506.631 506 M
506.631 15 L
S
GR
GS
[0.75 0 0 0.75 0 -0.25] CT
0.873 GC
2 setlinecap
10.0 ML
N
581.557 506 M
581.557 15 L
S
GR
GS
[0.75 0 0 0.75 0 -0.25] CT
0.873 GC
2 setlinecap
10.0 ML
N
656.483 506 M
656.483 15 L
S
GR
GS
[0.75 0 0 0.75 0 -0.25] CT
0.873 GC
2 setlinecap
10.0 ML
N
731.409 506 M
731.409 15 L
S
GR
GS
[0.75 0 0 0.75 0 -0.25] CT
0.873 GC
2 setlinecap
10.0 ML
N
806.335 506 M
806.335 15 L
S
GR
GS
[0.75 0 0 0.75 0 -0.25] CT
0.873 GC
2 setlinecap
10.0 ML
N
881.261 506 M
881.261 15 L
S
GR
GS
[0.75 0 0 0.75 0 -0.25] CT
0.873 GC
2 setlinecap
10.0 ML
N
889 408.804 M
132 408.804 L
S
GR
GS
[0.75 0 0 0.75 0 -0.25] CT
0.873 GC
2 setlinecap
10.0 ML
N
889 360.206 M
132 360.206 L
S
GR
GS
[0.75 0 0 0.75 0 -0.25] CT
0.873 GC
2 setlinecap
10.0 ML
N
889 311.608 M
132 311.608 L
S
GR
GS
[0.75 0 0 0.75 0 -0.25] CT
0.873 GC
2 setlinecap
10.0 ML
N
889 263.01 M
132 263.01 L
S
GR
GS
[0.75 0 0 0.75 0 -0.25] CT
0.873 GC
2 setlinecap
10.0 ML
N
889 214.412 M
132 214.412 L
S
GR
GS
[0.75 0 0 0.75 0 -0.25] CT
0.873 GC
2 setlinecap
10.0 ML
N
889 165.814 M
132 165.814 L
S
GR
GS
[0.75 0 0 0.75 0 -0.25] CT
0.873 GC
2 setlinecap
10.0 ML
N
889 117.216 M
132 117.216 L
S
GR
GS
[0.75 0 0 0.75 0 -0.25] CT
0.873 GC
2 setlinecap
10.0 ML
N
889 68.618 M
132 68.618 L
S
GR
GS
[0.75 0 0 0.75 0 -0.25] CT
0.873 GC
2 setlinecap
10.0 ML
N
889 37.327 M
132 37.327 L
S
GR
GS
[0.75 0 0 0.75 0 -0.25] CT
0.873 GC
2 setlinecap
10.0 ML
N
889 20.02 M
132 20.02 L
S
GR
GS
[0.75 0 0 0.75 399.20274 415.62907] CT
0.149 GC
/Times 33 F
GS
[1 0 0 1 0 0] CT
-181.5 31 moveto 
1 -1 scale
(Number of Processors) t 
GR
GR
GS
[0.75 0 0 0.75 0 -0.25] CT
0.149 GC
2 setlinecap
10.0 ML
N
132 506 M
889 506 L
S
GR
GS
[0.75 0 0 0.75 0 -0.25] CT
0.149 GC
2 setlinecap
10.0 ML
N
132 15 M
889 15 L
S
GR
GS
[0.75 0 0 0.75 0 -0.25] CT
0.149 GC
2 setlinecap
10.0 ML
N
281.852 506 M
281.852 498.43 L
S
GR
GS
[0.75 0 0 0.75 0 -0.25] CT
0.149 GC
2 setlinecap
10.0 ML
N
356.778 506 M
356.778 498.43 L
S
GR
GS
[0.75 0 0 0.75 0 -0.25] CT
0.149 GC
2 setlinecap
10.0 ML
N
431.704 506 M
431.704 498.43 L
S
GR
GS
[0.75 0 0 0.75 0 -0.25] CT
0.149 GC
2 setlinecap
10.0 ML
N
506.631 506 M
506.631 498.43 L
S
GR
GS
[0.75 0 0 0.75 0 -0.25] CT
0.149 GC
2 setlinecap
10.0 ML
N
581.557 506 M
581.557 498.43 L
S
GR
GS
[0.75 0 0 0.75 0 -0.25] CT
0.149 GC
2 setlinecap
10.0 ML
N
656.483 506 M
656.483 498.43 L
S
GR
GS
[0.75 0 0 0.75 0 -0.25] CT
0.149 GC
2 setlinecap
10.0 ML
N
731.409 506 M
731.409 498.43 L
S
GR
GS
[0.75 0 0 0.75 0 -0.25] CT
0.149 GC
2 setlinecap
10.0 ML
N
806.335 506 M
806.335 498.43 L
S
GR
GS
[0.75 0 0 0.75 0 -0.25] CT
0.149 GC
2 setlinecap
10.0 ML
N
881.261 506 M
881.261 498.43 L
S
GR
GS
[0.75 0 0 0.75 0 -0.25] CT
0.149 GC
2 setlinecap
10.0 ML
N
281.852 15 M
281.852 22.57 L
S
GR
GS
[0.75 0 0 0.75 0 -0.25] CT
0.149 GC
2 setlinecap
10.0 ML
N
356.778 15 M
356.778 22.57 L
S
GR
GS
[0.75 0 0 0.75 0 -0.25] CT
0.149 GC
2 setlinecap
10.0 ML
N
431.704 15 M
431.704 22.57 L
S
GR
GS
[0.75 0 0 0.75 0 -0.25] CT
0.149 GC
2 setlinecap
10.0 ML
N
506.631 15 M
506.631 22.57 L
S
GR
GS
[0.75 0 0 0.75 0 -0.25] CT
0.149 GC
2 setlinecap
10.0 ML
N
581.557 15 M
581.557 22.57 L
S
GR
GS
[0.75 0 0 0.75 0 -0.25] CT
0.149 GC
2 setlinecap
10.0 ML
N
656.483 15 M
656.483 22.57 L
S
GR
GS
[0.75 0 0 0.75 0 -0.25] CT
0.149 GC
2 setlinecap
10.0 ML
N
731.409 15 M
731.409 22.57 L
S
GR
GS
[0.75 0 0 0.75 0 -0.25] CT
0.149 GC
2 setlinecap
10.0 ML
N
806.335 15 M
806.335 22.57 L
S
GR
GS
[0.75 0 0 0.75 0 -0.25] CT
0.149 GC
2 setlinecap
10.0 ML
N
881.261 15 M
881.261 22.57 L
S
GR
GS
[0.75 0 0 0.75 211.38915 386.24998] CT
0.149 GC
/Times 33 F
GS
[1 0 0 1 0 0] CT
-10.5 31 moveto 
1 -1 scale
(4) t 
GR
GR
GS
[0.75 0 0 0.75 267.58374 386.24998] CT
0.149 GC
/Times 33 F
GS
[1 0 0 1 0 0] CT
-10.5 31 moveto 
1 -1 scale
(8) t 
GR
GR
GS
[0.75 0 0 0.75 323.77831 386.24998] CT
0.149 GC
/Times 33 F
GS
[1 0 0 1 0 0] CT
-21 31 moveto 
1 -1 scale
(16) t 
GR
GR
GS
[0.75 0 0 0.75 379.97289 386.24998] CT
0.149 GC
/Times 33 F
GS
[1 0 0 1 0 0] CT
-21 31 moveto 
1 -1 scale
(32) t 
GR
GR
GS
[0.75 0 0 0.75 436.16748 386.24998] CT
0.149 GC
/Times 33 F
GS
[1 0 0 1 0 0] CT
-21 31 moveto 
1 -1 scale
(64) t 
GR
GR
GS
[0.75 0 0 0.75 492.36205 386.24998] CT
0.149 GC
/Times 33 F
GS
[1 0 0 1 0 0] CT
-31.5 31 moveto 
1 -1 scale
(128) t 
GR
GR
GS
[0.75 0 0 0.75 548.55661 386.24998] CT
0.149 GC
/Times 33 F
GS
[1 0 0 1 0 0] CT
-31.5 31 moveto 
1 -1 scale
(256) t 
GR
GR
GS
[0.75 0 0 0.75 604.75117 386.24998] CT
0.149 GC
/Times 33 F
GS
[1 0 0 1 0 0] CT
-31.5 31 moveto 
1 -1 scale
(512) t 
GR
GR
GS
[0.75 0 0 0.75 660.94579 386.24998] CT
0.149 GC
/Times 33 F
GS
[1 0 0 1 0 0] CT
-42 31 moveto 
1 -1 scale
(1024) t 
GR
GR
GS
[0 -0.75 0.75 0 40.12222 183.15494] CT
0.149 GC
/Times 33 F
GS
[1 0 0 1 0 0] CT
-137.5 -8 moveto 
1 -1 scale
(SpeedUp \(Ts/Tp\)) t 
GR
GR
GS
[0.75 0 0 0.75 0 -0.25] CT
0.149 GC
2 setlinecap
10.0 ML
N
132 506 M
132 15 L
S
GR
GS
[0.75 0 0 0.75 0 -0.25] CT
0.149 GC
2 setlinecap
10.0 ML
N
889 506 M
889 15 L
S
GR
GS
[0.75 0 0 0.75 0 -0.25] CT
0.149 GC
2 setlinecap
10.0 ML
N
132 408.804 M
139.57 408.804 L
S
GR
GS
[0.75 0 0 0.75 0 -0.25] CT
0.149 GC
2 setlinecap
10.0 ML
N
132 360.206 M
139.57 360.206 L
S
GR
GS
[0.75 0 0 0.75 0 -0.25] CT
0.149 GC
2 setlinecap
10.0 ML
N
132 311.608 M
139.57 311.608 L
S
GR
GS
[0.75 0 0 0.75 0 -0.25] CT
0.149 GC
2 setlinecap
10.0 ML
N
132 263.01 M
139.57 263.01 L
S
GR
GS
[0.75 0 0 0.75 0 -0.25] CT
0.149 GC
2 setlinecap
10.0 ML
N
132 214.412 M
139.57 214.412 L
S
GR
GS
[0.75 0 0 0.75 0 -0.25] CT
0.149 GC
2 setlinecap
10.0 ML
N
132 165.814 M
139.57 165.814 L
S
GR
GS
[0.75 0 0 0.75 0 -0.25] CT
0.149 GC
2 setlinecap
10.0 ML
N
132 117.216 M
139.57 117.216 L
S
GR
GS
[0.75 0 0 0.75 0 -0.25] CT
0.149 GC
2 setlinecap
10.0 ML
N
132 68.618 M
139.57 68.618 L
S
GR
GS
[0.75 0 0 0.75 0 -0.25] CT
0.149 GC
2 setlinecap
10.0 ML
N
132 37.327 M
139.57 37.327 L
S
GR
GS
[0.75 0 0 0.75 0 -0.25] CT
0.149 GC
2 setlinecap
10.0 ML
N
132 20.02 M
139.57 20.02 L
S
GR
GS
[0.75 0 0 0.75 0 -0.25] CT
0.149 GC
2 setlinecap
10.0 ML
N
889 408.804 M
881.43 408.804 L
S
GR
GS
[0.75 0 0 0.75 0 -0.25] CT
0.149 GC
2 setlinecap
10.0 ML
N
889 360.206 M
881.43 360.206 L
S
GR
GS
[0.75 0 0 0.75 0 -0.25] CT
0.149 GC
2 setlinecap
10.0 ML
N
889 311.608 M
881.43 311.608 L
S
GR
GS
[0.75 0 0 0.75 0 -0.25] CT
0.149 GC
2 setlinecap
10.0 ML
N
889 263.01 M
881.43 263.01 L
S
GR
GS
[0.75 0 0 0.75 0 -0.25] CT
0.149 GC
2 setlinecap
10.0 ML
N
889 214.412 M
881.43 214.412 L
S
GR
GS
[0.75 0 0 0.75 0 -0.25] CT
0.149 GC
2 setlinecap
10.0 ML
N
889 165.814 M
881.43 165.814 L
S
GR
GS
[0.75 0 0 0.75 0 -0.25] CT
0.149 GC
2 setlinecap
10.0 ML
N
889 117.216 M
881.43 117.216 L
S
GR
GS
[0.75 0 0 0.75 0 -0.25] CT
0.149 GC
2 setlinecap
10.0 ML
N
889 68.618 M
881.43 68.618 L
S
GR
GS
[0.75 0 0 0.75 0 -0.25] CT
0.149 GC
2 setlinecap
10.0 ML
N
889 37.327 M
881.43 37.327 L
S
GR
GS
[0.75 0 0 0.75 0 -0.25] CT
0.149 GC
2 setlinecap
10.0 ML
N
889 20.02 M
881.43 20.02 L
S
GR
GS
[0.75 0 0 0.75 92 306.35294] CT
0.149 GC
/Times 33 F
GS
[1 0 0 1 0 0] CT
-21 11.5 moveto 
1 -1 scale
(4) t 
GR
GR
GS
[0.75 0 0 0.75 92 269.9044] CT
0.149 GC
/Times 33 F
GS
[1 0 0 1 0 0] CT
-21 11.5 moveto 
1 -1 scale
(8) t 
GR
GR
GS
[0.75 0 0 0.75 92 233.45589] CT
0.149 GC
/Times 33 F
GS
[1 0 0 1 0 0] CT
-42 11.5 moveto 
1 -1 scale
(16) t 
GR
GR
GS
[0.75 0 0 0.75 92 197.00735] CT
0.149 GC
/Times 33 F
GS
[1 0 0 1 0 0] CT
-42 11.5 moveto 
1 -1 scale
(32) t 
GR
GR
GS
[0.75 0 0 0.75 92 160.55881] CT
0.149 GC
/Times 33 F
GS
[1 0 0 1 0 0] CT
-42 11.5 moveto 
1 -1 scale
(64) t 
GR
GR
GS
[0.75 0 0 0.75 92 124.11027] CT
0.149 GC
/Times 33 F
GS
[1 0 0 1 0 0] CT
-63 11.5 moveto 
1 -1 scale
(128) t 
GR
GR
GS
[0.75 0 0 0.75 92 87.66176] CT
0.149 GC
/Times 33 F
GS
[1 0 0 1 0 0] CT
-63 11.5 moveto 
1 -1 scale
(256) t 
GR
GR
GS
[0.75 0 0 0.75 92 51.21323] CT
0.149 GC
/Times 33 F
GS
[1 0 0 1 0 0] CT
-63 11.5 moveto 
1 -1 scale
(512) t 
GR
GR
GS
[0.75 0 0 0.75 92 27.7456] CT
0.149 GC
/Times 33 F
GS
[1 0 0 1 0 0] CT
-63 11.5 moveto 
1 -1 scale
(800) t 
GR
GR
GS
[0.75 0 0 0.75 92 14.7647] CT
0.149 GC
/Times 33 F
GS
[1 0 0 1 0 0] CT
-84 11.5 moveto 
1 -1 scale
(1024) t 
GR
GR
GS
[0.75 0 0 0.75 0 -0.25] CT
0 0.447 0.741 RC
2 setlinecap
10.0 ML
2.667 LW
N
132 506 M
281.852 408.665 L
356.778 360.576 L
431.704 312.325 L
506.631 264.135 L
581.557 216.405 L
656.483 170.589 L
731.409 126.013 L
806.335 87.028 L
881.261 51.446 L
S
GR
GS
[0.75 0 0 0.75 0 -0.25] CT
0 0.447 0.741 RC
2 setlinecap
10.0 ML
2.667 LW
N
123 505.5 M
142 505.5 L
S
GR
GS
[0.75 0 0 0.75 0 -0.25] CT
0 0.447 0.741 RC
2 setlinecap
10.0 ML
2.667 LW
N
132.5 515 M
132.5 496 L
S
GR
GS
[0.75 0 0 0.75 0 -0.25] CT
0 0.447 0.741 RC
2 setlinecap
10.0 ML
2.667 LW
N
126 512 M
139 499 L
S
GR
GS
[0.75 0 0 0.75 0 -0.25] CT
0 0.447 0.741 RC
2 setlinecap
10.0 ML
2.667 LW
N
126 499 M
139 512 L
S
GR
GS
[0.75 0 0 0.75 0 -0.25] CT
0 0.447 0.741 RC
2 setlinecap
10.0 ML
2.667 LW
N
272 408.5 M
291 408.5 L
S
GR
GS
[0.75 0 0 0.75 0 -0.25] CT
0 0.447 0.741 RC
2 setlinecap
10.0 ML
2.667 LW
N
281.5 418 M
281.5 399 L
S
GR
GS
[0.75 0 0 0.75 0 -0.25] CT
0 0.447 0.741 RC
2 setlinecap
10.0 ML
2.667 LW
N
275 415 M
288 402 L
S
GR
GS
[0.75 0 0 0.75 0 -0.25] CT
0 0.447 0.741 RC
2 setlinecap
10.0 ML
2.667 LW
N
275 402 M
288 415 L
S
GR
GS
[0.75 0 0 0.75 0 -0.25] CT
0 0.447 0.741 RC
2 setlinecap
10.0 ML
2.667 LW
N
347 360.5 M
366 360.5 L
S
GR
GS
[0.75 0 0 0.75 0 -0.25] CT
0 0.447 0.741 RC
2 setlinecap
10.0 ML
2.667 LW
N
356.5 370 M
356.5 351 L
S
GR
GS
[0.75 0 0 0.75 0 -0.25] CT
0 0.447 0.741 RC
2 setlinecap
10.0 ML
2.667 LW
N
350 367 M
363 354 L
S
GR
GS
[0.75 0 0 0.75 0 -0.25] CT
0 0.447 0.741 RC
2 setlinecap
10.0 ML
2.667 LW
N
350 354 M
363 367 L
S
GR
GS
[0.75 0 0 0.75 0 -0.25] CT
0 0.447 0.741 RC
2 setlinecap
10.0 ML
2.667 LW
N
422 312.5 M
441 312.5 L
S
GR
GS
[0.75 0 0 0.75 0 -0.25] CT
0 0.447 0.741 RC
2 setlinecap
10.0 ML
2.667 LW
N
431.5 322 M
431.5 303 L
S
GR
GS
[0.75 0 0 0.75 0 -0.25] CT
0 0.447 0.741 RC
2 setlinecap
10.0 ML
2.667 LW
N
425 319 M
438 306 L
S
GR
GS
[0.75 0 0 0.75 0 -0.25] CT
0 0.447 0.741 RC
2 setlinecap
10.0 ML
2.667 LW
N
425 306 M
438 319 L
S
GR
GS
[0.75 0 0 0.75 0 -0.25] CT
0 0.447 0.741 RC
2 setlinecap
10.0 ML
2.667 LW
N
497 264.5 M
516 264.5 L
S
GR
GS
[0.75 0 0 0.75 0 -0.25] CT
0 0.447 0.741 RC
2 setlinecap
10.0 ML
2.667 LW
N
506.5 274 M
506.5 255 L
S
GR
GS
[0.75 0 0 0.75 0 -0.25] CT
0 0.447 0.741 RC
2 setlinecap
10.0 ML
2.667 LW
N
500 271 M
513 258 L
S
GR
GS
[0.75 0 0 0.75 0 -0.25] CT
0 0.447 0.741 RC
2 setlinecap
10.0 ML
2.667 LW
N
500 258 M
513 271 L
S
GR
GS
[0.75 0 0 0.75 0 -0.25] CT
0 0.447 0.741 RC
2 setlinecap
10.0 ML
2.667 LW
N
572 216.5 M
591 216.5 L
S
GR
GS
[0.75 0 0 0.75 0 -0.25] CT
0 0.447 0.741 RC
2 setlinecap
10.0 ML
2.667 LW
N
581.5 226 M
581.5 207 L
S
GR
GS
[0.75 0 0 0.75 0 -0.25] CT
0 0.447 0.741 RC
2 setlinecap
10.0 ML
2.667 LW
N
575 223 M
588 210 L
S
GR
GS
[0.75 0 0 0.75 0 -0.25] CT
0 0.447 0.741 RC
2 setlinecap
10.0 ML
2.667 LW
N
575 210 M
588 223 L
S
GR
GS
[0.75 0 0 0.75 0 -0.25] CT
0 0.447 0.741 RC
2 setlinecap
10.0 ML
2.667 LW
N
647 170.5 M
666 170.5 L
S
GR
GS
[0.75 0 0 0.75 0 -0.25] CT
0 0.447 0.741 RC
2 setlinecap
10.0 ML
2.667 LW
N
656.5 180 M
656.5 161 L
S
GR
GS
[0.75 0 0 0.75 0 -0.25] CT
0 0.447 0.741 RC
2 setlinecap
10.0 ML
2.667 LW
N
650 177 M
663 164 L
S
GR
GS
[0.75 0 0 0.75 0 -0.25] CT
0 0.447 0.741 RC
2 setlinecap
10.0 ML
2.667 LW
N
650 164 M
663 177 L
S
GR
GS
[0.75 0 0 0.75 0 -0.25] CT
0 0.447 0.741 RC
2 setlinecap
10.0 ML
2.667 LW
N
722 126.5 M
741 126.5 L
S
GR
GS
[0.75 0 0 0.75 0 -0.25] CT
0 0.447 0.741 RC
2 setlinecap
10.0 ML
2.667 LW
N
731.5 136 M
731.5 117 L
S
GR
GS
[0.75 0 0 0.75 0 -0.25] CT
0 0.447 0.741 RC
2 setlinecap
10.0 ML
2.667 LW
N
725 133 M
738 120 L
S
GR
GS
[0.75 0 0 0.75 0 -0.25] CT
0 0.447 0.741 RC
2 setlinecap
10.0 ML
2.667 LW
N
725 120 M
738 133 L
S
GR
GS
[0.75 0 0 0.75 0 -0.25] CT
0 0.447 0.741 RC
2 setlinecap
10.0 ML
2.667 LW
N
797 87.5 M
816 87.5 L
S
GR
GS
[0.75 0 0 0.75 0 -0.25] CT
0 0.447 0.741 RC
2 setlinecap
10.0 ML
2.667 LW
N
806.5 97 M
806.5 78 L
S
GR
GS
[0.75 0 0 0.75 0 -0.25] CT
0 0.447 0.741 RC
2 setlinecap
10.0 ML
2.667 LW
N
800 94 M
813 81 L
S
GR
GS
[0.75 0 0 0.75 0 -0.25] CT
0 0.447 0.741 RC
2 setlinecap
10.0 ML
2.667 LW
N
800 81 M
813 94 L
S
GR
GS
[0.75 0 0 0.75 0 -0.25] CT
0 0.447 0.741 RC
2 setlinecap
10.0 ML
2.667 LW
N
872 51.5 M
891 51.5 L
S
GR
GS
[0.75 0 0 0.75 0 -0.25] CT
0 0.447 0.741 RC
2 setlinecap
10.0 ML
2.667 LW
N
881.5 61 M
881.5 42 L
S
GR
GS
[0.75 0 0 0.75 0 -0.25] CT
0 0.447 0.741 RC
2 setlinecap
10.0 ML
2.667 LW
N
875 58 M
888 45 L
S
GR
GS
[0.75 0 0 0.75 0 -0.25] CT
0 0.447 0.741 RC
2 setlinecap
10.0 ML
2.667 LW
N
875 45 M
888 58 L
S
GR
GS
[0.75 0 0 0.75 0 -0.25] CT
0.851 0.325 0.098 RC
2 setlinecap
10.0 ML
2.667 LW
N
132 506 M
281.852 408.879 L
356.778 360.929 L
431.704 313.611 L
506.631 266.737 L
581.557 221.936 L
656.483 180.877 L
731.409 144.853 L
806.335 117.486 L
881.261 96.421 L
S
GR
GS
[0.75 0 0 0.75 0 -0.25] CT
0.851 0.325 0.098 RC
N
126.26 511.74 M
126.26 499.26 L
138.74 499.26 L
138.74 511.74 L
cp
f
GR
GS
[0.75 0 0 0.75 0 -0.25] CT
0.851 0.325 0.098 RC
2 setlinecap
10.0 ML
2.667 LW
N
126.26 511.74 M
126.26 499.26 L
138.74 499.26 L
138.74 511.74 L
126.26 511.74 L
S
GR
GS
[0.75 0 0 0.75 0 -0.25] CT
0.851 0.325 0.098 RC
N
275.26 414.74 M
275.26 402.26 L
287.74 402.26 L
287.74 414.74 L
cp
f
GR
GS
[0.75 0 0 0.75 0 -0.25] CT
0.851 0.325 0.098 RC
2 setlinecap
10.0 ML
2.667 LW
N
275.26 414.74 M
275.26 402.26 L
287.74 402.26 L
287.74 414.74 L
275.26 414.74 L
S
GR
GS
[0.75 0 0 0.75 0 -0.25] CT
0.851 0.325 0.098 RC
N
350.26 366.74 M
350.26 354.26 L
362.74 354.26 L
362.74 366.74 L
cp
f
GR
GS
[0.75 0 0 0.75 0 -0.25] CT
0.851 0.325 0.098 RC
2 setlinecap
10.0 ML
2.667 LW
N
350.26 366.74 M
350.26 354.26 L
362.74 354.26 L
362.74 366.74 L
350.26 366.74 L
S
GR
GS
[0.75 0 0 0.75 0 -0.25] CT
0.851 0.325 0.098 RC
N
425.26 319.74 M
425.26 307.26 L
437.74 307.26 L
437.74 319.74 L
cp
f
GR
GS
[0.75 0 0 0.75 0 -0.25] CT
0.851 0.325 0.098 RC
2 setlinecap
10.0 ML
2.667 LW
N
425.26 319.74 M
425.26 307.26 L
437.74 307.26 L
437.74 319.74 L
425.26 319.74 L
S
GR
GS
[0.75 0 0 0.75 0 -0.25] CT
0.851 0.325 0.098 RC
N
500.26 272.74 M
500.26 260.26 L
512.74 260.26 L
512.74 272.74 L
cp
f
GR
GS
[0.75 0 0 0.75 0 -0.25] CT
0.851 0.325 0.098 RC
2 setlinecap
10.0 ML
2.667 LW
N
500.26 272.74 M
500.26 260.26 L
512.74 260.26 L
512.74 272.74 L
500.26 272.74 L
S
GR
GS
[0.75 0 0 0.75 0 -0.25] CT
0.851 0.325 0.098 RC
N
575.26 227.74 M
575.26 215.26 L
587.74 215.26 L
587.74 227.74 L
cp
f
GR
GS
[0.75 0 0 0.75 0 -0.25] CT
0.851 0.325 0.098 RC
2 setlinecap
10.0 ML
2.667 LW
N
575.26 227.74 M
575.26 215.26 L
587.74 215.26 L
587.74 227.74 L
575.26 227.74 L
S
GR
GS
[0.75 0 0 0.75 0 -0.25] CT
0.851 0.325 0.098 RC
N
650.26 186.74 M
650.26 174.26 L
662.74 174.26 L
662.74 186.74 L
cp
f
GR
GS
[0.75 0 0 0.75 0 -0.25] CT
0.851 0.325 0.098 RC
2 setlinecap
10.0 ML
2.667 LW
N
650.26 186.74 M
650.26 174.26 L
662.74 174.26 L
662.74 186.74 L
650.26 186.74 L
S
GR
GS
[0.75 0 0 0.75 0 -0.25] CT
0.851 0.325 0.098 RC
N
725.26 150.74 M
725.26 138.26 L
737.74 138.26 L
737.74 150.74 L
cp
f
GR
GS
[0.75 0 0 0.75 0 -0.25] CT
0.851 0.325 0.098 RC
2 setlinecap
10.0 ML
2.667 LW
N
725.26 150.74 M
725.26 138.26 L
737.74 138.26 L
737.74 150.74 L
725.26 150.74 L
S
GR
GS
[0.75 0 0 0.75 0 -0.25] CT
0.851 0.325 0.098 RC
N
800.26 123.74 M
800.26 111.26 L
812.74 111.26 L
812.74 123.74 L
cp
f
GR
GS
[0.75 0 0 0.75 0 -0.25] CT
0.851 0.325 0.098 RC
2 setlinecap
10.0 ML
2.667 LW
N
800.26 123.74 M
800.26 111.26 L
812.74 111.26 L
812.74 123.74 L
800.26 123.74 L
S
GR
GS
[0.75 0 0 0.75 0 -0.25] CT
0.851 0.325 0.098 RC
N
875.26 102.74 M
875.26 90.26 L
887.74 90.26 L
887.74 102.74 L
cp
f
GR
GS
[0.75 0 0 0.75 0 -0.25] CT
0.851 0.325 0.098 RC
2 setlinecap
10.0 ML
2.667 LW
N
875.26 102.74 M
875.26 90.26 L
887.74 90.26 L
887.74 102.74 L
875.26 102.74 L
S
GR
GS
[0.75 0 0 0.75 0 -0.25] CT
0.929 0.694 0.125 RC
2 setlinecap
10.0 ML
2.667 LW
N
132 506 M
281.852 408.804 L
356.778 360.206 L
431.704 311.608 L
506.631 263.01 L
581.557 214.412 L
656.483 165.814 L
731.409 117.216 L
806.335 68.618 L
881.261 20.02 L
S
GR
GS
[0.75 0 0 0.75 0 -0.25] CT
0.929 0.694 0.125 RC
N
139.344 505.5 M
138.427 502.078 L
135.922 499.573 L
132.5 498.656 L
129.078 499.573 L
126.573 502.078 L
125.656 505.5 L
126.573 508.922 L
129.078 511.427 L
132.5 512.344 L
135.922 511.427 L
138.427 508.922 L
139.344 505.5 L
cp
f
GR
GS
[0.75 0 0 0.75 0 -0.25] CT
0.929 0.694 0.125 RC
N
288.344 408.5 M
287.427 405.078 L
284.922 402.573 L
281.5 401.656 L
278.078 402.573 L
275.573 405.078 L
274.656 408.5 L
275.573 411.922 L
278.078 414.427 L
281.5 415.344 L
284.922 414.427 L
287.427 411.922 L
288.344 408.5 L
cp
f
GR
GS
[0.75 0 0 0.75 0 -0.25] CT
0.929 0.694 0.125 RC
N
363.344 360.5 M
362.427 357.078 L
359.922 354.573 L
356.5 353.656 L
353.078 354.573 L
350.573 357.078 L
349.656 360.5 L
350.573 363.922 L
353.078 366.427 L
356.5 367.344 L
359.922 366.427 L
362.427 363.922 L
363.344 360.5 L
cp
f
GR
GS
[0.75 0 0 0.75 0 -0.25] CT
0.929 0.694 0.125 RC
N
438.344 311.5 M
437.427 308.078 L
434.922 305.573 L
431.5 304.656 L
428.078 305.573 L
425.573 308.078 L
424.656 311.5 L
425.573 314.922 L
428.078 317.427 L
431.5 318.344 L
434.922 317.427 L
437.427 314.922 L
438.344 311.5 L
cp
f
GR
GS
[0.75 0 0 0.75 0 -0.25] CT
0.929 0.694 0.125 RC
N
513.344 263.5 M
512.427 260.078 L
509.922 257.573 L
506.5 256.656 L
503.078 257.573 L
500.573 260.078 L
499.656 263.5 L
500.573 266.922 L
503.078 269.427 L
506.5 270.344 L
509.922 269.427 L
512.427 266.922 L
513.344 263.5 L
cp
f
GR
GS
[0.75 0 0 0.75 0 -0.25] CT
0.929 0.694 0.125 RC
N
588.344 214.5 M
587.427 211.078 L
584.922 208.573 L
581.5 207.656 L
578.078 208.573 L
575.573 211.078 L
574.656 214.5 L
575.573 217.922 L
578.078 220.427 L
581.5 221.344 L
584.922 220.427 L
587.427 217.922 L
588.344 214.5 L
cp
f
GR
GS
[0.75 0 0 0.75 0 -0.25] CT
0.929 0.694 0.125 RC
N
663.344 165.5 M
662.427 162.078 L
659.922 159.573 L
656.5 158.656 L
653.078 159.573 L
650.573 162.078 L
649.656 165.5 L
650.573 168.922 L
653.078 171.427 L
656.5 172.344 L
659.922 171.427 L
662.427 168.922 L
663.344 165.5 L
cp
f
GR
GS
[0.75 0 0 0.75 0 -0.25] CT
0.929 0.694 0.125 RC
N
738.344 117.5 M
737.427 114.078 L
734.922 111.573 L
731.5 110.656 L
728.078 111.573 L
725.573 114.078 L
724.656 117.5 L
725.573 120.922 L
728.078 123.427 L
731.5 124.344 L
734.922 123.427 L
737.427 120.922 L
738.344 117.5 L
cp
f
GR
GS
[0.75 0 0 0.75 0 -0.25] CT
0.929 0.694 0.125 RC
N
813.344 68.5 M
812.427 65.078 L
809.922 62.573 L
806.5 61.656 L
803.078 62.573 L
800.573 65.078 L
799.656 68.5 L
800.573 71.922 L
803.078 74.427 L
806.5 75.344 L
809.922 74.427 L
812.427 71.922 L
813.344 68.5 L
cp
f
GR
GS
[0.75 0 0 0.75 0 -0.25] CT
0.929 0.694 0.125 RC
N
888.344 20.5 M
887.427 17.078 L
884.922 14.573 L
881.5 13.656 L
878.078 14.573 L
875.573 17.078 L
874.656 20.5 L
875.573 23.922 L
878.078 26.427 L
881.5 27.344 L
884.922 26.427 L
887.427 23.922 L
888.344 20.5 L
cp
f
GR
GS
[0.75 0 0 0.75 0 -0.25] CT
1 GC
N
167 141 M
167 35 L
541 35 L
541 141 L
cp
f
GR
GS
[0.75 0 0 0.75 164.25 40.42035] CT
/Times 27 F
GS
[1 0 0 1 0 0] CT
0 9.5 moveto 
1 -1 scale
(Speed Up \(BLAS IBM\)) t 
GR
GR
GS
[0.75 0 0 0.75 0 -0.25] CT
0 0.447 0.741 RC
2 setlinecap
10.0 ML
2.667 LW
N
175 54.227 M
215 54.227 L
S
GR
GS
[0.75 0 0 0.75 0 -0.25] CT
0 0.447 0.741 RC
2 setlinecap
10.0 ML
2.667 LW
N
185 54.5 M
204 54.5 L
S
GR
GS
[0.75 0 0 0.75 0 -0.25] CT
0 0.447 0.741 RC
2 setlinecap
10.0 ML
2.667 LW
N
194.5 64 M
194.5 45 L
S
GR
GS
[0.75 0 0 0.75 0 -0.25] CT
0 0.447 0.741 RC
2 setlinecap
10.0 ML
2.667 LW
N
188 61 M
201 48 L
S
GR
GS
[0.75 0 0 0.75 0 -0.25] CT
0 0.447 0.741 RC
2 setlinecap
10.0 ML
2.667 LW
N
188 48 M
201 61 L
S
GR
GS
[0.75 0 0 0.75 164.25 65.75] CT
/Times 27 F
GS
[1 0 0 1 0 0] CT
0 9.5 moveto 
1 -1 scale
(Speed Up \(BLAS Netlib\)) t 
GR
GR
GS
[0.75 0 0 0.75 0 -0.25] CT
0.851 0.325 0.098 RC
2 setlinecap
10.0 ML
2.667 LW
N
175 88 M
215 88 L
S
GR
GS
[0.75 0 0 0.75 0 -0.25] CT
0.851 0.325 0.098 RC
N
188.26 94.74 M
188.26 82.26 L
200.74 82.26 L
200.74 94.74 L
cp
f
GR
GS
[0.75 0 0 0.75 0 -0.25] CT
0.851 0.325 0.098 RC
2 setlinecap
10.0 ML
2.667 LW
N
188.26 94.74 M
188.26 82.26 L
200.74 82.26 L
200.74 94.74 L
188.26 94.74 L
S
GR
GS
[0.75 0 0 0.75 164.25 91.07965] CT
/Times 27 F
GS
[1 0 0 1 0 0] CT
0 9.5 moveto 
1 -1 scale
(Speed Up \(Ideal\)) t 
GR
GR
GS
[0.75 0 0 0.75 0 -0.25] CT
0.929 0.694 0.125 RC
2 setlinecap
10.0 ML
2.667 LW
N
175 121.773 M
215 121.773 L
S
GR
GS
[0.75 0 0 0.75 0 -0.25] CT
0.929 0.694 0.125 RC
N
201.344 121.5 M
200.427 118.078 L
197.922 115.573 L
194.5 114.656 L
191.078 115.573 L
188.573 118.078 L
187.656 121.5 L
188.573 124.922 L
191.078 127.427 L
194.5 128.344 L
197.922 127.427 L
200.427 124.922 L
201.344 121.5 L
cp
f
GR
GS
[0.75 0 0 0.75 0 -0.25] CT
0.149 GC
2 setlinecap
10.0 ML
N
167 141 M
167 35 L
541 35 L
541 141 L
167 141 L
S
GR
%%Trailer
%%Pages: 1
%%EOF
