%!PS-Adobe-3.0 EPSF-3.0
%%Creator: (MATLAB, The Mathworks, Inc. Version 8.5.0.197613 \(R2015a\). Operating System: Linux)
%%Title: /home/betogil/hp2fem-article/Text/eps/Scalability_Hexa_10000_P1.eps
%%CreationDate: 2016-05-23T18:55:29
%%Pages: (atend)
%%BoundingBox: 0 0 694 443
%%LanguageLevel: 2
%%EndComments
%%BeginProlog
%%BeginResource: procset (Apache XML Graphics Std ProcSet) 1.2 0
%%Version: 1.2 0
%%Copyright: (Copyright 2001-2003,2010 The Apache Software Foundation. License terms: http://www.apache.org/licenses/LICENSE-2.0)
/bd{bind def}bind def
/ld{load def}bd
/GR/grestore ld
/M/moveto ld
/LJ/setlinejoin ld
/C/curveto ld
/f/fill ld
/LW/setlinewidth ld
/GC/setgray ld
/t/show ld
/N/newpath ld
/CT/concat ld
/cp/closepath ld
/S/stroke ld
/L/lineto ld
/CC/setcmykcolor ld
/A/ashow ld
/GS/gsave ld
/RC/setrgbcolor ld
/RM/rmoveto ld
/ML/setmiterlimit ld
/re {4 2 roll M
1 index 0 rlineto
0 exch rlineto
neg 0 rlineto
cp } bd
/_ctm matrix def
/_tm matrix def
/BT { _ctm currentmatrix pop matrix _tm copy pop 0 0 moveto } bd
/ET { _ctm setmatrix } bd
/iTm { _ctm setmatrix _tm concat } bd
/Tm { _tm astore pop iTm 0 0 moveto } bd
/ux 0.0 def
/uy 0.0 def
/F {
  /Tp exch def
  /Tf exch def
  Tf findfont Tp scalefont setfont
  /cf Tf def  /cs Tp def
} bd
/ULS {currentpoint /uy exch def /ux exch def} bd
/ULE {
  /Tcx currentpoint pop def
  gsave
  newpath
  cf findfont cs scalefont dup
  /FontMatrix get 0 get /Ts exch def /FontInfo get dup
  /UnderlinePosition get Ts mul /To exch def
  /UnderlineThickness get Ts mul /Tt exch def
  ux uy To add moveto  Tcx uy To add lineto
  Tt setlinewidth stroke
  grestore
} bd
/OLE {
  /Tcx currentpoint pop def
  gsave
  newpath
  cf findfont cs scalefont dup
  /FontMatrix get 0 get /Ts exch def /FontInfo get dup
  /UnderlinePosition get Ts mul /To exch def
  /UnderlineThickness get Ts mul /Tt exch def
  ux uy To add cs add moveto Tcx uy To add cs add lineto
  Tt setlinewidth stroke
  grestore
} bd
/SOE {
  /Tcx currentpoint pop def
  gsave
  newpath
  cf findfont cs scalefont dup
  /FontMatrix get 0 get /Ts exch def /FontInfo get dup
  /UnderlinePosition get Ts mul /To exch def
  /UnderlineThickness get Ts mul /Tt exch def
  ux uy To add cs 10 mul 26 idiv add moveto Tcx uy To add cs 10 mul 26 idiv add lineto
  Tt setlinewidth stroke
  grestore
} bd
/QT {
/Y22 exch store
/X22 exch store
/Y21 exch store
/X21 exch store
currentpoint
/Y21 load 2 mul add 3 div exch
/X21 load 2 mul add 3 div exch
/X21 load 2 mul /X22 load add 3 div
/Y21 load 2 mul /Y22 load add 3 div
/X22 load /Y22 load curveto
} bd
/SSPD {
dup length /d exch dict def
{
/v exch def
/k exch def
currentpagedevice k known {
/cpdv currentpagedevice k get def
v cpdv ne {
/upd false def
/nullv v type /nulltype eq def
/nullcpdv cpdv type /nulltype eq def
nullv nullcpdv or
{
/upd true def
} {
/sametype v type cpdv type eq def
sametype {
v type /arraytype eq {
/vlen v length def
/cpdvlen cpdv length def
vlen cpdvlen eq {
0 1 vlen 1 sub {
/i exch def
/obj v i get def
/cpdobj cpdv i get def
obj cpdobj ne {
/upd true def
exit
} if
} for
} {
/upd true def
} ifelse
} {
v type /dicttype eq {
v {
/dv exch def
/dk exch def
/cpddv cpdv dk get def
dv cpddv ne {
/upd true def
exit
} if
} forall
} {
/upd true def
} ifelse
} ifelse
} if
} ifelse
upd true eq {
d k v put
} if
} if
} if
} forall
d length 0 gt {
d setpagedevice
} if
} bd
%%EndResource
%%BeginResource: procset (Apache XML Graphics EPS ProcSet) 1.0 0
%%Version: 1.0 0
%%Copyright: (Copyright 2002-2003 The Apache Software Foundation. License terms: http://www.apache.org/licenses/LICENSE-2.0)
/BeginEPSF { %def
/b4_Inc_state save def         % Save state for cleanup
/dict_count countdictstack def % Count objects on dict stack
/op_count count 1 sub def      % Count objects on operand stack
userdict begin                 % Push userdict on dict stack
/showpage { } def              % Redefine showpage, { } = null proc
0 setgray 0 setlinecap         % Prepare graphics state
1 setlinewidth 0 setlinejoin
10 setmiterlimit [ ] 0 setdash newpath
/languagelevel where           % If level not equal to 1 then
{pop languagelevel             % set strokeadjust and
1 ne                           % overprint to their defaults.
{false setstrokeadjust false setoverprint
} if
} if
} bd
/EndEPSF { %def
count op_count sub {pop} repeat            % Clean up stacks
countdictstack dict_count sub {end} repeat
b4_Inc_state restore
} bd
%%EndResource
%FOPBeginFontDict
%%IncludeResource: font Courier-Bold
%%IncludeResource: font Helvetica
%%IncludeResource: font Courier-BoldOblique
%%IncludeResource: font Courier-Oblique
%%IncludeResource: font Times-Roman
%%IncludeResource: font Helvetica-BoldOblique
%%IncludeResource: font Helvetica-Bold
%%IncludeResource: font Helvetica-Oblique
%%IncludeResource: font Times-BoldItalic
%%IncludeResource: font Courier
%%IncludeResource: font Times-Italic
%%IncludeResource: font Times-Bold
%%IncludeResource: font Symbol
%%IncludeResource: font ZapfDingbats
%FOPEndFontDict
%%BeginResource: encoding WinAnsiEncoding
/WinAnsiEncoding [
/.notdef /.notdef /.notdef /.notdef /.notdef
/.notdef /.notdef /.notdef /.notdef /.notdef
/.notdef /.notdef /.notdef /.notdef /.notdef
/.notdef /.notdef /.notdef /.notdef /.notdef
/.notdef /.notdef /.notdef /.notdef /.notdef
/.notdef /.notdef /.notdef /.notdef /.notdef
/.notdef /.notdef /space /exclam /quotedbl
/numbersign /dollar /percent /ampersand /quotesingle
/parenleft /parenright /asterisk /plus /comma
/hyphen /period /slash /zero /one
/two /three /four /five /six
/seven /eight /nine /colon /semicolon
/less /equal /greater /question /at
/A /B /C /D /E
/F /G /H /I /J
/K /L /M /N /O
/P /Q /R /S /T
/U /V /W /X /Y
/Z /bracketleft /backslash /bracketright /asciicircum
/underscore /quoteleft /a /b /c
/d /e /f /g /h
/i /j /k /l /m
/n /o /p /q /r
/s /t /u /v /w
/x /y /z /braceleft /bar
/braceright /asciitilde /bullet /Euro /bullet
/quotesinglbase /florin /quotedblbase /ellipsis /dagger
/daggerdbl /circumflex /perthousand /Scaron /guilsinglleft
/OE /bullet /Zcaron /bullet /bullet
/quoteleft /quoteright /quotedblleft /quotedblright /bullet
/endash /emdash /asciitilde /trademark /scaron
/guilsinglright /oe /bullet /zcaron /Ydieresis
/space /exclamdown /cent /sterling /currency
/yen /brokenbar /section /dieresis /copyright
/ordfeminine /guillemotleft /logicalnot /sfthyphen /registered
/macron /degree /plusminus /twosuperior /threesuperior
/acute /mu /paragraph /middot /cedilla
/onesuperior /ordmasculine /guillemotright /onequarter /onehalf
/threequarters /questiondown /Agrave /Aacute /Acircumflex
/Atilde /Adieresis /Aring /AE /Ccedilla
/Egrave /Eacute /Ecircumflex /Edieresis /Igrave
/Iacute /Icircumflex /Idieresis /Eth /Ntilde
/Ograve /Oacute /Ocircumflex /Otilde /Odieresis
/multiply /Oslash /Ugrave /Uacute /Ucircumflex
/Udieresis /Yacute /Thorn /germandbls /agrave
/aacute /acircumflex /atilde /adieresis /aring
/ae /ccedilla /egrave /eacute /ecircumflex
/edieresis /igrave /iacute /icircumflex /idieresis
/eth /ntilde /ograve /oacute /ocircumflex
/otilde /odieresis /divide /oslash /ugrave
/uacute /ucircumflex /udieresis /yacute /thorn
/ydieresis
] def
%%EndResource
%FOPBeginFontReencode
/Courier-Bold findfont
dup length dict begin
  {1 index /FID ne {def} {pop pop} ifelse} forall
  /Encoding WinAnsiEncoding def
  currentdict
end
/Courier-Bold exch definefont pop
/Helvetica findfont
dup length dict begin
  {1 index /FID ne {def} {pop pop} ifelse} forall
  /Encoding WinAnsiEncoding def
  currentdict
end
/Helvetica exch definefont pop
/Courier-BoldOblique findfont
dup length dict begin
  {1 index /FID ne {def} {pop pop} ifelse} forall
  /Encoding WinAnsiEncoding def
  currentdict
end
/Courier-BoldOblique exch definefont pop
/Courier-Oblique findfont
dup length dict begin
  {1 index /FID ne {def} {pop pop} ifelse} forall
  /Encoding WinAnsiEncoding def
  currentdict
end
/Courier-Oblique exch definefont pop
/Times-Roman findfont
dup length dict begin
  {1 index /FID ne {def} {pop pop} ifelse} forall
  /Encoding WinAnsiEncoding def
  currentdict
end
/Times-Roman exch definefont pop
/Helvetica-BoldOblique findfont
dup length dict begin
  {1 index /FID ne {def} {pop pop} ifelse} forall
  /Encoding WinAnsiEncoding def
  currentdict
end
/Helvetica-BoldOblique exch definefont pop
/Helvetica-Bold findfont
dup length dict begin
  {1 index /FID ne {def} {pop pop} ifelse} forall
  /Encoding WinAnsiEncoding def
  currentdict
end
/Helvetica-Bold exch definefont pop
/Helvetica-Oblique findfont
dup length dict begin
  {1 index /FID ne {def} {pop pop} ifelse} forall
  /Encoding WinAnsiEncoding def
  currentdict
end
/Helvetica-Oblique exch definefont pop
/Times-BoldItalic findfont
dup length dict begin
  {1 index /FID ne {def} {pop pop} ifelse} forall
  /Encoding WinAnsiEncoding def
  currentdict
end
/Times-BoldItalic exch definefont pop
/Courier findfont
dup length dict begin
  {1 index /FID ne {def} {pop pop} ifelse} forall
  /Encoding WinAnsiEncoding def
  currentdict
end
/Courier exch definefont pop
/Times-Italic findfont
dup length dict begin
  {1 index /FID ne {def} {pop pop} ifelse} forall
  /Encoding WinAnsiEncoding def
  currentdict
end
/Times-Italic exch definefont pop
/Times-Bold findfont
dup length dict begin
  {1 index /FID ne {def} {pop pop} ifelse} forall
  /Encoding WinAnsiEncoding def
  currentdict
end
/Times-Bold exch definefont pop
%FOPEndFontReencode
%%EndProlog
%%Page: 1 1
%%PageBoundingBox: 0 0 694 443
%%BeginPageSetup
[1 0 0 -1 0 443] CT
%%EndPageSetup
GS
[0.75 0 0 0.75 0 -0.25] CT
1 GC
N
0 0 925 591 re
f
GR
GS
[0.75 0 0 0.75 0 -0.25] CT
1 GC
N
0 0 925 591 re
f
GR
GS
[0.75 0 0 0.75 0 -0.25] CT
1 GC
N
134 505 M
888 505 L
888 17 L
134 17 L
cp
f
GR
GS
[0.75 0 0 0.75 0 -0.25] CT
0.873 GC
2 setlinecap
10.0 ML
N
283.258 505 M
283.258 17 L
S
GR
GS
[0.75 0 0 0.75 0 -0.25] CT
0.873 GC
2 setlinecap
10.0 ML
N
357.888 505 M
357.888 17 L
S
GR
GS
[0.75 0 0 0.75 0 -0.25] CT
0.873 GC
2 setlinecap
10.0 ML
N
432.517 505 M
432.517 17 L
S
GR
GS
[0.75 0 0 0.75 0 -0.25] CT
0.873 GC
2 setlinecap
10.0 ML
N
507.146 505 M
507.146 17 L
S
GR
GS
[0.75 0 0 0.75 0 -0.25] CT
0.873 GC
2 setlinecap
10.0 ML
N
581.775 505 M
581.775 17 L
S
GR
GS
[0.75 0 0 0.75 0 -0.25] CT
0.873 GC
2 setlinecap
10.0 ML
N
656.404 505 M
656.404 17 L
S
GR
GS
[0.75 0 0 0.75 0 -0.25] CT
0.873 GC
2 setlinecap
10.0 ML
N
731.033 505 M
731.033 17 L
S
GR
GS
[0.75 0 0 0.75 0 -0.25] CT
0.873 GC
2 setlinecap
10.0 ML
N
805.663 505 M
805.663 17 L
S
GR
GS
[0.75 0 0 0.75 0 -0.25] CT
0.873 GC
2 setlinecap
10.0 ML
N
880.292 505 M
880.292 17 L
S
GR
GS
[0.75 0 0 0.75 0 -0.25] CT
0.873 GC
2 setlinecap
10.0 ML
N
888 409.583 M
134 409.583 L
S
GR
GS
[0.75 0 0 0.75 0 -0.25] CT
0.873 GC
2 setlinecap
10.0 ML
N
888 361.875 M
134 361.875 L
S
GR
GS
[0.75 0 0 0.75 0 -0.25] CT
0.873 GC
2 setlinecap
10.0 ML
N
888 314.167 M
134 314.167 L
S
GR
GS
[0.75 0 0 0.75 0 -0.25] CT
0.873 GC
2 setlinecap
10.0 ML
N
888 266.458 M
134 266.458 L
S
GR
GS
[0.75 0 0 0.75 0 -0.25] CT
0.873 GC
2 setlinecap
10.0 ML
N
888 218.75 M
134 218.75 L
S
GR
GS
[0.75 0 0 0.75 0 -0.25] CT
0.873 GC
2 setlinecap
10.0 ML
N
888 171.042 M
134 171.042 L
S
GR
GS
[0.75 0 0 0.75 0 -0.25] CT
0.873 GC
2 setlinecap
10.0 ML
N
888 123.333 M
134 123.333 L
S
GR
GS
[0.75 0 0 0.75 0 -0.25] CT
0.873 GC
2 setlinecap
10.0 ML
N
888 75.625 M
134 75.625 L
S
GR
GS
[0.75 0 0 0.75 0 -0.25] CT
0.873 GC
2 setlinecap
10.0 ML
N
888 44.908 M
134 44.908 L
S
GR
GS
[0.75 0 0 0.75 0 -0.25] CT
0.873 GC
2 setlinecap
10.0 ML
N
888 27.917 M
134 27.917 L
S
GR
GS
[0.75 0 0 0.75 404.02982 412.62257] CT
0.149 GC
/Times 33 F
GS
[1 0 0 1 0 0] CT
-181.5 31 moveto 
1 -1 scale
(Number of Processors) t 
GR
GR
GS
[0.75 0 0 0.75 0 -0.25] CT
0.149 GC
2 setlinecap
10.0 ML
N
134 505 M
888 505 L
S
GR
GS
[0.75 0 0 0.75 0 -0.25] CT
0.149 GC
2 setlinecap
10.0 ML
N
134 17 M
888 17 L
S
GR
GS
[0.75 0 0 0.75 0 -0.25] CT
0.149 GC
2 setlinecap
10.0 ML
N
283.258 505 M
283.258 497.46 L
S
GR
GS
[0.75 0 0 0.75 0 -0.25] CT
0.149 GC
2 setlinecap
10.0 ML
N
357.888 505 M
357.888 497.46 L
S
GR
GS
[0.75 0 0 0.75 0 -0.25] CT
0.149 GC
2 setlinecap
10.0 ML
N
432.517 505 M
432.517 497.46 L
S
GR
GS
[0.75 0 0 0.75 0 -0.25] CT
0.149 GC
2 setlinecap
10.0 ML
N
507.146 505 M
507.146 497.46 L
S
GR
GS
[0.75 0 0 0.75 0 -0.25] CT
0.149 GC
2 setlinecap
10.0 ML
N
581.775 505 M
581.775 497.46 L
S
GR
GS
[0.75 0 0 0.75 0 -0.25] CT
0.149 GC
2 setlinecap
10.0 ML
N
656.404 505 M
656.404 497.46 L
S
GR
GS
[0.75 0 0 0.75 0 -0.25] CT
0.149 GC
2 setlinecap
10.0 ML
N
731.033 505 M
731.033 497.46 L
S
GR
GS
[0.75 0 0 0.75 0 -0.25] CT
0.149 GC
2 setlinecap
10.0 ML
N
805.663 505 M
805.663 497.46 L
S
GR
GS
[0.75 0 0 0.75 0 -0.25] CT
0.149 GC
2 setlinecap
10.0 ML
N
880.292 505 M
880.292 497.46 L
S
GR
GS
[0.75 0 0 0.75 0 -0.25] CT
0.149 GC
2 setlinecap
10.0 ML
N
283.258 17 M
283.258 24.54 L
S
GR
GS
[0.75 0 0 0.75 0 -0.25] CT
0.149 GC
2 setlinecap
10.0 ML
N
357.888 17 M
357.888 24.54 L
S
GR
GS
[0.75 0 0 0.75 0 -0.25] CT
0.149 GC
2 setlinecap
10.0 ML
N
432.517 17 M
432.517 24.54 L
S
GR
GS
[0.75 0 0 0.75 0 -0.25] CT
0.149 GC
2 setlinecap
10.0 ML
N
507.146 17 M
507.146 24.54 L
S
GR
GS
[0.75 0 0 0.75 0 -0.25] CT
0.149 GC
2 setlinecap
10.0 ML
N
581.775 17 M
581.775 24.54 L
S
GR
GS
[0.75 0 0 0.75 0 -0.25] CT
0.149 GC
2 setlinecap
10.0 ML
N
656.404 17 M
656.404 24.54 L
S
GR
GS
[0.75 0 0 0.75 0 -0.25] CT
0.149 GC
2 setlinecap
10.0 ML
N
731.033 17 M
731.033 24.54 L
S
GR
GS
[0.75 0 0 0.75 0 -0.25] CT
0.149 GC
2 setlinecap
10.0 ML
N
805.663 17 M
805.663 24.54 L
S
GR
GS
[0.75 0 0 0.75 0 -0.25] CT
0.149 GC
2 setlinecap
10.0 ML
N
880.292 17 M
880.292 24.54 L
S
GR
GS
[0.75 0 0 0.75 212.44375 385.49998] CT
0.149 GC
/Times 33 F
GS
[1 0 0 1 0 0] CT
-10.5 31 moveto 
1 -1 scale
(4) t 
GR
GR
GS
[0.75 0 0 0.75 268.41563 385.49998] CT
0.149 GC
/Times 33 F
GS
[1 0 0 1 0 0] CT
-10.5 31 moveto 
1 -1 scale
(8) t 
GR
GR
GS
[0.75 0 0 0.75 324.3875 385.49998] CT
0.149 GC
/Times 33 F
GS
[1 0 0 1 0 0] CT
-21 31 moveto 
1 -1 scale
(16) t 
GR
GR
GS
[0.75 0 0 0.75 380.35938 385.49998] CT
0.149 GC
/Times 33 F
GS
[1 0 0 1 0 0] CT
-21 31 moveto 
1 -1 scale
(32) t 
GR
GR
GS
[0.75 0 0 0.75 436.33127 385.49998] CT
0.149 GC
/Times 33 F
GS
[1 0 0 1 0 0] CT
-21 31 moveto 
1 -1 scale
(64) t 
GR
GR
GS
[0.75 0 0 0.75 492.30318 385.49998] CT
0.149 GC
/Times 33 F
GS
[1 0 0 1 0 0] CT
-31.5 31 moveto 
1 -1 scale
(128) t 
GR
GR
GS
[0.75 0 0 0.75 548.27499 385.49998] CT
0.149 GC
/Times 33 F
GS
[1 0 0 1 0 0] CT
-31.5 31 moveto 
1 -1 scale
(256) t 
GR
GR
GS
[0.75 0 0 0.75 604.2469 385.49998] CT
0.149 GC
/Times 33 F
GS
[1 0 0 1 0 0] CT
-31.5 31 moveto 
1 -1 scale
(512) t 
GR
GR
GS
[0.75 0 0 0.75 660.21877 385.49998] CT
0.149 GC
/Times 33 F
GS
[1 0 0 1 0 0] CT
-42 31 moveto 
1 -1 scale
(1024) t 
GR
GR
GS
[0 -0.75 0.75 0 33.46128 179.13334] CT
0.149 GC
/Times 33 F
GS
[1 0 0 1 0 0] CT
-137.5 -8 moveto 
1 -1 scale
(SpeedUp \(Ts/Tp\)) t 
GR
GR
GS
[0.75 0 0 0.75 0 -0.25] CT
0.149 GC
2 setlinecap
10.0 ML
N
134 505 M
134 17 L
S
GR
GS
[0.75 0 0 0.75 0 -0.25] CT
0.149 GC
2 setlinecap
10.0 ML
N
888 505 M
888 17 L
S
GR
GS
[0.75 0 0 0.75 0 -0.25] CT
0.149 GC
2 setlinecap
10.0 ML
N
134 409.583 M
141.54 409.583 L
S
GR
GS
[0.75 0 0 0.75 0 -0.25] CT
0.149 GC
2 setlinecap
10.0 ML
N
134 361.875 M
141.54 361.875 L
S
GR
GS
[0.75 0 0 0.75 0 -0.25] CT
0.149 GC
2 setlinecap
10.0 ML
N
134 314.167 M
141.54 314.167 L
S
GR
GS
[0.75 0 0 0.75 0 -0.25] CT
0.149 GC
2 setlinecap
10.0 ML
N
134 266.458 M
141.54 266.458 L
S
GR
GS
[0.75 0 0 0.75 0 -0.25] CT
0.149 GC
2 setlinecap
10.0 ML
N
134 218.75 M
141.54 218.75 L
S
GR
GS
[0.75 0 0 0.75 0 -0.25] CT
0.149 GC
2 setlinecap
10.0 ML
N
134 171.042 M
141.54 171.042 L
S
GR
GS
[0.75 0 0 0.75 0 -0.25] CT
0.149 GC
2 setlinecap
10.0 ML
N
134 123.333 M
141.54 123.333 L
S
GR
GS
[0.75 0 0 0.75 0 -0.25] CT
0.149 GC
2 setlinecap
10.0 ML
N
134 75.625 M
141.54 75.625 L
S
GR
GS
[0.75 0 0 0.75 0 -0.25] CT
0.149 GC
2 setlinecap
10.0 ML
N
134 44.908 M
141.54 44.908 L
S
GR
GS
[0.75 0 0 0.75 0 -0.25] CT
0.149 GC
2 setlinecap
10.0 ML
N
134 27.917 M
141.54 27.917 L
S
GR
GS
[0.75 0 0 0.75 0 -0.25] CT
0.149 GC
2 setlinecap
10.0 ML
N
888 409.583 M
880.46 409.583 L
S
GR
GS
[0.75 0 0 0.75 0 -0.25] CT
0.149 GC
2 setlinecap
10.0 ML
N
888 361.875 M
880.46 361.875 L
S
GR
GS
[0.75 0 0 0.75 0 -0.25] CT
0.149 GC
2 setlinecap
10.0 ML
N
888 314.167 M
880.46 314.167 L
S
GR
GS
[0.75 0 0 0.75 0 -0.25] CT
0.149 GC
2 setlinecap
10.0 ML
N
888 266.458 M
880.46 266.458 L
S
GR
GS
[0.75 0 0 0.75 0 -0.25] CT
0.149 GC
2 setlinecap
10.0 ML
N
888 218.75 M
880.46 218.75 L
S
GR
GS
[0.75 0 0 0.75 0 -0.25] CT
0.149 GC
2 setlinecap
10.0 ML
N
888 171.042 M
880.46 171.042 L
S
GR
GS
[0.75 0 0 0.75 0 -0.25] CT
0.149 GC
2 setlinecap
10.0 ML
N
888 123.333 M
880.46 123.333 L
S
GR
GS
[0.75 0 0 0.75 0 -0.25] CT
0.149 GC
2 setlinecap
10.0 ML
N
888 75.625 M
880.46 75.625 L
S
GR
GS
[0.75 0 0 0.75 0 -0.25] CT
0.149 GC
2 setlinecap
10.0 ML
N
888 44.908 M
880.46 44.908 L
S
GR
GS
[0.75 0 0 0.75 0 -0.25] CT
0.149 GC
2 setlinecap
10.0 ML
N
888 27.917 M
880.46 27.917 L
S
GR
GS
[0.75 0 0 0.75 93.5 306.93748] CT
0.149 GC
/Times 33 F
GS
[1 0 0 1 0 0] CT
-21 11.5 moveto 
1 -1 scale
(4) t 
GR
GR
GS
[0.75 0 0 0.75 93.5 271.15623] CT
0.149 GC
/Times 33 F
GS
[1 0 0 1 0 0] CT
-21 11.5 moveto 
1 -1 scale
(8) t 
GR
GR
GS
[0.75 0 0 0.75 93.5 235.37497] CT
0.149 GC
/Times 33 F
GS
[1 0 0 1 0 0] CT
-42 11.5 moveto 
1 -1 scale
(16) t 
GR
GR
GS
[0.75 0 0 0.75 93.5 199.59371] CT
0.149 GC
/Times 33 F
GS
[1 0 0 1 0 0] CT
-42 11.5 moveto 
1 -1 scale
(32) t 
GR
GR
GS
[0.75 0 0 0.75 93.5 163.81244] CT
0.149 GC
/Times 33 F
GS
[1 0 0 1 0 0] CT
-42 11.5 moveto 
1 -1 scale
(64) t 
GR
GR
GS
[0.75 0 0 0.75 93.5 128.03119] CT
0.149 GC
/Times 33 F
GS
[1 0 0 1 0 0] CT
-63 11.5 moveto 
1 -1 scale
(128) t 
GR
GR
GS
[0.75 0 0 0.75 93.5 92.24993] CT
0.149 GC
/Times 33 F
GS
[1 0 0 1 0 0] CT
-63 11.5 moveto 
1 -1 scale
(256) t 
GR
GR
GS
[0.75 0 0 0.75 93.5 56.46867] CT
0.149 GC
/Times 33 F
GS
[1 0 0 1 0 0] CT
-63 11.5 moveto 
1 -1 scale
(512) t 
GR
GR
GS
[0.75 0 0 0.75 93.5 33.43069] CT
0.149 GC
/Times 33 F
GS
[1 0 0 1 0 0] CT
-63 11.5 moveto 
1 -1 scale
(800) t 
GR
GR
GS
[0.75 0 0 0.75 93.5 20.68741] CT
0.149 GC
/Times 33 F
GS
[1 0 0 1 0 0] CT
-84 11.5 moveto 
1 -1 scale
(1024) t 
GR
GR
GS
[0.75 0 0 0.75 0 -0.25] CT
0 0.447 0.741 RC
2 setlinecap
10.0 ML
2.667 LW
N
134 505 M
283.258 409.544 L
357.888 361.79 L
432.517 314.276 L
507.146 266.531 L
581.775 219.013 L
656.404 172.5 L
731.033 126.977 L
805.663 85.572 L
880.292 46.344 L
S
GR
GS
[0.75 0 0 0.75 0 -0.25] CT
0 0.447 0.741 RC
2 setlinecap
10.0 ML
2.667 LW
N
125 504.5 M
144 504.5 L
S
GR
GS
[0.75 0 0 0.75 0 -0.25] CT
0 0.447 0.741 RC
2 setlinecap
10.0 ML
2.667 LW
N
134.5 514 M
134.5 495 L
S
GR
GS
[0.75 0 0 0.75 0 -0.25] CT
0 0.447 0.741 RC
2 setlinecap
10.0 ML
2.667 LW
N
128 511 M
141 498 L
S
GR
GS
[0.75 0 0 0.75 0 -0.25] CT
0 0.447 0.741 RC
2 setlinecap
10.0 ML
2.667 LW
N
128 498 M
141 511 L
S
GR
GS
[0.75 0 0 0.75 0 -0.25] CT
0 0.447 0.741 RC
2 setlinecap
10.0 ML
2.667 LW
N
274 409.5 M
293 409.5 L
S
GR
GS
[0.75 0 0 0.75 0 -0.25] CT
0 0.447 0.741 RC
2 setlinecap
10.0 ML
2.667 LW
N
283.5 419 M
283.5 400 L
S
GR
GS
[0.75 0 0 0.75 0 -0.25] CT
0 0.447 0.741 RC
2 setlinecap
10.0 ML
2.667 LW
N
277 416 M
290 403 L
S
GR
GS
[0.75 0 0 0.75 0 -0.25] CT
0 0.447 0.741 RC
2 setlinecap
10.0 ML
2.667 LW
N
277 403 M
290 416 L
S
GR
GS
[0.75 0 0 0.75 0 -0.25] CT
0 0.447 0.741 RC
2 setlinecap
10.0 ML
2.667 LW
N
348 361.5 M
367 361.5 L
S
GR
GS
[0.75 0 0 0.75 0 -0.25] CT
0 0.447 0.741 RC
2 setlinecap
10.0 ML
2.667 LW
N
357.5 371 M
357.5 352 L
S
GR
GS
[0.75 0 0 0.75 0 -0.25] CT
0 0.447 0.741 RC
2 setlinecap
10.0 ML
2.667 LW
N
351 368 M
364 355 L
S
GR
GS
[0.75 0 0 0.75 0 -0.25] CT
0 0.447 0.741 RC
2 setlinecap
10.0 ML
2.667 LW
N
351 355 M
364 368 L
S
GR
GS
[0.75 0 0 0.75 0 -0.25] CT
0 0.447 0.741 RC
2 setlinecap
10.0 ML
2.667 LW
N
423 314.5 M
442 314.5 L
S
GR
GS
[0.75 0 0 0.75 0 -0.25] CT
0 0.447 0.741 RC
2 setlinecap
10.0 ML
2.667 LW
N
432.5 324 M
432.5 305 L
S
GR
GS
[0.75 0 0 0.75 0 -0.25] CT
0 0.447 0.741 RC
2 setlinecap
10.0 ML
2.667 LW
N
426 321 M
439 308 L
S
GR
GS
[0.75 0 0 0.75 0 -0.25] CT
0 0.447 0.741 RC
2 setlinecap
10.0 ML
2.667 LW
N
426 308 M
439 321 L
S
GR
GS
[0.75 0 0 0.75 0 -0.25] CT
0 0.447 0.741 RC
2 setlinecap
10.0 ML
2.667 LW
N
498 266.5 M
517 266.5 L
S
GR
GS
[0.75 0 0 0.75 0 -0.25] CT
0 0.447 0.741 RC
2 setlinecap
10.0 ML
2.667 LW
N
507.5 276 M
507.5 257 L
S
GR
GS
[0.75 0 0 0.75 0 -0.25] CT
0 0.447 0.741 RC
2 setlinecap
10.0 ML
2.667 LW
N
501 273 M
514 260 L
S
GR
GS
[0.75 0 0 0.75 0 -0.25] CT
0 0.447 0.741 RC
2 setlinecap
10.0 ML
2.667 LW
N
501 260 M
514 273 L
S
GR
GS
[0.75 0 0 0.75 0 -0.25] CT
0 0.447 0.741 RC
2 setlinecap
10.0 ML
2.667 LW
N
572 219.5 M
591 219.5 L
S
GR
GS
[0.75 0 0 0.75 0 -0.25] CT
0 0.447 0.741 RC
2 setlinecap
10.0 ML
2.667 LW
N
581.5 229 M
581.5 210 L
S
GR
GS
[0.75 0 0 0.75 0 -0.25] CT
0 0.447 0.741 RC
2 setlinecap
10.0 ML
2.667 LW
N
575 226 M
588 213 L
S
GR
GS
[0.75 0 0 0.75 0 -0.25] CT
0 0.447 0.741 RC
2 setlinecap
10.0 ML
2.667 LW
N
575 213 M
588 226 L
S
GR
GS
[0.75 0 0 0.75 0 -0.25] CT
0 0.447 0.741 RC
2 setlinecap
10.0 ML
2.667 LW
N
647 172.5 M
666 172.5 L
S
GR
GS
[0.75 0 0 0.75 0 -0.25] CT
0 0.447 0.741 RC
2 setlinecap
10.0 ML
2.667 LW
N
656.5 182 M
656.5 163 L
S
GR
GS
[0.75 0 0 0.75 0 -0.25] CT
0 0.447 0.741 RC
2 setlinecap
10.0 ML
2.667 LW
N
650 179 M
663 166 L
S
GR
GS
[0.75 0 0 0.75 0 -0.25] CT
0 0.447 0.741 RC
2 setlinecap
10.0 ML
2.667 LW
N
650 166 M
663 179 L
S
GR
GS
[0.75 0 0 0.75 0 -0.25] CT
0 0.447 0.741 RC
2 setlinecap
10.0 ML
2.667 LW
N
722 126.5 M
741 126.5 L
S
GR
GS
[0.75 0 0 0.75 0 -0.25] CT
0 0.447 0.741 RC
2 setlinecap
10.0 ML
2.667 LW
N
731.5 136 M
731.5 117 L
S
GR
GS
[0.75 0 0 0.75 0 -0.25] CT
0 0.447 0.741 RC
2 setlinecap
10.0 ML
2.667 LW
N
725 133 M
738 120 L
S
GR
GS
[0.75 0 0 0.75 0 -0.25] CT
0 0.447 0.741 RC
2 setlinecap
10.0 ML
2.667 LW
N
725 120 M
738 133 L
S
GR
GS
[0.75 0 0 0.75 0 -0.25] CT
0 0.447 0.741 RC
2 setlinecap
10.0 ML
2.667 LW
N
796 85.5 M
815 85.5 L
S
GR
GS
[0.75 0 0 0.75 0 -0.25] CT
0 0.447 0.741 RC
2 setlinecap
10.0 ML
2.667 LW
N
805.5 95 M
805.5 76 L
S
GR
GS
[0.75 0 0 0.75 0 -0.25] CT
0 0.447 0.741 RC
2 setlinecap
10.0 ML
2.667 LW
N
799 92 M
812 79 L
S
GR
GS
[0.75 0 0 0.75 0 -0.25] CT
0 0.447 0.741 RC
2 setlinecap
10.0 ML
2.667 LW
N
799 79 M
812 92 L
S
GR
GS
[0.75 0 0 0.75 0 -0.25] CT
0 0.447 0.741 RC
2 setlinecap
10.0 ML
2.667 LW
N
871 46.5 M
890 46.5 L
S
GR
GS
[0.75 0 0 0.75 0 -0.25] CT
0 0.447 0.741 RC
2 setlinecap
10.0 ML
2.667 LW
N
880.5 56 M
880.5 37 L
S
GR
GS
[0.75 0 0 0.75 0 -0.25] CT
0 0.447 0.741 RC
2 setlinecap
10.0 ML
2.667 LW
N
874 53 M
887 40 L
S
GR
GS
[0.75 0 0 0.75 0 -0.25] CT
0 0.447 0.741 RC
2 setlinecap
10.0 ML
2.667 LW
N
874 40 M
887 53 L
S
GR
GS
[0.75 0 0 0.75 0 -0.25] CT
0.851 0.325 0.098 RC
2 setlinecap
10.0 ML
2.667 LW
N
134 505 M
283.258 409.981 L
357.888 361.886 L
432.517 314.098 L
507.146 266.729 L
581.775 219.357 L
656.404 172.625 L
731.033 127.184 L
805.663 85.87 L
880.292 47.04 L
S
GR
GS
[0.75 0 0 0.75 0 -0.25] CT
0.851 0.325 0.098 RC
N
130.34 508.66 M
130.34 500.34 L
138.66 500.34 L
138.66 508.66 L
cp
f
GR
GS
[0.75 0 0 0.75 0 -0.25] CT
0.851 0.325 0.098 RC
2 setlinecap
10.0 ML
2.667 LW
N
130.34 508.66 M
130.34 500.34 L
138.66 500.34 L
138.66 508.66 L
130.34 508.66 L
S
GR
GS
[0.75 0 0 0.75 0 -0.25] CT
0.851 0.325 0.098 RC
N
279.34 413.66 M
279.34 405.34 L
287.66 405.34 L
287.66 413.66 L
cp
f
GR
GS
[0.75 0 0 0.75 0 -0.25] CT
0.851 0.325 0.098 RC
2 setlinecap
10.0 ML
2.667 LW
N
279.34 413.66 M
279.34 405.34 L
287.66 405.34 L
287.66 413.66 L
279.34 413.66 L
S
GR
GS
[0.75 0 0 0.75 0 -0.25] CT
0.851 0.325 0.098 RC
N
353.34 365.66 M
353.34 357.34 L
361.66 357.34 L
361.66 365.66 L
cp
f
GR
GS
[0.75 0 0 0.75 0 -0.25] CT
0.851 0.325 0.098 RC
2 setlinecap
10.0 ML
2.667 LW
N
353.34 365.66 M
353.34 357.34 L
361.66 357.34 L
361.66 365.66 L
353.34 365.66 L
S
GR
GS
[0.75 0 0 0.75 0 -0.25] CT
0.851 0.325 0.098 RC
N
428.34 318.66 M
428.34 310.34 L
436.66 310.34 L
436.66 318.66 L
cp
f
GR
GS
[0.75 0 0 0.75 0 -0.25] CT
0.851 0.325 0.098 RC
2 setlinecap
10.0 ML
2.667 LW
N
428.34 318.66 M
428.34 310.34 L
436.66 310.34 L
436.66 318.66 L
428.34 318.66 L
S
GR
GS
[0.75 0 0 0.75 0 -0.25] CT
0.851 0.325 0.098 RC
N
503.34 270.66 M
503.34 262.34 L
511.66 262.34 L
511.66 270.66 L
cp
f
GR
GS
[0.75 0 0 0.75 0 -0.25] CT
0.851 0.325 0.098 RC
2 setlinecap
10.0 ML
2.667 LW
N
503.34 270.66 M
503.34 262.34 L
511.66 262.34 L
511.66 270.66 L
503.34 270.66 L
S
GR
GS
[0.75 0 0 0.75 0 -0.25] CT
0.851 0.325 0.098 RC
N
577.34 223.66 M
577.34 215.34 L
585.66 215.34 L
585.66 223.66 L
cp
f
GR
GS
[0.75 0 0 0.75 0 -0.25] CT
0.851 0.325 0.098 RC
2 setlinecap
10.0 ML
2.667 LW
N
577.34 223.66 M
577.34 215.34 L
585.66 215.34 L
585.66 223.66 L
577.34 223.66 L
S
GR
GS
[0.75 0 0 0.75 0 -0.25] CT
0.851 0.325 0.098 RC
N
652.34 176.66 M
652.34 168.34 L
660.66 168.34 L
660.66 176.66 L
cp
f
GR
GS
[0.75 0 0 0.75 0 -0.25] CT
0.851 0.325 0.098 RC
2 setlinecap
10.0 ML
2.667 LW
N
652.34 176.66 M
652.34 168.34 L
660.66 168.34 L
660.66 176.66 L
652.34 176.66 L
S
GR
GS
[0.75 0 0 0.75 0 -0.25] CT
0.851 0.325 0.098 RC
N
727.34 131.66 M
727.34 123.34 L
735.66 123.34 L
735.66 131.66 L
cp
f
GR
GS
[0.75 0 0 0.75 0 -0.25] CT
0.851 0.325 0.098 RC
2 setlinecap
10.0 ML
2.667 LW
N
727.34 131.66 M
727.34 123.34 L
735.66 123.34 L
735.66 131.66 L
727.34 131.66 L
S
GR
GS
[0.75 0 0 0.75 0 -0.25] CT
0.851 0.325 0.098 RC
N
801.34 89.66 M
801.34 81.34 L
809.66 81.34 L
809.66 89.66 L
cp
f
GR
GS
[0.75 0 0 0.75 0 -0.25] CT
0.851 0.325 0.098 RC
2 setlinecap
10.0 ML
2.667 LW
N
801.34 89.66 M
801.34 81.34 L
809.66 81.34 L
809.66 89.66 L
801.34 89.66 L
S
GR
GS
[0.75 0 0 0.75 0 -0.25] CT
0.851 0.325 0.098 RC
N
876.34 51.66 M
876.34 43.34 L
884.66 43.34 L
884.66 51.66 L
cp
f
GR
GS
[0.75 0 0 0.75 0 -0.25] CT
0.851 0.325 0.098 RC
2 setlinecap
10.0 ML
2.667 LW
N
876.34 51.66 M
876.34 43.34 L
884.66 43.34 L
884.66 51.66 L
876.34 51.66 L
S
GR
GS
[0.75 0 0 0.75 0 -0.25] CT
0.929 0.694 0.125 RC
2 setlinecap
10.0 ML
2.667 LW
N
134 505 M
283.258 409.583 L
357.888 361.875 L
432.517 314.167 L
507.146 266.458 L
581.775 218.75 L
656.404 171.042 L
731.033 123.333 L
805.663 75.625 L
880.292 27.917 L
S
GR
GS
[0.75 0 0 0.75 0 -0.25] CT
0.929 0.694 0.125 RC
N
141.344 504.5 M
140.427 501.078 L
137.922 498.573 L
134.5 497.656 L
131.078 498.573 L
128.573 501.078 L
127.656 504.5 L
128.573 507.922 L
131.078 510.427 L
134.5 511.344 L
137.922 510.427 L
140.427 507.922 L
141.344 504.5 L
cp
f
GR
GS
[0.75 0 0 0.75 0 -0.25] CT
0.929 0.694 0.125 RC
N
290.344 409.5 M
289.427 406.078 L
286.922 403.573 L
283.5 402.656 L
280.078 403.573 L
277.573 406.078 L
276.656 409.5 L
277.573 412.922 L
280.078 415.427 L
283.5 416.344 L
286.922 415.427 L
289.427 412.922 L
290.344 409.5 L
cp
f
GR
GS
[0.75 0 0 0.75 0 -0.25] CT
0.929 0.694 0.125 RC
N
364.344 361.5 M
363.427 358.078 L
360.922 355.573 L
357.5 354.656 L
354.078 355.573 L
351.573 358.078 L
350.656 361.5 L
351.573 364.922 L
354.078 367.427 L
357.5 368.344 L
360.922 367.427 L
363.427 364.922 L
364.344 361.5 L
cp
f
GR
GS
[0.75 0 0 0.75 0 -0.25] CT
0.929 0.694 0.125 RC
N
439.344 314.5 M
438.427 311.078 L
435.922 308.573 L
432.5 307.656 L
429.078 308.573 L
426.573 311.078 L
425.656 314.5 L
426.573 317.922 L
429.078 320.427 L
432.5 321.344 L
435.922 320.427 L
438.427 317.922 L
439.344 314.5 L
cp
f
GR
GS
[0.75 0 0 0.75 0 -0.25] CT
0.929 0.694 0.125 RC
N
514.344 266.5 M
513.427 263.078 L
510.922 260.573 L
507.5 259.656 L
504.078 260.573 L
501.573 263.078 L
500.656 266.5 L
501.573 269.922 L
504.078 272.427 L
507.5 273.344 L
510.922 272.427 L
513.427 269.922 L
514.344 266.5 L
cp
f
GR
GS
[0.75 0 0 0.75 0 -0.25] CT
0.929 0.694 0.125 RC
N
588.344 218.5 M
587.427 215.078 L
584.922 212.573 L
581.5 211.656 L
578.078 212.573 L
575.573 215.078 L
574.656 218.5 L
575.573 221.922 L
578.078 224.427 L
581.5 225.344 L
584.922 224.427 L
587.427 221.922 L
588.344 218.5 L
cp
f
GR
GS
[0.75 0 0 0.75 0 -0.25] CT
0.929 0.694 0.125 RC
N
663.344 171.5 M
662.427 168.078 L
659.922 165.573 L
656.5 164.656 L
653.078 165.573 L
650.573 168.078 L
649.656 171.5 L
650.573 174.922 L
653.078 177.427 L
656.5 178.344 L
659.922 177.427 L
662.427 174.922 L
663.344 171.5 L
cp
f
GR
GS
[0.75 0 0 0.75 0 -0.25] CT
0.929 0.694 0.125 RC
N
738.344 123.5 M
737.427 120.078 L
734.922 117.573 L
731.5 116.656 L
728.078 117.573 L
725.573 120.078 L
724.656 123.5 L
725.573 126.922 L
728.078 129.427 L
731.5 130.344 L
734.922 129.427 L
737.427 126.922 L
738.344 123.5 L
cp
f
GR
GS
[0.75 0 0 0.75 0 -0.25] CT
0.929 0.694 0.125 RC
N
812.344 75.5 M
811.427 72.078 L
808.922 69.573 L
805.5 68.656 L
802.078 69.573 L
799.573 72.078 L
798.656 75.5 L
799.573 78.922 L
802.078 81.427 L
805.5 82.344 L
808.922 81.427 L
811.427 78.922 L
812.344 75.5 L
cp
f
GR
GS
[0.75 0 0 0.75 0 -0.25] CT
0.929 0.694 0.125 RC
N
887.344 27.5 M
886.427 24.078 L
883.922 21.573 L
880.5 20.656 L
877.078 21.573 L
874.573 24.078 L
873.656 27.5 L
874.573 30.922 L
877.078 33.427 L
880.5 34.344 L
883.922 33.427 L
886.427 30.922 L
887.344 27.5 L
cp
f
GR
GS
[0.75 0 0 0.75 0 -0.25] CT
1 GC
N
160 144 M
160 38 L
534 38 L
534 144 L
cp
f
GR
GS
[0.75 0 0 0.75 159 42.67035] CT
/Times 27 F
GS
[1 0 0 1 0 0] CT
0 9.5 moveto 
1 -1 scale
(Speed Up \(BLAS IBM\)) t 
GR
GR
GS
[0.75 0 0 0.75 0 -0.25] CT
0 0.447 0.741 RC
2 setlinecap
10.0 ML
2.667 LW
N
168 57.227 M
208 57.227 L
S
GR
GS
[0.75 0 0 0.75 0 -0.25] CT
0 0.447 0.741 RC
2 setlinecap
10.0 ML
2.667 LW
N
178 57.5 M
197 57.5 L
S
GR
GS
[0.75 0 0 0.75 0 -0.25] CT
0 0.447 0.741 RC
2 setlinecap
10.0 ML
2.667 LW
N
187.5 67 M
187.5 48 L
S
GR
GS
[0.75 0 0 0.75 0 -0.25] CT
0 0.447 0.741 RC
2 setlinecap
10.0 ML
2.667 LW
N
181 64 M
194 51 L
S
GR
GS
[0.75 0 0 0.75 0 -0.25] CT
0 0.447 0.741 RC
2 setlinecap
10.0 ML
2.667 LW
N
181 51 M
194 64 L
S
GR
GS
[0.75 0 0 0.75 159 68] CT
/Times 27 F
GS
[1 0 0 1 0 0] CT
0 9.5 moveto 
1 -1 scale
(Speed Up \(BLAS Netlib\)) t 
GR
GR
GS
[0.75 0 0 0.75 0 -0.25] CT
0.851 0.325 0.098 RC
2 setlinecap
10.0 ML
2.667 LW
N
168 91 M
208 91 L
S
GR
GS
[0.75 0 0 0.75 0 -0.25] CT
0.851 0.325 0.098 RC
N
183.34 94.66 M
183.34 86.34 L
191.66 86.34 L
191.66 94.66 L
cp
f
GR
GS
[0.75 0 0 0.75 0 -0.25] CT
0.851 0.325 0.098 RC
2 setlinecap
10.0 ML
2.667 LW
N
183.34 94.66 M
183.34 86.34 L
191.66 86.34 L
191.66 94.66 L
183.34 94.66 L
S
GR
GS
[0.75 0 0 0.75 159 93.32965] CT
/Times 27 F
GS
[1 0 0 1 0 0] CT
0 9.5 moveto 
1 -1 scale
(Speed Up \(Ideal\)) t 
GR
GR
GS
[0.75 0 0 0.75 0 -0.25] CT
0.929 0.694 0.125 RC
2 setlinecap
10.0 ML
2.667 LW
N
168 124.773 M
208 124.773 L
S
GR
GS
[0.75 0 0 0.75 0 -0.25] CT
0.929 0.694 0.125 RC
N
194.344 124.5 M
193.427 121.078 L
190.922 118.573 L
187.5 117.656 L
184.078 118.573 L
181.573 121.078 L
180.656 124.5 L
181.573 127.922 L
184.078 130.427 L
187.5 131.344 L
190.922 130.427 L
193.427 127.922 L
194.344 124.5 L
cp
f
GR
GS
[0.75 0 0 0.75 0 -0.25] CT
0.149 GC
2 setlinecap
10.0 ML
N
160 144 M
160 38 L
534 38 L
534 144 L
160 144 L
S
GR
%%Trailer
%%Pages: 1
%%EOF
