%!PS-Adobe-3.0 EPSF-3.0
%%Creator: cairo 1.15.10 (http://cairographics.org)
%%CreationDate: Sun Aug 23 14:56:21 2020
%%Pages: 1
%%DocumentData: Clean7Bit
%%LanguageLevel: 2
%%BoundingBox: 0 0 646 443
%%EndComments
%%BeginProlog
50 dict begin
/q { gsave } bind def
/Q { grestore } bind def
/cm { 6 array astore concat } bind def
/w { setlinewidth } bind def
/J { setlinecap } bind def
/j { setlinejoin } bind def
/M { setmiterlimit } bind def
/d { setdash } bind def
/m { moveto } bind def
/l { lineto } bind def
/c { curveto } bind def
/h { closepath } bind def
/re { exch dup neg 3 1 roll 5 3 roll moveto 0 rlineto
      0 exch rlineto 0 rlineto closepath } bind def
/S { stroke } bind def
/f { fill } bind def
/f* { eofill } bind def
/n { newpath } bind def
/W { clip } bind def
/W* { eoclip } bind def
/BT { } bind def
/ET { } bind def
/BDC { mark 3 1 roll /BDC pdfmark } bind def
/EMC { mark /EMC pdfmark } bind def
/cairo_store_point { /cairo_point_y exch def /cairo_point_x exch def } def
/Tj { show currentpoint cairo_store_point } bind def
/TJ {
  {
    dup
    type /stringtype eq
    { show } { -0.001 mul 0 cairo_font_matrix dtransform rmoveto } ifelse
  } forall
  currentpoint cairo_store_point
} bind def
/cairo_selectfont { cairo_font_matrix aload pop pop pop 0 0 6 array astore
    cairo_font exch selectfont cairo_point_x cairo_point_y moveto } bind def
/Tf { pop /cairo_font exch def /cairo_font_matrix where
      { pop cairo_selectfont } if } bind def
/Td { matrix translate cairo_font_matrix matrix concatmatrix dup
      /cairo_font_matrix exch def dup 4 get exch 5 get cairo_store_point
      /cairo_font where { pop cairo_selectfont } if } bind def
/Tm { 2 copy 8 2 roll 6 array astore /cairo_font_matrix exch def
      cairo_store_point /cairo_font where { pop cairo_selectfont } if } bind def
/g { setgray } bind def
/rg { setrgbcolor } bind def
/d1 { setcachedevice } bind def
/cairo_data_source {
  CairoDataIndex CairoData length lt
    { CairoData CairoDataIndex get /CairoDataIndex CairoDataIndex 1 add def }
    { () } ifelse
} def
/cairo_flush_ascii85_file { cairo_ascii85_file status { cairo_ascii85_file flushfile } if } def
/cairo_image { image cairo_flush_ascii85_file } def
/cairo_imagemask { imagemask cairo_flush_ascii85_file } def
%%EndProlog
%%BeginSetup
%%EndSetup
%%Page: 1 1
%%BeginPageSetup
%%PageBoundingBox: 0 0 646 443
%%EndPageSetup
q 0 0 646 443 rectclip
1 0 0 -1 0 443 cm q
1 g
0 0 645.539 444.727 re f
0.917647 0.917647 0.94902 rg
84.883 5.156 558 434.879 re f
Q q
84.883 5.156 558 434.879 re W n
q
84 5 559 436 re W n
  q
1 g
1 w
1 J
1 j
[] 0.0 d
4 M q 1 0 0 1 0 0 cm
110.246 440.035 m 110.246 5.156 l S Q
  Q
Q
0 0 0.545098 rg
104.715 407.055 m 107.609 402.043 l 109.133 402.922 l 106.238 407.938 l
 h
104.715 407.055 m f
105.848 389.77 m 105.059 391.133 104.941 392.512 105.496 393.902 c 106.051
 395.293 107.207 396.492 108.961 397.508 c 110.711 398.516 112.324 398.914
 113.805 398.699 c 115.285 398.484 116.422 397.691 117.207 396.328 c 117.996
 394.965 118.113 393.59 117.555 392.207 c 117 390.82 115.848 389.621 114.098
 388.613 c 112.34 387.598 110.723 387.195 109.246 387.406 c 107.77 387.617
 106.637 388.406 105.848 389.77 c h
104.324 388.887 m 105.449 386.941 107 385.762 108.977 385.352 c 110.957
 384.938 113.047 385.367 115.242 386.633 c 117.43 387.898 118.84 389.488
 119.473 391.41 c 120.105 393.328 119.859 395.262 118.734 397.207 c 117.609
 399.16 116.055 400.348 114.078 400.766 c 112.098 401.184 110.012 400.758
 107.816 399.492 c 105.621 398.223 104.211 396.629 103.578 394.703 c 102.949
 392.781 103.195 390.84 104.324 388.887 c h
104.324 388.887 m f
119.762 377.508 m 120.473 376.719 121.281 376.25 122.18 376.098 c 123.078
 375.941 123.977 376.121 124.867 376.637 c 126.238 377.43 127.027 378.512
 127.234 379.891 c 127.441 381.266 127.043 382.82 126.039 384.559 c 125.703
 385.141 125.301 385.707 124.828 386.258 c 124.359 386.809 123.816 387.344
 123.207 387.867 c 121.395 386.82 l 122 386.477 122.555 386.039 123.07 385.512
 c 123.582 384.977 124.035 384.375 124.426 383.699 c 125.105 382.52 125.391
 381.488 125.281 380.605 c 125.176 379.719 124.676 379.02 123.789 378.508
 c 122.969 378.035 122.164 377.953 121.371 378.258 c 120.578 378.566 119.887
 379.23 119.297 380.254 c 118.363 381.871 l 116.816 380.98 l 117.797 379.285
 l 118.328 378.363 118.551 377.551 118.465 376.848 c 118.379 376.145 117.988
 375.59 117.293 375.191 c 116.582 374.777 115.887 374.715 115.215 375.004
 c 114.543 375.285 113.934 375.898 113.387 376.84 c 113.09 377.355 112.828
 377.941 112.602 378.598 c 112.371 379.25 112.168 380 111.996 380.84 c 110.324
 379.875 l 110.535 379.043 110.773 378.289 111.035 377.609 c 111.297 376.93
 111.586 376.312 111.902 375.762 c 112.727 374.336 113.703 373.395 114.832
 372.938 c 115.957 372.48 117.074 372.57 118.176 373.207 c 118.945 373.652
 119.469 374.246 119.746 374.992 c 120.02 375.742 120.027 376.578 119.762
 377.508 c h
119.762 377.508 m f
q
84 5 559 436 re W n
  q
1 g
1 w
1 J
1 j
[] 0.0 d
4 M q 1 0 0 1 0 0 cm
211.699 440.035 m 211.699 5.156 l S Q
  Q
Q
0 0 0.545098 rg
204.652 313.203 m 209.738 316.141 l 211.48 313.125 l 212.066 312.117 212.285
 311.246 212.148 310.52 c 212.012 309.789 211.512 309.176 210.652 308.68
 c 209.781 308.176 209 308.051 208.309 308.301 c 207.613 308.551 206.977
 309.18 206.395 310.188 c h
198.941 309.906 m 203.125 312.324 l 204.73 309.539 l 205.262 308.621 205.484
 307.84 205.398 307.195 c 205.316 306.543 204.918 306.016 204.211 305.605
 c 203.512 305.203 202.859 305.125 202.25 305.375 c 201.645 305.625 201.074
 306.207 200.547 307.121 c h
196.309 310.895 m 199.082 306.09 l 199.91 304.656 200.844 303.727 201.887
 303.297 c 202.93 302.863 204 302.965 205.098 303.598 c 205.949 304.09 206.512
 304.68 206.785 305.367 c 207.059 306.055 207.035 306.816 206.711 307.656
 c 207.445 306.848 208.273 306.367 209.199 306.223 c 210.125 306.07 211.059
 306.27 212 306.812 c 213.242 307.531 213.957 308.504 214.148 309.738 c 
214.336 310.973 213.98 312.367 213.078 313.926 c 210.199 318.914 l h
196.309 310.895 m f
203.855 297.82 m 204.941 295.945 l 217.25 303.051 l 221.156 296.285 l 222.738
 297.199 l 217.746 305.844 l h
203.855 297.82 m f
214.52 283.625 m 219.961 290.168 l 222.91 285.059 l h
212.055 283.621 m 213.285 281.488 l 230.234 284.215 l 229.105 286.168 l
 224.812 285.375 l 221.195 291.637 l 224.031 294.961 l 222.887 296.941 l
 h
212.055 283.621 m f
222.777 266.105 m 224.609 267.164 l 223.855 267.68 223.215 268.203 222.684
 268.742 c 222.148 269.277 221.711 269.84 221.371 270.43 c 220.781 271.453
 220.523 272.355 220.602 273.141 c 220.676 273.926 221.078 274.527 221.812
 274.949 c 222.426 275.305 223 275.391 223.523 275.203 c 224.051 275.012
 224.707 274.457 225.492 273.539 c 226.379 272.539 l 227.457 271.293 228.523
 270.531 229.582 270.254 c 230.641 269.973 231.734 270.16 232.859 270.812
 c 234.207 271.59 234.969 272.629 235.141 273.934 c 235.316 275.234 234.898
 276.758 233.895 278.5 c 233.516 279.156 233.035 279.812 232.457 280.469
 c 231.883 281.125 231.219 281.766 230.469 282.391 c 228.535 281.273 l 229.402
 280.758 230.156 280.195 230.797 279.59 c 231.434 278.984 231.957 278.324
 232.367 277.617 c 232.984 276.547 233.254 275.598 233.168 274.773 c 233.082
 273.945 232.648 273.305 231.867 272.852 c 231.188 272.461 230.531 272.363
 229.906 272.559 c 229.277 272.754 228.594 273.273 227.852 274.117 c 226.965
 275.137 l 225.879 276.375 224.855 277.137 223.898 277.422 c 222.941 277.703
 221.934 277.539 220.871 276.926 c 219.645 276.215 218.926 275.223 218.719
 273.949 c 218.512 272.676 218.848 271.281 219.723 269.762 c 220.102 269.109
 220.543 268.48 221.051 267.875 c 221.559 267.266 222.133 266.676 222.777
 266.105 c h
222.777 266.105 m f
q
84 5 559 436 re W n
  q
1 g
1 w
1 J
1 j
[] 0.0 d
4 M q 1 0 0 1 0 0 cm
313.156 440.035 m 313.156 5.156 l S Q
  Q
Q
0 0 0.545098 rg
306.531 239.082 m 309.426 234.07 l 310.949 234.949 l 308.055 239.961 l 
h
306.531 239.082 m f
312.371 230.77 m 313.629 231.496 314.766 231.809 315.781 231.703 c 316.797
 231.598 317.566 231.094 318.09 230.188 c 318.609 229.285 318.664 228.363
 318.246 227.43 c 317.832 226.496 316.996 225.664 315.738 224.938 c 314.48
 224.211 313.34 223.902 312.324 224.012 c 311.309 224.117 310.539 224.621
 310.016 225.527 c 309.492 226.434 309.441 227.352 309.855 228.281 c 310.273
 229.215 311.113 230.043 312.371 230.77 c h
319.375 227.039 m 319.789 227.754 319.984 228.477 319.969 229.199 c 319.953
 229.922 319.727 230.668 319.281 231.438 c 318.555 232.695 317.461 233.43
 316 233.645 c 314.535 233.852 312.988 233.484 311.348 232.539 c 309.711
 231.594 308.621 230.434 308.07 229.066 c 307.523 227.695 307.613 226.379
 308.34 225.121 c 308.785 224.352 309.316 223.777 309.934 223.406 c 310.551
 223.027 311.273 222.84 312.102 222.836 c 310.52 221.926 l 311.508 220.215
 l 325.891 228.516 l 324.902 230.227 l h
319.375 227.039 m f
322.672 210.406 m 328.965 214.039 l 327.977 215.75 l 321.742 212.152 l 
320.754 211.582 319.906 211.352 319.195 211.453 c 318.484 211.555 317.906
 211.988 317.461 212.758 c 316.93 213.684 316.801 214.582 317.082 215.457
 c 317.363 216.328 318.012 217.059 319.031 217.648 c 324.918 221.047 l 323.926
 222.77 l 309.449 214.41 l 310.441 212.688 l 316.117 215.969 l 315.727 215.195
 315.539 214.441 315.547 213.707 c 315.559 212.973 315.773 212.242 316.195
 211.516 c 316.887 210.32 317.777 209.629 318.871 209.445 c 319.969 209.254
 321.234 209.578 322.672 210.406 c h
322.672 210.406 m f
324.047 201.27 m 323.516 202.184 323.457 203.117 323.863 204.062 c 324.273
 205.012 325.098 205.844 326.344 206.566 c 327.59 207.285 328.727 207.586
 329.75 207.469 c 330.773 207.352 331.551 206.832 332.082 205.91 c 332.609
 204.996 332.668 204.066 332.258 203.117 c 331.844 202.168 331.02 201.336
 329.777 200.621 c 328.543 199.906 327.41 199.609 326.379 199.727 c 325.352
 199.84 324.57 200.355 324.047 201.27 c h
322.594 200.43 m 323.453 198.941 324.613 198.055 326.074 197.762 c 327.531
 197.469 329.117 197.816 330.824 198.805 c 332.531 199.789 333.625 200.988
 334.105 202.398 c 334.586 203.809 334.395 205.258 333.535 206.746 c 332.672
 208.242 331.512 209.133 330.051 209.418 c 328.59 209.703 327.008 209.352
 325.305 208.367 c 323.594 207.383 322.5 206.188 322.02 204.781 c 321.539
 203.375 321.734 201.926 322.594 200.43 c h
322.594 200.43 m f
325.262 189.555 m 328.223 191.262 l 330.258 187.738 l 331.59 188.504 l 
329.555 192.031 l 335.211 195.297 l 336.059 195.785 336.672 195.984 337.047
 195.891 c 337.426 195.801 337.82 195.395 338.23 194.684 c 339.246 192.926
 l 340.676 193.754 l 339.664 195.508 l 338.898 196.832 338.129 197.602 337.344
 197.816 c 336.562 198.035 335.52 197.766 334.215 197.016 c 328.559 193.75
 l 327.836 195.008 l 326.504 194.238 l 327.23 192.98 l 324.27 191.273 l 
h
325.262 189.555 m f
q
84 5 559 436 re W n
  q
1 g
1 w
1 J
1 j
[] 0.0 d
4 M q 1 0 0 1 0 0 cm
414.609 440.035 m 414.609 5.156 l S Q
  Q
Q
0 0 0.545098 rg
344.336 302.887 m 345.957 300.086 l 357.453 302 l 350.059 292.977 l 351.676
 290.176 l 365.566 298.195 l 364.508 300.031 l 352.309 292.988 l 359.77 
302.07 l 358.68 303.957 l 347.086 302.039 l 359.281 309.082 l 358.227 310.906
 l h
344.336 302.887 m f
365.176 286.781 m 364.375 288.164 363.98 289.215 363.988 289.93 c 363.996
 290.648 364.379 291.227 365.145 291.668 c 365.75 292.016 366.348 292.094
 366.938 291.898 c 367.523 291.703 368.016 291.262 368.414 290.578 c 368.961
 289.625 369.066 288.668 368.723 287.707 c 368.383 286.746 367.652 285.941
 366.539 285.297 c 366.156 285.078 l h
366.438 282.957 m 372.383 286.391 l 371.395 288.102 l 369.812 287.188 l
 370.219 287.945 370.402 288.699 370.367 289.457 c 370.332 290.215 370.07
 291.016 369.586 291.859 c 368.969 292.926 368.18 293.602 367.215 293.887
 c 366.254 294.168 365.27 294.02 364.266 293.441 c 363.094 292.766 362.438
 291.863 362.297 290.734 c 362.152 289.605 362.531 288.262 363.43 286.707
 c 364.816 284.305 l 364.648 284.207 l 363.859 283.754 363.102 283.66 362.371
 283.93 c 361.641 284.199 361.008 284.801 360.465 285.738 c 360.121 286.332
 359.859 286.957 359.676 287.602 c 359.492 288.25 359.395 288.914 359.379
 289.602 c 357.797 288.688 l 357.914 287.922 358.086 287.211 358.305 286.551
 c 358.523 285.891 358.797 285.281 359.117 284.727 c 359.988 283.219 361.031
 282.316 362.242 282.023 c 363.449 281.73 364.848 282.043 366.438 282.957
 c h
366.438 282.957 m f
373.129 270.57 m 379.418 274.203 l 378.43 275.914 l 372.195 272.316 l 371.211
 271.746 370.363 271.512 369.652 271.617 c 368.938 271.719 368.359 272.152
 367.918 272.922 c 367.383 273.848 367.258 274.746 367.539 275.621 c 367.816
 276.492 368.465 277.223 369.484 277.812 c 375.371 281.211 l 374.379 282.93
 l 363.961 276.914 l 364.953 275.195 l 366.574 276.129 l 366.184 275.355
 365.992 274.605 366.004 273.871 c 366.016 273.137 366.23 272.406 366.648
 271.68 c 367.34 270.484 368.23 269.793 369.328 269.605 c 370.422 269.418
 371.688 269.742 373.129 270.57 c h
373.129 270.57 m f
377.176 268.594 m 370.867 264.949 l 371.855 263.238 l 378.098 266.844 l
 379.086 267.414 379.938 267.648 380.652 267.551 c 381.367 267.449 381.945
 267.016 382.391 266.246 c 382.922 265.32 383.051 264.422 382.77 263.547
 c 382.488 262.668 381.84 261.934 380.824 261.348 c 374.918 257.938 l 375.906
 256.227 l 386.324 262.242 l 385.336 263.953 l 383.734 263.027 l 384.129
 263.809 384.32 264.562 384.312 265.289 c 384.301 266.016 384.09 266.742
 383.668 267.469 c 382.977 268.664 382.082 269.359 380.977 269.551 c 379.875
 269.738 378.609 269.418 377.176 268.594 c h
377.176 268.594 m f
385.859 250.957 m 385.059 252.34 384.664 253.387 384.672 254.105 c 384.68
 254.82 385.062 255.398 385.828 255.84 c 386.438 256.191 387.035 256.27 
387.621 256.074 c 388.211 255.879 388.699 255.438 389.098 254.75 c 389.645
 253.801 389.75 252.844 389.406 251.883 c 389.066 250.918 388.336 250.117
 387.223 249.473 c 386.84 249.254 l h
387.121 247.133 m 393.066 250.562 l 392.078 252.277 l 390.496 251.363 l
 390.902 252.117 391.086 252.875 391.051 253.633 c 391.016 254.391 390.758
 255.191 390.27 256.035 c 389.652 257.102 388.863 257.777 387.902 258.062
 c 386.938 258.344 385.953 258.195 384.949 257.617 c 383.777 256.941 383.121
 256.039 382.98 254.91 c 382.84 253.781 383.215 252.438 384.113 250.883 
c 385.5 248.48 l 385.332 248.383 l 384.543 247.926 383.785 247.832 383.055
 248.102 c 382.324 248.371 381.691 248.977 381.148 249.914 c 380.805 250.508
 380.543 251.129 380.359 251.777 c 380.176 252.422 380.078 253.09 380.062
 253.773 c 378.48 252.859 l 378.598 252.094 378.77 251.383 378.988 250.727
 c 379.207 250.066 379.48 249.457 379.801 248.898 c 380.672 247.391 381.715
 246.492 382.926 246.199 c 384.133 245.902 385.535 246.215 387.121 247.133
 c h
387.121 247.133 m f
380.625 238.68 m 381.613 236.969 l 396.09 245.328 l 395.102 247.039 l h
380.625 238.68 m f
387.805 227.598 m 388.891 225.719 l 401.199 232.824 l 405.105 226.062 l
 406.688 226.973 l 401.695 235.617 l h
387.805 227.598 m f
393.934 216.98 m 395.02 215.102 l 408.91 223.121 l 407.824 225 l h
393.934 216.98 m f
404.254 201.578 m 406.234 202.723 l 405.281 203.016 404.453 203.438 403.746
 203.984 c 403.043 204.535 402.457 205.211 401.992 206.016 c 401.074 207.605
 400.859 209.102 401.344 210.504 c 401.824 211.906 402.984 213.141 404.82
 214.199 c 406.652 215.254 408.293 215.641 409.754 215.359 c 411.211 215.074
 412.398 214.141 413.312 212.551 c 413.777 211.746 414.07 210.902 414.195
 210.016 c 414.316 209.133 414.266 208.203 414.039 207.23 c 416.004 208.363
 l 416.074 209.277 416.008 210.168 415.805 211.035 c 415.605 211.898 415.266
 212.738 414.793 213.555 c 413.582 215.66 411.98 216.945 409.996 217.414
 c 408.008 217.879 405.902 217.469 403.676 216.18 c 401.445 214.891 400.035
 213.273 399.445 211.32 c 398.855 209.367 399.168 207.34 400.383 205.234
 c 400.863 204.406 401.422 203.688 402.066 203.078 c 402.715 202.469 403.441
 201.969 404.254 201.578 c h
404.254 201.578 m f
404.859 198.059 m 406.477 195.258 l 417.973 197.172 l 410.578 188.152 l
 412.195 185.352 l 426.086 193.371 l 425.027 195.203 l 412.832 188.164 l
 420.289 197.242 l 419.199 199.133 l 407.605 197.211 l 419.805 204.254 l
 418.75 206.078 l h
404.859 198.059 m f
q
84 5 559 436 re W n
  q
1 g
1 w
1 J
1 j
[] 0.0 d
4 M q 1 0 0 1 0 0 cm
516.062 440.035 m 516.062 5.156 l S Q
  Q
Q
0 0 0.545098 rg
470.176 239.48 m 471.262 237.605 l 483.57 244.711 l 487.477 237.945 l 489.059
 238.859 l 484.066 247.5 l h
470.176 239.48 m f
480.844 225.285 m 486.281 231.828 l 489.23 226.719 l h
478.375 225.281 m 479.609 223.148 l 496.555 225.875 l 495.426 227.828 l
 491.133 227.035 l 487.52 233.297 l 490.352 236.621 l 489.207 238.602 l 
h
478.375 225.281 m f
486.465 214.84 m 491.684 217.855 l 493.047 215.492 l 493.551 214.617 493.715
 213.809 493.539 213.07 c 493.363 212.332 492.855 211.719 492.02 211.238
 c 491.188 210.758 490.406 210.625 489.676 210.844 c 488.949 211.059 488.332
 211.602 487.828 212.477 c h
483.836 215.828 m 486.285 211.586 l 487.184 210.027 488.215 209.055 489.379
 208.664 c 490.543 208.273 491.805 208.469 493.164 209.254 c 494.535 210.047
 495.34 211.043 495.578 212.246 c 495.82 213.445 495.492 214.824 494.594
 216.383 c 493.227 218.746 l 498.809 221.969 l 497.723 223.848 l h
483.836 215.828 m f
494.988 200.781 m 500.43 207.324 l 503.379 202.215 l h
492.523 200.773 m 493.754 198.645 l 510.703 201.371 l 509.574 203.324 l
 505.281 202.531 l 501.664 208.793 l 504.5 212.113 l 503.355 214.098 l h
492.523 200.773 m f
505.059 181.543 m 507.035 182.688 l 506.082 182.98 505.254 183.398 504.551
 183.949 c 503.844 184.496 503.258 185.176 502.793 185.98 c 501.875 187.566
 501.66 189.062 502.145 190.469 c 502.629 191.871 503.785 193.102 505.621
 194.164 c 507.453 195.219 509.098 195.605 510.555 195.324 c 512.012 195.039
 513.199 194.105 514.113 192.516 c 514.582 191.711 514.875 190.863 514.996
 189.98 c 515.117 189.094 515.066 188.168 514.844 187.191 c 516.809 188.328
 l 516.875 189.242 516.809 190.133 516.605 190.996 c 516.406 191.859 516.07
 192.699 515.598 193.52 c 514.383 195.621 512.781 196.906 510.797 197.375
 c 508.812 197.84 506.703 197.43 504.477 196.145 c 502.246 194.855 500.836
 193.234 500.246 191.285 c 499.656 189.332 499.969 187.301 501.184 185.199
 c 501.664 184.367 502.227 183.648 502.871 183.043 c 503.516 182.434 504.246
 181.934 505.059 181.543 c h
505.059 181.543 m f
505.66 178.023 m 506.746 176.145 l 512.617 179.535 l 510.344 169.91 l 511.742
 167.492 l 514.234 178.125 l 525.914 175.02 l 524.488 177.492 l 513.945 
180.301 l 520.637 184.164 l 519.551 186.043 l h
505.66 178.023 m f
q
84 5 559 436 re W n
  q
1 g
1 w
1 J
1 j
[] 0.0 d
4 M q 1 0 0 1 0 0 cm
617.52 440.035 m 617.52 5.156 l S Q
  Q
Q
0 0 0.545098 rg
551.828 144.062 m 562.629 150.297 l 563.941 148.027 l 565.047 146.109 565.426
 144.457 565.07 143.066 c 564.715 141.676 563.602 140.438 561.727 139.355
 c 559.867 138.281 558.25 137.941 556.871 138.332 c 555.492 138.719 554.25
 139.871 553.141 141.789 c h
549.199 145.047 m 551.43 141.188 l 552.984 138.496 554.684 136.844 556.527
 136.23 c 558.375 135.617 560.488 136 562.871 137.375 c 565.266 138.758 
566.66 140.406 567.055 142.32 c 567.445 144.23 566.867 146.527 565.32 149.207
 c 563.09 153.066 l h
549.199 145.047 m f
570.266 136.988 m 572.039 133.922 l 561.441 127.801 l 560.18 131.527 l 
558.469 130.539 l 559.719 126.832 l 560.801 124.953 l 573.113 132.059 l 
574.883 128.992 l 576.465 129.902 l 571.848 137.902 l h
570.266 136.988 m f
572.039 123.762 m 574.934 118.746 l 576.457 119.625 l 573.562 124.641 l
 h
572.039 123.762 m f
568.637 111.379 m 570.254 108.578 l 581.754 110.492 l 574.359 101.473 l
 575.977 98.672 l 589.867 106.691 l 588.809 108.523 l 576.609 101.484 l 
584.07 110.566 l 582.98 112.453 l 571.387 110.535 l 583.582 117.574 l 582.527
 119.398 l h
568.637 111.379 m f
589.473 95.277 m 588.676 96.66 588.281 97.711 588.289 98.426 c 588.293 
99.141 588.68 99.719 589.445 100.16 c 590.051 100.512 590.648 100.59 591.238
 100.395 c 591.824 100.199 592.316 99.758 592.715 99.07 c 593.262 98.121
 593.367 97.164 593.023 96.203 c 592.684 95.242 591.953 94.438 590.84 93.793
 c 590.457 93.574 l h
590.738 91.453 m 596.684 94.887 l 595.695 96.598 l 594.113 95.684 l 594.52
 96.441 594.703 97.195 594.668 97.953 c 594.633 98.711 594.371 99.512 593.887
 100.355 c 593.27 101.422 592.48 102.098 591.516 102.383 c 590.555 102.664
 589.57 102.516 588.566 101.938 c 587.395 101.262 586.738 100.359 586.598
 99.23 c 586.453 98.102 586.832 96.758 587.73 95.203 c 589.117 92.801 l 
588.949 92.703 l 588.16 92.246 587.402 92.156 586.672 92.426 c 585.941 92.691
 585.309 93.297 584.766 94.234 c 584.422 94.828 584.16 95.449 583.977 96.098
 c 583.793 96.746 583.695 97.41 583.68 98.094 c 582.098 97.18 l 582.215 
96.414 582.383 95.703 582.605 95.047 c 582.824 94.387 583.094 93.777 583.418
 93.219 c 584.289 91.711 585.328 90.812 586.543 90.52 c 587.75 90.227 589.148
 90.535 590.738 91.453 c h
590.738 91.453 m f
586.316 81.941 m 589.277 83.652 l 591.312 80.125 l 592.641 80.895 l 590.605
 84.418 l 596.262 87.684 l 597.113 88.176 597.727 88.375 598.102 88.281 
c 598.477 88.191 598.871 87.785 599.285 87.07 c 600.297 85.316 l 601.73 
86.141 l 600.715 87.898 l 599.953 89.219 599.18 89.992 598.398 90.207 c 
597.613 90.426 596.57 90.156 595.27 89.406 c 589.613 86.141 l 588.887 87.398
 l 587.559 86.629 l 588.281 85.371 l 585.324 83.664 l h
586.316 81.941 m f
597.695 72.762 m 597.473 72.891 597.27 73.051 597.09 73.246 c 596.902 73.441
 596.734 73.676 596.578 73.949 c 596.016 74.918 595.902 75.844 596.234 76.723
 c 596.562 77.605 597.316 78.387 598.496 79.066 c 603.984 82.234 l 602.992
 83.957 l 592.574 77.941 l 593.566 76.219 l 595.188 77.156 l 594.762 76.43
 594.562 75.688 594.59 74.938 c 594.613 74.18 594.867 73.391 595.344 72.566
 c 595.41 72.449 595.492 72.324 595.59 72.188 c 595.688 72.055 595.801 71.91
 595.934 71.754 c h
597.695 72.762 m f
597.133 70.043 m 598.121 68.328 l 608.539 74.344 l 607.551 76.059 l h
593.074 67.699 m 594.062 65.988 l 596.234 67.242 l 595.246 68.953 l h
593.074 67.699 m f
604.918 57.48 m 606.52 58.406 l 605.973 58.734 605.492 59.102 605.078 59.512
 c 604.664 59.922 604.312 60.375 604.027 60.871 c 603.387 61.984 603.238
 63.051 603.59 64.07 c 603.938 65.09 604.746 65.969 606.02 66.703 c 607.293
 67.438 608.457 67.699 609.516 67.492 c 610.574 67.285 611.422 66.625 612.066
 65.512 c 612.352 65.016 612.57 64.484 612.715 63.922 c 612.863 63.359 612.945
 62.758 612.957 62.121 c 614.539 63.035 l 614.484 63.641 614.367 64.234 
614.184 64.809 c 614 65.383 613.742 65.961 613.41 66.539 c 612.504 68.109
 611.289 69.07 609.77 69.426 c 608.25 69.781 606.652 69.473 604.977 68.504
 c 603.281 67.523 602.215 66.289 601.777 64.793 c 601.344 63.297 601.598
 61.734 602.535 60.109 c 602.84 59.582 603.191 59.102 603.59 58.66 c 603.984
 58.223 604.43 57.828 604.918 57.48 c h
604.918 57.48 m f
616.164 48.121 m 617 48.602 l 612.457 56.473 l 613.68 57.078 614.781 57.242
 615.766 56.965 c 616.75 56.684 617.57 55.98 618.227 54.844 c 618.605 54.188
 618.891 53.504 619.086 52.793 c 619.281 52.082 619.395 51.328 619.422 50.535
 c 621.043 51.469 l 620.945 52.234 620.781 52.98 620.547 53.703 c 620.312
 54.426 620 55.121 619.617 55.785 c 618.66 57.445 617.414 58.484 615.887
 58.898 c 614.359 59.309 612.77 59.035 611.117 58.082 c 609.414 57.098 608.328
 55.859 607.859 54.359 c 607.387 52.859 607.605 51.328 608.508 49.766 c 
609.316 48.363 610.406 47.516 611.781 47.223 c 613.152 46.926 614.613 47.227
 616.164 48.121 c h
614.672 49.543 m 613.73 49.016 612.832 48.844 611.98 49.035 c 611.125 49.223
 610.453 49.742 609.969 50.582 c 609.414 51.539 609.246 52.457 609.453 53.344
 c 609.66 54.23 610.23 55 611.16 55.652 c h
614.672 49.543 m f
617.145 36.086 m 618.766 37.023 l 618.238 37.359 617.762 37.758 617.34 
38.207 c 616.914 38.656 616.539 39.16 616.215 39.719 c 615.727 40.566 615.488
 41.281 615.504 41.855 c 615.52 42.43 615.785 42.867 616.309 43.168 c 616.707
 43.398 617.105 43.426 617.508 43.254 c 617.906 43.078 618.477 42.594 619.211
 41.793 c 619.68 41.281 l 620.641 40.215 621.508 39.566 622.277 39.328 c
 623.047 39.09 623.855 39.215 624.707 39.707 c 625.676 40.266 626.219 41.09
 626.344 42.184 c 626.465 43.273 626.141 44.488 625.367 45.828 c 625.043
 46.387 624.652 46.938 624.195 47.48 c 623.734 48.023 623.207 48.566 622.602
 49.109 c 620.836 48.09 l 621.531 47.645 622.137 47.164 622.656 46.648 c
 623.172 46.129 623.605 45.566 623.953 44.961 c 624.418 44.156 624.637 43.457
 624.613 42.867 c 624.586 42.273 624.324 41.832 623.82 41.539 c 623.355 
41.273 622.91 41.223 622.48 41.395 c 622.055 41.562 621.418 42.109 620.574
 43.039 c 620.09 43.555 l 619.258 44.484 618.473 45.055 617.738 45.258 c
 617.004 45.461 616.234 45.332 615.426 44.867 c 614.445 44.301 613.891 43.516
 613.762 42.516 c 613.629 41.512 613.93 40.371 614.668 39.094 c 615.031 
38.461 615.422 37.895 615.836 37.391 c 616.25 36.883 616.688 36.449 617.145
 36.086 c h
617.145 36.086 m f
q
84 5 559 436 re W n
  q
1 g
1 w
1 J
1 j
[] 0.0 d
4 M q 1 0 0 1 0 0 cm
84.883 420.266 m 642.883 420.266 l S Q
  Q
Q
Q q
0.14902 g
43.125 426.801 m 46.668 426.801 l 46.668 414.562 l 42.812 415.336 l 42.812
 413.359 l 46.648 412.586 l 48.816 412.586 l 48.816 426.801 l 52.359 426.801
 l 52.359 428.625 l 43.125 428.625 l h
43.125 426.801 m f
56.742 425.895 2.27 2.73 re f
68.379 414.016 m 67.262 414.016 66.422 414.566 65.859 415.668 c 65.297 
416.766 65.016 418.418 65.016 420.625 c 65.016 422.82 65.297 424.469 65.859
 425.57 c 66.422 426.668 67.262 427.219 68.379 427.219 c 69.504 427.219 
70.348 426.668 70.906 425.57 c 71.473 424.469 71.754 422.82 71.754 420.625
 c 71.754 418.418 71.473 416.766 70.906 415.668 c 70.348 414.566 69.504 
414.016 68.379 414.016 c h
68.379 412.297 m 70.176 412.297 71.551 413.008 72.5 414.434 c 73.449 415.852
 73.922 417.918 73.922 420.625 c 73.922 423.324 73.449 425.383 72.5 426.809
 c 71.551 428.227 70.176 428.938 68.379 428.938 c 66.582 428.938 65.207 
428.227 64.258 426.809 c 63.309 425.383 62.836 423.324 62.836 420.625 c 
62.836 417.918 63.309 415.852 64.258 414.434 c 65.207 413.008 66.582 412.297
 68.379 412.297 c h
68.379 412.297 m f
Q q
84.883 5.156 558 434.879 re W n
q
84 5 559 436 re W n
  q
1 g
1 w
1 J
1 j
[] 0.0 d
4 M q 1 0 0 1 0 0 cm
84.883 314.004 m 642.883 314.004 l S Q
  Q
Q
Q q
0.14902 g
43.125 320.539 m 46.668 320.539 l 46.668 308.301 l 42.812 309.074 l 42.812
 307.098 l 46.648 306.324 l 48.816 306.324 l 48.816 320.539 l 52.359 320.539
 l 52.359 322.363 l 43.125 322.363 l h
43.125 320.539 m f
56.742 319.633 2.27 2.73 re f
63.762 306.324 m 72.277 306.324 l 72.277 308.152 l 65.746 308.152 l 65.746
 312.082 l 66.062 311.973 66.375 311.895 66.691 311.84 c 67.004 311.789 
67.32 311.762 67.637 311.762 c 69.43 311.762 70.844 312.254 71.891 313.234
 c 72.938 314.215 73.461 315.543 73.461 317.219 c 73.461 318.941 72.926 
320.285 71.848 321.242 c 70.773 322.199 69.258 322.676 67.305 322.676 c 
66.633 322.676 65.945 322.617 65.246 322.504 c 64.551 322.391 63.828 322.219
 63.082 321.988 c 63.082 319.805 l 63.727 320.156 64.395 320.418 65.082 
320.59 c 65.77 320.762 66.496 320.848 67.262 320.848 c 68.5 320.848 69.48
 320.523 70.203 319.871 c 70.926 319.219 71.289 318.336 71.289 317.219 c
 71.289 316.102 70.926 315.219 70.203 314.566 c 69.48 313.914 68.5 313.586
 67.262 313.586 c 66.68 313.586 66.102 313.652 65.523 313.781 c 64.949 313.906
 64.359 314.109 63.762 314.383 c h
63.762 306.324 m f
Q q
84.883 5.156 558 434.879 re W n
q
84 5 559 436 re W n
  q
1 g
1 w
1 J
1 j
[] 0.0 d
4 M q 1 0 0 1 0 0 cm
84.883 238.609 m 642.883 238.609 l S Q
  Q
Q
Q q
0.14902 g
44.617 245.145 m 52.188 245.145 l 52.188 246.969 l 42.008 246.969 l 42.008
 245.145 l 42.832 244.289 43.953 243.148 45.371 241.711 c 46.797 240.277
 47.691 239.348 48.055 238.93 c 48.75 238.152 49.234 237.492 49.508 236.953
 c 49.785 236.41 49.926 235.879 49.926 235.355 c 49.926 234.504 49.625 233.809
 49.027 233.273 c 48.43 232.734 47.648 232.465 46.688 232.465 c 46.008 232.465
 45.289 232.582 44.535 232.82 c 43.781 233.055 42.973 233.414 42.113 233.895
 c 42.113 231.703 l 42.988 231.352 43.805 231.086 44.562 230.91 c 45.324
 230.73 46.02 230.641 46.648 230.641 c 48.309 230.641 49.633 231.055 50.621
 231.887 c 51.609 232.719 52.102 233.828 52.102 235.215 c 52.102 235.875
 51.98 236.5 51.73 237.094 c 51.488 237.68 51.039 238.375 50.383 239.18 
c 50.207 239.387 49.637 239.988 48.676 240.98 c 47.719 241.973 46.363 243.359
 44.617 245.145 c h
44.617 245.145 m f
56.742 244.238 2.27 2.73 re f
68.379 232.359 m 67.262 232.359 66.422 232.91 65.859 234.008 c 65.297 235.105
 65.016 236.758 65.016 238.965 c 65.016 241.164 65.297 242.812 65.859 243.914
 c 66.422 245.012 67.262 245.562 68.379 245.562 c 69.504 245.562 70.348 
245.012 70.906 243.914 c 71.473 242.812 71.754 241.164 71.754 238.965 c 
71.754 236.758 71.473 235.105 70.906 234.008 c 70.348 232.91 69.504 232.359
 68.379 232.359 c h
68.379 230.641 m 70.176 230.641 71.551 231.352 72.5 232.773 c 73.449 234.195
 73.922 236.258 73.922 238.965 c 73.922 241.664 73.449 243.727 72.5 245.148
 c 71.551 246.57 70.176 247.281 68.379 247.281 c 66.582 247.281 65.207 246.57
 64.258 245.148 c 63.309 243.727 62.836 241.664 62.836 238.965 c 62.836 
236.258 63.309 234.195 64.258 232.773 c 65.207 231.352 66.582 230.641 68.379
 230.641 c h
68.379 230.641 m f
Q q
84.883 5.156 558 434.879 re W n
q
84 5 559 436 re W n
  q
1 g
1 w
1 J
1 j
[] 0.0 d
4 M q 1 0 0 1 0 0 cm
84.883 180.129 m 642.883 180.129 l S Q
  Q
Q
Q q
0.14902 g
44.617 186.664 m 52.188 186.664 l 52.188 188.488 l 42.008 188.488 l 42.008
 186.664 l 42.832 185.809 43.953 184.668 45.371 183.23 c 46.797 181.793 
47.691 180.867 48.055 180.449 c 48.75 179.672 49.234 179.012 49.508 178.473
 c 49.785 177.93 49.926 177.398 49.926 176.875 c 49.926 176.023 49.625 175.328
 49.027 174.793 c 48.43 174.254 47.648 173.984 46.688 173.984 c 46.008 173.984
 45.289 174.102 44.535 174.34 c 43.781 174.574 42.973 174.934 42.113 175.414
 c 42.113 173.223 l 42.988 172.871 43.805 172.605 44.562 172.426 c 45.324
 172.25 46.02 172.16 46.648 172.16 c 48.309 172.16 49.633 172.574 50.621
 173.406 c 51.609 174.238 52.102 175.348 52.102 176.734 c 52.102 177.395
 51.98 178.02 51.73 178.613 c 51.488 179.199 51.039 179.895 50.383 180.699
 c 50.207 180.906 49.637 181.508 48.676 182.5 c 47.719 183.492 46.363 184.879
 44.617 186.664 c h
44.617 186.664 m f
56.742 185.758 2.27 2.73 re f
63.762 172.449 m 72.277 172.449 l 72.277 174.277 l 65.746 174.277 l 65.746
 178.207 l 66.062 178.098 66.375 178.02 66.691 177.965 c 67.004 177.914 
67.32 177.887 67.637 177.887 c 69.43 177.887 70.844 178.375 71.891 179.359
 c 72.938 180.34 73.461 181.668 73.461 183.34 c 73.461 185.066 72.926 186.41
 71.848 187.367 c 70.773 188.324 69.258 188.801 67.305 188.801 c 66.633 
188.801 65.945 188.742 65.246 188.629 c 64.551 188.516 63.828 188.344 63.082
 188.113 c 63.082 185.93 l 63.727 186.281 64.395 186.543 65.082 186.715 
c 65.77 186.887 66.496 186.973 67.262 186.973 c 68.5 186.973 69.48 186.645
 70.203 185.996 c 70.926 185.344 71.289 184.461 71.289 183.34 c 71.289 182.227
 70.926 181.344 70.203 180.691 c 69.48 180.039 68.5 179.711 67.262 179.711
 c 66.68 179.711 66.102 179.777 65.523 179.902 c 64.949 180.031 64.359 180.234
 63.762 180.504 c h
63.762 172.449 m f
Q q
84.883 5.156 558 434.879 re W n
q
84 5 559 436 re W n
  q
1 g
1 w
1 J
1 j
[] 0.0 d
4 M q 1 0 0 1 0 0 cm
84.883 132.348 m 642.883 132.348 l S Q
  Q
Q
Q q
0.14902 g
49.324 132.059 m 50.359 132.277 51.172 132.742 51.754 133.445 c 52.336 
134.148 52.629 135.012 52.629 136.043 c 52.629 137.625 52.086 138.852 50.996
 139.719 c 49.906 140.586 48.359 141.02 46.355 141.02 c 45.684 141.02 44.992
 140.953 44.281 140.82 c 43.566 140.688 42.832 140.488 42.074 140.223 c 
42.074 138.129 l 42.672 138.477 43.332 138.742 44.047 138.922 c 44.762 139.102
 45.512 139.191 46.293 139.191 c 47.652 139.191 48.688 138.922 49.402 138.387
 c 50.113 137.848 50.469 137.07 50.469 136.043 c 50.469 135.098 50.141 134.359
 49.477 133.828 c 48.816 133.293 47.895 133.027 46.715 133.027 c 44.844 
133.027 l 44.844 131.242 l 46.801 131.242 l 47.863 131.242 48.68 131.027
 49.246 130.602 c 49.812 130.176 50.098 129.562 50.098 128.762 c 50.098 
127.938 49.805 127.305 49.219 126.867 c 48.637 126.422 47.801 126.203 46.715
 126.203 c 46.117 126.203 45.48 126.27 44.797 126.398 c 44.117 126.527 43.371
 126.727 42.555 126.996 c 42.555 125.066 l 43.379 124.836 44.152 124.664
 44.871 124.551 c 45.59 124.434 46.27 124.379 46.906 124.379 c 48.555 124.379
 49.855 124.754 50.812 125.5 c 51.773 126.25 52.254 127.258 52.254 128.535
 c 52.254 129.422 52 130.172 51.492 130.785 c 50.984 131.398 50.262 131.82
 49.324 132.059 c h
49.324 132.059 m f
56.742 137.977 2.27 2.73 re f
68.379 126.098 m 67.262 126.098 66.422 126.645 65.859 127.746 c 65.297 
128.844 65.016 130.496 65.016 132.703 c 65.016 134.902 65.297 136.551 65.859
 137.648 c 66.422 138.75 67.262 139.301 68.379 139.301 c 69.504 139.301 
70.348 138.75 70.906 137.648 c 71.473 136.551 71.754 134.902 71.754 132.703
 c 71.754 130.496 71.473 128.844 70.906 127.746 c 70.348 126.645 69.504 
126.098 68.379 126.098 c h
68.379 124.379 m 70.176 124.379 71.551 125.09 72.5 126.512 c 73.449 127.934
 73.922 129.996 73.922 132.703 c 73.922 135.402 73.449 137.465 72.5 138.887
 c 71.551 140.309 70.176 141.02 68.379 141.02 c 66.582 141.02 65.207 140.309
 64.258 138.887 c 63.309 137.465 62.836 135.402 62.836 132.703 c 62.836 
129.996 63.309 127.934 64.258 126.512 c 65.207 125.09 66.582 124.379 68.379
 124.379 c h
68.379 124.379 m f
Q q
84.883 5.156 558 434.879 re W n
q
84 5 559 436 re W n
  q
1 g
1 w
1 J
1 j
[] 0.0 d
4 M q 1 0 0 1 0 0 cm
84.883 91.949 m 642.883 91.949 l S Q
  Q
Q
Q q
0.14902 g
49.324 91.656 m 50.359 91.879 51.172 92.344 51.754 93.047 c 52.336 93.746
 52.629 94.613 52.629 95.645 c 52.629 97.227 52.086 98.449 50.996 99.32 
c 49.906 100.188 48.359 100.617 46.355 100.617 c 45.684 100.617 44.992 100.551
 44.281 100.418 c 43.566 100.285 42.832 100.086 42.074 99.82 c 42.074 97.727
 l 42.672 98.078 43.332 98.344 44.047 98.523 c 44.762 98.699 45.512 98.789
 46.293 98.789 c 47.652 98.789 48.688 98.523 49.402 97.984 c 50.113 97.449
 50.469 96.668 50.469 95.645 c 50.469 94.699 50.141 93.961 49.477 93.426
 c 48.816 92.895 47.895 92.625 46.715 92.625 c 44.844 92.625 l 44.844 90.844
 l 46.801 90.844 l 47.863 90.844 48.68 90.629 49.246 90.203 c 49.812 89.777
 50.098 89.164 50.098 88.359 c 50.098 87.539 49.805 86.906 49.219 86.465
 c 48.637 86.023 47.801 85.805 46.715 85.805 c 46.117 85.805 45.48 85.867
 44.797 86 c 44.117 86.129 43.371 86.328 42.555 86.598 c 42.555 84.664 l
 43.379 84.438 44.152 84.266 44.871 84.148 c 45.59 84.035 46.27 83.977 46.906
 83.977 c 48.555 83.977 49.855 84.352 50.812 85.102 c 51.773 85.848 52.254
 86.859 52.254 88.133 c 52.254 89.023 52 89.773 51.492 90.387 c 50.984 90.996
 50.262 91.422 49.324 91.656 c h
49.324 91.656 m f
56.742 97.578 2.27 2.727 re f
63.762 84.266 m 72.277 84.266 l 72.277 86.094 l 65.746 86.094 l 65.746 
90.023 l 66.062 89.918 66.375 89.836 66.691 89.785 c 67.004 89.73 67.32 
89.703 67.637 89.703 c 69.43 89.703 70.844 90.195 71.891 91.176 c 72.938
 92.156 73.461 93.484 73.461 95.16 c 73.461 96.887 72.926 98.227 71.848 
99.184 c 70.773 100.141 69.258 100.617 67.305 100.617 c 66.633 100.617 65.945
 100.562 65.246 100.445 c 64.551 100.332 63.828 100.16 63.082 99.93 c 63.082
 97.75 l 63.727 98.098 64.395 98.359 65.082 98.531 c 65.77 98.703 66.496
 98.789 67.262 98.789 c 68.5 98.789 69.48 98.465 70.203 97.812 c 70.926 
97.164 71.289 96.277 71.289 95.16 c 71.289 94.043 70.926 93.16 70.203 92.512
 c 69.48 91.855 68.5 91.531 67.262 91.531 c 66.68 91.531 66.102 91.594 65.523
 91.723 c 64.949 91.852 64.359 92.051 63.762 92.324 c h
63.762 84.266 m f
Q q
84.883 5.156 558 434.879 re W n
q
84 5 559 436 re W n
  q
1 g
1 w
1 J
1 j
[] 0.0 d
4 M q 1 0 0 1 0 0 cm
84.883 56.953 m 642.883 56.953 l S Q
  Q
Q
Q q
0.14902 g
48.711 51.16 m 43.23 59.727 l 48.711 59.727 l h
48.141 49.27 m 50.871 49.27 l 50.871 59.727 l 53.16 59.727 l 53.16 61.531
 l 50.871 61.531 l 50.871 65.312 l 48.711 65.312 l 48.711 61.531 l 41.473
 61.531 l 41.473 59.438 l h
48.141 49.27 m f
56.742 62.582 2.27 2.73 re f
68.379 50.703 m 67.262 50.703 66.422 51.25 65.859 52.352 c 65.297 53.449
 65.016 55.102 65.016 57.309 c 65.016 59.508 65.297 61.156 65.859 62.254
 c 66.422 63.355 67.262 63.906 68.379 63.906 c 69.504 63.906 70.348 63.355
 70.906 62.254 c 71.473 61.156 71.754 59.508 71.754 57.309 c 71.754 55.102
 71.473 53.449 70.906 52.352 c 70.348 51.25 69.504 50.703 68.379 50.703 
c h
68.379 48.984 m 70.176 48.984 71.551 49.695 72.5 51.117 c 73.449 52.539
 73.922 54.602 73.922 57.309 c 73.922 60.008 73.449 62.07 72.5 63.492 c 
71.551 64.914 70.176 65.625 68.379 65.625 c 66.582 65.625 65.207 64.914 
64.258 63.492 c 63.309 62.07 62.836 60.008 62.836 57.309 c 62.836 54.602
 63.309 52.539 64.258 51.117 c 65.207 49.695 66.582 48.984 68.379 48.984
 c h
68.379 48.984 m f
Q q
84.883 5.156 558 434.879 re W n
q
84 5 559 436 re W n
  q
1 g
1 w
1 J
1 j
[] 0.0 d
4 M q 1 0 0 1 0 0 cm
84.883 26.086 m 642.883 26.086 l S Q
  Q
Q
Q q
0.14902 g
48.711 20.293 m 43.23 28.855 l 48.711 28.855 l h
48.141 18.402 m 50.871 18.402 l 50.871 28.855 l 53.16 28.855 l 53.16 30.66
 l 50.871 30.66 l 50.871 34.441 l 48.711 34.441 l 48.711 30.66 l 41.473 
30.66 l 41.473 28.566 l h
48.141 18.402 m f
56.742 31.715 2.27 2.727 re f
63.762 18.402 m 72.277 18.402 l 72.277 20.23 l 65.746 20.23 l 65.746 24.16
 l 66.062 24.055 66.375 23.973 66.691 23.922 c 67.004 23.867 67.32 23.84
 67.637 23.84 c 69.43 23.84 70.844 24.332 71.891 25.312 c 72.938 26.293 
73.461 27.621 73.461 29.297 c 73.461 31.023 72.926 32.363 71.848 33.32 c
 70.773 34.277 69.258 34.754 67.305 34.754 c 66.633 34.754 65.945 34.699
 65.246 34.582 c 64.551 34.469 63.828 34.297 63.082 34.066 c 63.082 31.887
 l 63.727 32.234 64.395 32.496 65.082 32.668 c 65.77 32.84 66.496 32.926
 67.262 32.926 c 68.5 32.926 69.48 32.602 70.203 31.949 c 70.926 31.301 
71.289 30.414 71.289 29.297 c 71.289 28.18 70.926 27.297 70.203 26.645 c
 69.48 25.992 68.5 25.668 67.262 25.668 c 66.68 25.668 66.102 25.73 65.523
 25.859 c 64.949 25.988 64.359 26.188 63.762 26.461 c h
63.762 18.402 m f
0 0 0.545098 rg
8.566 264.262 m 10.973 264.262 l 10.527 265.199 10.191 266.082 9.973 266.91
 c 9.754 267.742 9.641 268.543 9.641 269.316 c 9.641 270.66 9.902 271.695
 10.422 272.422 c 10.945 273.152 11.684 273.516 12.645 273.516 c 13.453 
273.516 14.062 273.273 14.473 272.789 c 14.883 272.305 15.215 271.387 15.465
 270.035 c 15.77 268.547 l 16.121 266.711 16.738 265.352 17.621 264.477 
c 18.504 263.602 19.688 263.164 21.164 263.164 c 22.934 263.164 24.273 263.758
 25.184 264.941 c 26.098 266.125 26.551 267.859 26.551 270.145 c 26.551 
271.008 26.453 271.926 26.258 272.898 c 26.062 273.871 25.773 274.879 25.391
 275.918 c 22.852 275.918 l 23.414 274.918 23.836 273.938 24.121 272.977
 c 24.406 272.016 24.547 271.074 24.547 270.145 c 24.547 268.738 24.273 
267.652 23.719 266.887 c 23.164 266.121 22.375 265.738 21.348 265.738 c 
20.457 265.738 19.758 266.016 19.25 266.562 c 18.746 267.113 18.367 268.016
 18.113 269.266 c 17.82 270.77 l 17.457 272.609 16.883 273.941 16.102 274.762
 c 15.32 275.582 14.234 275.992 12.84 275.992 c 11.23 275.992 9.961 275.426
 9.031 274.289 c 8.105 273.156 7.641 271.59 7.641 269.598 c 7.641 268.742
 7.719 267.871 7.875 266.984 c 8.031 266.098 8.262 265.191 8.566 264.262
 c h
8.566 264.262 m f
24.145 257.246 m 31.395 257.246 l 31.395 259.504 l 12.523 259.504 l 12.523
 257.246 l 14.598 257.246 l 13.785 256.77 13.184 256.176 12.789 255.457 
c 12.395 254.734 12.195 253.875 12.195 252.875 c 12.195 251.211 12.855 249.863
 14.172 248.828 c 15.492 247.789 17.223 247.27 19.371 247.27 c 21.52 247.27
 23.254 247.789 24.574 248.828 c 25.895 249.863 26.551 251.211 26.551 252.875
 c 26.551 253.875 26.355 254.734 25.957 255.457 c 25.562 256.176 24.957 
256.77 24.145 257.246 c h
19.371 249.602 m 17.723 249.602 16.426 249.941 15.484 250.621 c 14.547 
251.301 14.074 252.234 14.074 253.422 c 14.074 254.609 14.547 255.547 15.484
 256.227 c 16.426 256.906 17.723 257.246 19.371 257.246 c 21.023 257.246
 22.32 256.906 23.258 256.227 c 24.199 255.547 24.668 254.609 24.668 253.422
 c 24.668 252.234 24.199 251.301 23.258 250.621 c 22.32 249.941 21.023 249.602
 19.371 249.602 c h
19.371 249.602 m f
18.797 231.852 m 19.895 231.852 l 19.895 242.18 l 21.441 242.082 22.621
 241.617 23.43 240.781 c 24.242 239.949 24.645 238.789 24.645 237.297 c 
24.645 236.438 24.539 235.602 24.328 234.789 c 24.117 233.98 23.801 233.176
 23.375 232.375 c 25.5 232.375 l 25.844 233.184 26.102 234.012 26.281 234.855
 c 26.461 235.703 26.551 236.562 26.551 237.43 c 26.551 239.613 25.918 241.34
 24.648 242.613 c 23.379 243.887 21.66 244.523 19.492 244.523 c 17.258 244.523
 15.48 243.922 14.168 242.711 c 12.855 241.504 12.195 239.875 12.195 237.82
 c 12.195 235.984 12.789 234.527 13.973 233.457 c 15.156 232.387 16.766 
231.852 18.797 231.852 c h
18.137 234.098 m 16.91 234.113 15.934 234.457 15.199 235.129 c 14.465 235.801
 14.098 236.691 14.098 237.797 c 14.098 239.051 14.453 240.055 15.16 240.805
 c 15.871 241.559 16.867 241.992 18.152 242.105 c h
18.137 234.098 m f
18.797 216.473 m 19.895 216.473 l 19.895 226.801 l 21.441 226.699 22.621
 226.234 23.43 225.402 c 24.242 224.566 24.645 223.406 24.645 221.918 c 
24.645 221.055 24.539 220.219 24.328 219.41 c 24.117 218.598 23.801 217.793
 23.375 216.996 c 25.5 216.996 l 25.844 217.801 26.102 218.629 26.281 219.477
 c 26.461 220.32 26.551 221.18 26.551 222.051 c 26.551 224.23 25.918 225.961
 24.648 227.234 c 23.379 228.508 21.66 229.145 19.492 229.145 c 17.258 229.145
 15.48 228.539 14.168 227.332 c 12.855 226.121 12.195 224.492 12.195 222.441
 c 12.195 220.602 12.789 219.148 13.973 218.078 c 15.156 217.008 16.766 
216.473 18.797 216.473 c h
18.137 218.719 m 16.91 218.734 15.934 219.078 15.199 219.75 c 14.465 220.422
 14.098 221.309 14.098 222.418 c 14.098 223.668 14.453 224.672 15.16 225.426
 c 15.871 226.176 16.867 226.609 18.152 226.727 c h
18.137 218.719 m f
14.598 203.789 m 7.199 203.789 l 7.199 201.543 l 26.195 201.543 l 26.195
 203.789 l 24.145 203.789 l 24.957 204.262 25.562 204.859 25.957 205.578
 c 26.355 206.297 26.551 207.164 26.551 208.172 c 26.551 209.824 25.895 
211.168 24.574 212.207 c 23.254 213.246 21.52 213.762 19.371 213.762 c 17.223
 213.762 15.492 213.246 14.172 212.207 c 12.855 211.168 12.195 209.824 12.195
 208.172 c 12.195 207.164 12.395 206.297 12.789 205.578 c 13.184 204.859
 13.785 204.262 14.598 203.789 c h
19.371 211.441 m 21.023 211.441 22.32 211.102 23.258 210.422 c 24.199 209.742
 24.668 208.809 24.668 207.621 c 24.668 206.434 24.199 205.5 23.258 204.816
 c 22.32 204.133 21.023 203.789 19.371 203.789 c 17.723 203.789 16.426 204.133
 15.484 204.816 c 14.547 205.5 14.074 206.434 14.074 207.621 c 14.074 208.809
 14.547 209.742 15.484 210.422 c 16.426 211.102 17.723 211.441 19.371 211.441
 c h
19.371 211.441 m f
20.801 197.148 m 12.523 197.148 l 12.523 194.902 l 20.715 194.902 l 22.012
 194.902 22.98 194.648 23.629 194.148 c 24.277 193.641 24.598 192.883 24.598
 191.875 c 24.598 190.664 24.211 189.707 23.438 189.004 c 22.664 188.297
 21.609 187.945 20.273 187.945 c 12.523 187.945 l 12.523 185.699 l 26.195
 185.699 l 26.195 187.945 l 24.094 187.945 l 24.926 188.488 25.543 189.121
 25.945 189.844 c 26.352 190.562 26.551 191.398 26.551 192.352 c 26.551 
193.922 26.062 195.113 25.086 195.93 c 24.109 196.742 22.684 197.148 20.801
 197.148 c h
20.801 197.148 m f
24.145 178.902 m 31.395 178.902 l 31.395 181.16 l 12.523 181.16 l 12.523
 178.902 l 14.598 178.902 l 13.785 178.426 13.184 177.832 12.789 177.113
 c 12.395 176.391 12.195 175.531 12.195 174.531 c 12.195 172.867 12.855 
171.52 14.172 170.484 c 15.492 169.445 17.223 168.926 19.371 168.926 c 21.52
 168.926 23.254 169.445 24.574 170.484 c 25.895 171.52 26.551 172.867 26.551
 174.531 c 26.551 175.531 26.355 176.391 25.957 177.113 c 25.562 177.832
 24.957 178.426 24.145 178.902 c h
19.371 171.258 m 17.723 171.258 16.426 171.598 15.484 172.277 c 14.547 
172.957 14.074 173.891 14.074 175.078 c 14.074 176.266 14.547 177.203 15.484
 177.883 c 16.426 178.562 17.723 178.902 19.371 178.902 c 21.023 178.902
 22.32 178.562 23.258 177.883 c 24.199 177.203 24.668 176.266 24.668 175.078
 c 24.668 173.891 24.199 172.957 23.258 172.277 c 22.32 171.598 21.023 171.258
 19.371 171.258 c h
19.371 171.258 m f
Q q
84.883 5.156 558 434.879 re W n
q
84 5 559 436 re W n
  q
0.298039 0.447059 0.690196 rg
4 w
1 J
1 j
[] 0.0 d
4 M q 1 0 0 1 0 0 cm
110.246 420.266 m 211.699 332.086 l 313.156 250.676 l 414.609 172.891 l
 516.062 158.992 l 617.52 24.922 l S Q
  Q
Q
q
84 5 559 436 re W n
  q
0.298039 0.447059 0.690196 rg
104.246 414.266 12 12 re f
1 w
0 J
0 j
[] 0.0 d
4 M q 1 0 0 1 0 0 cm
104.246 414.266 12 12 re S Q
205.699 326.086 12 12 re f
q 1 0 0 1 0 0 cm
205.699 326.086 12 12 re S Q
307.156 244.676 12 12 re f
q 1 0 0 1 0 0 cm
307.156 244.676 12 12 re S Q
408.609 166.891 12 12 re f
q 1 0 0 1 0 0 cm
408.609 166.891 12 12 re S Q
510.062 152.992 12 12 re f
q 1 0 0 1 0 0 cm
510.062 152.992 12 12 re S Q
611.52 18.922 12 12 re f
q 1 0 0 1 0 0 cm
611.52 18.922 12 12 re S Q
  Q
Q
Q q
1 g
2 w
2 J
0 j
[] 0.0 d
4 M q 1 0 0 1 0 0 cm
84.883 440.035 m 84.883 5.156 l S Q
q 1 0 0 1 0 0 cm
642.883 440.035 m 642.883 5.156 l S Q
q 1 0 0 1 0 0 cm
84.883 440.035 m 642.883 440.035 l S Q
q 1 0 0 1 0 0 cm
84.883 5.156 m 642.883 5.156 l S Q
Q Q
showpage
%%Trailer
end
%%EOF
