%!PS-Adobe-3.0 EPSF-3.0
%%Creator: (MATLAB, The Mathworks, Inc. Version 8.5.0.197613 \(R2015a\). Operating System: Linux)
%%Title: /home/betogil/hp2fem-article/Text/eps/WeakScaling_TimeElapsed.eps
%%CreationDate: 2016-05-23T21:58:32
%%Pages: (atend)
%%BoundingBox: 0 0 701 473
%%LanguageLevel: 2
%%EndComments
%%BeginProlog
%%BeginResource: procset (Apache XML Graphics Std ProcSet) 1.2 0
%%Version: 1.2 0
%%Copyright: (Copyright 2001-2003,2010 The Apache Software Foundation. License terms: http://www.apache.org/licenses/LICENSE-2.0)
/bd{bind def}bind def
/ld{load def}bd
/GR/grestore ld
/M/moveto ld
/LJ/setlinejoin ld
/C/curveto ld
/f/fill ld
/LW/setlinewidth ld
/GC/setgray ld
/t/show ld
/N/newpath ld
/CT/concat ld
/cp/closepath ld
/S/stroke ld
/L/lineto ld
/CC/setcmykcolor ld
/A/ashow ld
/GS/gsave ld
/RC/setrgbcolor ld
/RM/rmoveto ld
/ML/setmiterlimit ld
/re {4 2 roll M
1 index 0 rlineto
0 exch rlineto
neg 0 rlineto
cp } bd
/_ctm matrix def
/_tm matrix def
/BT { _ctm currentmatrix pop matrix _tm copy pop 0 0 moveto } bd
/ET { _ctm setmatrix } bd
/iTm { _ctm setmatrix _tm concat } bd
/Tm { _tm astore pop iTm 0 0 moveto } bd
/ux 0.0 def
/uy 0.0 def
/F {
  /Tp exch def
  /Tf exch def
  Tf findfont Tp scalefont setfont
  /cf Tf def  /cs Tp def
} bd
/ULS {currentpoint /uy exch def /ux exch def} bd
/ULE {
  /Tcx currentpoint pop def
  gsave
  newpath
  cf findfont cs scalefont dup
  /FontMatrix get 0 get /Ts exch def /FontInfo get dup
  /UnderlinePosition get Ts mul /To exch def
  /UnderlineThickness get Ts mul /Tt exch def
  ux uy To add moveto  Tcx uy To add lineto
  Tt setlinewidth stroke
  grestore
} bd
/OLE {
  /Tcx currentpoint pop def
  gsave
  newpath
  cf findfont cs scalefont dup
  /FontMatrix get 0 get /Ts exch def /FontInfo get dup
  /UnderlinePosition get Ts mul /To exch def
  /UnderlineThickness get Ts mul /Tt exch def
  ux uy To add cs add moveto Tcx uy To add cs add lineto
  Tt setlinewidth stroke
  grestore
} bd
/SOE {
  /Tcx currentpoint pop def
  gsave
  newpath
  cf findfont cs scalefont dup
  /FontMatrix get 0 get /Ts exch def /FontInfo get dup
  /UnderlinePosition get Ts mul /To exch def
  /UnderlineThickness get Ts mul /Tt exch def
  ux uy To add cs 10 mul 26 idiv add moveto Tcx uy To add cs 10 mul 26 idiv add lineto
  Tt setlinewidth stroke
  grestore
} bd
/QT {
/Y22 exch store
/X22 exch store
/Y21 exch store
/X21 exch store
currentpoint
/Y21 load 2 mul add 3 div exch
/X21 load 2 mul add 3 div exch
/X21 load 2 mul /X22 load add 3 div
/Y21 load 2 mul /Y22 load add 3 div
/X22 load /Y22 load curveto
} bd
/SSPD {
dup length /d exch dict def
{
/v exch def
/k exch def
currentpagedevice k known {
/cpdv currentpagedevice k get def
v cpdv ne {
/upd false def
/nullv v type /nulltype eq def
/nullcpdv cpdv type /nulltype eq def
nullv nullcpdv or
{
/upd true def
} {
/sametype v type cpdv type eq def
sametype {
v type /arraytype eq {
/vlen v length def
/cpdvlen cpdv length def
vlen cpdvlen eq {
0 1 vlen 1 sub {
/i exch def
/obj v i get def
/cpdobj cpdv i get def
obj cpdobj ne {
/upd true def
exit
} if
} for
} {
/upd true def
} ifelse
} {
v type /dicttype eq {
v {
/dv exch def
/dk exch def
/cpddv cpdv dk get def
dv cpddv ne {
/upd true def
exit
} if
} forall
} {
/upd true def
} ifelse
} ifelse
} if
} ifelse
upd true eq {
d k v put
} if
} if
} if
} forall
d length 0 gt {
d setpagedevice
} if
} bd
%%EndResource
%%BeginResource: procset (Apache XML Graphics EPS ProcSet) 1.0 0
%%Version: 1.0 0
%%Copyright: (Copyright 2002-2003 The Apache Software Foundation. License terms: http://www.apache.org/licenses/LICENSE-2.0)
/BeginEPSF { %def
/b4_Inc_state save def         % Save state for cleanup
/dict_count countdictstack def % Count objects on dict stack
/op_count count 1 sub def      % Count objects on operand stack
userdict begin                 % Push userdict on dict stack
/showpage { } def              % Redefine showpage, { } = null proc
0 setgray 0 setlinecap         % Prepare graphics state
1 setlinewidth 0 setlinejoin
10 setmiterlimit [ ] 0 setdash newpath
/languagelevel where           % If level not equal to 1 then
{pop languagelevel             % set strokeadjust and
1 ne                           % overprint to their defaults.
{false setstrokeadjust false setoverprint
} if
} if
} bd
/EndEPSF { %def
count op_count sub {pop} repeat            % Clean up stacks
countdictstack dict_count sub {end} repeat
b4_Inc_state restore
} bd
%%EndResource
%FOPBeginFontDict
%%IncludeResource: font Courier-Bold
%%IncludeResource: font Helvetica
%%IncludeResource: font Courier-BoldOblique
%%IncludeResource: font Courier-Oblique
%%IncludeResource: font Times-Roman
%%IncludeResource: font Helvetica-BoldOblique
%%IncludeResource: font Helvetica-Bold
%%IncludeResource: font Helvetica-Oblique
%%IncludeResource: font Times-BoldItalic
%%IncludeResource: font Courier
%%IncludeResource: font Times-Italic
%%IncludeResource: font Times-Bold
%%IncludeResource: font Symbol
%%IncludeResource: font ZapfDingbats
%FOPEndFontDict
%%BeginResource: encoding WinAnsiEncoding
/WinAnsiEncoding [
/.notdef /.notdef /.notdef /.notdef /.notdef
/.notdef /.notdef /.notdef /.notdef /.notdef
/.notdef /.notdef /.notdef /.notdef /.notdef
/.notdef /.notdef /.notdef /.notdef /.notdef
/.notdef /.notdef /.notdef /.notdef /.notdef
/.notdef /.notdef /.notdef /.notdef /.notdef
/.notdef /.notdef /space /exclam /quotedbl
/numbersign /dollar /percent /ampersand /quotesingle
/parenleft /parenright /asterisk /plus /comma
/hyphen /period /slash /zero /one
/two /three /four /five /six
/seven /eight /nine /colon /semicolon
/less /equal /greater /question /at
/A /B /C /D /E
/F /G /H /I /J
/K /L /M /N /O
/P /Q /R /S /T
/U /V /W /X /Y
/Z /bracketleft /backslash /bracketright /asciicircum
/underscore /quoteleft /a /b /c
/d /e /f /g /h
/i /j /k /l /m
/n /o /p /q /r
/s /t /u /v /w
/x /y /z /braceleft /bar
/braceright /asciitilde /bullet /Euro /bullet
/quotesinglbase /florin /quotedblbase /ellipsis /dagger
/daggerdbl /circumflex /perthousand /Scaron /guilsinglleft
/OE /bullet /Zcaron /bullet /bullet
/quoteleft /quoteright /quotedblleft /quotedblright /bullet
/endash /emdash /asciitilde /trademark /scaron
/guilsinglright /oe /bullet /zcaron /Ydieresis
/space /exclamdown /cent /sterling /currency
/yen /brokenbar /section /dieresis /copyright
/ordfeminine /guillemotleft /logicalnot /sfthyphen /registered
/macron /degree /plusminus /twosuperior /threesuperior
/acute /mu /paragraph /middot /cedilla
/onesuperior /ordmasculine /guillemotright /onequarter /onehalf
/threequarters /questiondown /Agrave /Aacute /Acircumflex
/Atilde /Adieresis /Aring /AE /Ccedilla
/Egrave /Eacute /Ecircumflex /Edieresis /Igrave
/Iacute /Icircumflex /Idieresis /Eth /Ntilde
/Ograve /Oacute /Ocircumflex /Otilde /Odieresis
/multiply /Oslash /Ugrave /Uacute /Ucircumflex
/Udieresis /Yacute /Thorn /germandbls /agrave
/aacute /acircumflex /atilde /adieresis /aring
/ae /ccedilla /egrave /eacute /ecircumflex
/edieresis /igrave /iacute /icircumflex /idieresis
/eth /ntilde /ograve /oacute /ocircumflex
/otilde /odieresis /divide /oslash /ugrave
/uacute /ucircumflex /udieresis /yacute /thorn
/ydieresis
] def
%%EndResource
%FOPBeginFontReencode
/Courier-Bold findfont
dup length dict begin
  {1 index /FID ne {def} {pop pop} ifelse} forall
  /Encoding WinAnsiEncoding def
  currentdict
end
/Courier-Bold exch definefont pop
/Helvetica findfont
dup length dict begin
  {1 index /FID ne {def} {pop pop} ifelse} forall
  /Encoding WinAnsiEncoding def
  currentdict
end
/Helvetica exch definefont pop
/Courier-BoldOblique findfont
dup length dict begin
  {1 index /FID ne {def} {pop pop} ifelse} forall
  /Encoding WinAnsiEncoding def
  currentdict
end
/Courier-BoldOblique exch definefont pop
/Courier-Oblique findfont
dup length dict begin
  {1 index /FID ne {def} {pop pop} ifelse} forall
  /Encoding WinAnsiEncoding def
  currentdict
end
/Courier-Oblique exch definefont pop
/Times-Roman findfont
dup length dict begin
  {1 index /FID ne {def} {pop pop} ifelse} forall
  /Encoding WinAnsiEncoding def
  currentdict
end
/Times-Roman exch definefont pop
/Helvetica-BoldOblique findfont
dup length dict begin
  {1 index /FID ne {def} {pop pop} ifelse} forall
  /Encoding WinAnsiEncoding def
  currentdict
end
/Helvetica-BoldOblique exch definefont pop
/Helvetica-Bold findfont
dup length dict begin
  {1 index /FID ne {def} {pop pop} ifelse} forall
  /Encoding WinAnsiEncoding def
  currentdict
end
/Helvetica-Bold exch definefont pop
/Helvetica-Oblique findfont
dup length dict begin
  {1 index /FID ne {def} {pop pop} ifelse} forall
  /Encoding WinAnsiEncoding def
  currentdict
end
/Helvetica-Oblique exch definefont pop
/Times-BoldItalic findfont
dup length dict begin
  {1 index /FID ne {def} {pop pop} ifelse} forall
  /Encoding WinAnsiEncoding def
  currentdict
end
/Times-BoldItalic exch definefont pop
/Courier findfont
dup length dict begin
  {1 index /FID ne {def} {pop pop} ifelse} forall
  /Encoding WinAnsiEncoding def
  currentdict
end
/Courier exch definefont pop
/Times-Italic findfont
dup length dict begin
  {1 index /FID ne {def} {pop pop} ifelse} forall
  /Encoding WinAnsiEncoding def
  currentdict
end
/Times-Italic exch definefont pop
/Times-Bold findfont
dup length dict begin
  {1 index /FID ne {def} {pop pop} ifelse} forall
  /Encoding WinAnsiEncoding def
  currentdict
end
/Times-Bold exch definefont pop
%FOPEndFontReencode
%%EndProlog
%%Page: 1 1
%%PageBoundingBox: 0 0 701 473
%%BeginPageSetup
[1 0 0 -1 0 473] CT
%%EndPageSetup
GS
[0.75 0 0 0.75 0 0.5] CT
1 GC
N
0 0 935 630 re
f
GR
GS
[0.75 0 0 0.75 0 0.5] CT
1 GC
N
0 0 935 630 re
f
GR
GS
[0.75 0 0 0.75 0 0.5] CT
1 GC
N
122 457 M
846 457 L
846 47 L
122 47 L
cp
f
GR
GS
[0.75 0 0 0.75 0 0.5] CT
0.873 GC
2 setlinecap
10.0 ML
N
122 457 M
122 47 L
S
GR
GS
[0.75 0 0 0.75 0 0.5] CT
0.873 GC
2 setlinecap
10.0 ML
N
192.78 457 M
192.78 47 L
S
GR
GS
[0.75 0 0 0.75 0 0.5] CT
0.873 GC
2 setlinecap
10.0 ML
N
263.561 457 M
263.561 47 L
S
GR
GS
[0.75 0 0 0.75 0 0.5] CT
0.873 GC
2 setlinecap
10.0 ML
N
334.341 457 M
334.341 47 L
S
GR
GS
[0.75 0 0 0.75 0 0.5] CT
0.873 GC
2 setlinecap
10.0 ML
N
405.122 457 M
405.122 47 L
S
GR
GS
[0.75 0 0 0.75 0 0.5] CT
0.873 GC
2 setlinecap
10.0 ML
N
475.902 457 M
475.902 47 L
S
GR
GS
[0.75 0 0 0.75 0 0.5] CT
0.873 GC
2 setlinecap
10.0 ML
N
546.682 457 M
546.682 47 L
S
GR
GS
[0.75 0 0 0.75 0 0.5] CT
0.873 GC
2 setlinecap
10.0 ML
N
617.463 457 M
617.463 47 L
S
GR
GS
[0.75 0 0 0.75 0 0.5] CT
0.873 GC
2 setlinecap
10.0 ML
N
688.243 457 M
688.243 47 L
S
GR
GS
[0.75 0 0 0.75 0 0.5] CT
0.873 GC
2 setlinecap
10.0 ML
N
759.024 457 M
759.024 47 L
S
GR
GS
[0.75 0 0 0.75 0 0.5] CT
0.873 GC
2 setlinecap
10.0 ML
N
829.804 457 M
829.804 47 L
S
GR
GS
[0.75 0 0 0.75 0 0.5] CT
0.873 GC
2 setlinecap
10.0 ML
N
846 457 M
122 457 L
S
GR
GS
[0.75 0 0 0.75 0 0.5] CT
0.873 GC
2 setlinecap
10.0 ML
N
846 379.525 M
122 379.525 L
S
GR
GS
[0.75 0 0 0.75 0 0.5] CT
0.873 GC
2 setlinecap
10.0 ML
N
846 346.158 M
122 346.158 L
S
GR
GS
[0.75 0 0 0.75 0 0.5] CT
0.873 GC
2 setlinecap
10.0 ML
N
846 268.683 M
122 268.683 L
S
GR
GS
[0.75 0 0 0.75 0 0.5] CT
0.873 GC
2 setlinecap
10.0 ML
N
846 235.317 M
122 235.317 L
S
GR
GS
[0.75 0 0 0.75 0 0.5] CT
0.873 GC
2 setlinecap
10.0 ML
N
846 182.432 M
122 182.432 L
S
GR
GS
[0.75 0 0 0.75 0 0.5] CT
0.873 GC
2 setlinecap
10.0 ML
N
846 124.475 M
122 124.475 L
S
GR
GS
[0.75 0 0 0.75 0 0.5] CT
0.873 GC
2 setlinecap
10.0 ML
N
846 96.18 M
122 96.18 L
S
GR
GS
[0.75 0 0 0.75 363.00025 414.25002] CT
/Times 33 F
GS
[1 0 0 1 0 0] CT
-223 31 moveto 
1 -1 scale
(Number of Processors and ) t 
GR
GR
GS
[0.75 0 0 0.75 363.00025 414.25002] CT
/Times 33 F
GS
[1 0 0 1 0 0] CT
-253 70 moveto 
1 -1 scale
(Number of Hexahedra \(x1000\)) t 
GR
GR
GS
[0.75 0 0 0.75 0 0.5] CT
0.149 GC
2 setlinecap
10.0 ML
N
122 457 M
846 457 L
S
GR
GS
[0.75 0 0 0.75 0 0.5] CT
0.149 GC
2 setlinecap
10.0 ML
N
122 47 M
846 47 L
S
GR
GS
[0.75 0 0 0.75 0 0.5] CT
0.149 GC
2 setlinecap
10.0 ML
N
122 457 M
122 449.76 L
S
GR
GS
[0.75 0 0 0.75 0 0.5] CT
0.149 GC
2 setlinecap
10.0 ML
N
192.78 457 M
192.78 449.76 L
S
GR
GS
[0.75 0 0 0.75 0 0.5] CT
0.149 GC
2 setlinecap
10.0 ML
N
263.561 457 M
263.561 449.76 L
S
GR
GS
[0.75 0 0 0.75 0 0.5] CT
0.149 GC
2 setlinecap
10.0 ML
N
334.341 457 M
334.341 449.76 L
S
GR
GS
[0.75 0 0 0.75 0 0.5] CT
0.149 GC
2 setlinecap
10.0 ML
N
405.122 457 M
405.122 449.76 L
S
GR
GS
[0.75 0 0 0.75 0 0.5] CT
0.149 GC
2 setlinecap
10.0 ML
N
475.902 457 M
475.902 449.76 L
S
GR
GS
[0.75 0 0 0.75 0 0.5] CT
0.149 GC
2 setlinecap
10.0 ML
N
546.682 457 M
546.682 449.76 L
S
GR
GS
[0.75 0 0 0.75 0 0.5] CT
0.149 GC
2 setlinecap
10.0 ML
N
617.463 457 M
617.463 449.76 L
S
GR
GS
[0.75 0 0 0.75 0 0.5] CT
0.149 GC
2 setlinecap
10.0 ML
N
688.243 457 M
688.243 449.76 L
S
GR
GS
[0.75 0 0 0.75 0 0.5] CT
0.149 GC
2 setlinecap
10.0 ML
N
759.024 457 M
759.024 449.76 L
S
GR
GS
[0.75 0 0 0.75 0 0.5] CT
0.149 GC
2 setlinecap
10.0 ML
N
829.804 457 M
829.804 449.76 L
S
GR
GS
[0.75 0 0 0.75 0 0.5] CT
0.149 GC
2 setlinecap
10.0 ML
N
122 47 M
122 54.24 L
S
GR
GS
[0.75 0 0 0.75 0 0.5] CT
0.149 GC
2 setlinecap
10.0 ML
N
192.78 47 M
192.78 54.24 L
S
GR
GS
[0.75 0 0 0.75 0 0.5] CT
0.149 GC
2 setlinecap
10.0 ML
N
263.561 47 M
263.561 54.24 L
S
GR
GS
[0.75 0 0 0.75 0 0.5] CT
0.149 GC
2 setlinecap
10.0 ML
N
334.341 47 M
334.341 54.24 L
S
GR
GS
[0.75 0 0 0.75 0 0.5] CT
0.149 GC
2 setlinecap
10.0 ML
N
405.122 47 M
405.122 54.24 L
S
GR
GS
[0.75 0 0 0.75 0 0.5] CT
0.149 GC
2 setlinecap
10.0 ML
N
475.902 47 M
475.902 54.24 L
S
GR
GS
[0.75 0 0 0.75 0 0.5] CT
0.149 GC
2 setlinecap
10.0 ML
N
546.682 47 M
546.682 54.24 L
S
GR
GS
[0.75 0 0 0.75 0 0.5] CT
0.149 GC
2 setlinecap
10.0 ML
N
617.463 47 M
617.463 54.24 L
S
GR
GS
[0.75 0 0 0.75 0 0.5] CT
0.149 GC
2 setlinecap
10.0 ML
N
688.243 47 M
688.243 54.24 L
S
GR
GS
[0.75 0 0 0.75 0 0.5] CT
0.149 GC
2 setlinecap
10.0 ML
N
759.024 47 M
759.024 54.24 L
S
GR
GS
[0.75 0 0 0.75 0 0.5] CT
0.149 GC
2 setlinecap
10.0 ML
N
829.804 47 M
829.804 54.24 L
S
GR
GS
[0 -0.75 0.75 0 91.5 350.25001] CT
0.149 GC
/Times 33 F
GS
[1 0 0 1 0 0] CT
-21 11.5 moveto 
1 -1 scale
(1) t 
GR
GR
GS
[0 -0.75 0.75 0 144.58531 350.25001] CT
0.149 GC
/Times 33 F
GS
[1 0 0 1 0 0] CT
-21 11.5 moveto 
1 -1 scale
(2) t 
GR
GR
GS
[0 -0.75 0.75 0 197.67062 350.25001] CT
0.149 GC
/Times 33 F
GS
[1 0 0 1 0 0] CT
-21 11.5 moveto 
1 -1 scale
(4) t 
GR
GR
GS
[0 -0.75 0.75 0 250.75594 350.25001] CT
0.149 GC
/Times 33 F
GS
[1 0 0 1 0 0] CT
-21 11.5 moveto 
1 -1 scale
(8) t 
GR
GR
GS
[0 -0.75 0.75 0 303.84123 350.25001] CT
0.149 GC
/Times 33 F
GS
[1 0 0 1 0 0] CT
-42 11.5 moveto 
1 -1 scale
(16) t 
GR
GR
GS
[0 -0.75 0.75 0 356.92655 350.25001] CT
0.149 GC
/Times 33 F
GS
[1 0 0 1 0 0] CT
-42 11.5 moveto 
1 -1 scale
(32) t 
GR
GR
GS
[0 -0.75 0.75 0 410.01187 350.25001] CT
0.149 GC
/Times 33 F
GS
[1 0 0 1 0 0] CT
-42 11.5 moveto 
1 -1 scale
(64) t 
GR
GR
GS
[0 -0.75 0.75 0 463.09717 350.25001] CT
0.149 GC
/Times 33 F
GS
[1 0 0 1 0 0] CT
-63 11.5 moveto 
1 -1 scale
(128) t 
GR
GR
GS
[0 -0.75 0.75 0 516.18246 350.25001] CT
0.149 GC
/Times 33 F
GS
[1 0 0 1 0 0] CT
-63 11.5 moveto 
1 -1 scale
(256) t 
GR
GR
GS
[0 -0.75 0.75 0 569.26781 350.25001] CT
0.149 GC
/Times 33 F
GS
[1 0 0 1 0 0] CT
-63 11.5 moveto 
1 -1 scale
(512) t 
GR
GR
GS
[0 -0.75 0.75 0 622.3531 350.25001] CT
0.149 GC
/Times 33 F
GS
[1 0 0 1 0 0] CT
-84 11.5 moveto 
1 -1 scale
(1024) t 
GR
GR
GS
[0 -0.75 0.75 0 34.25 189.49985] CT
/Times 33 F
GS
[1 0 0 1 0 0] CT
-138 -8 moveto 
1 -1 scale
(Elapsed Time \(s\)) t 
GR
GR
GS
[0.75 0 0 0.75 0 0.5] CT
0.149 GC
2 setlinecap
10.0 ML
N
122 457 M
122 47 L
S
GR
GS
[0.75 0 0 0.75 0 0.5] CT
0.149 GC
2 setlinecap
10.0 ML
N
846 457 M
846 47 L
S
GR
GS
[0.75 0 0 0.75 0 0.5] CT
0.149 GC
2 setlinecap
10.0 ML
N
122 457 M
129.24 457 L
S
GR
GS
[0.75 0 0 0.75 0 0.5] CT
0.149 GC
2 setlinecap
10.0 ML
N
122 379.525 M
129.24 379.525 L
S
GR
GS
[0.75 0 0 0.75 0 0.5] CT
0.149 GC
2 setlinecap
10.0 ML
N
122 346.158 M
129.24 346.158 L
S
GR
GS
[0.75 0 0 0.75 0 0.5] CT
0.149 GC
2 setlinecap
10.0 ML
N
122 268.683 M
129.24 268.683 L
S
GR
GS
[0.75 0 0 0.75 0 0.5] CT
0.149 GC
2 setlinecap
10.0 ML
N
122 235.317 M
129.24 235.317 L
S
GR
GS
[0.75 0 0 0.75 0 0.5] CT
0.149 GC
2 setlinecap
10.0 ML
N
122 182.432 M
129.24 182.432 L
S
GR
GS
[0.75 0 0 0.75 0 0.5] CT
0.149 GC
2 setlinecap
10.0 ML
N
122 124.475 M
129.24 124.475 L
S
GR
GS
[0.75 0 0 0.75 0 0.5] CT
0.149 GC
2 setlinecap
10.0 ML
N
122 96.18 M
129.24 96.18 L
S
GR
GS
[0.75 0 0 0.75 0 0.5] CT
0.149 GC
2 setlinecap
10.0 ML
N
846 457 M
838.76 457 L
S
GR
GS
[0.75 0 0 0.75 0 0.5] CT
0.149 GC
2 setlinecap
10.0 ML
N
846 379.525 M
838.76 379.525 L
S
GR
GS
[0.75 0 0 0.75 0 0.5] CT
0.149 GC
2 setlinecap
10.0 ML
N
846 346.158 M
838.76 346.158 L
S
GR
GS
[0.75 0 0 0.75 0 0.5] CT
0.149 GC
2 setlinecap
10.0 ML
N
846 268.683 M
838.76 268.683 L
S
GR
GS
[0.75 0 0 0.75 0 0.5] CT
0.149 GC
2 setlinecap
10.0 ML
N
846 235.317 M
838.76 235.317 L
S
GR
GS
[0.75 0 0 0.75 0 0.5] CT
0.149 GC
2 setlinecap
10.0 ML
N
846 182.432 M
838.76 182.432 L
S
GR
GS
[0.75 0 0 0.75 0 0.5] CT
0.149 GC
2 setlinecap
10.0 ML
N
846 124.475 M
838.76 124.475 L
S
GR
GS
[0.75 0 0 0.75 0 0.5] CT
0.149 GC
2 setlinecap
10.0 ML
N
846 96.18 M
838.76 96.18 L
S
GR
GS
[0.75 0 0 0.75 84.5 343.25] CT
0.149 GC
/Times 33 F
GS
[1 0 0 1 0 0] CT
-53 11.5 moveto 
1 -1 scale
(0.1) t 
GR
GR
GS
[0.75 0 0 0.75 84.5 285.14375] CT
0.149 GC
/Times 33 F
GS
[1 0 0 1 0 0] CT
-53 11.5 moveto 
1 -1 scale
(0.5) t 
GR
GR
GS
[0.75 0 0 0.75 84.5 260.11874] CT
0.149 GC
/Times 33 F
GS
[1 0 0 1 0 0] CT
-21 11.5 moveto 
1 -1 scale
(1) t 
GR
GR
GS
[0.75 0 0 0.75 84.5 202.01249] CT
0.149 GC
/Times 33 F
GS
[1 0 0 1 0 0] CT
-21 11.5 moveto 
1 -1 scale
(5) t 
GR
GR
GS
[0.75 0 0 0.75 84.5 176.9875] CT
0.149 GC
/Times 33 F
GS
[1 0 0 1 0 0] CT
-42 11.5 moveto 
1 -1 scale
(10) t 
GR
GR
GS
[0.75 0 0 0.75 84.5 137.32382] CT
0.149 GC
/Times 33 F
GS
[1 0 0 1 0 0] CT
-42 11.5 moveto 
1 -1 scale
(30) t 
GR
GR
GS
[0.75 0 0 0.75 84.5 93.85625] CT
0.149 GC
/Times 33 F
GS
[1 0 0 1 0 0] CT
-63 11.5 moveto 
1 -1 scale
(100) t 
GR
GR
GS
[0.75 0 0 0.75 84.5 72.63512] CT
0.149 GC
/Times 33 F
GS
[1 0 0 1 0 0] CT
-63 11.5 moveto 
1 -1 scale
(150) t 
GR
GR
GS
[0.75 0 0 0.75 0 0.5] CT
0 0 1 RC
2 setlinecap
10.0 ML
4 LW
N
122 368.4 M
192.78 367.865 L
263.561 367.937 L
334.341 367.084 L
405.122 361.957 L
475.902 359.422 L
546.682 358.058 L
617.463 357.772 L
688.243 357.766 L
759.024 357.499 L
829.804 358.216 L
S
GR
GS
[0.75 0 0 0.75 0 0.5] CT
0 0 1 RC
N
129.167 368.5 M
128.273 365.167 L
125.833 362.727 L
122.5 361.833 L
119.167 362.727 L
116.726 365.167 L
115.833 368.5 L
116.726 371.833 L
119.167 374.273 L
122.5 375.167 L
125.833 374.273 L
128.273 371.833 L
129.167 368.5 L
cp
f
GR
GS
[0.75 0 0 0.75 0 0.5] CT
0 0 1 RC
2 setlinecap
10.0 ML
4 LW
N
129.167 368.5 M
128.506 365.607 L
126.657 363.288 L
123.983 362 L
121.017 362 L
118.343 363.288 L
116.494 365.607 L
115.833 368.5 L
116.494 371.393 L
118.343 373.712 L
121.017 375 L
123.983 375 L
126.657 373.712 L
128.506 371.393 L
129.167 368.5 L
S
GR
GS
[0.75 0 0 0.75 0 0.5] CT
0 0 1 RC
N
199.167 367.5 M
198.273 364.167 L
195.833 361.727 L
192.5 360.833 L
189.167 361.727 L
186.727 364.167 L
185.833 367.5 L
186.727 370.833 L
189.167 373.273 L
192.5 374.167 L
195.833 373.273 L
198.273 370.833 L
199.167 367.5 L
cp
f
GR
GS
[0.75 0 0 0.75 0 0.5] CT
0 0 1 RC
2 setlinecap
10.0 ML
4 LW
N
199.167 367.5 M
198.506 364.607 L
196.657 362.288 L
193.983 361 L
191.017 361 L
188.343 362.288 L
186.494 364.607 L
185.833 367.5 L
186.494 370.393 L
188.343 372.712 L
191.017 374 L
193.983 374 L
196.657 372.712 L
198.506 370.393 L
199.167 367.5 L
S
GR
GS
[0.75 0 0 0.75 0 0.5] CT
0 0 1 RC
N
270.167 367.5 M
269.273 364.167 L
266.833 361.727 L
263.5 360.833 L
260.167 361.727 L
257.727 364.167 L
256.833 367.5 L
257.727 370.833 L
260.167 373.273 L
263.5 374.167 L
266.833 373.273 L
269.273 370.833 L
270.167 367.5 L
cp
f
GR
GS
[0.75 0 0 0.75 0 0.5] CT
0 0 1 RC
2 setlinecap
10.0 ML
4 LW
N
270.167 367.5 M
269.506 364.607 L
267.657 362.288 L
264.983 361 L
262.017 361 L
259.343 362.288 L
257.494 364.607 L
256.833 367.5 L
257.494 370.393 L
259.343 372.712 L
262.017 374 L
264.983 374 L
267.657 372.712 L
269.506 370.393 L
270.167 367.5 L
S
GR
GS
[0.75 0 0 0.75 0 0.5] CT
0 0 1 RC
N
341.167 367.5 M
340.273 364.167 L
337.833 361.727 L
334.5 360.833 L
331.167 361.727 L
328.727 364.167 L
327.833 367.5 L
328.727 370.833 L
331.167 373.273 L
334.5 374.167 L
337.833 373.273 L
340.273 370.833 L
341.167 367.5 L
cp
f
GR
GS
[0.75 0 0 0.75 0 0.5] CT
0 0 1 RC
2 setlinecap
10.0 ML
4 LW
N
341.167 367.5 M
340.506 364.607 L
338.657 362.288 L
335.983 361 L
333.017 361 L
330.343 362.288 L
328.494 364.607 L
327.833 367.5 L
328.494 370.393 L
330.343 372.712 L
333.017 374 L
335.983 374 L
338.657 372.712 L
340.506 370.393 L
341.167 367.5 L
S
GR
GS
[0.75 0 0 0.75 0 0.5] CT
0 0 1 RC
N
412.167 361.5 M
411.273 358.167 L
408.833 355.727 L
405.5 354.833 L
402.167 355.727 L
399.727 358.167 L
398.833 361.5 L
399.727 364.833 L
402.167 367.273 L
405.5 368.167 L
408.833 367.273 L
411.273 364.833 L
412.167 361.5 L
cp
f
GR
GS
[0.75 0 0 0.75 0 0.5] CT
0 0 1 RC
2 setlinecap
10.0 ML
4 LW
N
412.167 361.5 M
411.506 358.607 L
409.657 356.288 L
406.983 355 L
404.017 355 L
401.343 356.288 L
399.494 358.607 L
398.833 361.5 L
399.494 364.393 L
401.343 366.712 L
404.017 368 L
406.983 368 L
409.657 366.712 L
411.506 364.393 L
412.167 361.5 L
S
GR
GS
[0.75 0 0 0.75 0 0.5] CT
0 0 1 RC
N
482.167 359.5 M
481.273 356.167 L
478.833 353.727 L
475.5 352.833 L
472.167 353.727 L
469.727 356.167 L
468.833 359.5 L
469.727 362.833 L
472.167 365.273 L
475.5 366.167 L
478.833 365.273 L
481.273 362.833 L
482.167 359.5 L
cp
f
GR
GS
[0.75 0 0 0.75 0 0.5] CT
0 0 1 RC
2 setlinecap
10.0 ML
4 LW
N
482.167 359.5 M
481.506 356.607 L
479.657 354.288 L
476.983 353 L
474.017 353 L
471.343 354.288 L
469.494 356.607 L
468.833 359.5 L
469.494 362.393 L
471.343 364.712 L
474.017 366 L
476.983 366 L
479.657 364.712 L
481.506 362.393 L
482.167 359.5 L
S
GR
GS
[0.75 0 0 0.75 0 0.5] CT
0 0 1 RC
N
553.167 358.5 M
552.273 355.167 L
549.833 352.727 L
546.5 351.833 L
543.167 352.727 L
540.727 355.167 L
539.833 358.5 L
540.727 361.833 L
543.167 364.273 L
546.5 365.167 L
549.833 364.273 L
552.273 361.833 L
553.167 358.5 L
cp
f
GR
GS
[0.75 0 0 0.75 0 0.5] CT
0 0 1 RC
2 setlinecap
10.0 ML
4 LW
N
553.167 358.5 M
552.506 355.607 L
550.657 353.288 L
547.983 352 L
545.017 352 L
542.343 353.288 L
540.494 355.607 L
539.833 358.5 L
540.494 361.393 L
542.343 363.712 L
545.017 365 L
547.983 365 L
550.657 363.712 L
552.506 361.393 L
553.167 358.5 L
S
GR
GS
[0.75 0 0 0.75 0 0.5] CT
0 0 1 RC
N
624.167 357.5 M
623.273 354.167 L
620.833 351.727 L
617.5 350.833 L
614.167 351.727 L
611.727 354.167 L
610.833 357.5 L
611.727 360.833 L
614.167 363.273 L
617.5 364.167 L
620.833 363.273 L
623.273 360.833 L
624.167 357.5 L
cp
f
GR
GS
[0.75 0 0 0.75 0 0.5] CT
0 0 1 RC
2 setlinecap
10.0 ML
4 LW
N
624.167 357.5 M
623.506 354.607 L
621.657 352.288 L
618.983 351 L
616.017 351 L
613.343 352.288 L
611.494 354.607 L
610.833 357.5 L
611.494 360.393 L
613.343 362.712 L
616.017 364 L
618.983 364 L
621.657 362.712 L
623.506 360.393 L
624.167 357.5 L
S
GR
GS
[0.75 0 0 0.75 0 0.5] CT
0 0 1 RC
N
695.167 357.5 M
694.273 354.167 L
691.833 351.727 L
688.5 350.833 L
685.167 351.727 L
682.727 354.167 L
681.833 357.5 L
682.727 360.833 L
685.167 363.273 L
688.5 364.167 L
691.833 363.273 L
694.273 360.833 L
695.167 357.5 L
cp
f
GR
GS
[0.75 0 0 0.75 0 0.5] CT
0 0 1 RC
2 setlinecap
10.0 ML
4 LW
N
695.167 357.5 M
694.506 354.607 L
692.657 352.288 L
689.983 351 L
687.017 351 L
684.343 352.288 L
682.494 354.607 L
681.833 357.5 L
682.494 360.393 L
684.343 362.712 L
687.017 364 L
689.983 364 L
692.657 362.712 L
694.506 360.393 L
695.167 357.5 L
S
GR
GS
[0.75 0 0 0.75 0 0.5] CT
0 0 1 RC
N
766.167 357.5 M
765.273 354.167 L
762.833 351.727 L
759.5 350.833 L
756.167 351.727 L
753.727 354.167 L
752.833 357.5 L
753.727 360.833 L
756.167 363.273 L
759.5 364.167 L
762.833 363.273 L
765.273 360.833 L
766.167 357.5 L
cp
f
GR
GS
[0.75 0 0 0.75 0 0.5] CT
0 0 1 RC
2 setlinecap
10.0 ML
4 LW
N
766.167 357.5 M
765.506 354.607 L
763.657 352.288 L
760.983 351 L
758.017 351 L
755.343 352.288 L
753.494 354.607 L
752.833 357.5 L
753.494 360.393 L
755.343 362.712 L
758.017 364 L
760.983 364 L
763.657 362.712 L
765.506 360.393 L
766.167 357.5 L
S
GR
GS
[0.75 0 0 0.75 0 0.5] CT
0 0 1 RC
N
836.167 358.5 M
835.273 355.167 L
832.833 352.727 L
829.5 351.833 L
826.167 352.727 L
823.727 355.167 L
822.833 358.5 L
823.727 361.833 L
826.167 364.273 L
829.5 365.167 L
832.833 364.273 L
835.273 361.833 L
836.167 358.5 L
cp
f
GR
GS
[0.75 0 0 0.75 0 0.5] CT
0 0 1 RC
2 setlinecap
10.0 ML
4 LW
N
836.167 358.5 M
835.506 355.607 L
833.657 353.288 L
830.983 352 L
828.017 352 L
825.343 353.288 L
823.494 355.607 L
822.833 358.5 L
823.494 361.393 L
825.343 363.712 L
828.017 365 L
830.983 365 L
833.657 363.712 L
835.506 361.393 L
836.167 358.5 L
S
GR
GS
[0.75 0 0 0.75 0 0.5] CT
0 0.502 0 RC
2 setlinecap
10.0 ML
4 LW
N
122 266.888 M
192.78 267.894 L
263.561 267.621 L
334.341 266.975 L
405.122 262.556 L
475.902 259.33 L
546.682 257.761 L
617.463 257.884 L
688.243 257.897 L
759.024 257.5 L
829.804 257.38 L
S
GR
GS
[0.75 0 0 0.75 0 0.5] CT
0 0.502 0 RC
2 setlinecap
10.0 ML
4 LW
N
113 266.5 M
132 266.5 L
S
GR
GS
[0.75 0 0 0.75 0 0.5] CT
0 0.502 0 RC
2 setlinecap
10.0 ML
4 LW
N
122.5 276 M
122.5 257 L
S
GR
GS
[0.75 0 0 0.75 0 0.5] CT
0 0.502 0 RC
2 setlinecap
10.0 ML
4 LW
N
115 274 M
130 259 L
S
GR
GS
[0.75 0 0 0.75 0 0.5] CT
0 0.502 0 RC
2 setlinecap
10.0 ML
4 LW
N
115 259 M
130 274 L
S
GR
GS
[0.75 0 0 0.75 0 0.5] CT
0 0.502 0 RC
2 setlinecap
10.0 ML
4 LW
N
183 267.5 M
202 267.5 L
S
GR
GS
[0.75 0 0 0.75 0 0.5] CT
0 0.502 0 RC
2 setlinecap
10.0 ML
4 LW
N
192.5 277 M
192.5 258 L
S
GR
GS
[0.75 0 0 0.75 0 0.5] CT
0 0.502 0 RC
2 setlinecap
10.0 ML
4 LW
N
185 275 M
200 260 L
S
GR
GS
[0.75 0 0 0.75 0 0.5] CT
0 0.502 0 RC
2 setlinecap
10.0 ML
4 LW
N
185 260 M
200 275 L
S
GR
GS
[0.75 0 0 0.75 0 0.5] CT
0 0.502 0 RC
2 setlinecap
10.0 ML
4 LW
N
254 267.5 M
273 267.5 L
S
GR
GS
[0.75 0 0 0.75 0 0.5] CT
0 0.502 0 RC
2 setlinecap
10.0 ML
4 LW
N
263.5 277 M
263.5 258 L
S
GR
GS
[0.75 0 0 0.75 0 0.5] CT
0 0.502 0 RC
2 setlinecap
10.0 ML
4 LW
N
256 275 M
271 260 L
S
GR
GS
[0.75 0 0 0.75 0 0.5] CT
0 0.502 0 RC
2 setlinecap
10.0 ML
4 LW
N
256 260 M
271 275 L
S
GR
GS
[0.75 0 0 0.75 0 0.5] CT
0 0.502 0 RC
2 setlinecap
10.0 ML
4 LW
N
325 266.5 M
344 266.5 L
S
GR
GS
[0.75 0 0 0.75 0 0.5] CT
0 0.502 0 RC
2 setlinecap
10.0 ML
4 LW
N
334.5 276 M
334.5 257 L
S
GR
GS
[0.75 0 0 0.75 0 0.5] CT
0 0.502 0 RC
2 setlinecap
10.0 ML
4 LW
N
327 274 M
342 259 L
S
GR
GS
[0.75 0 0 0.75 0 0.5] CT
0 0.502 0 RC
2 setlinecap
10.0 ML
4 LW
N
327 259 M
342 274 L
S
GR
GS
[0.75 0 0 0.75 0 0.5] CT
0 0.502 0 RC
2 setlinecap
10.0 ML
4 LW
N
396 262.5 M
415 262.5 L
S
GR
GS
[0.75 0 0 0.75 0 0.5] CT
0 0.502 0 RC
2 setlinecap
10.0 ML
4 LW
N
405.5 272 M
405.5 253 L
S
GR
GS
[0.75 0 0 0.75 0 0.5] CT
0 0.502 0 RC
2 setlinecap
10.0 ML
4 LW
N
398 270 M
413 255 L
S
GR
GS
[0.75 0 0 0.75 0 0.5] CT
0 0.502 0 RC
2 setlinecap
10.0 ML
4 LW
N
398 255 M
413 270 L
S
GR
GS
[0.75 0 0 0.75 0 0.5] CT
0 0.502 0 RC
2 setlinecap
10.0 ML
4 LW
N
466 259.5 M
485 259.5 L
S
GR
GS
[0.75 0 0 0.75 0 0.5] CT
0 0.502 0 RC
2 setlinecap
10.0 ML
4 LW
N
475.5 269 M
475.5 250 L
S
GR
GS
[0.75 0 0 0.75 0 0.5] CT
0 0.502 0 RC
2 setlinecap
10.0 ML
4 LW
N
468 267 M
483 252 L
S
GR
GS
[0.75 0 0 0.75 0 0.5] CT
0 0.502 0 RC
2 setlinecap
10.0 ML
4 LW
N
468 252 M
483 267 L
S
GR
GS
[0.75 0 0 0.75 0 0.5] CT
0 0.502 0 RC
2 setlinecap
10.0 ML
4 LW
N
537 257.5 M
556 257.5 L
S
GR
GS
[0.75 0 0 0.75 0 0.5] CT
0 0.502 0 RC
2 setlinecap
10.0 ML
4 LW
N
546.5 267 M
546.5 248 L
S
GR
GS
[0.75 0 0 0.75 0 0.5] CT
0 0.502 0 RC
2 setlinecap
10.0 ML
4 LW
N
539 265 M
554 250 L
S
GR
GS
[0.75 0 0 0.75 0 0.5] CT
0 0.502 0 RC
2 setlinecap
10.0 ML
4 LW
N
539 250 M
554 265 L
S
GR
GS
[0.75 0 0 0.75 0 0.5] CT
0 0.502 0 RC
2 setlinecap
10.0 ML
4 LW
N
608 257.5 M
627 257.5 L
S
GR
GS
[0.75 0 0 0.75 0 0.5] CT
0 0.502 0 RC
2 setlinecap
10.0 ML
4 LW
N
617.5 267 M
617.5 248 L
S
GR
GS
[0.75 0 0 0.75 0 0.5] CT
0 0.502 0 RC
2 setlinecap
10.0 ML
4 LW
N
610 265 M
625 250 L
S
GR
GS
[0.75 0 0 0.75 0 0.5] CT
0 0.502 0 RC
2 setlinecap
10.0 ML
4 LW
N
610 250 M
625 265 L
S
GR
GS
[0.75 0 0 0.75 0 0.5] CT
0 0.502 0 RC
2 setlinecap
10.0 ML
4 LW
N
679 257.5 M
698 257.5 L
S
GR
GS
[0.75 0 0 0.75 0 0.5] CT
0 0.502 0 RC
2 setlinecap
10.0 ML
4 LW
N
688.5 267 M
688.5 248 L
S
GR
GS
[0.75 0 0 0.75 0 0.5] CT
0 0.502 0 RC
2 setlinecap
10.0 ML
4 LW
N
681 265 M
696 250 L
S
GR
GS
[0.75 0 0 0.75 0 0.5] CT
0 0.502 0 RC
2 setlinecap
10.0 ML
4 LW
N
681 250 M
696 265 L
S
GR
GS
[0.75 0 0 0.75 0 0.5] CT
0 0.502 0 RC
2 setlinecap
10.0 ML
4 LW
N
750 257.5 M
769 257.5 L
S
GR
GS
[0.75 0 0 0.75 0 0.5] CT
0 0.502 0 RC
2 setlinecap
10.0 ML
4 LW
N
759.5 267 M
759.5 248 L
S
GR
GS
[0.75 0 0 0.75 0 0.5] CT
0 0.502 0 RC
2 setlinecap
10.0 ML
4 LW
N
752 265 M
767 250 L
S
GR
GS
[0.75 0 0 0.75 0 0.5] CT
0 0.502 0 RC
2 setlinecap
10.0 ML
4 LW
N
752 250 M
767 265 L
S
GR
GS
[0.75 0 0 0.75 0 0.5] CT
0 0.502 0 RC
2 setlinecap
10.0 ML
4 LW
N
820 257.5 M
839 257.5 L
S
GR
GS
[0.75 0 0 0.75 0 0.5] CT
0 0.502 0 RC
2 setlinecap
10.0 ML
4 LW
N
829.5 267 M
829.5 248 L
S
GR
GS
[0.75 0 0 0.75 0 0.5] CT
0 0.502 0 RC
2 setlinecap
10.0 ML
4 LW
N
822 265 M
837 250 L
S
GR
GS
[0.75 0 0 0.75 0 0.5] CT
0 0.502 0 RC
2 setlinecap
10.0 ML
4 LW
N
822 250 M
837 265 L
S
GR
GS
[0.75 0 0 0.75 0 0.5] CT
1 0 0 RC
2 setlinecap
10.0 ML
3.333 LW
N
122 181.431 M
192.78 181.674 L
263.561 180.288 L
334.341 181.169 L
405.122 176.378 L
475.902 174.387 L
546.682 173.465 L
617.463 172.703 L
688.243 172.642 L
759.024 172.554 L
829.804 172.687 L
S
GR
GS
[0.75 0 0 0.75 0 0.5] CT
1 0 0 RC
N
115.74 188.26 M
115.74 174.74 L
129.26 174.74 L
129.26 188.26 L
cp
f
GR
GS
[0.75 0 0 0.75 0 0.5] CT
1 0 0 RC
2 setlinecap
10.0 ML
3.333 LW
N
115.74 188.26 M
115.74 174.74 L
129.26 174.74 L
129.26 188.26 L
115.74 188.26 L
S
GR
GS
[0.75 0 0 0.75 0 0.5] CT
1 0 0 RC
N
185.74 188.26 M
185.74 174.74 L
199.26 174.74 L
199.26 188.26 L
cp
f
GR
GS
[0.75 0 0 0.75 0 0.5] CT
1 0 0 RC
2 setlinecap
10.0 ML
3.333 LW
N
185.74 188.26 M
185.74 174.74 L
199.26 174.74 L
199.26 188.26 L
185.74 188.26 L
S
GR
GS
[0.75 0 0 0.75 0 0.5] CT
1 0 0 RC
N
256.74 187.26 M
256.74 173.74 L
270.26 173.74 L
270.26 187.26 L
cp
f
GR
GS
[0.75 0 0 0.75 0 0.5] CT
1 0 0 RC
2 setlinecap
10.0 ML
3.333 LW
N
256.74 187.26 M
256.74 173.74 L
270.26 173.74 L
270.26 187.26 L
256.74 187.26 L
S
GR
GS
[0.75 0 0 0.75 0 0.5] CT
1 0 0 RC
N
327.74 188.26 M
327.74 174.74 L
341.26 174.74 L
341.26 188.26 L
cp
f
GR
GS
[0.75 0 0 0.75 0 0.5] CT
1 0 0 RC
2 setlinecap
10.0 ML
3.333 LW
N
327.74 188.26 M
327.74 174.74 L
341.26 174.74 L
341.26 188.26 L
327.74 188.26 L
S
GR
GS
[0.75 0 0 0.75 0 0.5] CT
1 0 0 RC
N
398.74 183.26 M
398.74 169.74 L
412.26 169.74 L
412.26 183.26 L
cp
f
GR
GS
[0.75 0 0 0.75 0 0.5] CT
1 0 0 RC
2 setlinecap
10.0 ML
3.333 LW
N
398.74 183.26 M
398.74 169.74 L
412.26 169.74 L
412.26 183.26 L
398.74 183.26 L
S
GR
GS
[0.75 0 0 0.75 0 0.5] CT
1 0 0 RC
N
468.74 181.26 M
468.74 167.74 L
482.26 167.74 L
482.26 181.26 L
cp
f
GR
GS
[0.75 0 0 0.75 0 0.5] CT
1 0 0 RC
2 setlinecap
10.0 ML
3.333 LW
N
468.74 181.26 M
468.74 167.74 L
482.26 167.74 L
482.26 181.26 L
468.74 181.26 L
S
GR
GS
[0.75 0 0 0.75 0 0.5] CT
1 0 0 RC
N
539.74 180.26 M
539.74 166.74 L
553.26 166.74 L
553.26 180.26 L
cp
f
GR
GS
[0.75 0 0 0.75 0 0.5] CT
1 0 0 RC
2 setlinecap
10.0 ML
3.333 LW
N
539.74 180.26 M
539.74 166.74 L
553.26 166.74 L
553.26 180.26 L
539.74 180.26 L
S
GR
GS
[0.75 0 0 0.75 0 0.5] CT
1 0 0 RC
N
610.74 179.26 M
610.74 165.74 L
624.26 165.74 L
624.26 179.26 L
cp
f
GR
GS
[0.75 0 0 0.75 0 0.5] CT
1 0 0 RC
2 setlinecap
10.0 ML
3.333 LW
N
610.74 179.26 M
610.74 165.74 L
624.26 165.74 L
624.26 179.26 L
610.74 179.26 L
S
GR
GS
[0.75 0 0 0.75 0 0.5] CT
1 0 0 RC
N
681.74 179.26 M
681.74 165.74 L
695.26 165.74 L
695.26 179.26 L
cp
f
GR
GS
[0.75 0 0 0.75 0 0.5] CT
1 0 0 RC
2 setlinecap
10.0 ML
3.333 LW
N
681.74 179.26 M
681.74 165.74 L
695.26 165.74 L
695.26 179.26 L
681.74 179.26 L
S
GR
GS
[0.75 0 0 0.75 0 0.5] CT
1 0 0 RC
N
752.74 179.26 M
752.74 165.74 L
766.26 165.74 L
766.26 179.26 L
cp
f
GR
GS
[0.75 0 0 0.75 0 0.5] CT
1 0 0 RC
2 setlinecap
10.0 ML
3.333 LW
N
752.74 179.26 M
752.74 165.74 L
766.26 165.74 L
766.26 179.26 L
752.74 179.26 L
S
GR
GS
[0.75 0 0 0.75 0 0.5] CT
1 0 0 RC
N
822.74 179.26 M
822.74 165.74 L
836.26 165.74 L
836.26 179.26 L
cp
f
GR
GS
[0.75 0 0 0.75 0 0.5] CT
1 0 0 RC
2 setlinecap
10.0 ML
3.333 LW
N
822.74 179.26 M
822.74 165.74 L
836.26 165.74 L
836.26 179.26 L
822.74 179.26 L
S
GR
GS
[0.75 0 0 0.75 0 0.5] CT
0 0.749 0.749 RC
2 setlinecap
10.0 ML
4 LW
N
122 122.03 M
192.78 121.41 L
263.561 121.019 L
334.341 121.407 L
405.122 117.719 L
475.902 115.656 L
546.682 114.344 L
617.463 113.95 L
688.243 114.122 L
759.024 113.923 L
829.804 113.921 L
S
GR
GS
[0.75 0 0 0.75 0 0.5] CT
0 0.749 0.749 RC
N
122.5 133.164 M
130.5 122.5 L
122.5 111.836 L
114.5 122.5 L
cp
f
GR
GS
[0.75 0 0 0.75 0 0.5] CT
0 0.749 0.749 RC
2 setlinecap
10.0 ML
4 LW
N
122.5 133.164 M
130.5 122.5 L
122.5 111.836 L
114.5 122.5 L
122.5 133.164 L
S
GR
GS
[0.75 0 0 0.75 0 0.5] CT
0 0.749 0.749 RC
N
192.5 132.164 M
200.5 121.5 L
192.5 110.836 L
184.5 121.5 L
cp
f
GR
GS
[0.75 0 0 0.75 0 0.5] CT
0 0.749 0.749 RC
2 setlinecap
10.0 ML
4 LW
N
192.5 132.164 M
200.5 121.5 L
192.5 110.836 L
184.5 121.5 L
192.5 132.164 L
S
GR
GS
[0.75 0 0 0.75 0 0.5] CT
0 0.749 0.749 RC
N
263.5 132.164 M
271.5 121.5 L
263.5 110.836 L
255.5 121.5 L
cp
f
GR
GS
[0.75 0 0 0.75 0 0.5] CT
0 0.749 0.749 RC
2 setlinecap
10.0 ML
4 LW
N
263.5 132.164 M
271.5 121.5 L
263.5 110.836 L
255.5 121.5 L
263.5 132.164 L
S
GR
GS
[0.75 0 0 0.75 0 0.5] CT
0 0.749 0.749 RC
N
334.5 132.164 M
342.5 121.5 L
334.5 110.836 L
326.5 121.5 L
cp
f
GR
GS
[0.75 0 0 0.75 0 0.5] CT
0 0.749 0.749 RC
2 setlinecap
10.0 ML
4 LW
N
334.5 132.164 M
342.5 121.5 L
334.5 110.836 L
326.5 121.5 L
334.5 132.164 L
S
GR
GS
[0.75 0 0 0.75 0 0.5] CT
0 0.749 0.749 RC
N
405.5 128.164 M
413.5 117.5 L
405.5 106.836 L
397.5 117.5 L
cp
f
GR
GS
[0.75 0 0 0.75 0 0.5] CT
0 0.749 0.749 RC
2 setlinecap
10.0 ML
4 LW
N
405.5 128.164 M
413.5 117.5 L
405.5 106.836 L
397.5 117.5 L
405.5 128.164 L
S
GR
GS
[0.75 0 0 0.75 0 0.5] CT
0 0.749 0.749 RC
N
475.5 126.164 M
483.5 115.5 L
475.5 104.836 L
467.5 115.5 L
cp
f
GR
GS
[0.75 0 0 0.75 0 0.5] CT
0 0.749 0.749 RC
2 setlinecap
10.0 ML
4 LW
N
475.5 126.164 M
483.5 115.5 L
475.5 104.836 L
467.5 115.5 L
475.5 126.164 L
S
GR
GS
[0.75 0 0 0.75 0 0.5] CT
0 0.749 0.749 RC
N
546.5 125.164 M
554.5 114.5 L
546.5 103.836 L
538.5 114.5 L
cp
f
GR
GS
[0.75 0 0 0.75 0 0.5] CT
0 0.749 0.749 RC
2 setlinecap
10.0 ML
4 LW
N
546.5 125.164 M
554.5 114.5 L
546.5 103.836 L
538.5 114.5 L
546.5 125.164 L
S
GR
GS
[0.75 0 0 0.75 0 0.5] CT
0 0.749 0.749 RC
N
617.5 124.164 M
625.5 113.5 L
617.5 102.836 L
609.5 113.5 L
cp
f
GR
GS
[0.75 0 0 0.75 0 0.5] CT
0 0.749 0.749 RC
2 setlinecap
10.0 ML
4 LW
N
617.5 124.164 M
625.5 113.5 L
617.5 102.836 L
609.5 113.5 L
617.5 124.164 L
S
GR
GS
[0.75 0 0 0.75 0 0.5] CT
0 0.749 0.749 RC
N
688.5 125.164 M
696.5 114.5 L
688.5 103.836 L
680.5 114.5 L
cp
f
GR
GS
[0.75 0 0 0.75 0 0.5] CT
0 0.749 0.749 RC
2 setlinecap
10.0 ML
4 LW
N
688.5 125.164 M
696.5 114.5 L
688.5 103.836 L
680.5 114.5 L
688.5 125.164 L
S
GR
GS
[0.75 0 0 0.75 0 0.5] CT
0 0.749 0.749 RC
N
759.5 124.164 M
767.5 113.5 L
759.5 102.836 L
751.5 113.5 L
cp
f
GR
GS
[0.75 0 0 0.75 0 0.5] CT
0 0.749 0.749 RC
2 setlinecap
10.0 ML
4 LW
N
759.5 124.164 M
767.5 113.5 L
759.5 102.836 L
751.5 113.5 L
759.5 124.164 L
S
GR
GS
[0.75 0 0 0.75 0 0.5] CT
0 0.749 0.749 RC
N
829.5 124.164 M
837.5 113.5 L
829.5 102.836 L
821.5 113.5 L
cp
f
GR
GS
[0.75 0 0 0.75 0 0.5] CT
0 0.749 0.749 RC
2 setlinecap
10.0 ML
4 LW
N
829.5 124.164 M
837.5 113.5 L
829.5 102.836 L
821.5 113.5 L
829.5 124.164 L
S
GR
GS
[0.75 0 0 0.75 0 0.5] CT
1 GC
N
139 429 M
139 390 L
483 390 L
483 429 L
cp
f
GR
GS
[0.75 0 0 0.75 143.25 307.37499] CT
/Times 27 F
GS
[1 0 0 1 0 0] CT
0 9.5 moveto 
1 -1 scale
(P1) t 
GR
GR
GS
[0.75 0 0 0.75 0 0.5] CT
0 0 1 RC
2 setlinecap
10.0 ML
4 LW
N
147 409.167 M
187 409.167 L
S
GR
GS
[0.75 0 0 0.75 0 0.5] CT
0 0 1 RC
N
174.167 409.5 M
173.273 406.167 L
170.833 403.727 L
167.5 402.833 L
164.167 403.727 L
161.727 406.167 L
160.833 409.5 L
161.727 412.833 L
164.167 415.273 L
167.5 416.167 L
170.833 415.273 L
173.273 412.833 L
174.167 409.5 L
cp
f
GR
GS
[0.75 0 0 0.75 0 0.5] CT
0 0 1 RC
2 setlinecap
10.0 ML
4 LW
N
174.167 409.5 M
173.506 406.607 L
171.657 404.288 L
168.983 403 L
166.017 403 L
163.343 404.288 L
161.494 406.607 L
160.833 409.5 L
161.494 412.393 L
163.343 414.712 L
166.017 416 L
168.983 416 L
171.657 414.712 L
173.506 412.393 L
174.167 409.5 L
S
GR
GS
[0.75 0 0 0.75 206.74999 307.37499] CT
/Times 27 F
GS
[1 0 0 1 0 0] CT
0 9.5 moveto 
1 -1 scale
(P3) t 
GR
GR
GS
[0.75 0 0 0.75 0 0.5] CT
0 0.502 0 RC
2 setlinecap
10.0 ML
4 LW
N
231.667 409.167 M
271.667 409.167 L
S
GR
GS
[0.75 0 0 0.75 0 0.5] CT
0 0.502 0 RC
2 setlinecap
10.0 ML
4 LW
N
242 409.5 M
261 409.5 L
S
GR
GS
[0.75 0 0 0.75 0 0.5] CT
0 0.502 0 RC
2 setlinecap
10.0 ML
4 LW
N
251.5 419 M
251.5 400 L
S
GR
GS
[0.75 0 0 0.75 0 0.5] CT
0 0.502 0 RC
2 setlinecap
10.0 ML
4 LW
N
244 417 M
259 402 L
S
GR
GS
[0.75 0 0 0.75 0 0.5] CT
0 0.502 0 RC
2 setlinecap
10.0 ML
4 LW
N
244 402 M
259 417 L
S
GR
GS
[0.75 0 0 0.75 270.25001 307.37499] CT
/Times 27 F
GS
[1 0 0 1 0 0] CT
0 9.5 moveto 
1 -1 scale
(P6) t 
GR
GR
GS
[0.75 0 0 0.75 0 0.5] CT
1 0 0 RC
2 setlinecap
10.0 ML
3.333 LW
N
316.333 409.167 M
356.333 409.167 L
S
GR
GS
[0.75 0 0 0.75 0 0.5] CT
1 0 0 RC
N
329.74 416.26 M
329.74 402.74 L
343.26 402.74 L
343.26 416.26 L
cp
f
GR
GS
[0.75 0 0 0.75 0 0.5] CT
1 0 0 RC
2 setlinecap
10.0 ML
3.333 LW
N
329.74 416.26 M
329.74 402.74 L
343.26 402.74 L
343.26 416.26 L
329.74 416.26 L
S
GR
GS
[0.75 0 0 0.75 333.75 307.37499] CT
/Times 27 F
GS
[1 0 0 1 0 0] CT
0 9.5 moveto 
1 -1 scale
(P9) t 
GR
GR
GS
[0.75 0 0 0.75 0 0.5] CT
0 0.749 0.749 RC
2 setlinecap
10.0 ML
4 LW
N
401 409.167 M
441 409.167 L
S
GR
GS
[0.75 0 0 0.75 0 0.5] CT
0 0.749 0.749 RC
N
420.5 420.164 M
428.5 409.5 L
420.5 398.836 L
412.5 409.5 L
cp
f
GR
GS
[0.75 0 0 0.75 0 0.5] CT
0 0.749 0.749 RC
2 setlinecap
10.0 ML
4 LW
N
420.5 420.164 M
428.5 409.5 L
420.5 398.836 L
412.5 409.5 L
420.5 420.164 L
S
GR
GS
[0.75 0 0 0.75 0 0.5] CT
2 setlinecap
10.0 ML
N
139 429 M
139 390 L
483 390 L
483 429 L
139 429 L
S
GR
%%Trailer
%%Pages: 1
%%EOF
