Num. Nodes;Num. DOFs (P1);Num. DOFs (P4);Num. DOFs (P6);Num. DOFs (P9);P1 - ClockCounterWise - Runtime (s);P4 - ClockCounterWise - Runtime (s);P6 - ClockCounterWise - Runtime (s);P9 - ClockCounterWise - Runtime (s);P1 - NotSequential - Runtime (s);P4 - NotSequential - Runtime (s);P6 - NotSequential - Runtime (s);P9 - NotSequential - Runtime (s)
1;10206;160821;361231;811846;2.60;15.47;30.49;64.15;2.53;14.99;29.55;62.65
2;10206;160821;361231;811846;1.409219;8.185541;17.116071;44.263758;1.383582;7.961317;16.643821;43.477921
4;10206;160821;361231;811846;0.718145;4.119353;8.557272;22.264808;0.698021;3.995067;8.290266;21.723984
8;10206;160821;361231;811846;0.357673;2.074761;4.285157;11.203731;0.347289;2.002514;4.174762;10.959771
16;10206;160821;361231;811846;0.177811;1.037574;2.166871;5.595135;0.175376;1.007411;2.107124;5.482695
32;10206;160821;361231;811846;0.089952;0.526406;1.098076;2.810103;0.088587;0.511236;1.062340;2.774340
64;10206;160821;361231;811846;0.045059;0.261913;0.549912;1.406564;0.044647;0.256392;0.533465;1.386792
128;10206;160821;361231;811846;0.022848;0.131194;0.281361;0.710819;0.022334;0.130337;0.272734;0.698060
256;10206;160821;361231;811846;0.011854;0.067397;0.143311;0.365050;0.011522;0.065559;0.138687;0.357262
512;10206;160821;361231;811846;0.006515;0.036540;0.077548;0.197760;0.006314;0.035412;0.075532;0.193858
