%!PS-Adobe-2.0 EPSF-2.0
%%Title: /home/betogil/Diagram1.dia
%%Creator: Dia v0.97.3
%%CreationDate: Tue May 24 17:33:28 2016
%%For: betogil
%%Orientation: Portrait
%%Magnification: 1.0000
%%BoundingBox: 0 0 1300 477
%%BeginSetup
%%EndSetup
%%EndComments
%%BeginProlog
[ /.notdef /.notdef /.notdef /.notdef /.notdef /.notdef /.notdef /.notdef /.notdef /.notdef
/.notdef /.notdef /.notdef /.notdef /.notdef /.notdef /.notdef /.notdef /.notdef /.notdef
/.notdef /.notdef /.notdef /.notdef /.notdef /.notdef /.notdef /.notdef /.notdef /.notdef
/.notdef /.notdef /space /exclam /quotedbl /numbersign /dollar /percent /ampersand /quoteright
/parenleft /parenright /asterisk /plus /comma /hyphen /period /slash /zero /one
/two /three /four /five /six /seven /eight /nine /colon /semicolon
/less /equal /greater /question /at /A /B /C /D /E
/F /G /H /I /J /K /L /M /N /O
/P /Q /R /S /T /U /V /W /X /Y
/Z /bracketleft /backslash /bracketright /asciicircum /underscore /quoteleft /a /b /c
/d /e /f /g /h /i /j /k /l /m
/n /o /p /q /r /s /t /u /v /w
/x /y /z /braceleft /bar /braceright /asciitilde /.notdef /.notdef /.notdef
/.notdef /.notdef /.notdef /.notdef /.notdef /.notdef /.notdef /.notdef /.notdef /.notdef
/.notdef /.notdef /.notdef /.notdef /.notdef /.notdef /.notdef /.notdef /.notdef /.notdef
/.notdef /.notdef /.notdef /.notdef /.notdef /.notdef /.notdef /.notdef /.notdef /.notdef
/space /exclamdown /cent /sterling /currency /yen /brokenbar /section /dieresis /copyright
/ordfeminine /guillemotleft /logicalnot /hyphen /registered /macron /degree /plusminus /twosuperior /threesuperior
/acute /mu /paragraph /periodcentered /cedilla /onesuperior /ordmasculine /guillemotright /onequarter /onehalf
/threequarters /questiondown /Agrave /Aacute /Acircumflex /Atilde /Adieresis /Aring /AE /Ccedilla
/Egrave /Eacute /Ecircumflex /Edieresis /Igrave /Iacute /Icircumflex /Idieresis /Eth /Ntilde
/Ograve /Oacute /Ocircumflex /Otilde /Odieresis /multiply /Oslash /Ugrave /Uacute /Ucircumflex
/Udieresis /Yacute /Thorn /germandbls /agrave /aacute /acircumflex /atilde /adieresis /aring
/ae /ccedilla /egrave /eacute /ecircumflex /edieresis /igrave /iacute /icircumflex /idieresis
/eth /ntilde /ograve /oacute /ocircumflex /otilde /odieresis /divide /oslash /ugrave
/uacute /ucircumflex /udieresis /yacute /thorn /ydieresis] /isolatin1encoding exch def
/cp {closepath} bind def
/c {curveto} bind def
/f {fill} bind def
/a {arc} bind def
/ef {eofill} bind def
/ex {exch} bind def
/gr {grestore} bind def
/gs {gsave} bind def
/sa {save} bind def
/rs {restore} bind def
/l {lineto} bind def
/m {moveto} bind def
/rm {rmoveto} bind def
/n {newpath} bind def
/s {stroke} bind def
/sh {show} bind def
/slc {setlinecap} bind def
/slj {setlinejoin} bind def
/slw {setlinewidth} bind def
/srgb {setrgbcolor} bind def
/rot {rotate} bind def
/sc {scale} bind def
/sd {setdash} bind def
/ff {findfont} bind def
/sf {setfont} bind def
/scf {scalefont} bind def
/sw {stringwidth pop} bind def
/tr {translate} bind def

/ellipsedict 8 dict def
ellipsedict /mtrx matrix put
/ellipse
{ ellipsedict begin
   /endangle exch def
   /startangle exch def
   /yrad exch def
   /xrad exch def
   /y exch def
   /x exch def   /savematrix mtrx currentmatrix def
   x y tr xrad yrad sc
   0 0 1 startangle endangle arc
   savematrix setmatrix
   end
} def

/mergeprocs {
dup length
3 -1 roll
dup
length
dup
5 1 roll
3 -1 roll
add
array cvx
dup
3 -1 roll
0 exch
putinterval
dup
4 2 roll
putinterval
} bind def
/Times-Roman-latin1
    /Times-Roman findfont
    dup length dict begin
	{1 index /FID ne {def} {pop pop} ifelse} forall
	/Encoding isolatin1encoding def
    currentdict end
definefont pop
/Times-Italic-latin1
    /Times-Italic findfont
    dup length dict begin
	{1 index /FID ne {def} {pop pop} ifelse} forall
	/Encoding isolatin1encoding def
    currentdict end
definefont pop
/Times-Bold-latin1
    /Times-Bold findfont
    dup length dict begin
	{1 index /FID ne {def} {pop pop} ifelse} forall
	/Encoding isolatin1encoding def
    currentdict end
definefont pop
/Times-BoldItalic-latin1
    /Times-BoldItalic findfont
    dup length dict begin
	{1 index /FID ne {def} {pop pop} ifelse} forall
	/Encoding isolatin1encoding def
    currentdict end
definefont pop
/AvantGarde-Gothic-latin1
    /AvantGarde-Gothic findfont
    dup length dict begin
	{1 index /FID ne {def} {pop pop} ifelse} forall
	/Encoding isolatin1encoding def
    currentdict end
definefont pop
/AvantGarde-BookOblique-latin1
    /AvantGarde-BookOblique findfont
    dup length dict begin
	{1 index /FID ne {def} {pop pop} ifelse} forall
	/Encoding isolatin1encoding def
    currentdict end
definefont pop
/AvantGarde-Demi-latin1
    /AvantGarde-Demi findfont
    dup length dict begin
	{1 index /FID ne {def} {pop pop} ifelse} forall
	/Encoding isolatin1encoding def
    currentdict end
definefont pop
/AvantGarde-DemiOblique-latin1
    /AvantGarde-DemiOblique findfont
    dup length dict begin
	{1 index /FID ne {def} {pop pop} ifelse} forall
	/Encoding isolatin1encoding def
    currentdict end
definefont pop
/Bookman-Light-latin1
    /Bookman-Light findfont
    dup length dict begin
	{1 index /FID ne {def} {pop pop} ifelse} forall
	/Encoding isolatin1encoding def
    currentdict end
definefont pop
/Bookman-LightItalic-latin1
    /Bookman-LightItalic findfont
    dup length dict begin
	{1 index /FID ne {def} {pop pop} ifelse} forall
	/Encoding isolatin1encoding def
    currentdict end
definefont pop
/Bookman-Demi-latin1
    /Bookman-Demi findfont
    dup length dict begin
	{1 index /FID ne {def} {pop pop} ifelse} forall
	/Encoding isolatin1encoding def
    currentdict end
definefont pop
/Bookman-DemiItalic-latin1
    /Bookman-DemiItalic findfont
    dup length dict begin
	{1 index /FID ne {def} {pop pop} ifelse} forall
	/Encoding isolatin1encoding def
    currentdict end
definefont pop
/Courier-latin1
    /Courier findfont
    dup length dict begin
	{1 index /FID ne {def} {pop pop} ifelse} forall
	/Encoding isolatin1encoding def
    currentdict end
definefont pop
/Courier-Oblique-latin1
    /Courier-Oblique findfont
    dup length dict begin
	{1 index /FID ne {def} {pop pop} ifelse} forall
	/Encoding isolatin1encoding def
    currentdict end
definefont pop
/Courier-Bold-latin1
    /Courier-Bold findfont
    dup length dict begin
	{1 index /FID ne {def} {pop pop} ifelse} forall
	/Encoding isolatin1encoding def
    currentdict end
definefont pop
/Courier-BoldOblique-latin1
    /Courier-BoldOblique findfont
    dup length dict begin
	{1 index /FID ne {def} {pop pop} ifelse} forall
	/Encoding isolatin1encoding def
    currentdict end
definefont pop
/Helvetica-latin1
    /Helvetica findfont
    dup length dict begin
	{1 index /FID ne {def} {pop pop} ifelse} forall
	/Encoding isolatin1encoding def
    currentdict end
definefont pop
/Helvetica-Oblique-latin1
    /Helvetica-Oblique findfont
    dup length dict begin
	{1 index /FID ne {def} {pop pop} ifelse} forall
	/Encoding isolatin1encoding def
    currentdict end
definefont pop
/Helvetica-Bold-latin1
    /Helvetica-Bold findfont
    dup length dict begin
	{1 index /FID ne {def} {pop pop} ifelse} forall
	/Encoding isolatin1encoding def
    currentdict end
definefont pop
/Helvetica-BoldOblique-latin1
    /Helvetica-BoldOblique findfont
    dup length dict begin
	{1 index /FID ne {def} {pop pop} ifelse} forall
	/Encoding isolatin1encoding def
    currentdict end
definefont pop
/Helvetica-Narrow-latin1
    /Helvetica-Narrow findfont
    dup length dict begin
	{1 index /FID ne {def} {pop pop} ifelse} forall
	/Encoding isolatin1encoding def
    currentdict end
definefont pop
/Helvetica-Narrow-Oblique-latin1
    /Helvetica-Narrow-Oblique findfont
    dup length dict begin
	{1 index /FID ne {def} {pop pop} ifelse} forall
	/Encoding isolatin1encoding def
    currentdict end
definefont pop
/Helvetica-Narrow-Bold-latin1
    /Helvetica-Narrow-Bold findfont
    dup length dict begin
	{1 index /FID ne {def} {pop pop} ifelse} forall
	/Encoding isolatin1encoding def
    currentdict end
definefont pop
/Helvetica-Narrow-BoldOblique-latin1
    /Helvetica-Narrow-BoldOblique findfont
    dup length dict begin
	{1 index /FID ne {def} {pop pop} ifelse} forall
	/Encoding isolatin1encoding def
    currentdict end
definefont pop
/NewCenturySchlbk-Roman-latin1
    /NewCenturySchlbk-Roman findfont
    dup length dict begin
	{1 index /FID ne {def} {pop pop} ifelse} forall
	/Encoding isolatin1encoding def
    currentdict end
definefont pop
/NewCenturySchlbk-Italic-latin1
    /NewCenturySchlbk-Italic findfont
    dup length dict begin
	{1 index /FID ne {def} {pop pop} ifelse} forall
	/Encoding isolatin1encoding def
    currentdict end
definefont pop
/NewCenturySchlbk-Bold-latin1
    /NewCenturySchlbk-Bold findfont
    dup length dict begin
	{1 index /FID ne {def} {pop pop} ifelse} forall
	/Encoding isolatin1encoding def
    currentdict end
definefont pop
/NewCenturySchlbk-BoldItalic-latin1
    /NewCenturySchlbk-BoldItalic findfont
    dup length dict begin
	{1 index /FID ne {def} {pop pop} ifelse} forall
	/Encoding isolatin1encoding def
    currentdict end
definefont pop
/Palatino-Roman-latin1
    /Palatino-Roman findfont
    dup length dict begin
	{1 index /FID ne {def} {pop pop} ifelse} forall
	/Encoding isolatin1encoding def
    currentdict end
definefont pop
/Palatino-Italic-latin1
    /Palatino-Italic findfont
    dup length dict begin
	{1 index /FID ne {def} {pop pop} ifelse} forall
	/Encoding isolatin1encoding def
    currentdict end
definefont pop
/Palatino-Bold-latin1
    /Palatino-Bold findfont
    dup length dict begin
	{1 index /FID ne {def} {pop pop} ifelse} forall
	/Encoding isolatin1encoding def
    currentdict end
definefont pop
/Palatino-BoldItalic-latin1
    /Palatino-BoldItalic findfont
    dup length dict begin
	{1 index /FID ne {def} {pop pop} ifelse} forall
	/Encoding isolatin1encoding def
    currentdict end
definefont pop
/Symbol-latin1
    /Symbol findfont
definefont pop
/ZapfChancery-MediumItalic-latin1
    /ZapfChancery-MediumItalic findfont
    dup length dict begin
	{1 index /FID ne {def} {pop pop} ifelse} forall
	/Encoding isolatin1encoding def
    currentdict end
definefont pop
/ZapfDingbats-latin1
    /ZapfDingbats findfont
    dup length dict begin
	{1 index /FID ne {def} {pop pop} ifelse} forall
	/Encoding isolatin1encoding def
    currentdict end
definefont pop
28.346000 -28.346000 scale
-12.220000 -22.615000 translate
%%EndProlog


0.100000 slw
[] 0 sd
1.000000 1.000000 1.000000 srgb
n 30.950000 5.850000 m 30.950000 7.250000 l 45.695000 7.250000 l 45.695000 5.850000 l f
0.000000 0.000000 0.000000 srgb
n 30.950000 5.850000 m 30.950000 7.250000 l 45.695000 7.250000 l 45.695000 5.850000 l cp s
/Helvetica-Bold-latin1 ff 0.700000 scf sf
(Solver) dup sw 2 div 38.322500 ex sub 6.600000 m
 gs 1 -1 sc sh gr
1.000000 1.000000 1.000000 srgb
n 30.950000 7.250000 m 30.950000 17.050000 l 45.695000 17.050000 l 45.695000 7.250000 l f
0.000000 0.000000 0.000000 srgb
n 30.950000 7.250000 m 30.950000 17.050000 l 45.695000 17.050000 l 45.695000 7.250000 l cp s
/Courier-latin1 ff 0.560000 scf sf
(#TheoSolu: TheoreticalSolution_S) 31.100000 7.790000 m
 gs 1 -1 sc sh gr
(#SolvParam: SolverParam_S) 31.100000 8.590000 m
 gs 1 -1 sc sh gr
(#GlobalModel: Model) 31.100000 9.390000 m
 gs 1 -1 sc sh gr
(#PartitionModel: Model) 31.100000 10.190000 m
 gs 1 -1 sc sh gr
(#PartitionInformations: PartitionData) 31.100000 10.990000 m
 gs 1 -1 sc sh gr
(#MassMatrix: SymmetricSparse) 31.100000 11.790000 m
 gs 1 -1 sc sh gr
(#PatchMeas: Vector) 31.100000 12.590000 m
 gs 1 -1 sc sh gr
(#U: OneIndexTable<double>) 31.100000 13.390000 m
 gs 1 -1 sc sh gr
(#Displacement: Vector) 31.100000 14.190000 m
 gs 1 -1 sc sh gr
(#F: OneIndexTable<double>) 31.100000 14.990000 m
 gs 1 -1 sc sh gr
(#Load: Vector) 31.100000 15.790000 m
 gs 1 -1 sc sh gr
(#ErrorNorm: Matrix) 31.100000 16.590000 m
 gs 1 -1 sc sh gr
1.000000 1.000000 1.000000 srgb
n 30.950000 17.050000 m 30.950000 17.450000 l 45.695000 17.450000 l 45.695000 17.050000 l f
0.000000 0.000000 0.000000 srgb
n 30.950000 17.050000 m 30.950000 17.450000 l 45.695000 17.450000 l 45.695000 17.050000 l cp s
0.100000 slw
[] 0 sd
1.000000 1.000000 1.000000 srgb
n 12.270000 7.450000 m 12.270000 8.850000 l 28.555000 8.850000 l 28.555000 7.450000 l f
0.000000 0.000000 0.000000 srgb
n 12.270000 7.450000 m 12.270000 8.850000 l 28.555000 8.850000 l 28.555000 7.450000 l cp s
/Helvetica-Bold-latin1 ff 0.700000 scf sf
(PartitionData) dup sw 2 div 20.412500 ex sub 8.200000 m
 gs 1 -1 sc sh gr
1.000000 1.000000 1.000000 srgb
n 12.270000 8.850000 m 12.270000 15.450000 l 28.555000 15.450000 l 28.555000 8.850000 l f
0.000000 0.000000 0.000000 srgb
n 12.270000 8.850000 m 12.270000 15.450000 l 28.555000 15.450000 l 28.555000 8.850000 l cp s
/Courier-latin1 ff 0.560000 scf sf
(+ID: long) 12.420000 9.390000 m
 gs 1 -1 sc sh gr
(+PartitionColorsMap: BuiltInArray<long>) 12.420000 10.190000 m
 gs 1 -1 sc sh gr
(+LocalElements: BuiltInArray<long>) 12.420000 10.990000 m
 gs 1 -1 sc sh gr
(+BoundaryElements: BuiltInArray<long>) 12.420000 11.790000 m
 gs 1 -1 sc sh gr
(+Neighbors: BuiltInArray<long>) 12.420000 12.590000 m
 gs 1 -1 sc sh gr
(+BoundaryIndicesRecv: OneIndexTable<long>) 12.420000 13.390000 m
 gs 1 -1 sc sh gr
(+BoundaryIndicesSend: OneIndexTable<long>) 12.420000 14.190000 m
 gs 1 -1 sc sh gr
(+NeighborsInfo: OneIndexTable<long>) 12.420000 14.990000 m
 gs 1 -1 sc sh gr
1.000000 1.000000 1.000000 srgb
n 12.270000 15.450000 m 12.270000 15.850000 l 28.555000 15.850000 l 28.555000 15.450000 l f
0.000000 0.000000 0.000000 srgb
n 12.270000 15.450000 m 12.270000 15.850000 l 28.555000 15.850000 l 28.555000 15.450000 l cp s
0.100000 slw
[] 0 sd
1.000000 1.000000 1.000000 srgb
n 27.840000 20.010000 m 27.840000 21.410000 l 34.070000 21.410000 l 34.070000 20.010000 l f
0.000000 0.000000 0.000000 srgb
n 27.840000 20.010000 m 27.840000 21.410000 l 34.070000 21.410000 l 34.070000 20.010000 l cp s
/Helvetica-Bold-latin1 ff 0.700000 scf sf
(GlobalSolver) dup sw 2 div 30.955000 ex sub 20.760000 m
 gs 1 -1 sc sh gr
1.000000 1.000000 1.000000 srgb
n 27.840000 21.410000 m 27.840000 21.810000 l 34.070000 21.810000 l 34.070000 21.410000 l f
0.000000 0.000000 0.000000 srgb
n 27.840000 21.410000 m 27.840000 21.810000 l 34.070000 21.810000 l 34.070000 21.410000 l cp s
1.000000 1.000000 1.000000 srgb
n 27.840000 21.810000 m 27.840000 22.210000 l 34.070000 22.210000 l 34.070000 21.810000 l f
0.000000 0.000000 0.000000 srgb
n 27.840000 21.810000 m 27.840000 22.210000 l 34.070000 22.210000 l 34.070000 21.810000 l cp s
0.100000 slw
[] 0 sd
1.000000 1.000000 1.000000 srgb
n 40.310000 20.365000 m 40.310000 21.765000 l 51.055000 21.765000 l 51.055000 20.365000 l f
0.000000 0.000000 0.000000 srgb
n 40.310000 20.365000 m 40.310000 21.765000 l 51.055000 21.765000 l 51.055000 20.365000 l cp s
/Helvetica-Bold-latin1 ff 0.700000 scf sf
(ElementElementSolver) dup sw 2 div 45.682500 ex sub 21.115000 m
 gs 1 -1 sc sh gr
1.000000 1.000000 1.000000 srgb
n 40.310000 21.765000 m 40.310000 22.165000 l 51.055000 22.165000 l 51.055000 21.765000 l f
0.000000 0.000000 0.000000 srgb
n 40.310000 21.765000 m 40.310000 22.165000 l 51.055000 22.165000 l 51.055000 21.765000 l cp s
1.000000 1.000000 1.000000 srgb
n 40.310000 22.165000 m 40.310000 22.565000 l 51.055000 22.565000 l 51.055000 22.165000 l f
0.000000 0.000000 0.000000 srgb
n 40.310000 22.165000 m 40.310000 22.565000 l 51.055000 22.565000 l 51.055000 22.165000 l cp s
0.100000 slw
[] 0 sd
1.000000 1.000000 1.000000 srgb
n 48.620000 9.438750 m 48.620000 11.638750 l 58.010000 11.638750 l 58.010000 9.438750 l f
0.000000 0.000000 0.000000 srgb
n 48.620000 9.438750 m 48.620000 11.638750 l 58.010000 11.638750 l 58.010000 9.438750 l cp s
/Courier-latin1 ff 0.560000 scf sf
(<<Struct>>) dup sw 2 div 53.315000 ex sub 10.078750 m
 gs 1 -1 sc sh gr
/Helvetica-Bold-latin1 ff 0.700000 scf sf
(TheoricalSolution_S) dup sw 2 div 53.315000 ex sub 10.988750 m
 gs 1 -1 sc sh gr
1.000000 1.000000 1.000000 srgb
n 48.620000 11.638750 m 48.620000 12.038750 l 58.010000 12.038750 l 58.010000 11.638750 l f
0.000000 0.000000 0.000000 srgb
n 48.620000 11.638750 m 48.620000 12.038750 l 58.010000 12.038750 l 58.010000 11.638750 l cp s
1.000000 1.000000 1.000000 srgb
n 48.620000 12.038750 m 48.620000 12.438750 l 58.010000 12.438750 l 58.010000 12.038750 l f
0.000000 0.000000 0.000000 srgb
n 48.620000 12.038750 m 48.620000 12.438750 l 58.010000 12.438750 l 58.010000 12.038750 l cp s
0.100000 slw
[] 0 sd
1.000000 1.000000 1.000000 srgb
n 48.820000 13.452500 m 48.820000 15.652500 l 56.027500 15.652500 l 56.027500 13.452500 l f
0.000000 0.000000 0.000000 srgb
n 48.820000 13.452500 m 48.820000 15.652500 l 56.027500 15.652500 l 56.027500 13.452500 l cp s
/Courier-latin1 ff 0.560000 scf sf
(<<Struct>>) dup sw 2 div 52.423750 ex sub 14.092500 m
 gs 1 -1 sc sh gr
/Helvetica-Bold-latin1 ff 0.700000 scf sf
(SolverParam_S) dup sw 2 div 52.423750 ex sub 15.002500 m
 gs 1 -1 sc sh gr
1.000000 1.000000 1.000000 srgb
n 48.820000 15.652500 m 48.820000 16.052500 l 56.027500 16.052500 l 56.027500 15.652500 l f
0.000000 0.000000 0.000000 srgb
n 48.820000 15.652500 m 48.820000 16.052500 l 56.027500 16.052500 l 56.027500 15.652500 l cp s
1.000000 1.000000 1.000000 srgb
n 48.820000 16.052500 m 48.820000 16.452500 l 56.027500 16.452500 l 56.027500 16.052500 l f
0.000000 0.000000 0.000000 srgb
n 48.820000 16.052500 m 48.820000 16.452500 l 56.027500 16.452500 l 56.027500 16.052500 l cp s
0.100000 slw
[] 0 sd
0 slj
0 slc
n 45.695000 18.361803 m 45.695000 19.282360 l 45.682500 19.282360 l 45.682500 20.314798 l s
0 slj
1.000000 1.000000 1.000000 srgb
n 46.095000 18.361803 m 45.695000 17.561803 l 45.295000 18.361803 l ef
0.100000 slw
[] 0 sd
0 slj
0.000000 0.000000 0.000000 srgb
n 46.095000 18.361803 m 45.695000 17.561803 l 45.295000 18.361803 l cp s
/Courier-latin1 ff 0.560000 scf sf
0.100000 slw
[] 0 sd
0 slj
0 slc
n 46.953579 10.950000 m 47.482355 10.950000 l 47.482355 10.938750 l 48.569710 10.938750 l s
[] 0 sd
0 slj
0 slc
1.000000 1.000000 1.000000 srgb
n 45.695000 10.950000 m 46.395000 10.710000 l 47.095000 10.950000 l 46.395000 11.190000 l ef
0.100000 slw
[] 0 sd
0 slj
0 slc
0.000000 0.000000 0.000000 srgb
n 45.695000 10.950000 m 46.395000 10.710000 l 47.095000 10.950000 l 46.395000 11.190000 l cp s
/Courier-latin1 ff 0.560000 scf sf
0.100000 slw
[] 0 sd
0 slj
0 slc
n 46.953579 14.950000 m 47.582277 14.950000 l 47.582277 14.952500 l 48.769554 14.952500 l s
[] 0 sd
0 slj
0 slc
1.000000 1.000000 1.000000 srgb
n 45.695000 14.950000 m 46.395000 14.710000 l 47.095000 14.950000 l 46.395000 15.190000 l ef
0.100000 slw
[] 0 sd
0 slj
0 slc
0.000000 0.000000 0.000000 srgb
n 45.695000 14.950000 m 46.395000 14.710000 l 47.095000 14.950000 l 46.395000 15.190000 l cp s
0.100000 slw
[] 0 sd
0 slj
0 slc
n 30.950000 18.361803 m 30.950000 19.287360 l 30.955000 19.287360 l 30.955000 20.010000 l s
0 slj
1.000000 1.000000 1.000000 srgb
n 31.350000 18.361803 m 30.950000 17.561803 l 30.550000 18.361803 l ef
0.100000 slw
[] 0 sd
0 slj
0.000000 0.000000 0.000000 srgb
n 31.350000 18.361803 m 30.950000 17.561803 l 30.550000 18.361803 l cp s
/Courier-latin1 ff 0.560000 scf sf
0.100000 slw
[] 0 sd
0 slj
0 slc
n 29.691421 11.750000 m 30.200000 11.750000 l 28.605000 11.750000 l 28.555000 11.750000 l s
[] 0 sd
0 slj
0 slc
1.000000 1.000000 1.000000 srgb
n 30.950000 11.750000 m 30.250000 11.990000 l 29.550000 11.750000 l 30.250000 11.510000 l ef
0.100000 slw
[] 0 sd
0 slj
0 slc
0.000000 0.000000 0.000000 srgb
n 30.950000 11.750000 m 30.250000 11.990000 l 29.550000 11.750000 l 30.250000 11.510000 l cp s
/Courier-latin1 ff 0.560000 scf sf
showpage
