\relax 
\providecommand\hyper@newdestlabel[2]{}
\providecommand\zref@newlabel[2]{}
\providecommand\HyperFirstAtBeginDocument{\AtBeginDocument}
\HyperFirstAtBeginDocument{\ifx\hyper@anchor\@undefined
\global\let\oldcontentsline\contentsline
\gdef\contentsline#1#2#3#4{\oldcontentsline{#1}{#2}{#3}}
\global\let\oldnewlabel\newlabel
\gdef\newlabel#1#2{\newlabelxx{#1}#2}
\gdef\newlabelxx#1#2#3#4#5#6{\oldnewlabel{#1}{{#2}{#3}}}
\AtEndDocument{\ifx\hyper@anchor\@undefined
\let\contentsline\oldcontentsline
\let\newlabel\oldnewlabel
\fi}
\fi}
\global\let\hyper@last\relax 
\gdef\HyperFirstAtBeginDocument#1{#1}
\providecommand\HyField@AuxAddToFields[1]{}
\providecommand\HyField@AuxAddToCoFields[2]{}
\providecommand\pbs@newkey[2]{}
\providecommand\pbs@seq@push@cx[2]{}
\providecommand\pbs@at@end@dvi@check{}
\pbs@at@end@dvi@check
\providecommand\@anim@newkey[2]{}
\pbs@newkey{pbs@last@page}{1}
\pgfsyspdfmark {pgfid2}{0}{0}
\providecommand \oddpage@label [2]{}
\@writefile{nav}{\headcommand {\slideentry {0}{0}{1}{1/1}{}{0}}}
\@writefile{nav}{\headcommand {\beamer@framepages {1}{1}}}
\pbs@newkey{pbs@last@page}{2}
\pgfsyspdfmark {pgfid3}{23867546}{0}
\@writefile{nav}{\headcommand {\slideentry {0}{0}{2}{2/2}{}{0}}}
\@writefile{nav}{\headcommand {\beamer@framepages {2}{2}}}
\pbs@newkey{pbs@last@page}{3}
\pgfsyspdfmark {pgfid5}{23867546}{0}
\@writefile{toc}{\beamer@sectionintoc {1}{Introduction and Motivation}{3}{0}{1}}
\@writefile{nav}{\headcommand {\beamer@sectionpages {1}{2}}}
\@writefile{nav}{\headcommand {\beamer@subsectionpages {1}{2}}}
\@writefile{nav}{\headcommand {\sectionentry {1}{Introduction and Motivation}{3}{Introduction and Motivation}{0}}}
\pgfsyspdfmark {pgfid4}{0}{14324903}
\@writefile{nav}{\headcommand {\slideentry {1}{0}{1}{3/3}{}{0}}}
\@writefile{nav}{\headcommand {\beamer@framepages {3}{3}}}
\pbs@newkey{pbs@last@page}{4}
\pgfsyspdfmark {pgfid11}{23867546}{0}
\pgfsyspdfmark {pgfid10}{0}{14324903}
\pgfsyspdfmark {pgfid6}{1864679}{12983317}
\providecommand*\caption@xref[2]{\@setref\relax\@undefined{#1}}
\newlabel{fig:high_order1}{{\caption@xref {fig:high_order1}{ on input line 378}}{4}{Introduction and Motivation}{Doc-Start}{}}
\@writefile{snm}{\beamer@slide {fig:high_order1}{4}}
\pbs@newkey{pbs@last@page}{5}
\pgfsyspdfmark {pgfid17}{23867546}{0}
\pgfsyspdfmark {pgfid16}{0}{14324903}
\pgfsyspdfmark {pgfid12}{1864679}{12983317}
\pbs@newkey{pbs@last@page}{6}
\pgfsyspdfmark {pgfid26}{23867546}{0}
\pgfsyspdfmark {pgfid25}{0}{14324903}
\pgfsyspdfmark {pgfid18}{1864679}{14186548}
\pgfsyspdfmark {pgfid22}{17639065}{3205518}
\pbs@newkey{pbs@last@page}{7}
\pgfsyspdfmark {pgfid35}{23867546}{0}
\pgfsyspdfmark {pgfid34}{0}{14324903}
\pgfsyspdfmark {pgfid27}{1864679}{14186548}
\pgfsyspdfmark {pgfid31}{17639065}{3205518}
\pbs@newkey{pbs@last@page}{8}
\pgfsyspdfmark {pgfid44}{23867546}{0}
\pgfsyspdfmark {pgfid43}{0}{14324903}
\pgfsyspdfmark {pgfid36}{1864679}{14186548}
\@writefile{nav}{\headcommand {\slideentry {1}{0}{2}{4/8}{}{0}}}
\@writefile{nav}{\headcommand {\beamer@framepages {4}{8}}}
\pgfsyspdfmark {pgfid40}{17639065}{3205518}
\pbs@newkey{pbs@last@page}{9}
\pgfsyspdfmark {pgfid55}{23867546}{0}
\@writefile{toc}{\beamer@sectionintoc {2}{Thesis Contributions}{9}{0}{2}}
\@writefile{nav}{\headcommand {\beamer@sectionpages {3}{8}}}
\@writefile{nav}{\headcommand {\beamer@subsectionpages {3}{8}}}
\@writefile{nav}{\headcommand {\sectionentry {2}{Thesis Contributions}{9}{Thesis Contributions}{0}}}
\pgfsyspdfmark {pgfid54}{0}{14324903}
\@writefile{nav}{\headcommand {\slideentry {2}{0}{1}{9/9}{}{0}}}
\@writefile{nav}{\headcommand {\beamer@framepages {9}{9}}}
\pbs@newkey{pbs@last@page}{10}
\pgfsyspdfmark {pgfid58}{23867546}{0}
\@writefile{toc}{\beamer@sectionintoc {3}{Goals}{10}{0}{3}}
\@writefile{nav}{\headcommand {\beamer@sectionpages {9}{9}}}
\@writefile{nav}{\headcommand {\beamer@subsectionpages {9}{9}}}
\@writefile{nav}{\headcommand {\sectionentry {3}{Goals}{10}{Goals}{0}}}
\pgfsyspdfmark {pgfid57}{0}{14324903}
\pgfsyspdfmark {pgfid56}{11933954}{7617764}
\@writefile{nav}{\headcommand {\slideentry {3}{0}{1}{10/10}{}{0}}}
\@writefile{nav}{\headcommand {\beamer@framepages {10}{10}}}
\pbs@newkey{pbs@last@page}{11}
\pgfsyspdfmark {pgfid65}{23867546}{0}
\@writefile{toc}{\beamer@sectionintoc {4}{Methodology}{11}{0}{4}}
\@writefile{nav}{\headcommand {\beamer@sectionpages {10}{10}}}
\@writefile{nav}{\headcommand {\beamer@subsectionpages {10}{10}}}
\@writefile{nav}{\headcommand {\sectionentry {4}{Methodology}{11}{Methodology}{0}}}
\@writefile{toc}{\beamer@subsectionintoc {4}{1}{HO-FEM}{11}{0}{4}}
\@writefile{nav}{\headcommand {\beamer@subsectionpages {11}{10}}}
\@writefile{nav}{\headcommand {\beamer@subsectionentry {0}{4}{1}{11}{HO-FEM}}}
\pgfsyspdfmark {pgfid64}{0}{14197473}
\@writefile{nav}{\headcommand {\slideentry {4}{1}{1}{11/11}{HO-FEM}{0}}}
\@writefile{nav}{\headcommand {\beamer@framepages {11}{11}}}
\pbs@newkey{pbs@last@page}{12}
\pgfsyspdfmark {pgfid67}{23867546}{0}
\pgfsyspdfmark {pgfid66}{0}{14197473}
\@writefile{nav}{\headcommand {\slideentry {4}{1}{2}{12/12}{HO-FEM}{0}}}
\@writefile{nav}{\headcommand {\beamer@framepages {12}{12}}}
\pbs@newkey{pbs@last@page}{13}
\pgfsyspdfmark {pgfid71}{23867546}{0}
\@writefile{toc}{\beamer@subsectionintoc {4}{2}{{$(hp)^2$FEM}}{13}{0}{4}}
\@writefile{nav}{\headcommand {\beamer@subsectionpages {11}{12}}}
\@writefile{nav}{\headcommand {\beamer@subsectionentry {0}{4}{2}{13}{{$(hp)^2$FEM}}}}
\pgfsyspdfmark {pgfid70}{0}{14197473}
\@writefile{nav}{\headcommand {\slideentry {4}{2}{1}{13/13}{{$(hp)^2$FEM}}{0}}}
\@writefile{nav}{\headcommand {\beamer@framepages {13}{13}}}
\pbs@newkey{pbs@last@page}{14}
\pgfsyspdfmark {pgfid79}{23867546}{0}
\pgfsyspdfmark {pgfid78}{0}{14197473}
\@writefile{nav}{\headcommand {\slideentry {4}{2}{2}{14/14}{{$(hp)^2$FEM}}{0}}}
\@writefile{nav}{\headcommand {\beamer@framepages {14}{14}}}
\pbs@newkey{pbs@last@page}{15}
\pgfsyspdfmark {pgfid86}{23867546}{0}
\pgfsyspdfmark {pgfid85}{0}{14197473}
\pgfsyspdfmark {pgfid80}{1243120}{8929448}
\pgfsyspdfmark {pgfid81}{4500216}{11540003}
\@writefile{nav}{\headcommand {\slideentry {4}{2}{3}{15/15}{{$(hp)^2$FEM}}{0}}}
\@writefile{nav}{\headcommand {\beamer@framepages {15}{15}}}
\pbs@newkey{pbs@last@page}{16}
\pgfsyspdfmark {pgfid95}{23867546}{0}
\pgfsyspdfmark {pgfid94}{0}{14197473}
\pgfsyspdfmark {pgfid87}{1243120}{8929448}
\@writefile{nav}{\headcommand {\slideentry {4}{2}{4}{16/16}{{$(hp)^2$FEM}}{0}}}
\@writefile{nav}{\headcommand {\beamer@framepages {16}{16}}}
\pbs@newkey{pbs@last@page}{17}
\pgfsyspdfmark {pgfid98}{23867546}{0}
\pgfsyspdfmark {pgfid97}{0}{14197473}
\pgfsyspdfmark {pgfid96}{1243120}{8929448}
\@writefile{nav}{\headcommand {\slideentry {4}{2}{5}{17/17}{{$(hp)^2$FEM}}{0}}}
\@writefile{nav}{\headcommand {\beamer@framepages {17}{17}}}
\pbs@newkey{pbs@last@page}{18}
\pgfsyspdfmark {pgfid106}{23867546}{0}
\@writefile{toc}{\beamer@subsectionintoc {4}{3}{High Performance Computing tools}{18}{0}{4}}
\@writefile{nav}{\headcommand {\beamer@subsectionpages {13}{17}}}
\@writefile{nav}{\headcommand {\beamer@subsectionentry {0}{4}{3}{18}{High Performance Computing tools}}}
\pgfsyspdfmark {pgfid105}{0}{14197473}
\pgfsyspdfmark {pgfid101}{11933953}{8122588}
\pbs@newkey{pbs@last@page}{19}
\pgfsyspdfmark {pgfid114}{23867546}{0}
\pgfsyspdfmark {pgfid113}{0}{14197473}
\pgfsyspdfmark {pgfid109}{11933953}{8122588}
\pbs@newkey{pbs@last@page}{20}
\pgfsyspdfmark {pgfid122}{23867546}{0}
\pgfsyspdfmark {pgfid121}{0}{14197473}
\pgfsyspdfmark {pgfid117}{11933953}{8122588}
\@writefile{nav}{\headcommand {\slideentry {4}{3}{1}{18/20}{High Performance Computing tools}{0}}}
\@writefile{nav}{\headcommand {\beamer@framepages {18}{20}}}
\pbs@newkey{pbs@last@page}{21}
\pgfsyspdfmark {pgfid129}{23867546}{0}
\pgfsyspdfmark {pgfid128}{0}{14197473}
\pbs@newkey{pbs@last@page}{22}
\pgfsyspdfmark {pgfid136}{23867546}{0}
\pgfsyspdfmark {pgfid135}{0}{14197473}
\@writefile{nav}{\headcommand {\slideentry {4}{3}{2}{21/22}{High Performance Computing tools}{0}}}
\@writefile{nav}{\headcommand {\beamer@framepages {21}{22}}}
\pbs@newkey{pbs@last@page}{23}
\pgfsyspdfmark {pgfid140}{23867546}{0}
\pgfsyspdfmark {pgfid139}{0}{14197473}
\@writefile{nav}{\headcommand {\slideentry {4}{3}{3}{23/23}{High Performance Computing tools}{0}}}
\@writefile{nav}{\headcommand {\beamer@framepages {23}{23}}}
\pbs@newkey{pbs@last@page}{24}
\pgfsyspdfmark {pgfid143}{23867546}{0}
\@writefile{toc}{\beamer@sectionintoc {5}{Parallel {$(hp)^2$FEM}\ Version}{24}{0}{5}}
\@writefile{nav}{\headcommand {\beamer@sectionpages {11}{23}}}
\@writefile{nav}{\headcommand {\beamer@subsectionpages {18}{23}}}
\@writefile{nav}{\headcommand {\sectionentry {5}{Parallel {$(hp)^2$FEM}\ Version}{24}{Parallel {$(hp)^2$FEM}\ Version}{0}}}
\pgfsyspdfmark {pgfid142}{0}{14161063}
\pgfsyspdfmark {pgfid141}{6}{12129745}
\pbs@newkey{pbs@last@page}{25}
\pgfsyspdfmark {pgfid149}{23867546}{0}
\pgfsyspdfmark {pgfid148}{0}{14161063}
\pgfsyspdfmark {pgfid144}{6}{-2031318}
\pgfsyspdfmark {pgfid145}{11933954}{-1499420}
\@writefile{nav}{\headcommand {\slideentry {5}{0}{1}{24/25}{}{0}}}
\@writefile{nav}{\headcommand {\beamer@framepages {24}{25}}}
\pbs@newkey{pbs@last@page}{26}
\pgfsyspdfmark {pgfid153}{23867546}{0}
\pgfsyspdfmark {pgfid152}{0}{14161063}
\@writefile{nav}{\headcommand {\slideentry {5}{0}{2}{26/26}{}{0}}}
\@writefile{nav}{\headcommand {\beamer@framepages {26}{26}}}
\pbs@newkey{pbs@last@page}{27}
\pgfsyspdfmark {pgfid161}{23867546}{0}
\pgfsyspdfmark {pgfid160}{0}{14161063}
\@writefile{nav}{\headcommand {\slideentry {5}{0}{3}{27/27}{}{0}}}
\@writefile{nav}{\headcommand {\beamer@framepages {27}{27}}}
\pgfsyspdfmark {pgfid156}{-12120418}{9882809}
\pgfsyspdfmark {pgfid157}{9136919}{8950469}
\pbs@newkey{pbs@last@page}{28}
\pgfsyspdfmark {pgfid167}{23867546}{0}
\pgfsyspdfmark {pgfid166}{0}{14161063}
\pgfsyspdfmark {pgfid165}{1864679}{9262972}
\@writefile{nav}{\headcommand {\slideentry {5}{0}{4}{28/28}{}{0}}}
\@writefile{nav}{\headcommand {\beamer@framepages {28}{28}}}
\pgfsyspdfmark {pgfid164}{4661699}{16036258}
\pbs@newkey{pbs@last@page}{29}
\pgfsyspdfmark {pgfid172}{23867546}{0}
\pgfsyspdfmark {pgfid171}{0}{14161063}
\@writefile{nav}{\headcommand {\slideentry {5}{0}{5}{29/29}{}{0}}}
\@writefile{nav}{\headcommand {\beamer@framepages {29}{29}}}
\pgfsyspdfmark {pgfid170}{-4288769}{12679828}
\pbs@newkey{pbs@last@page}{30}
\pgfsyspdfmark {pgfid176}{23867546}{0}
\pgfsyspdfmark {pgfid175}{0}{14161063}
\newlabel{my-label}{{\caption@xref {my-label}{ on input line 1209}}{30}{Parallel \hpfem \ Version}{Doc-Start}{}}
\@writefile{snm}{\beamer@slide {my-label}{30}}
\@writefile{nav}{\headcommand {\slideentry {5}{0}{6}{30/30}{}{0}}}
\@writefile{nav}{\headcommand {\beamer@framepages {30}{30}}}
\pbs@newkey{pbs@last@page}{31}
\pgfsyspdfmark {pgfid178}{23867546}{0}
\pgfsyspdfmark {pgfid177}{0}{14161063}
\@writefile{nav}{\headcommand {\slideentry {5}{0}{7}{31/31}{}{0}}}
\@writefile{nav}{\headcommand {\beamer@framepages {31}{31}}}
\pbs@newkey{pbs@last@page}{32}
\pgfsyspdfmark {pgfid188}{23867546}{0}
\pgfsyspdfmark {pgfid187}{0}{14161063}
\pgfsyspdfmark {pgfid179}{1864679}{8728198}
\pgfsyspdfmark {pgfid183}{1864679}{8728198}
\@writefile{nav}{\headcommand {\slideentry {5}{0}{8}{32/32}{}{0}}}
\@writefile{nav}{\headcommand {\beamer@framepages {32}{32}}}
\pbs@newkey{pbs@last@page}{33}
\pgfsyspdfmark {pgfid194}{23867546}{0}
\@writefile{toc}{\beamer@sectionintoc {6}{Results}{33}{0}{6}}
\@writefile{nav}{\headcommand {\beamer@sectionpages {24}{32}}}
\@writefile{nav}{\headcommand {\beamer@subsectionpages {24}{32}}}
\@writefile{nav}{\headcommand {\sectionentry {6}{Results}{33}{Results}{0}}}
\pgfsyspdfmark {pgfid193}{0}{14324903}
\@writefile{nav}{\headcommand {\slideentry {6}{0}{1}{33/33}{}{0}}}
\@writefile{nav}{\headcommand {\beamer@framepages {33}{33}}}
\pgfsyspdfmark {pgfid191}{-11747488}{13052759}
\pgfsyspdfmark {pgfid192}{-11747488}{6712859}
\pbs@newkey{pbs@last@page}{34}
\pgfsyspdfmark {pgfid202}{23867546}{0}
\pgfsyspdfmark {pgfid201}{0}{14324903}
\@writefile{nav}{\headcommand {\slideentry {6}{0}{2}{34/34}{}{0}}}
\@writefile{nav}{\headcommand {\beamer@framepages {34}{34}}}
\pbs@newkey{pbs@last@page}{35}
\pgfsyspdfmark {pgfid207}{23867546}{0}
\pgfsyspdfmark {pgfid206}{0}{14324903}
\pgfsyspdfmark {pgfid203}{1864679}{8826502}
\@writefile{nav}{\headcommand {\slideentry {6}{0}{3}{35/35}{}{0}}}
\@writefile{nav}{\headcommand {\beamer@framepages {35}{35}}}
\pbs@newkey{pbs@last@page}{36}
\pgfsyspdfmark {pgfid213}{23867546}{0}
\pgfsyspdfmark {pgfid212}{0}{14324903}
\@writefile{nav}{\headcommand {\slideentry {6}{0}{4}{36/36}{}{0}}}
\@writefile{nav}{\headcommand {\beamer@framepages {36}{36}}}
\pbs@newkey{pbs@last@page}{37}
\pgfsyspdfmark {pgfid222}{23867546}{0}
\pgfsyspdfmark {pgfid221}{0}{14324903}
\pgfsyspdfmark {pgfid217}{14473034}{9005906}
\@writefile{nav}{\headcommand {\slideentry {6}{0}{5}{37/37}{}{0}}}
\@writefile{nav}{\headcommand {\beamer@framepages {37}{37}}}
\pbs@newkey{pbs@last@page}{38}
\pgfsyspdfmark {pgfid238}{23867546}{0}
\pgfsyspdfmark {pgfid237}{0}{14324903}
\@writefile{nav}{\headcommand {\slideentry {6}{0}{6}{38/38}{}{0}}}
\@writefile{nav}{\headcommand {\beamer@framepages {38}{38}}}
\pbs@newkey{pbs@last@page}{39}
\pgfsyspdfmark {pgfid246}{23867546}{0}
\pgfsyspdfmark {pgfid245}{0}{14324903}
\@writefile{nav}{\headcommand {\slideentry {6}{0}{7}{39/39}{}{0}}}
\@writefile{nav}{\headcommand {\beamer@framepages {39}{39}}}
\pgfsyspdfmark {pgfid244}{1864679}{3243495}
\pbs@newkey{pbs@last@page}{40}
\pgfsyspdfmark {pgfid252}{23867546}{0}
\pgfsyspdfmark {pgfid251}{0}{14324903}
\@writefile{nav}{\headcommand {\slideentry {6}{0}{8}{40/40}{}{0}}}
\@writefile{nav}{\headcommand {\beamer@framepages {40}{40}}}
\pbs@newkey{pbs@last@page}{41}
\pgfsyspdfmark {pgfid257}{23867546}{0}
\pgfsyspdfmark {pgfid256}{0}{14324903}
\pgfsyspdfmark {pgfid253}{1864679}{8826502}
\@writefile{nav}{\headcommand {\slideentry {6}{0}{9}{41/41}{}{0}}}
\@writefile{nav}{\headcommand {\beamer@framepages {41}{41}}}
\pbs@newkey{pbs@last@page}{42}
\pgfsyspdfmark {pgfid262}{23867546}{0}
\pgfsyspdfmark {pgfid261}{0}{14324903}
\pgfsyspdfmark {pgfid258}{1864679}{8826502}
\@writefile{nav}{\headcommand {\slideentry {6}{0}{10}{42/42}{}{0}}}
\@writefile{nav}{\headcommand {\beamer@framepages {42}{42}}}
\pbs@newkey{pbs@last@page}{43}
\pgfsyspdfmark {pgfid272}{23867546}{0}
\pgfsyspdfmark {pgfid271}{0}{14324903}
\pbs@newkey{pbs@last@page}{44}
\pgfsyspdfmark {pgfid282}{23867546}{0}
\pgfsyspdfmark {pgfid281}{0}{14324903}
\@writefile{nav}{\headcommand {\slideentry {6}{0}{11}{43/44}{}{0}}}
\@writefile{nav}{\headcommand {\beamer@framepages {43}{44}}}
\pbs@newkey{pbs@last@page}{45}
\pgfsyspdfmark {pgfid289}{23867546}{0}
\pgfsyspdfmark {pgfid288}{0}{14324903}
\pbs@newkey{pbs@last@page}{46}
\pgfsyspdfmark {pgfid296}{23867546}{0}
\pgfsyspdfmark {pgfid295}{0}{14324903}
\@writefile{nav}{\headcommand {\slideentry {6}{0}{12}{45/46}{}{0}}}
\@writefile{nav}{\headcommand {\beamer@framepages {45}{46}}}
\pbs@newkey{pbs@last@page}{47}
\pgfsyspdfmark {pgfid301}{23867546}{0}
\pgfsyspdfmark {pgfid300}{0}{14324903}
\pgfsyspdfmark {pgfid297}{1864679}{8826502}
\@writefile{nav}{\headcommand {\slideentry {6}{0}{13}{47/47}{}{0}}}
\@writefile{nav}{\headcommand {\beamer@framepages {47}{47}}}
\pbs@newkey{pbs@last@page}{48}
\pgfsyspdfmark {pgfid310}{23867546}{0}
\pgfsyspdfmark {pgfid309}{0}{14324903}
\pbs@newkey{pbs@last@page}{49}
\pgfsyspdfmark {pgfid319}{23867546}{0}
\pgfsyspdfmark {pgfid318}{0}{14324903}
\pbs@newkey{pbs@last@page}{50}
\pgfsyspdfmark {pgfid329}{23867546}{0}
\pgfsyspdfmark {pgfid328}{0}{14324903}
\@writefile{nav}{\headcommand {\slideentry {6}{0}{14}{48/50}{}{0}}}
\@writefile{nav}{\headcommand {\beamer@framepages {48}{50}}}
\pgfsyspdfmark {pgfid327}{-3729359}{5594039}
\pbs@newkey{pbs@last@page}{51}
\pgfsyspdfmark {pgfid338}{23867546}{0}
\pgfsyspdfmark {pgfid337}{0}{14324903}
\pgfsyspdfmark {pgfid330}{-4661699}{15290397}
\pgfsyspdfmark {pgfid333}{6541951}{1063562}
\pbs@newkey{pbs@last@page}{52}
\pgfsyspdfmark {pgfid347}{23867546}{0}
\pgfsyspdfmark {pgfid346}{0}{14324903}
\pgfsyspdfmark {pgfid339}{-4661699}{15290397}
\pgfsyspdfmark {pgfid342}{6541951}{1063562}
\pbs@newkey{pbs@last@page}{53}
\pgfsyspdfmark {pgfid356}{23867546}{0}
\pgfsyspdfmark {pgfid355}{0}{14324903}
\@writefile{nav}{\headcommand {\slideentry {6}{0}{15}{51/53}{}{0}}}
\@writefile{nav}{\headcommand {\beamer@framepages {51}{53}}}
\pgfsyspdfmark {pgfid348}{-4661699}{15290397}
\pgfsyspdfmark {pgfid351}{6541951}{1063562}
\pbs@newkey{pbs@last@page}{54}
\pgfsyspdfmark {pgfid359}{23867546}{0}
\pgfsyspdfmark {pgfid358}{0}{14324903}
\@writefile{nav}{\headcommand {\slideentry {6}{0}{16}{54/54}{}{0}}}
\@writefile{nav}{\headcommand {\beamer@framepages {54}{54}}}
\pgfsyspdfmark {pgfid357}{2237610}{14171578}
\pbs@newkey{pbs@last@page}{55}
\pgfsyspdfmark {pgfid363}{23867546}{0}
\pgfsyspdfmark {pgfid362}{0}{14324903}
\@writefile{nav}{\headcommand {\slideentry {6}{0}{17}{55/55}{}{0}}}
\@writefile{nav}{\headcommand {\beamer@framepages {55}{55}}}
\pbs@newkey{pbs@last@page}{56}
\pgfsyspdfmark {pgfid365}{23867546}{0}
\pgfsyspdfmark {pgfid364}{0}{14324903}
\@writefile{nav}{\headcommand {\slideentry {6}{0}{18}{56/56}{}{0}}}
\@writefile{nav}{\headcommand {\beamer@framepages {56}{56}}}
\pbs@newkey{pbs@last@page}{57}
\pgfsyspdfmark {pgfid367}{23867546}{0}
\pgfsyspdfmark {pgfid366}{0}{14324903}
\@writefile{nav}{\headcommand {\slideentry {6}{0}{19}{57/57}{}{0}}}
\@writefile{nav}{\headcommand {\beamer@framepages {57}{57}}}
\pbs@newkey{pbs@last@page}{58}
\pgfsyspdfmark {pgfid372}{23867546}{0}
\pgfsyspdfmark {pgfid371}{0}{14324903}
\pbs@newkey{pbs@last@page}{59}
\pgfsyspdfmark {pgfid377}{23867546}{0}
\pgfsyspdfmark {pgfid376}{0}{14324903}
\@writefile{nav}{\headcommand {\slideentry {6}{0}{20}{58/59}{}{0}}}
\@writefile{nav}{\headcommand {\beamer@framepages {58}{59}}}
\pbs@newkey{pbs@last@page}{60}
\pgfsyspdfmark {pgfid381}{23867546}{0}
\pgfsyspdfmark {pgfid380}{0}{14324903}
\@writefile{nav}{\headcommand {\slideentry {6}{0}{21}{60/60}{}{0}}}
\@writefile{nav}{\headcommand {\beamer@framepages {60}{60}}}
\pbs@newkey{pbs@last@page}{61}
\pgfsyspdfmark {pgfid389}{23867546}{0}
\pgfsyspdfmark {pgfid388}{0}{14324903}
\@writefile{nav}{\headcommand {\slideentry {6}{0}{22}{61/61}{}{0}}}
\@writefile{nav}{\headcommand {\beamer@framepages {61}{61}}}
\pbs@newkey{pbs@last@page}{62}
\pgfsyspdfmark {pgfid392}{23867546}{0}
\pgfsyspdfmark {pgfid391}{0}{14324903}
\@writefile{nav}{\headcommand {\slideentry {6}{0}{23}{62/62}{}{0}}}
\@writefile{nav}{\headcommand {\beamer@framepages {62}{62}}}
\pgfsyspdfmark {pgfid390}{-4661699}{15290397}
\pbs@newkey{pbs@last@page}{63}
\pgfsyspdfmark {pgfid400}{23867546}{0}
\pgfsyspdfmark {pgfid399}{0}{14324903}
\@writefile{nav}{\headcommand {\slideentry {6}{0}{24}{63/63}{}{0}}}
\@writefile{nav}{\headcommand {\beamer@framepages {63}{63}}}
\pbs@newkey{pbs@last@page}{64}
\pgfsyspdfmark {pgfid405}{23867546}{0}
\pgfsyspdfmark {pgfid404}{0}{14324903}
\@writefile{nav}{\headcommand {\slideentry {6}{0}{25}{64/64}{}{0}}}
\@writefile{nav}{\headcommand {\beamer@framepages {64}{64}}}
\pbs@newkey{pbs@last@page}{65}
\pgfsyspdfmark {pgfid417}{23867546}{0}
\@writefile{toc}{\beamer@sectionintoc {7}{Conclusions}{65}{0}{7}}
\@writefile{nav}{\headcommand {\beamer@sectionpages {33}{64}}}
\@writefile{nav}{\headcommand {\beamer@subsectionpages {33}{64}}}
\@writefile{nav}{\headcommand {\sectionentry {7}{Conclusions}{65}{Conclusions}{0}}}
\pgfsyspdfmark {pgfid416}{0}{14324903}
\@writefile{nav}{\headcommand {\slideentry {7}{0}{1}{65/65}{}{0}}}
\@writefile{nav}{\headcommand {\beamer@framepages {65}{65}}}
\pbs@newkey{pbs@last@page}{66}
\pgfsyspdfmark {pgfid427}{23867546}{0}
\pgfsyspdfmark {pgfid426}{0}{14324903}
\@writefile{nav}{\headcommand {\slideentry {7}{0}{2}{66/66}{}{0}}}
\@writefile{nav}{\headcommand {\beamer@framepages {66}{66}}}
\pbs@newkey{pbs@last@page}{67}
\pgfsyspdfmark {pgfid431}{23867546}{0}
\pgfsyspdfmark {pgfid430}{0}{14324903}
\pgfsyspdfmark {pgfid428}{1864679}{11874280}
\pgfsyspdfmark {pgfid429}{1864679}{3711113}
\@writefile{nav}{\headcommand {\slideentry {7}{0}{3}{67/67}{}{0}}}
\@writefile{nav}{\headcommand {\beamer@framepages {67}{67}}}
\pbs@newkey{pbs@last@page}{68}
\pgfsyspdfmark {pgfid439}{23867546}{0}
\pgfsyspdfmark {pgfid438}{0}{14324903}
\@writefile{nav}{\headcommand {\slideentry {7}{0}{4}{68/68}{}{0}}}
\@writefile{nav}{\headcommand {\beamer@framepages {68}{68}}}
\pbs@newkey{pbs@last@page}{69}
\pgfsyspdfmark {pgfid445}{23867546}{0}
\pgfsyspdfmark {pgfid440}{1864679}{12570077}
\pgfsyspdfmark {pgfid441}{11933954}{9313563}
\pgfsyspdfmark {pgfid442}{11933954}{8690971}
\pgfsyspdfmark {pgfid443}{11933954}{8068379}
\pgfsyspdfmark {pgfid444}{11933954}{7445787}
\@writefile{nav}{\headcommand {\slideentry {7}{0}{5}{69/69}{}{0}}}
\@writefile{nav}{\headcommand {\beamer@framepages {69}{69}}}
\@writefile{nav}{\headcommand {\beamer@partpages {1}{69}}}
\@writefile{nav}{\headcommand {\beamer@subsectionpages {65}{69}}}
\@writefile{nav}{\headcommand {\beamer@sectionpages {65}{69}}}
\@writefile{nav}{\headcommand {\beamer@documentpages {69}}}
\@writefile{nav}{\headcommand {\gdef \inserttotalframenumber {54}}}
