%!PS-Adobe-3.0 EPSF-3.0
%%Creator: MATLAB, The MathWorks, Inc. Version 8.3.0.532 (R2014a). Operating System: Linux 3.19.0-30-generic #34-Ubuntu SMP Fri Oct 2 22:08:41 UTC 2015 x86_64.
%%Title: /home/betogil/hp2fem-article/eps/AllocatedMemory.eps
%%CreationDate: 04/13/2016  14:11:43
%%DocumentNeededFonts: Helvetica
%%+ Helvetica-Bold
%%DocumentProcessColors: Cyan Magenta Yellow Black
%%LanguageLevel: 2
%%Pages: 1
%%BoundingBox:   -60   149   674   641
%%EndComments

%%BeginProlog
% MathWorks dictionary
/MathWorks 160 dict begin
% definition operators
/bdef {bind def} bind def
/ldef {load def} bind def
/xdef {exch def} bdef
/xstore {exch store} bdef
% operator abbreviations
/c  /clip ldef
/cc /concat ldef
/cp /closepath ldef
/gr /grestore ldef
/gs /gsave ldef
/mt /moveto ldef
/np /newpath ldef
/cm /currentmatrix ldef
/sm /setmatrix ldef
/rm /rmoveto ldef
/rl /rlineto ldef
/s {show newpath} bdef
/sc {setcmykcolor} bdef
/sr /setrgbcolor ldef
/sg /setgray ldef
/w /setlinewidth ldef
/j /setlinejoin ldef
/cap /setlinecap ldef
/rc {rectclip} bdef
/rf {rectfill} bdef
% page state control
/pgsv () def
/bpage {/pgsv save def} bdef
/epage {pgsv restore} bdef
/bplot /gsave ldef
/eplot {stroke grestore} bdef
% orientation switch
/portraitMode 0 def /landscapeMode 1 def /rotateMode 2 def
% coordinate system mappings
/dpi2point 0 def
% font control
/FontSize 0 def
/FMS {/FontSize xstore findfont [FontSize 0 0 FontSize neg 0 0]
  makefont setfont} bdef
/reencode {exch dup where {pop load} {pop StandardEncoding} ifelse
  exch dup 3 1 roll findfont dup length dict begin
  { 1 index /FID ne {def}{pop pop} ifelse } forall
  /Encoding exch def currentdict end definefont pop} bdef
/isroman {findfont /CharStrings get /Agrave known} bdef
/FMSR {3 1 roll 1 index dup isroman {reencode} {pop pop} ifelse
  exch FMS} bdef
/csm {1 dpi2point div -1 dpi2point div scale neg translate
 dup landscapeMode eq {pop -90 rotate}
  {rotateMode eq {90 rotate} if} ifelse} bdef
% line types: solid, dotted, dashed, dotdash
/SO { [] 0 setdash } bdef
/DO { [.5 dpi2point mul 4 dpi2point mul] 0 setdash } bdef
/DA { [6 dpi2point mul] 0 setdash } bdef
/DD { [.5 dpi2point mul 4 dpi2point mul 6 dpi2point mul 4
  dpi2point mul] 0 setdash } bdef
% macros for lines and objects
/L {lineto stroke} bdef
/MP {3 1 roll moveto 1 sub {rlineto} repeat} bdef
/AP {{rlineto} repeat} bdef
/PDlw -1 def
/W {/PDlw currentlinewidth def setlinewidth} def
/PP {closepath eofill} bdef
/DP {closepath stroke} bdef
/MR {4 -2 roll moveto dup  0 exch rlineto exch 0 rlineto
  neg 0 exch rlineto closepath} bdef
/FR {MR stroke} bdef
/PR {MR fill} bdef
/L1i {{currentfile picstr readhexstring pop} image} bdef
/tMatrix matrix def
/MakeOval {newpath tMatrix currentmatrix pop translate scale
0 0 1 0 360 arc tMatrix setmatrix} bdef
/FO {MakeOval stroke} bdef
/PO {MakeOval fill} bdef
/PD {currentlinewidth 2 div 0 360 arc fill
   PDlw -1 eq not {PDlw w /PDlw -1 def} if} def
/FA {newpath tMatrix currentmatrix pop translate scale
  0 0 1 5 -2 roll arc tMatrix setmatrix stroke} bdef
/PA {newpath tMatrix currentmatrix pop	translate 0 0 moveto scale
  0 0 1 5 -2 roll arc closepath tMatrix setmatrix fill} bdef
/FAn {newpath tMatrix currentmatrix pop translate scale
  0 0 1 5 -2 roll arcn tMatrix setmatrix stroke} bdef
/PAn {newpath tMatrix currentmatrix pop translate 0 0 moveto scale
  0 0 1 5 -2 roll arcn closepath tMatrix setmatrix fill} bdef
/vradius 0 def /hradius 0 def /lry 0 def
/lrx 0 def /uly 0 def /ulx 0 def /rad 0 def
/MRR {/vradius xdef /hradius xdef /lry xdef /lrx xdef /uly xdef
  /ulx xdef newpath tMatrix currentmatrix pop ulx hradius add uly
  vradius add translate hradius vradius scale 0 0 1 180 270 arc 
  tMatrix setmatrix lrx hradius sub uly vradius add translate
  hradius vradius scale 0 0 1 270 360 arc tMatrix setmatrix
  lrx hradius sub lry vradius sub translate hradius vradius scale
  0 0 1 0 90 arc tMatrix setmatrix ulx hradius add lry vradius sub
  translate hradius vradius scale 0 0 1 90 180 arc tMatrix setmatrix
  closepath} bdef
/FRR {MRR stroke } bdef
/PRR {MRR fill } bdef
/MlrRR {/lry xdef /lrx xdef /uly xdef /ulx xdef /rad lry uly sub 2 div def
  newpath tMatrix currentmatrix pop ulx rad add uly rad add translate
  rad rad scale 0 0 1 90 270 arc tMatrix setmatrix lrx rad sub lry rad
  sub translate rad rad scale 0 0 1 270 90 arc tMatrix setmatrix
  closepath} bdef
/FlrRR {MlrRR stroke } bdef
/PlrRR {MlrRR fill } bdef
/MtbRR {/lry xdef /lrx xdef /uly xdef /ulx xdef /rad lrx ulx sub 2 div def
  newpath tMatrix currentmatrix pop ulx rad add uly rad add translate
  rad rad scale 0 0 1 180 360 arc tMatrix setmatrix lrx rad sub lry rad
  sub translate rad rad scale 0 0 1 0 180 arc tMatrix setmatrix
  closepath} bdef
/FtbRR {MtbRR stroke } bdef
/PtbRR {MtbRR fill } bdef
/stri 6 array def /dtri 6 array def
/smat 6 array def /dmat 6 array def
/tmat1 6 array def /tmat2 6 array def /dif 3 array def
/asub {/ind2 exch def /ind1 exch def dup dup
  ind1 get exch ind2 get sub exch } bdef
/tri_to_matrix {
  2 0 asub 3 1 asub 4 0 asub 5 1 asub
  dup 0 get exch 1 get 7 -1 roll astore } bdef
/compute_transform {
  dmat dtri tri_to_matrix tmat1 invertmatrix 
  smat stri tri_to_matrix tmat2 concatmatrix } bdef
/ds {stri astore pop} bdef
/dt {dtri astore pop} bdef
/db {2 copy /cols xdef /rows xdef mul dup 3 mul string
  currentfile 
  3 index 0 eq {/ASCIIHexDecode filter}
  {/ASCII85Decode filter 3 index 2 eq {/RunLengthDecode filter} if }
  ifelse exch readstring pop
  dup 0 3 index getinterval /rbmap xdef
  dup 2 index dup getinterval /gbmap xdef
  1 index dup 2 mul exch getinterval /bbmap xdef pop pop}bdef
/it {gs np dtri aload pop moveto lineto lineto cp c
  cols rows 8 compute_transform 
  rbmap gbmap bbmap true 3 colorimage gr}bdef
/il {newpath moveto lineto stroke}bdef
currentdict end def
%%EndProlog

%%BeginSetup
MathWorks begin

0 cap

end
%%EndSetup

%%Page: 1 1
%%BeginPageSetup
%%PageBoundingBox:   -60   149   674   641
MathWorks begin
bpage
%%EndPageSetup

%%BeginObject: obj1
bplot

/dpi2point 12 def
portraitMode -0720 7692 csm

    0     0  8812  5895 rc
85 dict begin %Colortable dictionary
/c0 { 0.000000 0.000000 0.000000 sr} bdef
/c1 { 1.000000 1.000000 1.000000 sr} bdef
/c2 { 0.900000 0.000000 0.000000 sr} bdef
/c3 { 0.000000 0.820000 0.000000 sr} bdef
/c4 { 0.000000 0.000000 0.800000 sr} bdef
/c5 { 0.910000 0.820000 0.320000 sr} bdef
/c6 { 1.000000 0.260000 0.820000 sr} bdef
/c7 { 0.000000 0.820000 0.820000 sr} bdef
c0
1 j
1 sg
   0    0 8813 5896 rf
6 w
0 4805 6828 0 0 -4805 1146 5247 4 MP
PP
-6828 0 0 4805 6828 0 0 -4805 1146 5247 5 MP stroke
4 w
DO
0 sg
2284 5247 mt 2284  442 L
2284  442 mt 2284  442 L
4560 5247 mt 4560  442 L
4560  442 mt 4560  442 L
6836 5247 mt 6836  442 L
6836  442 mt 6836  442 L
1146 5247 mt 7975 5247 L
7975 5247 mt 7975 5247 L
1146 4286 mt 7975 4286 L
7975 4286 mt 7975 4286 L
1146 3325 mt 7975 3325 L
7975 3325 mt 7975 3325 L
1146 2364 mt 7975 2364 L
7975 2364 mt 7975 2364 L
1146 1403 mt 7975 1403 L
7975 1403 mt 7975 1403 L
1146  442 mt 7975  442 L
7975  442 mt 7975  442 L
SO
6 w
1146 5247 mt 7974 5247 L
1146  442 mt 7974  442 L
1146 5247 mt 1146  442 L
7974 5247 mt 7974  442 L
1146 5247 mt 7974 5247 L
1146 5247 mt 1146  442 L
2284 5247 mt 2284 5178 L
2284  442 mt 2284  510 L
%%IncludeResource: font Helvetica-Bold
/Helvetica-Bold /ISOLatin1Encoding 192 FMSR

1578 5465 mt 
(HO-FEM Model) s
4560 5247 mt 4560 5178 L
4560  442 mt 4560  510 L
3814 5465 mt 
(ShapeFunctions) s
6836 5247 mt 6836 5178 L
6836  442 mt 6836  510 L
6167 5465 mt 
(MeshTopology) s
1146 5247 mt 1146 5247 L
1146 5247 mt 1146 5247 L
DO
1146 5247 mt 1146 5247 L
1146 5247 mt 1146 5247 L
SO
1146 5247 mt 1146 5247 L
1146 5247 mt 1146 5247 L
DO
1146 5247 mt 1146 5247 L
1146 5247 mt 1146 5247 L
SO
1146 5247 mt 1146 5247 L
1146 5247 mt 1146 5247 L
DO
1146 5247 mt 1146 5247 L
1146 5247 mt 1146 5247 L
SO
1146 5247 mt 1146 5247 L
1146 5247 mt 1146 5247 L
DO
1146 5247 mt 1146 5247 L
1146 5247 mt 1146 5247 L
SO
1146 5247 mt 1146 5247 L
1146 5247 mt 1146 5247 L
DO
1146 5247 mt 1146 5247 L
1146 5247 mt 1146 5247 L
SO
1146 5247 mt 1146 5247 L
1146 5247 mt 1146 5247 L
DO
1146 5247 mt 1146 5247 L
1146 5247 mt 1146 5247 L
SO
1146 5247 mt 1146 5247 L
1146 5247 mt 1146 5247 L
DO
1146 5247 mt 1146 5247 L
1146 5247 mt 1146 5247 L
SO
1146 5247 mt 1146 5247 L
1146 5247 mt 1146 5247 L
DO
1146 5247 mt 1146 5247 L
1146 5247 mt 1146 5247 L
SO
1146 5247 mt 1146 5247 L
1146 5247 mt 1146 5247 L
DO
1146 5247 mt 1146 5247 L
1146 5247 mt 1146 5247 L
SO
1146 5247 mt 1214 5247 L
7975 5247 mt 7906 5247 L
 756 5320 mt 
(10) s
%%IncludeResource: font Helvetica-Bold
/Helvetica-Bold /ISOLatin1Encoding 128 FMSR

 969 5197 mt 
(0) s
1146 5247 mt 1146 5247 L
1146 5247 mt 1146 5247 L
DO
1146 5247 mt 1146 5247 L
1146 5247 mt 1146 5247 L
SO
1146 5247 mt 1146 5247 L
1146 5247 mt 1146 5247 L
DO
1146 5247 mt 1146 5247 L
1146 5247 mt 1146 5247 L
SO
1146 5247 mt 1146 5247 L
1146 5247 mt 1146 5247 L
DO
1146 5247 mt 1146 5247 L
1146 5247 mt 1146 5247 L
SO
1146 5247 mt 1146 5247 L
1146 5247 mt 1146 5247 L
DO
1146 5247 mt 1146 5247 L
1146 5247 mt 1146 5247 L
SO
1146 5247 mt 1146 5247 L
1146 5247 mt 1146 5247 L
DO
1146 5247 mt 1146 5247 L
1146 5247 mt 1146 5247 L
SO
1146 5247 mt 1146 5247 L
1146 5247 mt 1146 5247 L
DO
1146 5247 mt 1146 5247 L
1146 5247 mt 1146 5247 L
SO
1146 5247 mt 1146 5247 L
1146 5247 mt 1146 5247 L
DO
1146 5247 mt 1146 5247 L
1146 5247 mt 1146 5247 L
SO
1146 5247 mt 1146 5247 L
1146 5247 mt 1146 5247 L
DO
1146 5247 mt 1146 5247 L
1146 5247 mt 1146 5247 L
SO
1146 5247 mt 1146 5247 L
1146 5247 mt 1146 5247 L
DO
1146 5247 mt 1146 5247 L
1146 5247 mt 1146 5247 L
SO
1146 4286 mt 1214 4286 L
7975 4286 mt 7906 4286 L
%%IncludeResource: font Helvetica-Bold
/Helvetica-Bold /ISOLatin1Encoding 192 FMSR

 756 4359 mt 
(10) s
%%IncludeResource: font Helvetica-Bold
/Helvetica-Bold /ISOLatin1Encoding 128 FMSR

 969 4236 mt 
(2) s
1146 5247 mt 1146 5247 L
1146 5247 mt 1146 5247 L
DO
1146 5247 mt 1146 5247 L
1146 5247 mt 1146 5247 L
SO
1146 5247 mt 1146 5247 L
1146 5247 mt 1146 5247 L
DO
1146 5247 mt 1146 5247 L
1146 5247 mt 1146 5247 L
SO
1146 5247 mt 1146 5247 L
1146 5247 mt 1146 5247 L
DO
1146 5247 mt 1146 5247 L
1146 5247 mt 1146 5247 L
SO
1146 5247 mt 1146 5247 L
1146 5247 mt 1146 5247 L
DO
1146 5247 mt 1146 5247 L
1146 5247 mt 1146 5247 L
SO
1146 5247 mt 1146 5247 L
1146 5247 mt 1146 5247 L
DO
1146 5247 mt 1146 5247 L
1146 5247 mt 1146 5247 L
SO
1146 5247 mt 1146 5247 L
1146 5247 mt 1146 5247 L
DO
1146 5247 mt 1146 5247 L
1146 5247 mt 1146 5247 L
SO
1146 5247 mt 1146 5247 L
1146 5247 mt 1146 5247 L
DO
1146 5247 mt 1146 5247 L
1146 5247 mt 1146 5247 L
SO
1146 5247 mt 1146 5247 L
1146 5247 mt 1146 5247 L
DO
1146 5247 mt 1146 5247 L
1146 5247 mt 1146 5247 L
SO
1146 5247 mt 1146 5247 L
1146 5247 mt 1146 5247 L
DO
1146 5247 mt 1146 5247 L
1146 5247 mt 1146 5247 L
SO
1146 3325 mt 1214 3325 L
7975 3325 mt 7906 3325 L
%%IncludeResource: font Helvetica-Bold
/Helvetica-Bold /ISOLatin1Encoding 192 FMSR

 756 3398 mt 
(10) s
%%IncludeResource: font Helvetica-Bold
/Helvetica-Bold /ISOLatin1Encoding 128 FMSR

 969 3275 mt 
(4) s
1146 5247 mt 1146 5247 L
1146 5247 mt 1146 5247 L
DO
1146 5247 mt 1146 5247 L
1146 5247 mt 1146 5247 L
SO
1146 5247 mt 1146 5247 L
1146 5247 mt 1146 5247 L
DO
1146 5247 mt 1146 5247 L
1146 5247 mt 1146 5247 L
SO
1146 5247 mt 1146 5247 L
1146 5247 mt 1146 5247 L
DO
1146 5247 mt 1146 5247 L
1146 5247 mt 1146 5247 L
SO
1146 5247 mt 1146 5247 L
1146 5247 mt 1146 5247 L
DO
1146 5247 mt 1146 5247 L
1146 5247 mt 1146 5247 L
SO
1146 5247 mt 1146 5247 L
1146 5247 mt 1146 5247 L
DO
1146 5247 mt 1146 5247 L
1146 5247 mt 1146 5247 L
SO
1146 5247 mt 1146 5247 L
1146 5247 mt 1146 5247 L
DO
1146 5247 mt 1146 5247 L
1146 5247 mt 1146 5247 L
SO
1146 5247 mt 1146 5247 L
1146 5247 mt 1146 5247 L
DO
1146 5247 mt 1146 5247 L
1146 5247 mt 1146 5247 L
SO
1146 5247 mt 1146 5247 L
1146 5247 mt 1146 5247 L
DO
1146 5247 mt 1146 5247 L
1146 5247 mt 1146 5247 L
SO
1146 5247 mt 1146 5247 L
1146 5247 mt 1146 5247 L
DO
1146 5247 mt 1146 5247 L
1146 5247 mt 1146 5247 L
SO
1146 2364 mt 1214 2364 L
7975 2364 mt 7906 2364 L
%%IncludeResource: font Helvetica-Bold
/Helvetica-Bold /ISOLatin1Encoding 192 FMSR

 756 2437 mt 
(10) s
%%IncludeResource: font Helvetica-Bold
/Helvetica-Bold /ISOLatin1Encoding 128 FMSR

 969 2314 mt 
(6) s
1146 5247 mt 1146 5247 L
1146 5247 mt 1146 5247 L
DO
1146 5247 mt 1146 5247 L
1146 5247 mt 1146 5247 L
SO
1146 5247 mt 1146 5247 L
1146 5247 mt 1146 5247 L
DO
1146 5247 mt 1146 5247 L
1146 5247 mt 1146 5247 L
SO
1146 5247 mt 1146 5247 L
1146 5247 mt 1146 5247 L
DO
1146 5247 mt 1146 5247 L
1146 5247 mt 1146 5247 L
SO
1146 5247 mt 1146 5247 L
1146 5247 mt 1146 5247 L
DO
1146 5247 mt 1146 5247 L
1146 5247 mt 1146 5247 L
SO
1146 5247 mt 1146 5247 L
1146 5247 mt 1146 5247 L
DO
1146 5247 mt 1146 5247 L
1146 5247 mt 1146 5247 L
SO
1146 5247 mt 1146 5247 L
1146 5247 mt 1146 5247 L
DO
1146 5247 mt 1146 5247 L
1146 5247 mt 1146 5247 L
SO
1146 5247 mt 1146 5247 L
1146 5247 mt 1146 5247 L
DO
1146 5247 mt 1146 5247 L
1146 5247 mt 1146 5247 L
SO
1146 5247 mt 1146 5247 L
1146 5247 mt 1146 5247 L
DO
1146 5247 mt 1146 5247 L
1146 5247 mt 1146 5247 L
SO
1146 5247 mt 1146 5247 L
1146 5247 mt 1146 5247 L
DO
1146 5247 mt 1146 5247 L
1146 5247 mt 1146 5247 L
SO
1146 1403 mt 1214 1403 L
7975 1403 mt 7906 1403 L
%%IncludeResource: font Helvetica-Bold
/Helvetica-Bold /ISOLatin1Encoding 192 FMSR

 756 1476 mt 
(10) s
%%IncludeResource: font Helvetica-Bold
/Helvetica-Bold /ISOLatin1Encoding 128 FMSR

 969 1353 mt 
(8) s
1146 5247 mt 1146 5247 L
1146 5247 mt 1146 5247 L
DO
1146 5247 mt 1146 5247 L
1146 5247 mt 1146 5247 L
SO
1146 5247 mt 1146 5247 L
1146 5247 mt 1146 5247 L
DO
1146 5247 mt 1146 5247 L
1146 5247 mt 1146 5247 L
SO
1146 5247 mt 1146 5247 L
1146 5247 mt 1146 5247 L
DO
1146 5247 mt 1146 5247 L
1146 5247 mt 1146 5247 L
SO
1146 5247 mt 1146 5247 L
1146 5247 mt 1146 5247 L
DO
1146 5247 mt 1146 5247 L
1146 5247 mt 1146 5247 L
SO
1146 5247 mt 1146 5247 L
1146 5247 mt 1146 5247 L
DO
1146 5247 mt 1146 5247 L
1146 5247 mt 1146 5247 L
SO
1146 5247 mt 1146 5247 L
1146 5247 mt 1146 5247 L
DO
1146 5247 mt 1146 5247 L
1146 5247 mt 1146 5247 L
SO
1146 5247 mt 1146 5247 L
1146 5247 mt 1146 5247 L
DO
1146 5247 mt 1146 5247 L
1146 5247 mt 1146 5247 L
SO
1146 5247 mt 1146 5247 L
1146 5247 mt 1146 5247 L
DO
1146 5247 mt 1146 5247 L
1146 5247 mt 1146 5247 L
SO
1146 5247 mt 1146 5247 L
1146 5247 mt 1146 5247 L
DO
1146 5247 mt 1146 5247 L
1146 5247 mt 1146 5247 L
SO
1146  442 mt 1214  442 L
7975  442 mt 7906  442 L
%%IncludeResource: font Helvetica-Bold
/Helvetica-Bold /ISOLatin1Encoding 192 FMSR

 756  515 mt 
(10) s
%%IncludeResource: font Helvetica-Bold
/Helvetica-Bold /ISOLatin1Encoding 128 FMSR

 969  392 mt 
(10) s
1146 5247 mt 1146 5247 L
1146 5247 mt 1146 5247 L
DO
1146 5247 mt 1146 5247 L
1146 5247 mt 1146 5247 L
SO
1146 5247 mt 1146 5247 L
1146 5247 mt 1146 5247 L
DO
1146 5247 mt 1146 5247 L
1146 5247 mt 1146 5247 L
SO
1146 5247 mt 1146 5247 L
1146 5247 mt 1146 5247 L
DO
1146 5247 mt 1146 5247 L
1146 5247 mt 1146 5247 L
SO
1146 5247 mt 1146 5247 L
1146 5247 mt 1146 5247 L
DO
1146 5247 mt 1146 5247 L
1146 5247 mt 1146 5247 L
SO
1146 5247 mt 1146 5247 L
1146 5247 mt 1146 5247 L
DO
1146 5247 mt 1146 5247 L
1146 5247 mt 1146 5247 L
SO
1146 5247 mt 1146 5247 L
1146 5247 mt 1146 5247 L
DO
1146 5247 mt 1146 5247 L
1146 5247 mt 1146 5247 L
SO
1146 5247 mt 1146 5247 L
1146 5247 mt 1146 5247 L
DO
1146 5247 mt 1146 5247 L
1146 5247 mt 1146 5247 L
SO
1146 5247 mt 1146 5247 L
1146 5247 mt 1146 5247 L
DO
1146 5247 mt 1146 5247 L
1146 5247 mt 1146 5247 L
SO
1146 5247 mt 1146 5247 L
1146 5247 mt 1146 5247 L
DO
1146 5247 mt 1146 5247 L
1146 5247 mt 1146 5247 L
SO
1146 5247 mt 7974 5247 L
1146  442 mt 7974  442 L
1146 5247 mt 1146  442 L
7974 5247 mt 7974  442 L
gs 1146 442 6830 4806 rc
/c8 { 0.000000 0.000000 0.562500 sr} bdef
c8
0 4540 405 0 0 -4540 1575 5247 4 MP
PP
0 sg
-405 0 0 4540 405 0 0 -4540 1575 5247 5 MP stroke
c8
0 4427 404 0 0 -4427 3852 5247 4 MP
PP
0 sg
-404 0 0 4427 404 0 0 -4427 3852 5247 5 MP stroke
c8
0 4341 405 0 0 -4341 6128 5247 4 MP
PP
0 sg
-405 0 0 4341 405 0 0 -4341 6128 5247 5 MP stroke
6828 0 1146 5247 2 MP stroke
/c9 { 0.562500 1.000000 0.437500 sr} bdef
c9
0 4348 405 0 0 -4348 2081 5247 4 MP
PP
0 sg
-405 0 0 4348 405 0 0 -4348 2081 5247 5 MP stroke
c9
0 2697 404 0 0 -2697 4358 5247 4 MP
PP
0 sg
-404 0 0 2697 404 0 0 -2697 4358 5247 5 MP stroke
c9
0 4341 405 0 0 -4341 6634 5247 4 MP
PP
0 sg
-405 0 0 4341 405 0 0 -4341 6634 5247 5 MP stroke
/c10 { 0.500000 0.000000 0.000000 sr} bdef
c10
0 3947 405 0 0 -3947 2587 5247 4 MP
PP
0 sg
-405 0 0 3947 405 0 0 -3947 2587 5247 5 MP stroke
c10
0 2697 404 0 0 -2697 4864 5247 4 MP
PP
0 sg
-404 0 0 2697 404 0 0 -2697 4864 5247 5 MP stroke
c10
0 3743 405 0 0 -3743 7140 5247 4 MP
PP
0 sg
-405 0 0 3743 405 0 0 -3743 7140 5247 5 MP stroke
gr

%%IncludeResource: font Helvetica-Bold
/Helvetica-Bold /ISOLatin1Encoding 240 FMSR

3211  287 mt 
(Allocated Memory \(MB\)) s
%%IncludeResource: font Helvetica
/Helvetica /ISOLatin1Encoding 120 FMSR

1129 5290 mt 
( ) s
7959  484 mt 
( ) s
1 sg
0 895 3168 0 0 -895 4802 5194 4 MP
PP
-3168 0 0 895 3168 0 0 -895 4802 5194 5 MP stroke
4 w
DO
SO
6 w
0 sg
4802 5194 mt 7970 5194 L
4802 4299 mt 7970 4299 L
4802 5194 mt 4802 4299 L
7970 5194 mt 7970 4299 L
4802 5194 mt 7970 5194 L
4802 5194 mt 4802 4299 L
4802 5194 mt 7970 5194 L
4802 4299 mt 7970 4299 L
4802 5194 mt 4802 4299 L
7970 5194 mt 7970 4299 L
%%IncludeResource: font Helvetica-Bold
/Helvetica-Bold /ISOLatin1Encoding 192 FMSR

5283 4533 mt 
(No Optimizations) s
gs 4802 4299 3169 896 rc
c8
-370 0 0 217 370 0 0 -217 4875 4570 5 MP
PP
0 sg
0 0 -370 0 0 217 370 0 0 -217 4875 4570 6 MP stroke
gr

5283 4818 mt 
(D1-Matrices Procedure) s
gs 4802 4299 3169 896 rc
c9
-370 0 0 216 370 0 0 -216 4875 4854 5 MP
PP
0 sg
0 0 -370 0 0 216 370 0 0 -216 4875 4854 6 MP stroke
gr

5283 5103 mt 
(MeshTopology Optimizations) s
gs 4802 4299 3169 896 rc
c10
-370 0 0 217 370 0 0 -217 4875 5139 5 MP
PP
0 sg
0 0 -370 0 0 217 370 0 0 -217 4875 5139 6 MP stroke
gr


end %%Color Dict

eplot
%%EndObject

epage
end

showpage

%%Trailer
%%EOF
