%!PS-Adobe-2.0 EPSF-2.0
%%Title: /home/betogil/Diagram1.dia
%%Creator: Dia v0.97.3
%%CreationDate: Tue May 24 16:30:53 2016
%%For: betogil
%%Orientation: Portrait
%%Magnification: 1.0000
%%BoundingBox: 0 0 1354 420
%%BeginSetup
%%EndSetup
%%EndComments
%%BeginProlog
[ /.notdef /.notdef /.notdef /.notdef /.notdef /.notdef /.notdef /.notdef /.notdef /.notdef
/.notdef /.notdef /.notdef /.notdef /.notdef /.notdef /.notdef /.notdef /.notdef /.notdef
/.notdef /.notdef /.notdef /.notdef /.notdef /.notdef /.notdef /.notdef /.notdef /.notdef
/.notdef /.notdef /space /exclam /quotedbl /numbersign /dollar /percent /ampersand /quoteright
/parenleft /parenright /asterisk /plus /comma /hyphen /period /slash /zero /one
/two /three /four /five /six /seven /eight /nine /colon /semicolon
/less /equal /greater /question /at /A /B /C /D /E
/F /G /H /I /J /K /L /M /N /O
/P /Q /R /S /T /U /V /W /X /Y
/Z /bracketleft /backslash /bracketright /asciicircum /underscore /quoteleft /a /b /c
/d /e /f /g /h /i /j /k /l /m
/n /o /p /q /r /s /t /u /v /w
/x /y /z /braceleft /bar /braceright /asciitilde /.notdef /.notdef /.notdef
/.notdef /.notdef /.notdef /.notdef /.notdef /.notdef /.notdef /.notdef /.notdef /.notdef
/.notdef /.notdef /.notdef /.notdef /.notdef /.notdef /.notdef /.notdef /.notdef /.notdef
/.notdef /.notdef /.notdef /.notdef /.notdef /.notdef /.notdef /.notdef /.notdef /.notdef
/space /exclamdown /cent /sterling /currency /yen /brokenbar /section /dieresis /copyright
/ordfeminine /guillemotleft /logicalnot /hyphen /registered /macron /degree /plusminus /twosuperior /threesuperior
/acute /mu /paragraph /periodcentered /cedilla /onesuperior /ordmasculine /guillemotright /onequarter /onehalf
/threequarters /questiondown /Agrave /Aacute /Acircumflex /Atilde /Adieresis /Aring /AE /Ccedilla
/Egrave /Eacute /Ecircumflex /Edieresis /Igrave /Iacute /Icircumflex /Idieresis /Eth /Ntilde
/Ograve /Oacute /Ocircumflex /Otilde /Odieresis /multiply /Oslash /Ugrave /Uacute /Ucircumflex
/Udieresis /Yacute /Thorn /germandbls /agrave /aacute /acircumflex /atilde /adieresis /aring
/ae /ccedilla /egrave /eacute /ecircumflex /edieresis /igrave /iacute /icircumflex /idieresis
/eth /ntilde /ograve /oacute /ocircumflex /otilde /odieresis /divide /oslash /ugrave
/uacute /ucircumflex /udieresis /yacute /thorn /ydieresis] /isolatin1encoding exch def
/cp {closepath} bind def
/c {curveto} bind def
/f {fill} bind def
/a {arc} bind def
/ef {eofill} bind def
/ex {exch} bind def
/gr {grestore} bind def
/gs {gsave} bind def
/sa {save} bind def
/rs {restore} bind def
/l {lineto} bind def
/m {moveto} bind def
/rm {rmoveto} bind def
/n {newpath} bind def
/s {stroke} bind def
/sh {show} bind def
/slc {setlinecap} bind def
/slj {setlinejoin} bind def
/slw {setlinewidth} bind def
/srgb {setrgbcolor} bind def
/rot {rotate} bind def
/sc {scale} bind def
/sd {setdash} bind def
/ff {findfont} bind def
/sf {setfont} bind def
/scf {scalefont} bind def
/sw {stringwidth pop} bind def
/tr {translate} bind def

/ellipsedict 8 dict def
ellipsedict /mtrx matrix put
/ellipse
{ ellipsedict begin
   /endangle exch def
   /startangle exch def
   /yrad exch def
   /xrad exch def
   /y exch def
   /x exch def   /savematrix mtrx currentmatrix def
   x y tr xrad yrad sc
   0 0 1 startangle endangle arc
   savematrix setmatrix
   end
} def

/mergeprocs {
dup length
3 -1 roll
dup
length
dup
5 1 roll
3 -1 roll
add
array cvx
dup
3 -1 roll
0 exch
putinterval
dup
4 2 roll
putinterval
} bind def
/Times-Roman-latin1
    /Times-Roman findfont
    dup length dict begin
	{1 index /FID ne {def} {pop pop} ifelse} forall
	/Encoding isolatin1encoding def
    currentdict end
definefont pop
/Times-Italic-latin1
    /Times-Italic findfont
    dup length dict begin
	{1 index /FID ne {def} {pop pop} ifelse} forall
	/Encoding isolatin1encoding def
    currentdict end
definefont pop
/Times-Bold-latin1
    /Times-Bold findfont
    dup length dict begin
	{1 index /FID ne {def} {pop pop} ifelse} forall
	/Encoding isolatin1encoding def
    currentdict end
definefont pop
/Times-BoldItalic-latin1
    /Times-BoldItalic findfont
    dup length dict begin
	{1 index /FID ne {def} {pop pop} ifelse} forall
	/Encoding isolatin1encoding def
    currentdict end
definefont pop
/AvantGarde-Gothic-latin1
    /AvantGarde-Gothic findfont
    dup length dict begin
	{1 index /FID ne {def} {pop pop} ifelse} forall
	/Encoding isolatin1encoding def
    currentdict end
definefont pop
/AvantGarde-BookOblique-latin1
    /AvantGarde-BookOblique findfont
    dup length dict begin
	{1 index /FID ne {def} {pop pop} ifelse} forall
	/Encoding isolatin1encoding def
    currentdict end
definefont pop
/AvantGarde-Demi-latin1
    /AvantGarde-Demi findfont
    dup length dict begin
	{1 index /FID ne {def} {pop pop} ifelse} forall
	/Encoding isolatin1encoding def
    currentdict end
definefont pop
/AvantGarde-DemiOblique-latin1
    /AvantGarde-DemiOblique findfont
    dup length dict begin
	{1 index /FID ne {def} {pop pop} ifelse} forall
	/Encoding isolatin1encoding def
    currentdict end
definefont pop
/Bookman-Light-latin1
    /Bookman-Light findfont
    dup length dict begin
	{1 index /FID ne {def} {pop pop} ifelse} forall
	/Encoding isolatin1encoding def
    currentdict end
definefont pop
/Bookman-LightItalic-latin1
    /Bookman-LightItalic findfont
    dup length dict begin
	{1 index /FID ne {def} {pop pop} ifelse} forall
	/Encoding isolatin1encoding def
    currentdict end
definefont pop
/Bookman-Demi-latin1
    /Bookman-Demi findfont
    dup length dict begin
	{1 index /FID ne {def} {pop pop} ifelse} forall
	/Encoding isolatin1encoding def
    currentdict end
definefont pop
/Bookman-DemiItalic-latin1
    /Bookman-DemiItalic findfont
    dup length dict begin
	{1 index /FID ne {def} {pop pop} ifelse} forall
	/Encoding isolatin1encoding def
    currentdict end
definefont pop
/Courier-latin1
    /Courier findfont
    dup length dict begin
	{1 index /FID ne {def} {pop pop} ifelse} forall
	/Encoding isolatin1encoding def
    currentdict end
definefont pop
/Courier-Oblique-latin1
    /Courier-Oblique findfont
    dup length dict begin
	{1 index /FID ne {def} {pop pop} ifelse} forall
	/Encoding isolatin1encoding def
    currentdict end
definefont pop
/Courier-Bold-latin1
    /Courier-Bold findfont
    dup length dict begin
	{1 index /FID ne {def} {pop pop} ifelse} forall
	/Encoding isolatin1encoding def
    currentdict end
definefont pop
/Courier-BoldOblique-latin1
    /Courier-BoldOblique findfont
    dup length dict begin
	{1 index /FID ne {def} {pop pop} ifelse} forall
	/Encoding isolatin1encoding def
    currentdict end
definefont pop
/Helvetica-latin1
    /Helvetica findfont
    dup length dict begin
	{1 index /FID ne {def} {pop pop} ifelse} forall
	/Encoding isolatin1encoding def
    currentdict end
definefont pop
/Helvetica-Oblique-latin1
    /Helvetica-Oblique findfont
    dup length dict begin
	{1 index /FID ne {def} {pop pop} ifelse} forall
	/Encoding isolatin1encoding def
    currentdict end
definefont pop
/Helvetica-Bold-latin1
    /Helvetica-Bold findfont
    dup length dict begin
	{1 index /FID ne {def} {pop pop} ifelse} forall
	/Encoding isolatin1encoding def
    currentdict end
definefont pop
/Helvetica-BoldOblique-latin1
    /Helvetica-BoldOblique findfont
    dup length dict begin
	{1 index /FID ne {def} {pop pop} ifelse} forall
	/Encoding isolatin1encoding def
    currentdict end
definefont pop
/Helvetica-Narrow-latin1
    /Helvetica-Narrow findfont
    dup length dict begin
	{1 index /FID ne {def} {pop pop} ifelse} forall
	/Encoding isolatin1encoding def
    currentdict end
definefont pop
/Helvetica-Narrow-Oblique-latin1
    /Helvetica-Narrow-Oblique findfont
    dup length dict begin
	{1 index /FID ne {def} {pop pop} ifelse} forall
	/Encoding isolatin1encoding def
    currentdict end
definefont pop
/Helvetica-Narrow-Bold-latin1
    /Helvetica-Narrow-Bold findfont
    dup length dict begin
	{1 index /FID ne {def} {pop pop} ifelse} forall
	/Encoding isolatin1encoding def
    currentdict end
definefont pop
/Helvetica-Narrow-BoldOblique-latin1
    /Helvetica-Narrow-BoldOblique findfont
    dup length dict begin
	{1 index /FID ne {def} {pop pop} ifelse} forall
	/Encoding isolatin1encoding def
    currentdict end
definefont pop
/NewCenturySchlbk-Roman-latin1
    /NewCenturySchlbk-Roman findfont
    dup length dict begin
	{1 index /FID ne {def} {pop pop} ifelse} forall
	/Encoding isolatin1encoding def
    currentdict end
definefont pop
/NewCenturySchlbk-Italic-latin1
    /NewCenturySchlbk-Italic findfont
    dup length dict begin
	{1 index /FID ne {def} {pop pop} ifelse} forall
	/Encoding isolatin1encoding def
    currentdict end
definefont pop
/NewCenturySchlbk-Bold-latin1
    /NewCenturySchlbk-Bold findfont
    dup length dict begin
	{1 index /FID ne {def} {pop pop} ifelse} forall
	/Encoding isolatin1encoding def
    currentdict end
definefont pop
/NewCenturySchlbk-BoldItalic-latin1
    /NewCenturySchlbk-BoldItalic findfont
    dup length dict begin
	{1 index /FID ne {def} {pop pop} ifelse} forall
	/Encoding isolatin1encoding def
    currentdict end
definefont pop
/Palatino-Roman-latin1
    /Palatino-Roman findfont
    dup length dict begin
	{1 index /FID ne {def} {pop pop} ifelse} forall
	/Encoding isolatin1encoding def
    currentdict end
definefont pop
/Palatino-Italic-latin1
    /Palatino-Italic findfont
    dup length dict begin
	{1 index /FID ne {def} {pop pop} ifelse} forall
	/Encoding isolatin1encoding def
    currentdict end
definefont pop
/Palatino-Bold-latin1
    /Palatino-Bold findfont
    dup length dict begin
	{1 index /FID ne {def} {pop pop} ifelse} forall
	/Encoding isolatin1encoding def
    currentdict end
definefont pop
/Palatino-BoldItalic-latin1
    /Palatino-BoldItalic findfont
    dup length dict begin
	{1 index /FID ne {def} {pop pop} ifelse} forall
	/Encoding isolatin1encoding def
    currentdict end
definefont pop
/Symbol-latin1
    /Symbol findfont
definefont pop
/ZapfChancery-MediumItalic-latin1
    /ZapfChancery-MediumItalic findfont
    dup length dict begin
	{1 index /FID ne {def} {pop pop} ifelse} forall
	/Encoding isolatin1encoding def
    currentdict end
definefont pop
/ZapfDingbats-latin1
    /ZapfDingbats findfont
    dup length dict begin
	{1 index /FID ne {def} {pop pop} ifelse} forall
	/Encoding isolatin1encoding def
    currentdict end
definefont pop
28.346000 -28.346000 scale
-17.020000 -24.655000 translate
%%EndProlog


0.100000 slw
[] 0 sd
1.000000 1.000000 1.000000 srgb
n 29.950000 10.800000 m 29.950000 12.200000 l 44.695000 12.200000 l 44.695000 10.800000 l f
0.000000 0.000000 0.000000 srgb
n 29.950000 10.800000 m 29.950000 12.200000 l 44.695000 12.200000 l 44.695000 10.800000 l cp s
/Helvetica-Bold-latin1 ff 0.700000 scf sf
(Solver) dup sw 2 div 37.322500 ex sub 11.550000 m
 gs 1 -1 sc sh gr
1.000000 1.000000 1.000000 srgb
n 29.950000 12.200000 m 29.950000 16.400000 l 44.695000 16.400000 l 44.695000 12.200000 l f
0.000000 0.000000 0.000000 srgb
n 29.950000 12.200000 m 29.950000 16.400000 l 44.695000 16.400000 l 44.695000 12.200000 l cp s
/Courier-latin1 ff 0.560000 scf sf
(#TheoSolu: TheoreticalSolution_S) 30.100000 12.740000 m
 gs 1 -1 sc sh gr
(#SolvParam: SolverParam_S) 30.100000 13.540000 m
 gs 1 -1 sc sh gr
(#GlobalModel: Model) 30.100000 14.340000 m
 gs 1 -1 sc sh gr
(#PartitionModel: Model) 30.100000 15.140000 m
 gs 1 -1 sc sh gr
(#PartitionInformations: PartitionData) 30.100000 15.940000 m
 gs 1 -1 sc sh gr
1.000000 1.000000 1.000000 srgb
n 29.950000 16.400000 m 29.950000 16.800000 l 44.695000 16.800000 l 44.695000 16.400000 l f
0.000000 0.000000 0.000000 srgb
n 29.950000 16.400000 m 29.950000 16.800000 l 44.695000 16.800000 l 44.695000 16.400000 l cp s
0.100000 slw
[] 0 sd
1.000000 1.000000 1.000000 srgb
n 17.070000 12.705000 m 17.070000 14.105000 l 23.632500 14.105000 l 23.632500 12.705000 l f
0.000000 0.000000 0.000000 srgb
n 17.070000 12.705000 m 17.070000 14.105000 l 23.632500 14.105000 l 23.632500 12.705000 l cp s
/Helvetica-Bold-latin1 ff 0.700000 scf sf
(PartitionData) dup sw 2 div 20.351250 ex sub 13.455000 m
 gs 1 -1 sc sh gr
1.000000 1.000000 1.000000 srgb
n 17.070000 14.105000 m 17.070000 14.505000 l 23.632500 14.505000 l 23.632500 14.105000 l f
0.000000 0.000000 0.000000 srgb
n 17.070000 14.105000 m 17.070000 14.505000 l 23.632500 14.505000 l 23.632500 14.105000 l cp s
1.000000 1.000000 1.000000 srgb
n 17.070000 14.505000 m 17.070000 14.905000 l 23.632500 14.905000 l 23.632500 14.505000 l f
0.000000 0.000000 0.000000 srgb
n 17.070000 14.505000 m 17.070000 14.905000 l 23.632500 14.905000 l 23.632500 14.505000 l cp s
0.100000 slw
[] 0 sd
1.000000 1.000000 1.000000 srgb
n 53.990000 9.910000 m 53.990000 11.310000 l 60.220000 11.310000 l 60.220000 9.910000 l f
0.000000 0.000000 0.000000 srgb
n 53.990000 9.910000 m 53.990000 11.310000 l 60.220000 11.310000 l 60.220000 9.910000 l cp s
/Helvetica-Bold-latin1 ff 0.700000 scf sf
(GlobalSolver) dup sw 2 div 57.105000 ex sub 10.660000 m
 gs 1 -1 sc sh gr
1.000000 1.000000 1.000000 srgb
n 53.990000 11.310000 m 53.990000 11.710000 l 60.220000 11.710000 l 60.220000 11.310000 l f
0.000000 0.000000 0.000000 srgb
n 53.990000 11.310000 m 53.990000 11.710000 l 60.220000 11.710000 l 60.220000 11.310000 l cp s
1.000000 1.000000 1.000000 srgb
n 53.990000 11.710000 m 53.990000 12.110000 l 60.220000 12.110000 l 60.220000 11.710000 l f
0.000000 0.000000 0.000000 srgb
n 53.990000 11.710000 m 53.990000 12.110000 l 60.220000 12.110000 l 60.220000 11.710000 l cp s
0.100000 slw
[] 0 sd
1.000000 1.000000 1.000000 srgb
n 53.960000 15.465000 m 53.960000 16.865000 l 64.705000 16.865000 l 64.705000 15.465000 l f
0.000000 0.000000 0.000000 srgb
n 53.960000 15.465000 m 53.960000 16.865000 l 64.705000 16.865000 l 64.705000 15.465000 l cp s
/Helvetica-Bold-latin1 ff 0.700000 scf sf
(ElementElementSolver) dup sw 2 div 59.332500 ex sub 16.215000 m
 gs 1 -1 sc sh gr
1.000000 1.000000 1.000000 srgb
n 53.960000 16.865000 m 53.960000 17.265000 l 64.705000 17.265000 l 64.705000 16.865000 l f
0.000000 0.000000 0.000000 srgb
n 53.960000 16.865000 m 53.960000 17.265000 l 64.705000 17.265000 l 64.705000 16.865000 l cp s
1.000000 1.000000 1.000000 srgb
n 53.960000 17.265000 m 53.960000 17.665000 l 64.705000 17.665000 l 64.705000 17.265000 l f
0.000000 0.000000 0.000000 srgb
n 53.960000 17.265000 m 53.960000 17.665000 l 64.705000 17.665000 l 64.705000 17.265000 l cp s
0.100000 slw
[] 0 sd
1.000000 1.000000 1.000000 srgb
n 21.420000 19.205000 m 21.420000 21.405000 l 30.810000 21.405000 l 30.810000 19.205000 l f
0.000000 0.000000 0.000000 srgb
n 21.420000 19.205000 m 21.420000 21.405000 l 30.810000 21.405000 l 30.810000 19.205000 l cp s
/Courier-latin1 ff 0.560000 scf sf
(<<Struct>>) dup sw 2 div 26.115000 ex sub 19.845000 m
 gs 1 -1 sc sh gr
/Helvetica-Bold-latin1 ff 0.700000 scf sf
(TheoricalSolution_S) dup sw 2 div 26.115000 ex sub 20.755000 m
 gs 1 -1 sc sh gr
1.000000 1.000000 1.000000 srgb
n 21.420000 21.405000 m 21.420000 21.805000 l 30.810000 21.805000 l 30.810000 21.405000 l f
0.000000 0.000000 0.000000 srgb
n 21.420000 21.405000 m 21.420000 21.805000 l 30.810000 21.805000 l 30.810000 21.405000 l cp s
1.000000 1.000000 1.000000 srgb
n 21.420000 21.805000 m 21.420000 22.205000 l 30.810000 22.205000 l 30.810000 21.805000 l f
0.000000 0.000000 0.000000 srgb
n 21.420000 21.805000 m 21.420000 22.205000 l 30.810000 22.205000 l 30.810000 21.805000 l cp s
0.100000 slw
[] 0 sd
1.000000 1.000000 1.000000 srgb
n 33.720000 21.605000 m 33.720000 23.805000 l 40.927500 23.805000 l 40.927500 21.605000 l f
0.000000 0.000000 0.000000 srgb
n 33.720000 21.605000 m 33.720000 23.805000 l 40.927500 23.805000 l 40.927500 21.605000 l cp s
/Courier-latin1 ff 0.560000 scf sf
(<<Struct>>) dup sw 2 div 37.323750 ex sub 22.245000 m
 gs 1 -1 sc sh gr
/Helvetica-Bold-latin1 ff 0.700000 scf sf
(SolverParam_S) dup sw 2 div 37.323750 ex sub 23.155000 m
 gs 1 -1 sc sh gr
1.000000 1.000000 1.000000 srgb
n 33.720000 23.805000 m 33.720000 24.205000 l 40.927500 24.205000 l 40.927500 23.805000 l f
0.000000 0.000000 0.000000 srgb
n 33.720000 23.805000 m 33.720000 24.205000 l 40.927500 24.205000 l 40.927500 23.805000 l cp s
1.000000 1.000000 1.000000 srgb
n 33.720000 24.205000 m 33.720000 24.605000 l 40.927500 24.605000 l 40.927500 24.205000 l f
0.000000 0.000000 0.000000 srgb
n 33.720000 24.205000 m 33.720000 24.605000 l 40.927500 24.605000 l 40.927500 24.205000 l cp s
0.100000 slw
[] 0 sd
0 slj
0 slc
n 45.657256 13.800000 m 49.742533 13.800000 l 49.742533 11.010000 l 53.939614 11.010000 l s
0 slj
1.000000 1.000000 1.000000 srgb
n 45.657256 13.400000 m 44.857256 13.800000 l 45.657256 14.200000 l ef
0.100000 slw
[] 0 sd
0 slj
0.000000 0.000000 0.000000 srgb
n 45.657256 13.400000 m 44.857256 13.800000 l 45.657256 14.200000 l cp s
/Courier-latin1 ff 0.560000 scf sf
0.100000 slw
[] 0 sd
0 slj
0 slc
n 45.657256 13.800000 m 49.727561 13.800000 l 49.727561 16.565000 l 53.909669 16.565000 l s
0 slj
1.000000 1.000000 1.000000 srgb
n 45.657256 13.400000 m 44.857256 13.800000 l 45.657256 14.200000 l ef
0.100000 slw
[] 0 sd
0 slj
0.000000 0.000000 0.000000 srgb
n 45.657256 13.400000 m 44.857256 13.800000 l 45.657256 14.200000 l cp s
0.100000 slw
[] 0 sd
0 slj
0 slc
n 28.640968 13.800000 m 26.441227 13.800000 l 26.441227 13.805000 l 23.682907 13.805000 l s
[] 0 sd
0 slj
0 slc
1.000000 1.000000 1.000000 srgb
n 29.899547 13.800000 m 29.199547 14.040000 l 28.499547 13.800000 l 29.199547 13.560000 l ef
0.100000 slw
[] 0 sd
0 slj
0 slc
0.000000 0.000000 0.000000 srgb
n 29.899547 13.800000 m 29.199547 14.040000 l 28.499547 13.800000 l 29.199547 13.560000 l cp s
/Courier-latin1 ff 0.560000 scf sf
0.100000 slw
[] 0 sd
0 slj
0 slc
n 37.322500 18.108951 m 37.322500 18.352497 l 26.115000 18.352497 l 26.115000 19.154622 l s
[] 0 sd
0 slj
0 slc
1.000000 1.000000 1.000000 srgb
n 37.322500 16.850372 m 37.562500 17.550372 l 37.322500 18.250372 l 37.082500 17.550372 l ef
0.100000 slw
[] 0 sd
0 slj
0 slc
0.000000 0.000000 0.000000 srgb
n 37.322500 16.850372 m 37.562500 17.550372 l 37.322500 18.250372 l 37.082500 17.550372 l cp s
0.100000 slw
[] 0 sd
0 slj
0 slc
n 37.322500 18.108951 m 37.322500 19.552497 l 37.323750 19.552497 l 37.323750 21.554622 l s
[] 0 sd
0 slj
0 slc
1.000000 1.000000 1.000000 srgb
n 37.322500 16.850372 m 37.562500 17.550372 l 37.322500 18.250372 l 37.082500 17.550372 l ef
0.100000 slw
[] 0 sd
0 slj
0 slc
0.000000 0.000000 0.000000 srgb
n 37.322500 16.850372 m 37.562500 17.550372 l 37.322500 18.250372 l 37.082500 17.550372 l cp s
showpage
