%!PS-Adobe-3.0 EPSF-3.0
%%Creator: (MATLAB, The Mathworks, Inc. Version 8.5.0.197613 \(R2015a\). Operating System: Linux)
%%Title: /home/betogil/hp2fem-article/Text/eps/Efficiency_Hexa_10000_P1.eps
%%CreationDate: 2016-05-23T18:52:31
%%Pages: (atend)
%%BoundingBox: 0 0 701 459
%%LanguageLevel: 2
%%EndComments
%%BeginProlog
%%BeginResource: procset (Apache XML Graphics Std ProcSet) 1.2 0
%%Version: 1.2 0
%%Copyright: (Copyright 2001-2003,2010 The Apache Software Foundation. License terms: http://www.apache.org/licenses/LICENSE-2.0)
/bd{bind def}bind def
/ld{load def}bd
/GR/grestore ld
/M/moveto ld
/LJ/setlinejoin ld
/C/curveto ld
/f/fill ld
/LW/setlinewidth ld
/GC/setgray ld
/t/show ld
/N/newpath ld
/CT/concat ld
/cp/closepath ld
/S/stroke ld
/L/lineto ld
/CC/setcmykcolor ld
/A/ashow ld
/GS/gsave ld
/RC/setrgbcolor ld
/RM/rmoveto ld
/ML/setmiterlimit ld
/re {4 2 roll M
1 index 0 rlineto
0 exch rlineto
neg 0 rlineto
cp } bd
/_ctm matrix def
/_tm matrix def
/BT { _ctm currentmatrix pop matrix _tm copy pop 0 0 moveto } bd
/ET { _ctm setmatrix } bd
/iTm { _ctm setmatrix _tm concat } bd
/Tm { _tm astore pop iTm 0 0 moveto } bd
/ux 0.0 def
/uy 0.0 def
/F {
  /Tp exch def
  /Tf exch def
  Tf findfont Tp scalefont setfont
  /cf Tf def  /cs Tp def
} bd
/ULS {currentpoint /uy exch def /ux exch def} bd
/ULE {
  /Tcx currentpoint pop def
  gsave
  newpath
  cf findfont cs scalefont dup
  /FontMatrix get 0 get /Ts exch def /FontInfo get dup
  /UnderlinePosition get Ts mul /To exch def
  /UnderlineThickness get Ts mul /Tt exch def
  ux uy To add moveto  Tcx uy To add lineto
  Tt setlinewidth stroke
  grestore
} bd
/OLE {
  /Tcx currentpoint pop def
  gsave
  newpath
  cf findfont cs scalefont dup
  /FontMatrix get 0 get /Ts exch def /FontInfo get dup
  /UnderlinePosition get Ts mul /To exch def
  /UnderlineThickness get Ts mul /Tt exch def
  ux uy To add cs add moveto Tcx uy To add cs add lineto
  Tt setlinewidth stroke
  grestore
} bd
/SOE {
  /Tcx currentpoint pop def
  gsave
  newpath
  cf findfont cs scalefont dup
  /FontMatrix get 0 get /Ts exch def /FontInfo get dup
  /UnderlinePosition get Ts mul /To exch def
  /UnderlineThickness get Ts mul /Tt exch def
  ux uy To add cs 10 mul 26 idiv add moveto Tcx uy To add cs 10 mul 26 idiv add lineto
  Tt setlinewidth stroke
  grestore
} bd
/QT {
/Y22 exch store
/X22 exch store
/Y21 exch store
/X21 exch store
currentpoint
/Y21 load 2 mul add 3 div exch
/X21 load 2 mul add 3 div exch
/X21 load 2 mul /X22 load add 3 div
/Y21 load 2 mul /Y22 load add 3 div
/X22 load /Y22 load curveto
} bd
/SSPD {
dup length /d exch dict def
{
/v exch def
/k exch def
currentpagedevice k known {
/cpdv currentpagedevice k get def
v cpdv ne {
/upd false def
/nullv v type /nulltype eq def
/nullcpdv cpdv type /nulltype eq def
nullv nullcpdv or
{
/upd true def
} {
/sametype v type cpdv type eq def
sametype {
v type /arraytype eq {
/vlen v length def
/cpdvlen cpdv length def
vlen cpdvlen eq {
0 1 vlen 1 sub {
/i exch def
/obj v i get def
/cpdobj cpdv i get def
obj cpdobj ne {
/upd true def
exit
} if
} for
} {
/upd true def
} ifelse
} {
v type /dicttype eq {
v {
/dv exch def
/dk exch def
/cpddv cpdv dk get def
dv cpddv ne {
/upd true def
exit
} if
} forall
} {
/upd true def
} ifelse
} ifelse
} if
} ifelse
upd true eq {
d k v put
} if
} if
} if
} forall
d length 0 gt {
d setpagedevice
} if
} bd
%%EndResource
%%BeginResource: procset (Apache XML Graphics EPS ProcSet) 1.0 0
%%Version: 1.0 0
%%Copyright: (Copyright 2002-2003 The Apache Software Foundation. License terms: http://www.apache.org/licenses/LICENSE-2.0)
/BeginEPSF { %def
/b4_Inc_state save def         % Save state for cleanup
/dict_count countdictstack def % Count objects on dict stack
/op_count count 1 sub def      % Count objects on operand stack
userdict begin                 % Push userdict on dict stack
/showpage { } def              % Redefine showpage, { } = null proc
0 setgray 0 setlinecap         % Prepare graphics state
1 setlinewidth 0 setlinejoin
10 setmiterlimit [ ] 0 setdash newpath
/languagelevel where           % If level not equal to 1 then
{pop languagelevel             % set strokeadjust and
1 ne                           % overprint to their defaults.
{false setstrokeadjust false setoverprint
} if
} if
} bd
/EndEPSF { %def
count op_count sub {pop} repeat            % Clean up stacks
countdictstack dict_count sub {end} repeat
b4_Inc_state restore
} bd
%%EndResource
%FOPBeginFontDict
%%IncludeResource: font Courier-Bold
%%IncludeResource: font Helvetica
%%IncludeResource: font Courier-BoldOblique
%%IncludeResource: font Courier-Oblique
%%IncludeResource: font Times-Roman
%%IncludeResource: font Helvetica-BoldOblique
%%IncludeResource: font Helvetica-Bold
%%IncludeResource: font Helvetica-Oblique
%%IncludeResource: font Times-BoldItalic
%%IncludeResource: font Courier
%%IncludeResource: font Times-Italic
%%IncludeResource: font Times-Bold
%%IncludeResource: font Symbol
%%IncludeResource: font ZapfDingbats
%FOPEndFontDict
%%BeginResource: encoding WinAnsiEncoding
/WinAnsiEncoding [
/.notdef /.notdef /.notdef /.notdef /.notdef
/.notdef /.notdef /.notdef /.notdef /.notdef
/.notdef /.notdef /.notdef /.notdef /.notdef
/.notdef /.notdef /.notdef /.notdef /.notdef
/.notdef /.notdef /.notdef /.notdef /.notdef
/.notdef /.notdef /.notdef /.notdef /.notdef
/.notdef /.notdef /space /exclam /quotedbl
/numbersign /dollar /percent /ampersand /quotesingle
/parenleft /parenright /asterisk /plus /comma
/hyphen /period /slash /zero /one
/two /three /four /five /six
/seven /eight /nine /colon /semicolon
/less /equal /greater /question /at
/A /B /C /D /E
/F /G /H /I /J
/K /L /M /N /O
/P /Q /R /S /T
/U /V /W /X /Y
/Z /bracketleft /backslash /bracketright /asciicircum
/underscore /quoteleft /a /b /c
/d /e /f /g /h
/i /j /k /l /m
/n /o /p /q /r
/s /t /u /v /w
/x /y /z /braceleft /bar
/braceright /asciitilde /bullet /Euro /bullet
/quotesinglbase /florin /quotedblbase /ellipsis /dagger
/daggerdbl /circumflex /perthousand /Scaron /guilsinglleft
/OE /bullet /Zcaron /bullet /bullet
/quoteleft /quoteright /quotedblleft /quotedblright /bullet
/endash /emdash /asciitilde /trademark /scaron
/guilsinglright /oe /bullet /zcaron /Ydieresis
/space /exclamdown /cent /sterling /currency
/yen /brokenbar /section /dieresis /copyright
/ordfeminine /guillemotleft /logicalnot /sfthyphen /registered
/macron /degree /plusminus /twosuperior /threesuperior
/acute /mu /paragraph /middot /cedilla
/onesuperior /ordmasculine /guillemotright /onequarter /onehalf
/threequarters /questiondown /Agrave /Aacute /Acircumflex
/Atilde /Adieresis /Aring /AE /Ccedilla
/Egrave /Eacute /Ecircumflex /Edieresis /Igrave
/Iacute /Icircumflex /Idieresis /Eth /Ntilde
/Ograve /Oacute /Ocircumflex /Otilde /Odieresis
/multiply /Oslash /Ugrave /Uacute /Ucircumflex
/Udieresis /Yacute /Thorn /germandbls /agrave
/aacute /acircumflex /atilde /adieresis /aring
/ae /ccedilla /egrave /eacute /ecircumflex
/edieresis /igrave /iacute /icircumflex /idieresis
/eth /ntilde /ograve /oacute /ocircumflex
/otilde /odieresis /divide /oslash /ugrave
/uacute /ucircumflex /udieresis /yacute /thorn
/ydieresis
] def
%%EndResource
%FOPBeginFontReencode
/Courier-Bold findfont
dup length dict begin
  {1 index /FID ne {def} {pop pop} ifelse} forall
  /Encoding WinAnsiEncoding def
  currentdict
end
/Courier-Bold exch definefont pop
/Helvetica findfont
dup length dict begin
  {1 index /FID ne {def} {pop pop} ifelse} forall
  /Encoding WinAnsiEncoding def
  currentdict
end
/Helvetica exch definefont pop
/Courier-BoldOblique findfont
dup length dict begin
  {1 index /FID ne {def} {pop pop} ifelse} forall
  /Encoding WinAnsiEncoding def
  currentdict
end
/Courier-BoldOblique exch definefont pop
/Courier-Oblique findfont
dup length dict begin
  {1 index /FID ne {def} {pop pop} ifelse} forall
  /Encoding WinAnsiEncoding def
  currentdict
end
/Courier-Oblique exch definefont pop
/Times-Roman findfont
dup length dict begin
  {1 index /FID ne {def} {pop pop} ifelse} forall
  /Encoding WinAnsiEncoding def
  currentdict
end
/Times-Roman exch definefont pop
/Helvetica-BoldOblique findfont
dup length dict begin
  {1 index /FID ne {def} {pop pop} ifelse} forall
  /Encoding WinAnsiEncoding def
  currentdict
end
/Helvetica-BoldOblique exch definefont pop
/Helvetica-Bold findfont
dup length dict begin
  {1 index /FID ne {def} {pop pop} ifelse} forall
  /Encoding WinAnsiEncoding def
  currentdict
end
/Helvetica-Bold exch definefont pop
/Helvetica-Oblique findfont
dup length dict begin
  {1 index /FID ne {def} {pop pop} ifelse} forall
  /Encoding WinAnsiEncoding def
  currentdict
end
/Helvetica-Oblique exch definefont pop
/Times-BoldItalic findfont
dup length dict begin
  {1 index /FID ne {def} {pop pop} ifelse} forall
  /Encoding WinAnsiEncoding def
  currentdict
end
/Times-BoldItalic exch definefont pop
/Courier findfont
dup length dict begin
  {1 index /FID ne {def} {pop pop} ifelse} forall
  /Encoding WinAnsiEncoding def
  currentdict
end
/Courier exch definefont pop
/Times-Italic findfont
dup length dict begin
  {1 index /FID ne {def} {pop pop} ifelse} forall
  /Encoding WinAnsiEncoding def
  currentdict
end
/Times-Italic exch definefont pop
/Times-Bold findfont
dup length dict begin
  {1 index /FID ne {def} {pop pop} ifelse} forall
  /Encoding WinAnsiEncoding def
  currentdict
end
/Times-Bold exch definefont pop
%FOPEndFontReencode
%%EndProlog
%%Page: 1 1
%%PageBoundingBox: 0 0 701 459
%%BeginPageSetup
[1 0 0 -1 0 459] CT
%%EndPageSetup
GS
[0.75 0 0 0.75 0 0] CT
1 GC
N
0 0 935 612 re
f
GR
GS
[0.75 0 0 0.75 0 0] CT
1 GC
N
0 0 935 612 re
f
GR
GS
[0.75 0 0 0.75 0 0] CT
1 GC
N
120 521 M
844 521 L
844 22 L
120 22 L
cp
f
GR
GS
[0.75 0 0 0.75 0 0] CT
0.873 GC
2 setlinecap
10.0 ML
N
263.32 521 M
263.32 22 L
S
GR
GS
[0.75 0 0 0.75 0 0] CT
0.873 GC
2 setlinecap
10.0 ML
N
334.98 521 M
334.98 22 L
S
GR
GS
[0.75 0 0 0.75 0 0] CT
0.873 GC
2 setlinecap
10.0 ML
N
406.639 521 M
406.639 22 L
S
GR
GS
[0.75 0 0 0.75 0 0] CT
0.873 GC
2 setlinecap
10.0 ML
N
478.299 521 M
478.299 22 L
S
GR
GS
[0.75 0 0 0.75 0 0] CT
0.873 GC
2 setlinecap
10.0 ML
N
549.959 521 M
549.959 22 L
S
GR
GS
[0.75 0 0 0.75 0 0] CT
0.873 GC
2 setlinecap
10.0 ML
N
621.619 521 M
621.619 22 L
S
GR
GS
[0.75 0 0 0.75 0 0] CT
0.873 GC
2 setlinecap
10.0 ML
N
693.279 521 M
693.279 22 L
S
GR
GS
[0.75 0 0 0.75 0 0] CT
0.873 GC
2 setlinecap
10.0 ML
N
764.939 521 M
764.939 22 L
S
GR
GS
[0.75 0 0 0.75 0 0] CT
0.873 GC
2 setlinecap
10.0 ML
N
836.598 521 M
836.598 22 L
S
GR
GS
[0.75 0 0 0.75 0 0] CT
0.775 GC
[1 3] 0 setdash
2 LJ
N
844 508.888 M
120 508.888 L
S
GR
GS
[0.75 0 0 0.75 0 0] CT
0.775 GC
[1 3] 0 setdash
2 LJ
N
844 496.777 M
120 496.777 L
S
GR
GS
[0.75 0 0 0.75 0 0] CT
0.775 GC
[1 3] 0 setdash
2 LJ
N
844 484.665 M
120 484.665 L
S
GR
GS
[0.75 0 0 0.75 0 0] CT
0.775 GC
[1 3] 0 setdash
2 LJ
N
844 460.442 M
120 460.442 L
S
GR
GS
[0.75 0 0 0.75 0 0] CT
0.775 GC
[1 3] 0 setdash
2 LJ
N
844 448.33 M
120 448.33 L
S
GR
GS
[0.75 0 0 0.75 0 0] CT
0.775 GC
[1 3] 0 setdash
2 LJ
N
844 436.218 M
120 436.218 L
S
GR
GS
[0.75 0 0 0.75 0 0] CT
0.775 GC
[1 3] 0 setdash
2 LJ
N
844 411.995 M
120 411.995 L
S
GR
GS
[0.75 0 0 0.75 0 0] CT
0.775 GC
[1 3] 0 setdash
2 LJ
N
844 399.883 M
120 399.883 L
S
GR
GS
[0.75 0 0 0.75 0 0] CT
0.775 GC
[1 3] 0 setdash
2 LJ
N
844 387.772 M
120 387.772 L
S
GR
GS
[0.75 0 0 0.75 0 0] CT
0.775 GC
[1 3] 0 setdash
2 LJ
N
844 363.549 M
120 363.549 L
S
GR
GS
[0.75 0 0 0.75 0 0] CT
0.775 GC
[1 3] 0 setdash
2 LJ
N
844 351.437 M
120 351.437 L
S
GR
GS
[0.75 0 0 0.75 0 0] CT
0.775 GC
[1 3] 0 setdash
2 LJ
N
844 339.325 M
120 339.325 L
S
GR
GS
[0.75 0 0 0.75 0 0] CT
0.775 GC
[1 3] 0 setdash
2 LJ
N
844 315.102 M
120 315.102 L
S
GR
GS
[0.75 0 0 0.75 0 0] CT
0.775 GC
[1 3] 0 setdash
2 LJ
N
844 302.99 M
120 302.99 L
S
GR
GS
[0.75 0 0 0.75 0 0] CT
0.775 GC
[1 3] 0 setdash
2 LJ
N
844 290.879 M
120 290.879 L
S
GR
GS
[0.75 0 0 0.75 0 0] CT
0.775 GC
[1 3] 0 setdash
2 LJ
N
844 266.655 M
120 266.655 L
S
GR
GS
[0.75 0 0 0.75 0 0] CT
0.775 GC
[1 3] 0 setdash
2 LJ
N
844 254.544 M
120 254.544 L
S
GR
GS
[0.75 0 0 0.75 0 0] CT
0.775 GC
[1 3] 0 setdash
2 LJ
N
844 242.432 M
120 242.432 L
S
GR
GS
[0.75 0 0 0.75 0 0] CT
0.775 GC
[1 3] 0 setdash
2 LJ
N
844 218.209 M
120 218.209 L
S
GR
GS
[0.75 0 0 0.75 0 0] CT
0.775 GC
[1 3] 0 setdash
2 LJ
N
844 206.097 M
120 206.097 L
S
GR
GS
[0.75 0 0 0.75 0 0] CT
0.775 GC
[1 3] 0 setdash
2 LJ
N
844 193.985 M
120 193.985 L
S
GR
GS
[0.75 0 0 0.75 0 0] CT
0.775 GC
[1 3] 0 setdash
2 LJ
N
844 169.762 M
120 169.762 L
S
GR
GS
[0.75 0 0 0.75 0 0] CT
0.775 GC
[1 3] 0 setdash
2 LJ
N
844 157.65 M
120 157.65 L
S
GR
GS
[0.75 0 0 0.75 0 0] CT
0.775 GC
[1 3] 0 setdash
2 LJ
N
844 145.539 M
120 145.539 L
S
GR
GS
[0.75 0 0 0.75 0 0] CT
0.775 GC
[1 3] 0 setdash
2 LJ
N
844 121.316 M
120 121.316 L
S
GR
GS
[0.75 0 0 0.75 0 0] CT
0.775 GC
[1 3] 0 setdash
2 LJ
N
844 109.204 M
120 109.204 L
S
GR
GS
[0.75 0 0 0.75 0 0] CT
0.775 GC
[1 3] 0 setdash
2 LJ
N
844 97.092 M
120 97.092 L
S
GR
GS
[0.75 0 0 0.75 0 0] CT
0.775 GC
[1 3] 0 setdash
2 LJ
N
844 72.869 M
120 72.869 L
S
GR
GS
[0.75 0 0 0.75 0 0] CT
0.775 GC
[1 3] 0 setdash
2 LJ
N
844 60.757 M
120 60.757 L
S
GR
GS
[0.75 0 0 0.75 0 0] CT
0.775 GC
[1 3] 0 setdash
2 LJ
N
844 48.646 M
120 48.646 L
S
GR
GS
[0.75 0 0 0.75 0 0] CT
0.775 GC
[1 3] 0 setdash
2 LJ
N
844 24.422 M
120 24.422 L
S
GR
GS
[0.75 0 0 0.75 0 0] CT
0.873 GC
2 setlinecap
10.0 ML
N
844 521 M
120 521 L
S
GR
GS
[0.75 0 0 0.75 0 0] CT
0.873 GC
2 setlinecap
10.0 ML
N
844 472.553 M
120 472.553 L
S
GR
GS
[0.75 0 0 0.75 0 0] CT
0.873 GC
2 setlinecap
10.0 ML
N
844 424.107 M
120 424.107 L
S
GR
GS
[0.75 0 0 0.75 0 0] CT
0.873 GC
2 setlinecap
10.0 ML
N
844 375.66 M
120 375.66 L
S
GR
GS
[0.75 0 0 0.75 0 0] CT
0.873 GC
2 setlinecap
10.0 ML
N
844 327.214 M
120 327.214 L
S
GR
GS
[0.75 0 0 0.75 0 0] CT
0.873 GC
2 setlinecap
10.0 ML
N
844 278.767 M
120 278.767 L
S
GR
GS
[0.75 0 0 0.75 0 0] CT
0.873 GC
2 setlinecap
10.0 ML
N
844 230.32 M
120 230.32 L
S
GR
GS
[0.75 0 0 0.75 0 0] CT
0.873 GC
2 setlinecap
10.0 ML
N
844 181.874 M
120 181.874 L
S
GR
GS
[0.75 0 0 0.75 0 0] CT
0.873 GC
2 setlinecap
10.0 ML
N
844 133.427 M
120 133.427 L
S
GR
GS
[0.75 0 0 0.75 0 0] CT
0.873 GC
2 setlinecap
10.0 ML
N
844 84.981 M
120 84.981 L
S
GR
GS
[0.75 0 0 0.75 0 0] CT
0.873 GC
2 setlinecap
10.0 ML
N
844 36.534 M
120 36.534 L
S
GR
GS
[0.75 0 0 0.75 372.00025 431.00002] CT
0.149 GC
/Times 33 F
GS
[1 0 0 1 0 0] CT
-181.5 31 moveto 
1 -1 scale
(Number of Processors) t 
GR
GR
GS
[0.75 0 0 0.75 0 0] CT
0.149 GC
2 setlinecap
10.0 ML
N
120 521 M
844 521 L
S
GR
GS
[0.75 0 0 0.75 0 0] CT
0.149 GC
2 setlinecap
10.0 ML
N
120 22 M
844 22 L
S
GR
GS
[0.75 0 0 0.75 0 0] CT
0.149 GC
2 setlinecap
10.0 ML
N
263.32 521 M
263.32 513.76 L
S
GR
GS
[0.75 0 0 0.75 0 0] CT
0.149 GC
2 setlinecap
10.0 ML
N
334.98 521 M
334.98 513.76 L
S
GR
GS
[0.75 0 0 0.75 0 0] CT
0.149 GC
2 setlinecap
10.0 ML
N
406.639 521 M
406.639 513.76 L
S
GR
GS
[0.75 0 0 0.75 0 0] CT
0.149 GC
2 setlinecap
10.0 ML
N
478.299 521 M
478.299 513.76 L
S
GR
GS
[0.75 0 0 0.75 0 0] CT
0.149 GC
2 setlinecap
10.0 ML
N
549.959 521 M
549.959 513.76 L
S
GR
GS
[0.75 0 0 0.75 0 0] CT
0.149 GC
2 setlinecap
10.0 ML
N
621.619 521 M
621.619 513.76 L
S
GR
GS
[0.75 0 0 0.75 0 0] CT
0.149 GC
2 setlinecap
10.0 ML
N
693.279 521 M
693.279 513.76 L
S
GR
GS
[0.75 0 0 0.75 0 0] CT
0.149 GC
2 setlinecap
10.0 ML
N
764.939 521 M
764.939 513.76 L
S
GR
GS
[0.75 0 0 0.75 0 0] CT
0.149 GC
2 setlinecap
10.0 ML
N
836.598 521 M
836.598 513.76 L
S
GR
GS
[0.75 0 0 0.75 0 0] CT
0.149 GC
2 setlinecap
10.0 ML
N
263.32 22 M
263.32 29.24 L
S
GR
GS
[0.75 0 0 0.75 0 0] CT
0.149 GC
2 setlinecap
10.0 ML
N
334.98 22 M
334.98 29.24 L
S
GR
GS
[0.75 0 0 0.75 0 0] CT
0.149 GC
2 setlinecap
10.0 ML
N
406.639 22 M
406.639 29.24 L
S
GR
GS
[0.75 0 0 0.75 0 0] CT
0.149 GC
2 setlinecap
10.0 ML
N
478.299 22 M
478.299 29.24 L
S
GR
GS
[0.75 0 0 0.75 0 0] CT
0.149 GC
2 setlinecap
10.0 ML
N
549.959 22 M
549.959 29.24 L
S
GR
GS
[0.75 0 0 0.75 0 0] CT
0.149 GC
2 setlinecap
10.0 ML
N
621.619 22 M
621.619 29.24 L
S
GR
GS
[0.75 0 0 0.75 0 0] CT
0.149 GC
2 setlinecap
10.0 ML
N
693.279 22 M
693.279 29.24 L
S
GR
GS
[0.75 0 0 0.75 0 0] CT
0.149 GC
2 setlinecap
10.0 ML
N
764.939 22 M
764.939 29.24 L
S
GR
GS
[0.75 0 0 0.75 0 0] CT
0.149 GC
2 setlinecap
10.0 ML
N
836.598 22 M
836.598 29.24 L
S
GR
GS
[0.75 0 0 0.75 197.48975 397.74998] CT
0.149 GC
/Times 33 F
GS
[1 0 0 1 0 0] CT
-10.5 31 moveto 
1 -1 scale
(4) t 
GR
GR
GS
[0.75 0 0 0.75 251.23464 397.74998] CT
0.149 GC
/Times 33 F
GS
[1 0 0 1 0 0] CT
-10.5 31 moveto 
1 -1 scale
(8) t 
GR
GR
GS
[0.75 0 0 0.75 304.97951 397.74998] CT
0.149 GC
/Times 33 F
GS
[1 0 0 1 0 0] CT
-21 31 moveto 
1 -1 scale
(16) t 
GR
GR
GS
[0.75 0 0 0.75 358.7244 397.74998] CT
0.149 GC
/Times 33 F
GS
[1 0 0 1 0 0] CT
-21 31 moveto 
1 -1 scale
(32) t 
GR
GR
GS
[0.75 0 0 0.75 412.46928 397.74998] CT
0.149 GC
/Times 33 F
GS
[1 0 0 1 0 0] CT
-21 31 moveto 
1 -1 scale
(64) t 
GR
GR
GS
[0.75 0 0 0.75 466.21417 397.74998] CT
0.149 GC
/Times 33 F
GS
[1 0 0 1 0 0] CT
-31.5 31 moveto 
1 -1 scale
(128) t 
GR
GR
GS
[0.75 0 0 0.75 519.95901 397.74998] CT
0.149 GC
/Times 33 F
GS
[1 0 0 1 0 0] CT
-31.5 31 moveto 
1 -1 scale
(256) t 
GR
GR
GS
[0.75 0 0 0.75 573.7039 397.74998] CT
0.149 GC
/Times 33 F
GS
[1 0 0 1 0 0] CT
-31.5 31 moveto 
1 -1 scale
(512) t 
GR
GR
GS
[0.75 0 0 0.75 627.44879 397.74998] CT
0.149 GC
/Times 33 F
GS
[1 0 0 1 0 0] CT
-42 31 moveto 
1 -1 scale
(1024) t 
GR
GR
GS
[0.75 0 0 0.75 0 0] CT
0.149 GC
2 setlinecap
10.0 ML
N
120 508.888 M
123.62 508.888 L
S
GR
GS
[0.75 0 0 0.75 0 0] CT
0.149 GC
2 setlinecap
10.0 ML
N
120 496.777 M
123.62 496.777 L
S
GR
GS
[0.75 0 0 0.75 0 0] CT
0.149 GC
2 setlinecap
10.0 ML
N
120 484.665 M
123.62 484.665 L
S
GR
GS
[0.75 0 0 0.75 0 0] CT
0.149 GC
2 setlinecap
10.0 ML
N
120 460.442 M
123.62 460.442 L
S
GR
GS
[0.75 0 0 0.75 0 0] CT
0.149 GC
2 setlinecap
10.0 ML
N
120 448.33 M
123.62 448.33 L
S
GR
GS
[0.75 0 0 0.75 0 0] CT
0.149 GC
2 setlinecap
10.0 ML
N
120 436.218 M
123.62 436.218 L
S
GR
GS
[0.75 0 0 0.75 0 0] CT
0.149 GC
2 setlinecap
10.0 ML
N
120 411.995 M
123.62 411.995 L
S
GR
GS
[0.75 0 0 0.75 0 0] CT
0.149 GC
2 setlinecap
10.0 ML
N
120 399.883 M
123.62 399.883 L
S
GR
GS
[0.75 0 0 0.75 0 0] CT
0.149 GC
2 setlinecap
10.0 ML
N
120 387.772 M
123.62 387.772 L
S
GR
GS
[0.75 0 0 0.75 0 0] CT
0.149 GC
2 setlinecap
10.0 ML
N
120 363.549 M
123.62 363.549 L
S
GR
GS
[0.75 0 0 0.75 0 0] CT
0.149 GC
2 setlinecap
10.0 ML
N
120 351.437 M
123.62 351.437 L
S
GR
GS
[0.75 0 0 0.75 0 0] CT
0.149 GC
2 setlinecap
10.0 ML
N
120 339.325 M
123.62 339.325 L
S
GR
GS
[0.75 0 0 0.75 0 0] CT
0.149 GC
2 setlinecap
10.0 ML
N
120 315.102 M
123.62 315.102 L
S
GR
GS
[0.75 0 0 0.75 0 0] CT
0.149 GC
2 setlinecap
10.0 ML
N
120 302.99 M
123.62 302.99 L
S
GR
GS
[0.75 0 0 0.75 0 0] CT
0.149 GC
2 setlinecap
10.0 ML
N
120 290.879 M
123.62 290.879 L
S
GR
GS
[0.75 0 0 0.75 0 0] CT
0.149 GC
2 setlinecap
10.0 ML
N
120 266.655 M
123.62 266.655 L
S
GR
GS
[0.75 0 0 0.75 0 0] CT
0.149 GC
2 setlinecap
10.0 ML
N
120 254.544 M
123.62 254.544 L
S
GR
GS
[0.75 0 0 0.75 0 0] CT
0.149 GC
2 setlinecap
10.0 ML
N
120 242.432 M
123.62 242.432 L
S
GR
GS
[0.75 0 0 0.75 0 0] CT
0.149 GC
2 setlinecap
10.0 ML
N
120 218.209 M
123.62 218.209 L
S
GR
GS
[0.75 0 0 0.75 0 0] CT
0.149 GC
2 setlinecap
10.0 ML
N
120 206.097 M
123.62 206.097 L
S
GR
GS
[0.75 0 0 0.75 0 0] CT
0.149 GC
2 setlinecap
10.0 ML
N
120 193.985 M
123.62 193.985 L
S
GR
GS
[0.75 0 0 0.75 0 0] CT
0.149 GC
2 setlinecap
10.0 ML
N
120 169.762 M
123.62 169.762 L
S
GR
GS
[0.75 0 0 0.75 0 0] CT
0.149 GC
2 setlinecap
10.0 ML
N
120 157.65 M
123.62 157.65 L
S
GR
GS
[0.75 0 0 0.75 0 0] CT
0.149 GC
2 setlinecap
10.0 ML
N
120 145.539 M
123.62 145.539 L
S
GR
GS
[0.75 0 0 0.75 0 0] CT
0.149 GC
2 setlinecap
10.0 ML
N
120 121.316 M
123.62 121.316 L
S
GR
GS
[0.75 0 0 0.75 0 0] CT
0.149 GC
2 setlinecap
10.0 ML
N
120 109.204 M
123.62 109.204 L
S
GR
GS
[0.75 0 0 0.75 0 0] CT
0.149 GC
2 setlinecap
10.0 ML
N
120 97.092 M
123.62 97.092 L
S
GR
GS
[0.75 0 0 0.75 0 0] CT
0.149 GC
2 setlinecap
10.0 ML
N
120 72.869 M
123.62 72.869 L
S
GR
GS
[0.75 0 0 0.75 0 0] CT
0.149 GC
2 setlinecap
10.0 ML
N
120 60.757 M
123.62 60.757 L
S
GR
GS
[0.75 0 0 0.75 0 0] CT
0.149 GC
2 setlinecap
10.0 ML
N
120 48.646 M
123.62 48.646 L
S
GR
GS
[0.75 0 0 0.75 0 0] CT
0.149 GC
2 setlinecap
10.0 ML
N
120 24.422 M
123.62 24.422 L
S
GR
GS
[0.75 0 0 0.75 0 0] CT
0.149 GC
2 setlinecap
10.0 ML
N
844 508.888 M
840.38 508.888 L
S
GR
GS
[0.75 0 0 0.75 0 0] CT
0.149 GC
2 setlinecap
10.0 ML
N
844 496.777 M
840.38 496.777 L
S
GR
GS
[0.75 0 0 0.75 0 0] CT
0.149 GC
2 setlinecap
10.0 ML
N
844 484.665 M
840.38 484.665 L
S
GR
GS
[0.75 0 0 0.75 0 0] CT
0.149 GC
2 setlinecap
10.0 ML
N
844 460.442 M
840.38 460.442 L
S
GR
GS
[0.75 0 0 0.75 0 0] CT
0.149 GC
2 setlinecap
10.0 ML
N
844 448.33 M
840.38 448.33 L
S
GR
GS
[0.75 0 0 0.75 0 0] CT
0.149 GC
2 setlinecap
10.0 ML
N
844 436.218 M
840.38 436.218 L
S
GR
GS
[0.75 0 0 0.75 0 0] CT
0.149 GC
2 setlinecap
10.0 ML
N
844 411.995 M
840.38 411.995 L
S
GR
GS
[0.75 0 0 0.75 0 0] CT
0.149 GC
2 setlinecap
10.0 ML
N
844 399.883 M
840.38 399.883 L
S
GR
GS
[0.75 0 0 0.75 0 0] CT
0.149 GC
2 setlinecap
10.0 ML
N
844 387.772 M
840.38 387.772 L
S
GR
GS
[0.75 0 0 0.75 0 0] CT
0.149 GC
2 setlinecap
10.0 ML
N
844 363.549 M
840.38 363.549 L
S
GR
GS
[0.75 0 0 0.75 0 0] CT
0.149 GC
2 setlinecap
10.0 ML
N
844 351.437 M
840.38 351.437 L
S
GR
GS
[0.75 0 0 0.75 0 0] CT
0.149 GC
2 setlinecap
10.0 ML
N
844 339.325 M
840.38 339.325 L
S
GR
GS
[0.75 0 0 0.75 0 0] CT
0.149 GC
2 setlinecap
10.0 ML
N
844 315.102 M
840.38 315.102 L
S
GR
GS
[0.75 0 0 0.75 0 0] CT
0.149 GC
2 setlinecap
10.0 ML
N
844 302.99 M
840.38 302.99 L
S
GR
GS
[0.75 0 0 0.75 0 0] CT
0.149 GC
2 setlinecap
10.0 ML
N
844 290.879 M
840.38 290.879 L
S
GR
GS
[0.75 0 0 0.75 0 0] CT
0.149 GC
2 setlinecap
10.0 ML
N
844 266.655 M
840.38 266.655 L
S
GR
GS
[0.75 0 0 0.75 0 0] CT
0.149 GC
2 setlinecap
10.0 ML
N
844 254.544 M
840.38 254.544 L
S
GR
GS
[0.75 0 0 0.75 0 0] CT
0.149 GC
2 setlinecap
10.0 ML
N
844 242.432 M
840.38 242.432 L
S
GR
GS
[0.75 0 0 0.75 0 0] CT
0.149 GC
2 setlinecap
10.0 ML
N
844 218.209 M
840.38 218.209 L
S
GR
GS
[0.75 0 0 0.75 0 0] CT
0.149 GC
2 setlinecap
10.0 ML
N
844 206.097 M
840.38 206.097 L
S
GR
GS
[0.75 0 0 0.75 0 0] CT
0.149 GC
2 setlinecap
10.0 ML
N
844 193.985 M
840.38 193.985 L
S
GR
GS
[0.75 0 0 0.75 0 0] CT
0.149 GC
2 setlinecap
10.0 ML
N
844 169.762 M
840.38 169.762 L
S
GR
GS
[0.75 0 0 0.75 0 0] CT
0.149 GC
2 setlinecap
10.0 ML
N
844 157.65 M
840.38 157.65 L
S
GR
GS
[0.75 0 0 0.75 0 0] CT
0.149 GC
2 setlinecap
10.0 ML
N
844 145.539 M
840.38 145.539 L
S
GR
GS
[0.75 0 0 0.75 0 0] CT
0.149 GC
2 setlinecap
10.0 ML
N
844 121.316 M
840.38 121.316 L
S
GR
GS
[0.75 0 0 0.75 0 0] CT
0.149 GC
2 setlinecap
10.0 ML
N
844 109.204 M
840.38 109.204 L
S
GR
GS
[0.75 0 0 0.75 0 0] CT
0.149 GC
2 setlinecap
10.0 ML
N
844 97.092 M
840.38 97.092 L
S
GR
GS
[0.75 0 0 0.75 0 0] CT
0.149 GC
2 setlinecap
10.0 ML
N
844 72.869 M
840.38 72.869 L
S
GR
GS
[0.75 0 0 0.75 0 0] CT
0.149 GC
2 setlinecap
10.0 ML
N
844 60.757 M
840.38 60.757 L
S
GR
GS
[0.75 0 0 0.75 0 0] CT
0.149 GC
2 setlinecap
10.0 ML
N
844 48.646 M
840.38 48.646 L
S
GR
GS
[0.75 0 0 0.75 0 0] CT
0.149 GC
2 setlinecap
10.0 ML
N
844 24.422 M
840.38 24.422 L
S
GR
GS
[0 -0.75 0.75 0 35 204.40942] CT
0.149 GC
/Times 33 F
GS
[1 0 0 1 0 0] CT
-188.5 -8 moveto 
1 -1 scale
(Efficiency \(SpeedUp/p\)) t 
GR
GR
GS
[0.75 0 0 0.75 0 0] CT
0.149 GC
2 setlinecap
10.0 ML
N
120 521 M
120 22 L
S
GR
GS
[0.75 0 0 0.75 0 0] CT
0.149 GC
2 setlinecap
10.0 ML
N
844 521 M
844 22 L
S
GR
GS
[0.75 0 0 0.75 0 0] CT
0.149 GC
2 setlinecap
10.0 ML
N
120 521 M
127.24 521 L
S
GR
GS
[0.75 0 0 0.75 0 0] CT
0.149 GC
2 setlinecap
10.0 ML
N
120 472.553 M
127.24 472.553 L
S
GR
GS
[0.75 0 0 0.75 0 0] CT
0.149 GC
2 setlinecap
10.0 ML
N
120 424.107 M
127.24 424.107 L
S
GR
GS
[0.75 0 0 0.75 0 0] CT
0.149 GC
2 setlinecap
10.0 ML
N
120 375.66 M
127.24 375.66 L
S
GR
GS
[0.75 0 0 0.75 0 0] CT
0.149 GC
2 setlinecap
10.0 ML
N
120 327.214 M
127.24 327.214 L
S
GR
GS
[0.75 0 0 0.75 0 0] CT
0.149 GC
2 setlinecap
10.0 ML
N
120 278.767 M
127.24 278.767 L
S
GR
GS
[0.75 0 0 0.75 0 0] CT
0.149 GC
2 setlinecap
10.0 ML
N
120 230.32 M
127.24 230.32 L
S
GR
GS
[0.75 0 0 0.75 0 0] CT
0.149 GC
2 setlinecap
10.0 ML
N
120 181.874 M
127.24 181.874 L
S
GR
GS
[0.75 0 0 0.75 0 0] CT
0.149 GC
2 setlinecap
10.0 ML
N
120 133.427 M
127.24 133.427 L
S
GR
GS
[0.75 0 0 0.75 0 0] CT
0.149 GC
2 setlinecap
10.0 ML
N
120 84.981 M
127.24 84.981 L
S
GR
GS
[0.75 0 0 0.75 0 0] CT
0.149 GC
2 setlinecap
10.0 ML
N
120 36.534 M
127.24 36.534 L
S
GR
GS
[0.75 0 0 0.75 0 0] CT
0.149 GC
2 setlinecap
10.0 ML
N
844 521 M
836.76 521 L
S
GR
GS
[0.75 0 0 0.75 0 0] CT
0.149 GC
2 setlinecap
10.0 ML
N
844 472.553 M
836.76 472.553 L
S
GR
GS
[0.75 0 0 0.75 0 0] CT
0.149 GC
2 setlinecap
10.0 ML
N
844 424.107 M
836.76 424.107 L
S
GR
GS
[0.75 0 0 0.75 0 0] CT
0.149 GC
2 setlinecap
10.0 ML
N
844 375.66 M
836.76 375.66 L
S
GR
GS
[0.75 0 0 0.75 0 0] CT
0.149 GC
2 setlinecap
10.0 ML
N
844 327.214 M
836.76 327.214 L
S
GR
GS
[0.75 0 0 0.75 0 0] CT
0.149 GC
2 setlinecap
10.0 ML
N
844 278.767 M
836.76 278.767 L
S
GR
GS
[0.75 0 0 0.75 0 0] CT
0.149 GC
2 setlinecap
10.0 ML
N
844 230.32 M
836.76 230.32 L
S
GR
GS
[0.75 0 0 0.75 0 0] CT
0.149 GC
2 setlinecap
10.0 ML
N
844 181.874 M
836.76 181.874 L
S
GR
GS
[0.75 0 0 0.75 0 0] CT
0.149 GC
2 setlinecap
10.0 ML
N
844 133.427 M
836.76 133.427 L
S
GR
GS
[0.75 0 0 0.75 0 0] CT
0.149 GC
2 setlinecap
10.0 ML
N
844 84.981 M
836.76 84.981 L
S
GR
GS
[0.75 0 0 0.75 0 0] CT
0.149 GC
2 setlinecap
10.0 ML
N
844 36.534 M
836.76 36.534 L
S
GR
GS
[0.75 0 0 0.75 83 390.75] CT
0.149 GC
/Times 33 F
GS
[1 0 0 1 0 0] CT
-21 11.5 moveto 
1 -1 scale
(0) t 
GR
GR
GS
[0.75 0 0 0.75 83 354.41505] CT
0.149 GC
/Times 33 F
GS
[1 0 0 1 0 0] CT
-53 11.5 moveto 
1 -1 scale
(0.1) t 
GR
GR
GS
[0.75 0 0 0.75 83 318.08011] CT
0.149 GC
/Times 33 F
GS
[1 0 0 1 0 0] CT
-53 11.5 moveto 
1 -1 scale
(0.2) t 
GR
GR
GS
[0.75 0 0 0.75 83 281.74514] CT
0.149 GC
/Times 33 F
GS
[1 0 0 1 0 0] CT
-53 11.5 moveto 
1 -1 scale
(0.3) t 
GR
GR
GS
[0.75 0 0 0.75 83 245.41019] CT
0.149 GC
/Times 33 F
GS
[1 0 0 1 0 0] CT
-53 11.5 moveto 
1 -1 scale
(0.4) t 
GR
GR
GS
[0.75 0 0 0.75 83 209.07525] CT
0.149 GC
/Times 33 F
GS
[1 0 0 1 0 0] CT
-53 11.5 moveto 
1 -1 scale
(0.5) t 
GR
GR
GS
[0.75 0 0 0.75 83 172.74028] CT
0.149 GC
/Times 33 F
GS
[1 0 0 1 0 0] CT
-53 11.5 moveto 
1 -1 scale
(0.6) t 
GR
GR
GS
[0.75 0 0 0.75 83 136.40535] CT
0.149 GC
/Times 33 F
GS
[1 0 0 1 0 0] CT
-53 11.5 moveto 
1 -1 scale
(0.7) t 
GR
GR
GS
[0.75 0 0 0.75 83 100.0704] CT
0.149 GC
/Times 33 F
GS
[1 0 0 1 0 0] CT
-53 11.5 moveto 
1 -1 scale
(0.8) t 
GR
GR
GS
[0.75 0 0 0.75 83 63.73544] CT
0.149 GC
/Times 33 F
GS
[1 0 0 1 0 0] CT
-53 11.5 moveto 
1 -1 scale
(0.9) t 
GR
GR
GS
[0.75 0 0 0.75 83 27.40049] CT
0.149 GC
/Times 33 F
GS
[1 0 0 1 0 0] CT
-21 11.5 moveto 
1 -1 scale
(1) t 
GR
GR
GS
[0.75 0 0 0.75 0 0] CT
0 0.447 0.741 RC
2 setlinecap
10.0 ML
2.667 LW
N
120 36.534 M
263.32 36.258 L
334.98 35.938 L
406.639 37.303 L
478.299 37.047 L
549.959 38.382 L
621.619 46.692 L
693.279 61.515 L
764.939 101.725 L
836.598 150.33 L
S
GR
GS
[0.75 0 0 0.75 0 0] CT
0 0.447 0.741 RC
2 setlinecap
10.0 ML
2.667 LW
N
111 36.5 M
130 36.5 L
S
GR
GS
[0.75 0 0 0.75 0 0] CT
0 0.447 0.741 RC
2 setlinecap
10.0 ML
2.667 LW
N
120.5 46 M
120.5 27 L
S
GR
GS
[0.75 0 0 0.75 0 0] CT
0 0.447 0.741 RC
2 setlinecap
10.0 ML
2.667 LW
N
114 43 M
127 30 L
S
GR
GS
[0.75 0 0 0.75 0 0] CT
0 0.447 0.741 RC
2 setlinecap
10.0 ML
2.667 LW
N
114 30 M
127 43 L
S
GR
GS
[0.75 0 0 0.75 0 0] CT
0 0.447 0.741 RC
2 setlinecap
10.0 ML
2.667 LW
N
254 36.5 M
273 36.5 L
S
GR
GS
[0.75 0 0 0.75 0 0] CT
0 0.447 0.741 RC
2 setlinecap
10.0 ML
2.667 LW
N
263.5 46 M
263.5 27 L
S
GR
GS
[0.75 0 0 0.75 0 0] CT
0 0.447 0.741 RC
2 setlinecap
10.0 ML
2.667 LW
N
257 43 M
270 30 L
S
GR
GS
[0.75 0 0 0.75 0 0] CT
0 0.447 0.741 RC
2 setlinecap
10.0 ML
2.667 LW
N
257 30 M
270 43 L
S
GR
GS
[0.75 0 0 0.75 0 0] CT
0 0.447 0.741 RC
2 setlinecap
10.0 ML
2.667 LW
N
325 35.5 M
344 35.5 L
S
GR
GS
[0.75 0 0 0.75 0 0] CT
0 0.447 0.741 RC
2 setlinecap
10.0 ML
2.667 LW
N
334.5 45 M
334.5 26 L
S
GR
GS
[0.75 0 0 0.75 0 0] CT
0 0.447 0.741 RC
2 setlinecap
10.0 ML
2.667 LW
N
328 42 M
341 29 L
S
GR
GS
[0.75 0 0 0.75 0 0] CT
0 0.447 0.741 RC
2 setlinecap
10.0 ML
2.667 LW
N
328 29 M
341 42 L
S
GR
GS
[0.75 0 0 0.75 0 0] CT
0 0.447 0.741 RC
2 setlinecap
10.0 ML
2.667 LW
N
397 37.5 M
416 37.5 L
S
GR
GS
[0.75 0 0 0.75 0 0] CT
0 0.447 0.741 RC
2 setlinecap
10.0 ML
2.667 LW
N
406.5 47 M
406.5 28 L
S
GR
GS
[0.75 0 0 0.75 0 0] CT
0 0.447 0.741 RC
2 setlinecap
10.0 ML
2.667 LW
N
400 44 M
413 31 L
S
GR
GS
[0.75 0 0 0.75 0 0] CT
0 0.447 0.741 RC
2 setlinecap
10.0 ML
2.667 LW
N
400 31 M
413 44 L
S
GR
GS
[0.75 0 0 0.75 0 0] CT
0 0.447 0.741 RC
2 setlinecap
10.0 ML
2.667 LW
N
469 37.5 M
488 37.5 L
S
GR
GS
[0.75 0 0 0.75 0 0] CT
0 0.447 0.741 RC
2 setlinecap
10.0 ML
2.667 LW
N
478.5 47 M
478.5 28 L
S
GR
GS
[0.75 0 0 0.75 0 0] CT
0 0.447 0.741 RC
2 setlinecap
10.0 ML
2.667 LW
N
472 44 M
485 31 L
S
GR
GS
[0.75 0 0 0.75 0 0] CT
0 0.447 0.741 RC
2 setlinecap
10.0 ML
2.667 LW
N
472 31 M
485 44 L
S
GR
GS
[0.75 0 0 0.75 0 0] CT
0 0.447 0.741 RC
2 setlinecap
10.0 ML
2.667 LW
N
540 38.5 M
559 38.5 L
S
GR
GS
[0.75 0 0 0.75 0 0] CT
0 0.447 0.741 RC
2 setlinecap
10.0 ML
2.667 LW
N
549.5 48 M
549.5 29 L
S
GR
GS
[0.75 0 0 0.75 0 0] CT
0 0.447 0.741 RC
2 setlinecap
10.0 ML
2.667 LW
N
543 45 M
556 32 L
S
GR
GS
[0.75 0 0 0.75 0 0] CT
0 0.447 0.741 RC
2 setlinecap
10.0 ML
2.667 LW
N
543 32 M
556 45 L
S
GR
GS
[0.75 0 0 0.75 0 0] CT
0 0.447 0.741 RC
2 setlinecap
10.0 ML
2.667 LW
N
612 46.5 M
631 46.5 L
S
GR
GS
[0.75 0 0 0.75 0 0] CT
0 0.447 0.741 RC
2 setlinecap
10.0 ML
2.667 LW
N
621.5 56 M
621.5 37 L
S
GR
GS
[0.75 0 0 0.75 0 0] CT
0 0.447 0.741 RC
2 setlinecap
10.0 ML
2.667 LW
N
615 53 M
628 40 L
S
GR
GS
[0.75 0 0 0.75 0 0] CT
0 0.447 0.741 RC
2 setlinecap
10.0 ML
2.667 LW
N
615 40 M
628 53 L
S
GR
GS
[0.75 0 0 0.75 0 0] CT
0 0.447 0.741 RC
2 setlinecap
10.0 ML
2.667 LW
N
684 61.5 M
703 61.5 L
S
GR
GS
[0.75 0 0 0.75 0 0] CT
0 0.447 0.741 RC
2 setlinecap
10.0 ML
2.667 LW
N
693.5 71 M
693.5 52 L
S
GR
GS
[0.75 0 0 0.75 0 0] CT
0 0.447 0.741 RC
2 setlinecap
10.0 ML
2.667 LW
N
687 68 M
700 55 L
S
GR
GS
[0.75 0 0 0.75 0 0] CT
0 0.447 0.741 RC
2 setlinecap
10.0 ML
2.667 LW
N
687 55 M
700 68 L
S
GR
GS
[0.75 0 0 0.75 0 0] CT
0 0.447 0.741 RC
2 setlinecap
10.0 ML
2.667 LW
N
755 101.5 M
774 101.5 L
S
GR
GS
[0.75 0 0 0.75 0 0] CT
0 0.447 0.741 RC
2 setlinecap
10.0 ML
2.667 LW
N
764.5 111 M
764.5 92 L
S
GR
GS
[0.75 0 0 0.75 0 0] CT
0 0.447 0.741 RC
2 setlinecap
10.0 ML
2.667 LW
N
758 108 M
771 95 L
S
GR
GS
[0.75 0 0 0.75 0 0] CT
0 0.447 0.741 RC
2 setlinecap
10.0 ML
2.667 LW
N
758 95 M
771 108 L
S
GR
GS
[0.75 0 0 0.75 0 0] CT
0 0.447 0.741 RC
2 setlinecap
10.0 ML
2.667 LW
N
827 150.5 M
846 150.5 L
S
GR
GS
[0.75 0 0 0.75 0 0] CT
0 0.447 0.741 RC
2 setlinecap
10.0 ML
2.667 LW
N
836.5 160 M
836.5 141 L
S
GR
GS
[0.75 0 0 0.75 0 0] CT
0 0.447 0.741 RC
2 setlinecap
10.0 ML
2.667 LW
N
830 157 M
843 144 L
S
GR
GS
[0.75 0 0 0.75 0 0] CT
0 0.447 0.741 RC
2 setlinecap
10.0 ML
2.667 LW
N
830 144 M
843 157 L
S
GR
GS
[0.75 0 0 0.75 0 0] CT
0.851 0.325 0.098 RC
2 setlinecap
10.0 ML
2.667 LW
N
120 36.534 M
263.32 39.327 L
334.98 36.615 L
406.639 36.054 L
478.299 38.439 L
549.959 40.785 L
621.619 47.555 L
693.279 62.896 L
764.939 103.539 L
836.598 154.06 L
S
GR
GS
[0.75 0 0 0.75 0 0] CT
0.851 0.325 0.098 RC
N
116.34 40.66 M
116.34 32.34 L
124.66 32.34 L
124.66 40.66 L
cp
f
GR
GS
[0.75 0 0 0.75 0 0] CT
0.851 0.325 0.098 RC
2 setlinecap
10.0 ML
2.667 LW
N
116.34 40.66 M
116.34 32.34 L
124.66 32.34 L
124.66 40.66 L
116.34 40.66 L
S
GR
GS
[0.75 0 0 0.75 0 0] CT
0.851 0.325 0.098 RC
N
259.34 43.66 M
259.34 35.34 L
267.66 35.34 L
267.66 43.66 L
cp
f
GR
GS
[0.75 0 0 0.75 0 0] CT
0.851 0.325 0.098 RC
2 setlinecap
10.0 ML
2.667 LW
N
259.34 43.66 M
259.34 35.34 L
267.66 35.34 L
267.66 43.66 L
259.34 43.66 L
S
GR
GS
[0.75 0 0 0.75 0 0] CT
0.851 0.325 0.098 RC
N
330.34 40.66 M
330.34 32.34 L
338.66 32.34 L
338.66 40.66 L
cp
f
GR
GS
[0.75 0 0 0.75 0 0] CT
0.851 0.325 0.098 RC
2 setlinecap
10.0 ML
2.667 LW
N
330.34 40.66 M
330.34 32.34 L
338.66 32.34 L
338.66 40.66 L
330.34 40.66 L
S
GR
GS
[0.75 0 0 0.75 0 0] CT
0.851 0.325 0.098 RC
N
402.34 40.66 M
402.34 32.34 L
410.66 32.34 L
410.66 40.66 L
cp
f
GR
GS
[0.75 0 0 0.75 0 0] CT
0.851 0.325 0.098 RC
2 setlinecap
10.0 ML
2.667 LW
N
402.34 40.66 M
402.34 32.34 L
410.66 32.34 L
410.66 40.66 L
402.34 40.66 L
S
GR
GS
[0.75 0 0 0.75 0 0] CT
0.851 0.325 0.098 RC
N
474.34 42.66 M
474.34 34.34 L
482.66 34.34 L
482.66 42.66 L
cp
f
GR
GS
[0.75 0 0 0.75 0 0] CT
0.851 0.325 0.098 RC
2 setlinecap
10.0 ML
2.667 LW
N
474.34 42.66 M
474.34 34.34 L
482.66 34.34 L
482.66 42.66 L
474.34 42.66 L
S
GR
GS
[0.75 0 0 0.75 0 0] CT
0.851 0.325 0.098 RC
N
545.34 44.66 M
545.34 36.34 L
553.66 36.34 L
553.66 44.66 L
cp
f
GR
GS
[0.75 0 0 0.75 0 0] CT
0.851 0.325 0.098 RC
2 setlinecap
10.0 ML
2.667 LW
N
545.34 44.66 M
545.34 36.34 L
553.66 36.34 L
553.66 44.66 L
545.34 44.66 L
S
GR
GS
[0.75 0 0 0.75 0 0] CT
0.851 0.325 0.098 RC
N
617.34 51.66 M
617.34 43.34 L
625.66 43.34 L
625.66 51.66 L
cp
f
GR
GS
[0.75 0 0 0.75 0 0] CT
0.851 0.325 0.098 RC
2 setlinecap
10.0 ML
2.667 LW
N
617.34 51.66 M
617.34 43.34 L
625.66 43.34 L
625.66 51.66 L
617.34 51.66 L
S
GR
GS
[0.75 0 0 0.75 0 0] CT
0.851 0.325 0.098 RC
N
689.34 66.66 M
689.34 58.34 L
697.66 58.34 L
697.66 66.66 L
cp
f
GR
GS
[0.75 0 0 0.75 0 0] CT
0.851 0.325 0.098 RC
2 setlinecap
10.0 ML
2.667 LW
N
689.34 66.66 M
689.34 58.34 L
697.66 58.34 L
697.66 66.66 L
689.34 66.66 L
S
GR
GS
[0.75 0 0 0.75 0 0] CT
0.851 0.325 0.098 RC
N
760.34 107.66 M
760.34 99.34 L
768.66 99.34 L
768.66 107.66 L
cp
f
GR
GS
[0.75 0 0 0.75 0 0] CT
0.851 0.325 0.098 RC
2 setlinecap
10.0 ML
2.667 LW
N
760.34 107.66 M
760.34 99.34 L
768.66 99.34 L
768.66 107.66 L
760.34 107.66 L
S
GR
GS
[0.75 0 0 0.75 0 0] CT
0.851 0.325 0.098 RC
N
832.34 158.66 M
832.34 150.34 L
840.66 150.34 L
840.66 158.66 L
cp
f
GR
GS
[0.75 0 0 0.75 0 0] CT
0.851 0.325 0.098 RC
2 setlinecap
10.0 ML
2.667 LW
N
832.34 158.66 M
832.34 150.34 L
840.66 150.34 L
840.66 158.66 L
832.34 158.66 L
S
GR
GS
[0.75 0 0 0.75 0 0] CT
0.929 0.694 0.125 RC
2 setlinecap
10.0 ML
2.667 LW
N
120 36.534 M
263.32 36.534 L
334.98 36.534 L
406.639 36.534 L
478.299 36.534 L
549.959 36.534 L
621.619 36.534 L
693.279 36.534 L
764.939 36.534 L
836.598 36.534 L
S
GR
GS
[0.75 0 0 0.75 0 0] CT
0.929 0.694 0.125 RC
N
127.344 36.5 M
126.427 33.078 L
123.922 30.573 L
120.5 29.656 L
117.078 30.573 L
114.573 33.078 L
113.656 36.5 L
114.573 39.922 L
117.078 42.427 L
120.5 43.344 L
123.922 42.427 L
126.427 39.922 L
127.344 36.5 L
cp
f
GR
GS
[0.75 0 0 0.75 0 0] CT
0.929 0.694 0.125 RC
N
270.344 36.5 M
269.427 33.078 L
266.922 30.573 L
263.5 29.656 L
260.078 30.573 L
257.573 33.078 L
256.656 36.5 L
257.573 39.922 L
260.078 42.427 L
263.5 43.344 L
266.922 42.427 L
269.427 39.922 L
270.344 36.5 L
cp
f
GR
GS
[0.75 0 0 0.75 0 0] CT
0.929 0.694 0.125 RC
N
341.344 36.5 M
340.427 33.078 L
337.922 30.573 L
334.5 29.656 L
331.078 30.573 L
328.573 33.078 L
327.656 36.5 L
328.573 39.922 L
331.078 42.427 L
334.5 43.344 L
337.922 42.427 L
340.427 39.922 L
341.344 36.5 L
cp
f
GR
GS
[0.75 0 0 0.75 0 0] CT
0.929 0.694 0.125 RC
N
413.344 36.5 M
412.427 33.078 L
409.922 30.573 L
406.5 29.656 L
403.078 30.573 L
400.573 33.078 L
399.656 36.5 L
400.573 39.922 L
403.078 42.427 L
406.5 43.344 L
409.922 42.427 L
412.427 39.922 L
413.344 36.5 L
cp
f
GR
GS
[0.75 0 0 0.75 0 0] CT
0.929 0.694 0.125 RC
N
485.344 36.5 M
484.427 33.078 L
481.922 30.573 L
478.5 29.656 L
475.078 30.573 L
472.573 33.078 L
471.656 36.5 L
472.573 39.922 L
475.078 42.427 L
478.5 43.344 L
481.922 42.427 L
484.427 39.922 L
485.344 36.5 L
cp
f
GR
GS
[0.75 0 0 0.75 0 0] CT
0.929 0.694 0.125 RC
N
556.344 36.5 M
555.427 33.078 L
552.922 30.573 L
549.5 29.656 L
546.078 30.573 L
543.573 33.078 L
542.656 36.5 L
543.573 39.922 L
546.078 42.427 L
549.5 43.344 L
552.922 42.427 L
555.427 39.922 L
556.344 36.5 L
cp
f
GR
GS
[0.75 0 0 0.75 0 0] CT
0.929 0.694 0.125 RC
N
628.344 36.5 M
627.427 33.078 L
624.922 30.573 L
621.5 29.656 L
618.078 30.573 L
615.573 33.078 L
614.656 36.5 L
615.573 39.922 L
618.078 42.427 L
621.5 43.344 L
624.922 42.427 L
627.427 39.922 L
628.344 36.5 L
cp
f
GR
GS
[0.75 0 0 0.75 0 0] CT
0.929 0.694 0.125 RC
N
700.344 36.5 M
699.427 33.078 L
696.922 30.573 L
693.5 29.656 L
690.078 30.573 L
687.573 33.078 L
686.656 36.5 L
687.573 39.922 L
690.078 42.427 L
693.5 43.344 L
696.922 42.427 L
699.427 39.922 L
700.344 36.5 L
cp
f
GR
GS
[0.75 0 0 0.75 0 0] CT
0.929 0.694 0.125 RC
N
771.344 36.5 M
770.427 33.078 L
767.922 30.573 L
764.5 29.656 L
761.078 30.573 L
758.573 33.078 L
757.656 36.5 L
758.573 39.922 L
761.078 42.427 L
764.5 43.344 L
767.922 42.427 L
770.427 39.922 L
771.344 36.5 L
cp
f
GR
GS
[0.75 0 0 0.75 0 0] CT
0.929 0.694 0.125 RC
N
843.344 36.5 M
842.427 33.078 L
839.922 30.573 L
836.5 29.656 L
833.078 30.573 L
830.573 33.078 L
829.656 36.5 L
830.573 39.922 L
833.078 42.427 L
836.5 43.344 L
839.922 42.427 L
842.427 39.922 L
843.344 36.5 L
cp
f
GR
GS
[0.75 0 0 0.75 0 0] CT
1 GC
N
163 485 M
163 379 L
544 379 L
544 485 L
cp
f
GR
GS
[0.75 0 0 0.75 161.97995 298.67036] CT
/Times 27 F
GS
[1 0 0 1 0 0] CT
0 9.5 moveto 
1 -1 scale
(Efficiency \(BLAS IBM\)) t 
GR
GR
GS
[0.75 0 0 0.75 0 0] CT
0 0.447 0.741 RC
2 setlinecap
10.0 ML
2.667 LW
N
171.15 398.227 M
211.898 398.227 L
S
GR
GS
[0.75 0 0 0.75 0 0] CT
0 0.447 0.741 RC
2 setlinecap
10.0 ML
2.667 LW
N
182 398.5 M
201 398.5 L
S
GR
GS
[0.75 0 0 0.75 0 0] CT
0 0.447 0.741 RC
2 setlinecap
10.0 ML
2.667 LW
N
191.5 408 M
191.5 389 L
S
GR
GS
[0.75 0 0 0.75 0 0] CT
0 0.447 0.741 RC
2 setlinecap
10.0 ML
2.667 LW
N
185 405 M
198 392 L
S
GR
GS
[0.75 0 0 0.75 0 0] CT
0 0.447 0.741 RC
2 setlinecap
10.0 ML
2.667 LW
N
185 392 M
198 405 L
S
GR
GS
[0.75 0 0 0.75 161.97995 324] CT
/Times 27 F
GS
[1 0 0 1 0 0] CT
0 9.5 moveto 
1 -1 scale
(Efficiency \(BLAS Netlib\)) t 
GR
GR
GS
[0.75 0 0 0.75 0 0] CT
0.851 0.325 0.098 RC
2 setlinecap
10.0 ML
2.667 LW
N
171.15 432 M
211.898 432 L
S
GR
GS
[0.75 0 0 0.75 0 0] CT
0.851 0.325 0.098 RC
N
187.34 435.66 M
187.34 427.34 L
195.66 427.34 L
195.66 435.66 L
cp
f
GR
GS
[0.75 0 0 0.75 0 0] CT
0.851 0.325 0.098 RC
2 setlinecap
10.0 ML
2.667 LW
N
187.34 435.66 M
187.34 427.34 L
195.66 427.34 L
195.66 435.66 L
187.34 435.66 L
S
GR
GS
[0.75 0 0 0.75 161.97995 349.32964] CT
/Times 27 F
GS
[1 0 0 1 0 0] CT
0 9.5 moveto 
1 -1 scale
(Efficiency \(Ideal\)) t 
GR
GR
GS
[0.75 0 0 0.75 0 0] CT
0.929 0.694 0.125 RC
2 setlinecap
10.0 ML
2.667 LW
N
171.15 465.773 M
211.898 465.773 L
S
GR
GS
[0.75 0 0 0.75 0 0] CT
0.929 0.694 0.125 RC
N
198.344 465.5 M
197.427 462.078 L
194.922 459.573 L
191.5 458.656 L
188.078 459.573 L
185.573 462.078 L
184.656 465.5 L
185.573 468.922 L
188.078 471.427 L
191.5 472.344 L
194.922 471.427 L
197.427 468.922 L
198.344 465.5 L
cp
f
GR
GS
[0.75 0 0 0.75 0 0] CT
0.149 GC
2 setlinecap
10.0 ML
N
163 485 M
163 379 L
544 379 L
544 485 L
163 485 L
S
GR
%%Trailer
%%Pages: 1
%%EOF
