%!PS-Adobe-3.0 EPSF-3.0
%%Creator: MATLAB, The MathWorks, Inc. Version 8.3.0.532 (R2014a). Operating System: Linux 4.15.0-101-generic #102-Ubuntu SMP Mon May 11 10:07:26 UTC 2020 x86_64.
%%Title: /home/doc/Work/Doutorado/thesis/thesis/eps/Efficiency_Hexa_10000_P1.eps
%%CreationDate: 06/01/2020  10:29:46
%%DocumentNeededFonts: Helvetica
%%+ Times-Roman
%%+ Times-Bold
%%DocumentProcessColors: Cyan Magenta Yellow Black
%%LanguageLevel: 2
%%Pages: 1
%%BoundingBox:   -76   154   690   637
%%EndComments

%%BeginProlog
% MathWorks dictionary
/MathWorks 160 dict begin
% definition operators
/bdef {bind def} bind def
/ldef {load def} bind def
/xdef {exch def} bdef
/xstore {exch store} bdef
% operator abbreviations
/c  /clip ldef
/cc /concat ldef
/cp /closepath ldef
/gr /grestore ldef
/gs /gsave ldef
/mt /moveto ldef
/np /newpath ldef
/cm /currentmatrix ldef
/sm /setmatrix ldef
/rm /rmoveto ldef
/rl /rlineto ldef
/s {show newpath} bdef
/sc {setcmykcolor} bdef
/sr /setrgbcolor ldef
/sg /setgray ldef
/w /setlinewidth ldef
/j /setlinejoin ldef
/cap /setlinecap ldef
/rc {rectclip} bdef
/rf {rectfill} bdef
% page state control
/pgsv () def
/bpage {/pgsv save def} bdef
/epage {pgsv restore} bdef
/bplot /gsave ldef
/eplot {stroke grestore} bdef
% orientation switch
/portraitMode 0 def /landscapeMode 1 def /rotateMode 2 def
% coordinate system mappings
/dpi2point 0 def
% font control
/FontSize 0 def
/FMS {/FontSize xstore findfont [FontSize 0 0 FontSize neg 0 0]
  makefont setfont} bdef
/reencode {exch dup where {pop load} {pop StandardEncoding} ifelse
  exch dup 3 1 roll findfont dup length dict begin
  { 1 index /FID ne {def}{pop pop} ifelse } forall
  /Encoding exch def currentdict end definefont pop} bdef
/isroman {findfont /CharStrings get /Agrave known} bdef
/FMSR {3 1 roll 1 index dup isroman {reencode} {pop pop} ifelse
  exch FMS} bdef
/csm {1 dpi2point div -1 dpi2point div scale neg translate
 dup landscapeMode eq {pop -90 rotate}
  {rotateMode eq {90 rotate} if} ifelse} bdef
% line types: solid, dotted, dashed, dotdash
/SO { [] 0 setdash } bdef
/DO { [.5 dpi2point mul 4 dpi2point mul] 0 setdash } bdef
/DA { [6 dpi2point mul] 0 setdash } bdef
/DD { [.5 dpi2point mul 4 dpi2point mul 6 dpi2point mul 4
  dpi2point mul] 0 setdash } bdef
% macros for lines and objects
/L {lineto stroke} bdef
/MP {3 1 roll moveto 1 sub {rlineto} repeat} bdef
/AP {{rlineto} repeat} bdef
/PDlw -1 def
/W {/PDlw currentlinewidth def setlinewidth} def
/PP {closepath eofill} bdef
/DP {closepath stroke} bdef
/MR {4 -2 roll moveto dup  0 exch rlineto exch 0 rlineto
  neg 0 exch rlineto closepath} bdef
/FR {MR stroke} bdef
/PR {MR fill} bdef
/L1i {{currentfile picstr readhexstring pop} image} bdef
/tMatrix matrix def
/MakeOval {newpath tMatrix currentmatrix pop translate scale
0 0 1 0 360 arc tMatrix setmatrix} bdef
/FO {MakeOval stroke} bdef
/PO {MakeOval fill} bdef
/PD {currentlinewidth 2 div 0 360 arc fill
   PDlw -1 eq not {PDlw w /PDlw -1 def} if} def
/FA {newpath tMatrix currentmatrix pop translate scale
  0 0 1 5 -2 roll arc tMatrix setmatrix stroke} bdef
/PA {newpath tMatrix currentmatrix pop	translate 0 0 moveto scale
  0 0 1 5 -2 roll arc closepath tMatrix setmatrix fill} bdef
/FAn {newpath tMatrix currentmatrix pop translate scale
  0 0 1 5 -2 roll arcn tMatrix setmatrix stroke} bdef
/PAn {newpath tMatrix currentmatrix pop translate 0 0 moveto scale
  0 0 1 5 -2 roll arcn closepath tMatrix setmatrix fill} bdef
/vradius 0 def /hradius 0 def /lry 0 def
/lrx 0 def /uly 0 def /ulx 0 def /rad 0 def
/MRR {/vradius xdef /hradius xdef /lry xdef /lrx xdef /uly xdef
  /ulx xdef newpath tMatrix currentmatrix pop ulx hradius add uly
  vradius add translate hradius vradius scale 0 0 1 180 270 arc 
  tMatrix setmatrix lrx hradius sub uly vradius add translate
  hradius vradius scale 0 0 1 270 360 arc tMatrix setmatrix
  lrx hradius sub lry vradius sub translate hradius vradius scale
  0 0 1 0 90 arc tMatrix setmatrix ulx hradius add lry vradius sub
  translate hradius vradius scale 0 0 1 90 180 arc tMatrix setmatrix
  closepath} bdef
/FRR {MRR stroke } bdef
/PRR {MRR fill } bdef
/MlrRR {/lry xdef /lrx xdef /uly xdef /ulx xdef /rad lry uly sub 2 div def
  newpath tMatrix currentmatrix pop ulx rad add uly rad add translate
  rad rad scale 0 0 1 90 270 arc tMatrix setmatrix lrx rad sub lry rad
  sub translate rad rad scale 0 0 1 270 90 arc tMatrix setmatrix
  closepath} bdef
/FlrRR {MlrRR stroke } bdef
/PlrRR {MlrRR fill } bdef
/MtbRR {/lry xdef /lrx xdef /uly xdef /ulx xdef /rad lrx ulx sub 2 div def
  newpath tMatrix currentmatrix pop ulx rad add uly rad add translate
  rad rad scale 0 0 1 180 360 arc tMatrix setmatrix lrx rad sub lry rad
  sub translate rad rad scale 0 0 1 0 180 arc tMatrix setmatrix
  closepath} bdef
/FtbRR {MtbRR stroke } bdef
/PtbRR {MtbRR fill } bdef
/stri 6 array def /dtri 6 array def
/smat 6 array def /dmat 6 array def
/tmat1 6 array def /tmat2 6 array def /dif 3 array def
/asub {/ind2 exch def /ind1 exch def dup dup
  ind1 get exch ind2 get sub exch } bdef
/tri_to_matrix {
  2 0 asub 3 1 asub 4 0 asub 5 1 asub
  dup 0 get exch 1 get 7 -1 roll astore } bdef
/compute_transform {
  dmat dtri tri_to_matrix tmat1 invertmatrix 
  smat stri tri_to_matrix tmat2 concatmatrix } bdef
/ds {stri astore pop} bdef
/dt {dtri astore pop} bdef
/db {2 copy /cols xdef /rows xdef mul dup 3 mul string
  currentfile 
  3 index 0 eq {/ASCIIHexDecode filter}
  {/ASCII85Decode filter 3 index 2 eq {/RunLengthDecode filter} if }
  ifelse exch readstring pop
  dup 0 3 index getinterval /rbmap xdef
  dup 2 index dup getinterval /gbmap xdef
  1 index dup 2 mul exch getinterval /bbmap xdef pop pop}bdef
/it {gs np dtri aload pop moveto lineto lineto cp c
  cols rows 8 compute_transform 
  rbmap gbmap bbmap true 3 colorimage gr}bdef
/il {newpath moveto lineto stroke}bdef
currentdict end def
%%EndProlog

%%BeginSetup
MathWorks begin

0 cap

end
%%EndSetup

%%Page: 1 1
%%BeginPageSetup
%%PageBoundingBox:   -76   154   690   637
MathWorks begin
bpage
%%EndPageSetup

%%BeginObject: obj1
bplot

/dpi2point 12 def
portraitMode -0912 7644 csm

    0     0  9196  5789 rc
89 dict begin %Colortable dictionary
/c0 { 0.000000 0.000000 0.000000 sr} bdef
/c1 { 1.000000 1.000000 1.000000 sr} bdef
/c2 { 0.900000 0.000000 0.000000 sr} bdef
/c3 { 0.000000 0.820000 0.000000 sr} bdef
/c4 { 0.000000 0.000000 0.800000 sr} bdef
/c5 { 0.910000 0.820000 0.320000 sr} bdef
/c6 { 1.000000 0.260000 0.820000 sr} bdef
/c7 { 0.000000 0.820000 0.820000 sr} bdef
c0
1 j
1 sg
   0    0 9197 5790 rf
6 w
0 4718 7128 0 0 -4718 1175 4925 4 MP
PP
-7128 0 0 4718 7128 0 0 -4718 1175 4925 5 MP stroke
4 w
DO
0 sg
2586 4925 mt 2586  207 L
2586  207 mt 2586  207 L
3292 4925 mt 3292  207 L
3292  207 mt 3292  207 L
3997 4925 mt 3997  207 L
3997  207 mt 3997  207 L
4703 4925 mt 4703  207 L
4703  207 mt 4703  207 L
5408 4925 mt 5408  207 L
5408  207 mt 5408  207 L
6113 4925 mt 6113  207 L
6113  207 mt 6113  207 L
6819 4925 mt 6819  207 L
6819  207 mt 6819  207 L
7524 4925 mt 7524  207 L
7524  207 mt 7524  207 L
8230 4925 mt 8230  207 L
8230  207 mt 8230  207 L
1175 4925 mt 8303 4925 L
8303 4925 mt 8303 4925 L
1175 4466 mt 8303 4466 L
8303 4466 mt 8303 4466 L
1175 4008 mt 8303 4008 L
8303 4008 mt 8303 4008 L
1175 3550 mt 8303 3550 L
8303 3550 mt 8303 3550 L
1175 3092 mt 8303 3092 L
8303 3092 mt 8303 3092 L
1175 2634 mt 8303 2634 L
8303 2634 mt 8303 2634 L
1175 2176 mt 8303 2176 L
8303 2176 mt 8303 2176 L
1175 1718 mt 8303 1718 L
8303 1718 mt 8303 1718 L
1175 1260 mt 8303 1260 L
8303 1260 mt 8303 1260 L
1175  802 mt 8303  802 L
8303  802 mt 8303  802 L
1175  344 mt 8303  344 L
8303  344 mt 8303  344 L
SO
6 w
1175 4925 mt 8303 4925 L
1175  207 mt 8303  207 L
1175 4925 mt 1175  207 L
8303 4925 mt 8303  207 L
1175 4925 mt 8303 4925 L
1175 4925 mt 1175  207 L
2586 4925 mt 2586 4853 L
2586  207 mt 2586  278 L
%%IncludeResource: font Times-Roman
/Times-Roman /ISOLatin1Encoding 336 FMSR

2502 5260 mt 
(4) s
3292 4925 mt 3292 4853 L
3292  207 mt 3292  278 L
3208 5260 mt 
(8) s
3292 4925 mt 3292 4889 L
3292  207 mt 3292  242 L
DO
3292 4925 mt 3292  207 L
3292  207 mt 3292  207 L
SO
3292 4925 mt 3292 4889 L
3292  207 mt 3292  242 L
DO
3292 4925 mt 3292  207 L
3292  207 mt 3292  207 L
SO
3292 4925 mt 3292 4889 L
3292  207 mt 3292  242 L
DO
3292 4925 mt 3292  207 L
3292  207 mt 3292  207 L
SO
3292 4925 mt 3292 4889 L
3292  207 mt 3292  242 L
DO
3292 4925 mt 3292  207 L
3292  207 mt 3292  207 L
SO
3292 4925 mt 3292 4889 L
3292  207 mt 3292  242 L
DO
3292 4925 mt 3292  207 L
3292  207 mt 3292  207 L
SO
3292 4925 mt 3292 4889 L
3292  207 mt 3292  242 L
DO
3292 4925 mt 3292  207 L
3292  207 mt 3292  207 L
SO
3292 4925 mt 3292 4889 L
3292  207 mt 3292  242 L
DO
3292 4925 mt 3292  207 L
3292  207 mt 3292  207 L
SO
3292 4925 mt 3292 4889 L
3292  207 mt 3292  242 L
DO
3292 4925 mt 3292  207 L
3292  207 mt 3292  207 L
SO
3292 4925 mt 3292 4889 L
3292  207 mt 3292  242 L
DO
3292 4925 mt 3292  207 L
3292  207 mt 3292  207 L
SO
3997 4925 mt 3997 4853 L
3997  207 mt 3997  278 L
3829 5260 mt 
(16) s
3997 4925 mt 3997 4889 L
3997  207 mt 3997  242 L
DO
3997 4925 mt 3997  207 L
3997  207 mt 3997  207 L
SO
3997 4925 mt 3997 4889 L
3997  207 mt 3997  242 L
DO
3997 4925 mt 3997  207 L
3997  207 mt 3997  207 L
SO
3997 4925 mt 3997 4889 L
3997  207 mt 3997  242 L
DO
3997 4925 mt 3997  207 L
3997  207 mt 3997  207 L
SO
3997 4925 mt 3997 4889 L
3997  207 mt 3997  242 L
DO
3997 4925 mt 3997  207 L
3997  207 mt 3997  207 L
SO
3997 4925 mt 3997 4889 L
3997  207 mt 3997  242 L
DO
3997 4925 mt 3997  207 L
3997  207 mt 3997  207 L
SO
3997 4925 mt 3997 4889 L
3997  207 mt 3997  242 L
DO
3997 4925 mt 3997  207 L
3997  207 mt 3997  207 L
SO
3997 4925 mt 3997 4889 L
3997  207 mt 3997  242 L
DO
3997 4925 mt 3997  207 L
3997  207 mt 3997  207 L
SO
3997 4925 mt 3997 4889 L
3997  207 mt 3997  242 L
DO
3997 4925 mt 3997  207 L
3997  207 mt 3997  207 L
SO
3997 4925 mt 3997 4889 L
3997  207 mt 3997  242 L
DO
3997 4925 mt 3997  207 L
3997  207 mt 3997  207 L
SO
4703 4925 mt 4703 4853 L
4703  207 mt 4703  278 L
4535 5260 mt 
(32) s
4703 4925 mt 4703 4889 L
4703  207 mt 4703  242 L
DO
4703 4925 mt 4703  207 L
4703  207 mt 4703  207 L
SO
4703 4925 mt 4703 4889 L
4703  207 mt 4703  242 L
DO
4703 4925 mt 4703  207 L
4703  207 mt 4703  207 L
SO
4703 4925 mt 4703 4889 L
4703  207 mt 4703  242 L
DO
4703 4925 mt 4703  207 L
4703  207 mt 4703  207 L
SO
4703 4925 mt 4703 4889 L
4703  207 mt 4703  242 L
DO
4703 4925 mt 4703  207 L
4703  207 mt 4703  207 L
SO
4703 4925 mt 4703 4889 L
4703  207 mt 4703  242 L
DO
4703 4925 mt 4703  207 L
4703  207 mt 4703  207 L
SO
4703 4925 mt 4703 4889 L
4703  207 mt 4703  242 L
DO
4703 4925 mt 4703  207 L
4703  207 mt 4703  207 L
SO
4703 4925 mt 4703 4889 L
4703  207 mt 4703  242 L
DO
4703 4925 mt 4703  207 L
4703  207 mt 4703  207 L
SO
4703 4925 mt 4703 4889 L
4703  207 mt 4703  242 L
DO
4703 4925 mt 4703  207 L
4703  207 mt 4703  207 L
SO
4703 4925 mt 4703 4889 L
4703  207 mt 4703  242 L
DO
4703 4925 mt 4703  207 L
4703  207 mt 4703  207 L
SO
5408 4925 mt 5408 4853 L
5408  207 mt 5408  278 L
5240 5260 mt 
(64) s
5408 4925 mt 5408 4889 L
5408  207 mt 5408  242 L
DO
5408 4925 mt 5408  207 L
5408  207 mt 5408  207 L
SO
5408 4925 mt 5408 4889 L
5408  207 mt 5408  242 L
DO
5408 4925 mt 5408  207 L
5408  207 mt 5408  207 L
SO
5408 4925 mt 5408 4889 L
5408  207 mt 5408  242 L
DO
5408 4925 mt 5408  207 L
5408  207 mt 5408  207 L
SO
5408 4925 mt 5408 4889 L
5408  207 mt 5408  242 L
DO
5408 4925 mt 5408  207 L
5408  207 mt 5408  207 L
SO
5408 4925 mt 5408 4889 L
5408  207 mt 5408  242 L
DO
5408 4925 mt 5408  207 L
5408  207 mt 5408  207 L
SO
5408 4925 mt 5408 4889 L
5408  207 mt 5408  242 L
DO
5408 4925 mt 5408  207 L
5408  207 mt 5408  207 L
SO
5408 4925 mt 5408 4889 L
5408  207 mt 5408  242 L
DO
5408 4925 mt 5408  207 L
5408  207 mt 5408  207 L
SO
5408 4925 mt 5408 4889 L
5408  207 mt 5408  242 L
DO
5408 4925 mt 5408  207 L
5408  207 mt 5408  207 L
SO
5408 4925 mt 5408 4889 L
5408  207 mt 5408  242 L
DO
5408 4925 mt 5408  207 L
5408  207 mt 5408  207 L
SO
6113 4925 mt 6113 4853 L
6113  207 mt 6113  278 L
5861 5260 mt 
(128) s
6113 4925 mt 6113 4889 L
6113  207 mt 6113  242 L
DO
6113 4925 mt 6113  207 L
6113  207 mt 6113  207 L
SO
6113 4925 mt 6113 4889 L
6113  207 mt 6113  242 L
DO
6113 4925 mt 6113  207 L
6113  207 mt 6113  207 L
SO
6113 4925 mt 6113 4889 L
6113  207 mt 6113  242 L
DO
6113 4925 mt 6113  207 L
6113  207 mt 6113  207 L
SO
6113 4925 mt 6113 4889 L
6113  207 mt 6113  242 L
DO
6113 4925 mt 6113  207 L
6113  207 mt 6113  207 L
SO
6113 4925 mt 6113 4889 L
6113  207 mt 6113  242 L
DO
6113 4925 mt 6113  207 L
6113  207 mt 6113  207 L
SO
6113 4925 mt 6113 4889 L
6113  207 mt 6113  242 L
DO
6113 4925 mt 6113  207 L
6113  207 mt 6113  207 L
SO
6113 4925 mt 6113 4889 L
6113  207 mt 6113  242 L
DO
6113 4925 mt 6113  207 L
6113  207 mt 6113  207 L
SO
6113 4925 mt 6113 4889 L
6113  207 mt 6113  242 L
DO
6113 4925 mt 6113  207 L
6113  207 mt 6113  207 L
SO
6113 4925 mt 6113 4889 L
6113  207 mt 6113  242 L
DO
6113 4925 mt 6113  207 L
6113  207 mt 6113  207 L
SO
6819 4925 mt 6819 4853 L
6819  207 mt 6819  278 L
6567 5260 mt 
(256) s
6819 4925 mt 6819 4889 L
6819  207 mt 6819  242 L
DO
6819 4925 mt 6819  207 L
6819  207 mt 6819  207 L
SO
6819 4925 mt 6819 4889 L
6819  207 mt 6819  242 L
DO
6819 4925 mt 6819  207 L
6819  207 mt 6819  207 L
SO
6819 4925 mt 6819 4889 L
6819  207 mt 6819  242 L
DO
6819 4925 mt 6819  207 L
6819  207 mt 6819  207 L
SO
6819 4925 mt 6819 4889 L
6819  207 mt 6819  242 L
DO
6819 4925 mt 6819  207 L
6819  207 mt 6819  207 L
SO
6819 4925 mt 6819 4889 L
6819  207 mt 6819  242 L
DO
6819 4925 mt 6819  207 L
6819  207 mt 6819  207 L
SO
6819 4925 mt 6819 4889 L
6819  207 mt 6819  242 L
DO
6819 4925 mt 6819  207 L
6819  207 mt 6819  207 L
SO
6819 4925 mt 6819 4889 L
6819  207 mt 6819  242 L
DO
6819 4925 mt 6819  207 L
6819  207 mt 6819  207 L
SO
6819 4925 mt 6819 4889 L
6819  207 mt 6819  242 L
DO
6819 4925 mt 6819  207 L
6819  207 mt 6819  207 L
SO
6819 4925 mt 6819 4889 L
6819  207 mt 6819  242 L
DO
6819 4925 mt 6819  207 L
6819  207 mt 6819  207 L
SO
7524 4925 mt 7524 4853 L
7524  207 mt 7524  278 L
7272 5260 mt 
(512) s
7524 4925 mt 7524 4889 L
7524  207 mt 7524  242 L
DO
7524 4925 mt 7524  207 L
7524  207 mt 7524  207 L
SO
7524 4925 mt 7524 4889 L
7524  207 mt 7524  242 L
DO
7524 4925 mt 7524  207 L
7524  207 mt 7524  207 L
SO
7524 4925 mt 7524 4889 L
7524  207 mt 7524  242 L
DO
7524 4925 mt 7524  207 L
7524  207 mt 7524  207 L
SO
7524 4925 mt 7524 4889 L
7524  207 mt 7524  242 L
DO
7524 4925 mt 7524  207 L
7524  207 mt 7524  207 L
SO
7524 4925 mt 7524 4889 L
7524  207 mt 7524  242 L
DO
7524 4925 mt 7524  207 L
7524  207 mt 7524  207 L
SO
7524 4925 mt 7524 4889 L
7524  207 mt 7524  242 L
DO
7524 4925 mt 7524  207 L
7524  207 mt 7524  207 L
SO
7524 4925 mt 7524 4889 L
7524  207 mt 7524  242 L
DO
7524 4925 mt 7524  207 L
7524  207 mt 7524  207 L
SO
7524 4925 mt 7524 4889 L
7524  207 mt 7524  242 L
DO
7524 4925 mt 7524  207 L
7524  207 mt 7524  207 L
SO
7524 4925 mt 7524 4889 L
7524  207 mt 7524  242 L
DO
7524 4925 mt 7524  207 L
7524  207 mt 7524  207 L
SO
8230 4925 mt 8230 4853 L
8230  207 mt 8230  278 L
7894 5260 mt 
(1024) s
8230 4925 mt 8230 4889 L
8230  207 mt 8230  242 L
DO
8230 4925 mt 8230  207 L
8230  207 mt 8230  207 L
SO
1175 4925 mt 1247 4925 L
8303 4925 mt 8231 4925 L
 973 5045 mt 
(0) s
1175 4695 mt 1211 4695 L
8303 4695 mt 8267 4695 L
DO
1175 4695 mt 8303 4695 L
8303 4695 mt 8303 4695 L
SO
1175 4466 mt 1211 4466 L
8303 4466 mt 8267 4466 L
DO
1175 4466 mt 8303 4466 L
8303 4466 mt 8303 4466 L
SO
1175 4466 mt 1211 4466 L
8303 4466 mt 8267 4466 L
DO
1175 4466 mt 8303 4466 L
8303 4466 mt 8303 4466 L
SO
1175 4466 mt 1211 4466 L
8303 4466 mt 8267 4466 L
DO
1175 4466 mt 8303 4466 L
8303 4466 mt 8303 4466 L
SO
1175 4466 mt 1211 4466 L
8303 4466 mt 8267 4466 L
DO
1175 4466 mt 8303 4466 L
8303 4466 mt 8303 4466 L
SO
1175 4466 mt 1211 4466 L
8303 4466 mt 8267 4466 L
DO
1175 4466 mt 8303 4466 L
8303 4466 mt 8303 4466 L
SO
1175 4466 mt 1211 4466 L
8303 4466 mt 8267 4466 L
DO
1175 4466 mt 8303 4466 L
8303 4466 mt 8303 4466 L
SO
1175 4466 mt 1211 4466 L
8303 4466 mt 8267 4466 L
DO
1175 4466 mt 8303 4466 L
8303 4466 mt 8303 4466 L
SO
1175 4466 mt 1211 4466 L
8303 4466 mt 8267 4466 L
DO
1175 4466 mt 8303 4466 L
8303 4466 mt 8303 4466 L
SO
1175 4466 mt 1247 4466 L
8303 4466 mt 8231 4466 L
 721 4586 mt 
(0.1) s
1175 4237 mt 1211 4237 L
8303 4237 mt 8267 4237 L
DO
1175 4237 mt 8303 4237 L
8303 4237 mt 8303 4237 L
SO
1175 4008 mt 1211 4008 L
8303 4008 mt 8267 4008 L
DO
1175 4008 mt 8303 4008 L
8303 4008 mt 8303 4008 L
SO
1175 4008 mt 1211 4008 L
8303 4008 mt 8267 4008 L
DO
1175 4008 mt 8303 4008 L
8303 4008 mt 8303 4008 L
SO
1175 4008 mt 1211 4008 L
8303 4008 mt 8267 4008 L
DO
1175 4008 mt 8303 4008 L
8303 4008 mt 8303 4008 L
SO
1175 4008 mt 1211 4008 L
8303 4008 mt 8267 4008 L
DO
1175 4008 mt 8303 4008 L
8303 4008 mt 8303 4008 L
SO
1175 4008 mt 1211 4008 L
8303 4008 mt 8267 4008 L
DO
1175 4008 mt 8303 4008 L
8303 4008 mt 8303 4008 L
SO
1175 4008 mt 1211 4008 L
8303 4008 mt 8267 4008 L
DO
1175 4008 mt 8303 4008 L
8303 4008 mt 8303 4008 L
SO
1175 4008 mt 1211 4008 L
8303 4008 mt 8267 4008 L
DO
1175 4008 mt 8303 4008 L
8303 4008 mt 8303 4008 L
SO
1175 4008 mt 1211 4008 L
8303 4008 mt 8267 4008 L
DO
1175 4008 mt 8303 4008 L
8303 4008 mt 8303 4008 L
SO
1175 4008 mt 1247 4008 L
8303 4008 mt 8231 4008 L
 721 4128 mt 
(0.2) s
1175 3779 mt 1211 3779 L
8303 3779 mt 8267 3779 L
DO
1175 3779 mt 8303 3779 L
8303 3779 mt 8303 3779 L
SO
1175 3550 mt 1211 3550 L
8303 3550 mt 8267 3550 L
DO
1175 3550 mt 8303 3550 L
8303 3550 mt 8303 3550 L
SO
1175 3550 mt 1211 3550 L
8303 3550 mt 8267 3550 L
DO
1175 3550 mt 8303 3550 L
8303 3550 mt 8303 3550 L
SO
1175 3550 mt 1211 3550 L
8303 3550 mt 8267 3550 L
DO
1175 3550 mt 8303 3550 L
8303 3550 mt 8303 3550 L
SO
1175 3550 mt 1211 3550 L
8303 3550 mt 8267 3550 L
DO
1175 3550 mt 8303 3550 L
8303 3550 mt 8303 3550 L
SO
1175 3550 mt 1211 3550 L
8303 3550 mt 8267 3550 L
DO
1175 3550 mt 8303 3550 L
8303 3550 mt 8303 3550 L
SO
1175 3550 mt 1211 3550 L
8303 3550 mt 8267 3550 L
DO
1175 3550 mt 8303 3550 L
8303 3550 mt 8303 3550 L
SO
1175 3550 mt 1211 3550 L
8303 3550 mt 8267 3550 L
DO
1175 3550 mt 8303 3550 L
8303 3550 mt 8303 3550 L
SO
1175 3550 mt 1211 3550 L
8303 3550 mt 8267 3550 L
DO
1175 3550 mt 8303 3550 L
8303 3550 mt 8303 3550 L
SO
1175 3550 mt 1247 3550 L
8303 3550 mt 8231 3550 L
 721 3670 mt 
(0.3) s
1175 3321 mt 1211 3321 L
8303 3321 mt 8267 3321 L
DO
1175 3321 mt 8303 3321 L
8303 3321 mt 8303 3321 L
SO
1175 3092 mt 1211 3092 L
8303 3092 mt 8267 3092 L
DO
1175 3092 mt 8303 3092 L
8303 3092 mt 8303 3092 L
SO
1175 3092 mt 1211 3092 L
8303 3092 mt 8267 3092 L
DO
1175 3092 mt 8303 3092 L
8303 3092 mt 8303 3092 L
SO
1175 3092 mt 1211 3092 L
8303 3092 mt 8267 3092 L
DO
1175 3092 mt 8303 3092 L
8303 3092 mt 8303 3092 L
SO
1175 3092 mt 1211 3092 L
8303 3092 mt 8267 3092 L
DO
1175 3092 mt 8303 3092 L
8303 3092 mt 8303 3092 L
SO
1175 3092 mt 1211 3092 L
8303 3092 mt 8267 3092 L
DO
1175 3092 mt 8303 3092 L
8303 3092 mt 8303 3092 L
SO
1175 3092 mt 1211 3092 L
8303 3092 mt 8267 3092 L
DO
1175 3092 mt 8303 3092 L
8303 3092 mt 8303 3092 L
SO
1175 3092 mt 1211 3092 L
8303 3092 mt 8267 3092 L
DO
1175 3092 mt 8303 3092 L
8303 3092 mt 8303 3092 L
SO
1175 3092 mt 1211 3092 L
8303 3092 mt 8267 3092 L
DO
1175 3092 mt 8303 3092 L
8303 3092 mt 8303 3092 L
SO
1175 3092 mt 1247 3092 L
8303 3092 mt 8231 3092 L
 721 3212 mt 
(0.4) s
1175 2863 mt 1211 2863 L
8303 2863 mt 8267 2863 L
DO
1175 2863 mt 8303 2863 L
8303 2863 mt 8303 2863 L
SO
1175 2634 mt 1211 2634 L
8303 2634 mt 8267 2634 L
DO
1175 2634 mt 8303 2634 L
8303 2634 mt 8303 2634 L
SO
1175 2634 mt 1211 2634 L
8303 2634 mt 8267 2634 L
DO
1175 2634 mt 8303 2634 L
8303 2634 mt 8303 2634 L
SO
1175 2634 mt 1211 2634 L
8303 2634 mt 8267 2634 L
DO
1175 2634 mt 8303 2634 L
8303 2634 mt 8303 2634 L
SO
1175 2634 mt 1211 2634 L
8303 2634 mt 8267 2634 L
DO
1175 2634 mt 8303 2634 L
8303 2634 mt 8303 2634 L
SO
1175 2634 mt 1211 2634 L
8303 2634 mt 8267 2634 L
DO
1175 2634 mt 8303 2634 L
8303 2634 mt 8303 2634 L
SO
1175 2634 mt 1211 2634 L
8303 2634 mt 8267 2634 L
DO
1175 2634 mt 8303 2634 L
8303 2634 mt 8303 2634 L
SO
1175 2634 mt 1211 2634 L
8303 2634 mt 8267 2634 L
DO
1175 2634 mt 8303 2634 L
8303 2634 mt 8303 2634 L
SO
1175 2634 mt 1211 2634 L
8303 2634 mt 8267 2634 L
DO
1175 2634 mt 8303 2634 L
8303 2634 mt 8303 2634 L
SO
1175 2634 mt 1247 2634 L
8303 2634 mt 8231 2634 L
 721 2754 mt 
(0.5) s
1175 2405 mt 1211 2405 L
8303 2405 mt 8267 2405 L
DO
1175 2405 mt 8303 2405 L
8303 2405 mt 8303 2405 L
SO
1175 2176 mt 1211 2176 L
8303 2176 mt 8267 2176 L
DO
1175 2176 mt 8303 2176 L
8303 2176 mt 8303 2176 L
SO
1175 2176 mt 1211 2176 L
8303 2176 mt 8267 2176 L
DO
1175 2176 mt 8303 2176 L
8303 2176 mt 8303 2176 L
SO
1175 2176 mt 1211 2176 L
8303 2176 mt 8267 2176 L
DO
1175 2176 mt 8303 2176 L
8303 2176 mt 8303 2176 L
SO
1175 2176 mt 1211 2176 L
8303 2176 mt 8267 2176 L
DO
1175 2176 mt 8303 2176 L
8303 2176 mt 8303 2176 L
SO
1175 2176 mt 1211 2176 L
8303 2176 mt 8267 2176 L
DO
1175 2176 mt 8303 2176 L
8303 2176 mt 8303 2176 L
SO
1175 2176 mt 1211 2176 L
8303 2176 mt 8267 2176 L
DO
1175 2176 mt 8303 2176 L
8303 2176 mt 8303 2176 L
SO
1175 2176 mt 1211 2176 L
8303 2176 mt 8267 2176 L
DO
1175 2176 mt 8303 2176 L
8303 2176 mt 8303 2176 L
SO
1175 2176 mt 1211 2176 L
8303 2176 mt 8267 2176 L
DO
1175 2176 mt 8303 2176 L
8303 2176 mt 8303 2176 L
SO
1175 2176 mt 1247 2176 L
8303 2176 mt 8231 2176 L
 721 2296 mt 
(0.6) s
1175 1947 mt 1211 1947 L
8303 1947 mt 8267 1947 L
DO
1175 1947 mt 8303 1947 L
8303 1947 mt 8303 1947 L
SO
1175 1718 mt 1211 1718 L
8303 1718 mt 8267 1718 L
DO
1175 1718 mt 8303 1718 L
8303 1718 mt 8303 1718 L
SO
1175 1718 mt 1211 1718 L
8303 1718 mt 8267 1718 L
DO
1175 1718 mt 8303 1718 L
8303 1718 mt 8303 1718 L
SO
1175 1718 mt 1211 1718 L
8303 1718 mt 8267 1718 L
DO
1175 1718 mt 8303 1718 L
8303 1718 mt 8303 1718 L
SO
1175 1718 mt 1211 1718 L
8303 1718 mt 8267 1718 L
DO
1175 1718 mt 8303 1718 L
8303 1718 mt 8303 1718 L
SO
1175 1718 mt 1211 1718 L
8303 1718 mt 8267 1718 L
DO
1175 1718 mt 8303 1718 L
8303 1718 mt 8303 1718 L
SO
1175 1718 mt 1211 1718 L
8303 1718 mt 8267 1718 L
DO
1175 1718 mt 8303 1718 L
8303 1718 mt 8303 1718 L
SO
1175 1718 mt 1211 1718 L
8303 1718 mt 8267 1718 L
DO
1175 1718 mt 8303 1718 L
8303 1718 mt 8303 1718 L
SO
1175 1718 mt 1211 1718 L
8303 1718 mt 8267 1718 L
DO
1175 1718 mt 8303 1718 L
8303 1718 mt 8303 1718 L
SO
1175 1718 mt 1247 1718 L
8303 1718 mt 8231 1718 L
 721 1838 mt 
(0.7) s
1175 1489 mt 1211 1489 L
8303 1489 mt 8267 1489 L
DO
1175 1489 mt 8303 1489 L
8303 1489 mt 8303 1489 L
SO
1175 1260 mt 1211 1260 L
8303 1260 mt 8267 1260 L
DO
1175 1260 mt 8303 1260 L
8303 1260 mt 8303 1260 L
SO
1175 1260 mt 1211 1260 L
8303 1260 mt 8267 1260 L
DO
1175 1260 mt 8303 1260 L
8303 1260 mt 8303 1260 L
SO
1175 1260 mt 1211 1260 L
8303 1260 mt 8267 1260 L
DO
1175 1260 mt 8303 1260 L
8303 1260 mt 8303 1260 L
SO
1175 1260 mt 1211 1260 L
8303 1260 mt 8267 1260 L
DO
1175 1260 mt 8303 1260 L
8303 1260 mt 8303 1260 L
SO
1175 1260 mt 1211 1260 L
8303 1260 mt 8267 1260 L
DO
1175 1260 mt 8303 1260 L
8303 1260 mt 8303 1260 L
SO
1175 1260 mt 1211 1260 L
8303 1260 mt 8267 1260 L
DO
1175 1260 mt 8303 1260 L
8303 1260 mt 8303 1260 L
SO
1175 1260 mt 1211 1260 L
8303 1260 mt 8267 1260 L
DO
1175 1260 mt 8303 1260 L
8303 1260 mt 8303 1260 L
SO
1175 1260 mt 1211 1260 L
8303 1260 mt 8267 1260 L
DO
1175 1260 mt 8303 1260 L
8303 1260 mt 8303 1260 L
SO
1175 1260 mt 1247 1260 L
8303 1260 mt 8231 1260 L
 721 1380 mt 
(0.8) s
1175 1031 mt 1211 1031 L
8303 1031 mt 8267 1031 L
DO
1175 1031 mt 8303 1031 L
8303 1031 mt 8303 1031 L
SO
1175  802 mt 1211  802 L
8303  802 mt 8267  802 L
DO
1175  802 mt 8303  802 L
8303  802 mt 8303  802 L
SO
1175  802 mt 1211  802 L
8303  802 mt 8267  802 L
DO
1175  802 mt 8303  802 L
8303  802 mt 8303  802 L
SO
1175  802 mt 1211  802 L
8303  802 mt 8267  802 L
DO
1175  802 mt 8303  802 L
8303  802 mt 8303  802 L
SO
1175  802 mt 1211  802 L
8303  802 mt 8267  802 L
DO
1175  802 mt 8303  802 L
8303  802 mt 8303  802 L
SO
1175  802 mt 1211  802 L
8303  802 mt 8267  802 L
DO
1175  802 mt 8303  802 L
8303  802 mt 8303  802 L
SO
1175  802 mt 1211  802 L
8303  802 mt 8267  802 L
DO
1175  802 mt 8303  802 L
8303  802 mt 8303  802 L
SO
1175  802 mt 1211  802 L
8303  802 mt 8267  802 L
DO
1175  802 mt 8303  802 L
8303  802 mt 8303  802 L
SO
1175  802 mt 1211  802 L
8303  802 mt 8267  802 L
DO
1175  802 mt 8303  802 L
8303  802 mt 8303  802 L
SO
1175  802 mt 1247  802 L
8303  802 mt 8231  802 L
 721  922 mt 
(0.9) s
1175  573 mt 1211  573 L
8303  573 mt 8267  573 L
DO
1175  573 mt 8303  573 L
8303  573 mt 8303  573 L
SO
1175  344 mt 1211  344 L
8303  344 mt 8267  344 L
DO
1175  344 mt 8303  344 L
8303  344 mt 8303  344 L
SO
1175  344 mt 1211  344 L
8303  344 mt 8267  344 L
DO
1175  344 mt 8303  344 L
8303  344 mt 8303  344 L
SO
1175  344 mt 1211  344 L
8303  344 mt 8267  344 L
DO
1175  344 mt 8303  344 L
8303  344 mt 8303  344 L
SO
1175  344 mt 1211  344 L
8303  344 mt 8267  344 L
DO
1175  344 mt 8303  344 L
8303  344 mt 8303  344 L
SO
1175  344 mt 1211  344 L
8303  344 mt 8267  344 L
DO
1175  344 mt 8303  344 L
8303  344 mt 8303  344 L
SO
1175  344 mt 1211  344 L
8303  344 mt 8267  344 L
DO
1175  344 mt 8303  344 L
8303  344 mt 8303  344 L
SO
1175  344 mt 1211  344 L
8303  344 mt 8267  344 L
DO
1175  344 mt 8303  344 L
8303  344 mt 8303  344 L
SO
1175  344 mt 1211  344 L
8303  344 mt 8267  344 L
DO
1175  344 mt 8303  344 L
8303  344 mt 8303  344 L
SO
1175  344 mt 1247  344 L
8303  344 mt 8231  344 L
 973  464 mt 
(1) s
1175 4925 mt 8303 4925 L
1175  207 mt 8303  207 L
1175 4925 mt 1175  207 L
8303 4925 mt 8303  207 L
gs 1176 207 7128 4719 rc
48 w
/c8 { 0.000000 0.447000 0.741000 sr} bdef
c8
706 460 705 380 706 140 705 79 705 12 706 -2 705 13 706 -3 
1410 -3 1176 344 10 MP stroke
gr

48 w
c8
gs 886 48 7635 1663 rc
2466  341 mt 2706  341 L
2586  221 mt 2586  461 L
3172  338 mt 3412  338 L
3292  218 mt 3292  458 L
3877  351 mt 4117  351 L
3997  231 mt 3997  471 L
4583  349 mt 4823  349 L
4703  229 mt 4703  469 L
5288  361 mt 5528  361 L
5408  241 mt 5408  481 L
5993  440 mt 6233  440 L
6113  320 mt 6113  560 L
6699  580 mt 6939  580 L
6819  460 mt 6819  700 L
7404  960 mt 7644  960 L
7524  840 mt 7524 1080 L
8110 1420 mt 8350 1420 L
8230 1300 mt 8230 1540 L
2502  257 mt 2670  425 L
2670  257 mt 2502  425 L
3208  254 mt 3376  422 L
3376  254 mt 3208  422 L
3913  267 mt 4081  435 L
4081  267 mt 3913  435 L
4619  265 mt 4787  433 L
4787  265 mt 4619  433 L
5324  277 mt 5492  445 L
5492  277 mt 5324  445 L
6029  356 mt 6197  524 L
6197  356 mt 6029  524 L
6735  496 mt 6903  664 L
6903  496 mt 6735  664 L
7440  876 mt 7608 1044 L
7608  876 mt 7440 1044 L
8146 1336 mt 8314 1504 L
8314 1336 mt 8146 1504 L
gr

gs 1176 207 7128 4719 rc
/c9 { 0.850000 0.325000 0.098000 sr} bdef
c9
706 478 705 384 706 145 705 64 705 22 706 23 705 -6 706 -25 
1410 26 1176 344 10 MP stroke
gr

c9
gs 1006 169 7395 1457 rc
0 j
0 -94 -94 0 0 94 94 0 2539 323 5 MP
DP
0 -94 -94 0 0 94 94 0 3245 298 5 MP
DP
0 -94 -94 0 0 94 94 0 3950 292 5 MP
DP
0 -94 -94 0 0 94 94 0 4656 315 5 MP
DP
0 -94 -94 0 0 94 94 0 5361 337 5 MP
DP
0 -94 -94 0 0 94 94 0 6066 401 5 MP
DP
0 -94 -94 0 0 94 94 0 6772 546 5 MP
DP
0 -94 -94 0 0 94 94 0 7477 930 5 MP
DP
0 -94 -94 0 0 94 94 0 8183 1408 5 MP
DP
gr

gs 1176 207 7128 4719 rc
/c10 { 0.929000 0.694000 0.125000 sr} bdef
c10
706 0 705 0 706 0 705 0 705 0 706 0 705 0 706 0 
1410 0 1176 344 10 MP stroke
gr

c10
gs 646 0 8115 875 rc
160 W
2586 344 PD
160 W
3292 344 PD
160 W
3997 344 PD
160 W
4703 344 PD
160 W
5408 344 PD
160 W
6113 344 PD
160 W
6819 344 PD
160 W
7524 344 PD
160 W
8230 344 PD
gr

gs 1176 207 7128 4719 rc
gr

0.15 sg
%%IncludeResource: font Times-Bold
/Times-Bold /ISOLatin1Encoding 336 FMSR

3194 5608 mt 
(Number of Processors) s
 532 4189 mt  -90 rotate
(Efficiency \(SpeedUp/p\)) s
90 rotate
0 sg
%%IncludeResource: font Helvetica
/Helvetica /ISOLatin1Encoding 120 FMSR

1159 4968 mt 
( ) s
8287  249 mt 
( ) s
6 w
1 sg
0 1270 4066 0 0 -1270 1432 4729 4 MP
PP
-4066 0 0 1270 4066 0 0 -1270 1432 4729 5 MP stroke
4 w
DO
SO
6 w
0.15 sg
1432 4729 mt 5498 4729 L
1432 3459 mt 5498 3459 L
1432 4729 mt 1432 3459 L
5498 4729 mt 5498 3459 L
1432 4729 mt 5498 4729 L
1432 4729 mt 1432 3459 L
1432 4729 mt 5498 4729 L
1432 3459 mt 5498 3459 L
1432 4729 mt 1432 3459 L
5498 4729 mt 5498 3459 L
0 sg
%%IncludeResource: font Times-Roman
/Times-Roman /ISOLatin1Encoding 336 FMSR

1900 3799 mt 
(Efficiency \(BLAS IBM\)) s
gs 1432 3459 4067 1271 rc
48 w
c8
360 0 1504 3684 2 MP stroke
gr

48 w
c8
gs 1394 3394 581 581 rc
1564 3684 mt 1804 3684 L
1684 3564 mt 1684 3804 L
1600 3600 mt 1768 3768 L
1768 3600 mt 1600 3768 L
gr

gs 1432 3459 4067 1271 rc
gr

0 sg
1900 4209 mt 
(Efficiency \(BLAS Netlib\)) s
gs 1432 3459 4067 1271 rc
c9
360 0 1504 4094 2 MP stroke
gs 1514 3924 341 341 rc
0 j
0 -94 -94 0 0 94 94 0 1637 4047 5 MP
DP
gr

gr

c9
0 sg
1900 4618 mt 
(Efficiency \(Ideal\)) s
gs 1432 3459 4067 1271 rc
c10
360 0 1504 4503 2 MP stroke
gr

c10
gs 1154 3973 1061 1061 rc
160 W
1684 4503 PD
gr

gs 1432 3459 4067 1271 rc
6 w
gr

6 w

end %%Color Dict

eplot
%%EndObject

epage
end

showpage

%%Trailer
%%EOF
