%!PS-Adobe-3.0 EPSF-3.0
%%Creator: MATLAB, The Mathworks, Inc. Version 7.10.0.499 (R2010a). Operating System: Linux 3.16.0-46-generic #62~14.04.1-Ubuntu SMP Tue Aug 11 16:27:16 UTC 2015 x86_64.
%%Title: /home/doc/Work/Doutorado/Article_hp2FEM/Article_hp2FEM-Architecture_english/matlab/Comparing_BLAS/figures/eps/Efficiency_Hexa_10000_P9.eps
%%CreationDate: 08/25/2015  14:53:33
%%DocumentNeededFonts: Helvetica-Bold
%%+ Helvetica
%%DocumentProcessColors: Cyan Magenta Yellow Black
%%LanguageLevel: 2
%%Pages: 1
%%BoundingBox:    43   187   559   615
%%EndComments

%%BeginProlog
% MathWorks dictionary
/MathWorks 160 dict begin
% definition operators
/bdef {bind def} bind def
/ldef {load def} bind def
/xdef {exch def} bdef
/xstore {exch store} bdef
% operator abbreviations
/c  /clip ldef
/cc /concat ldef
/cp /closepath ldef
/gr /grestore ldef
/gs /gsave ldef
/mt /moveto ldef
/np /newpath ldef
/cm /currentmatrix ldef
/sm /setmatrix ldef
/rm /rmoveto ldef
/rl /rlineto ldef
/s {show newpath} bdef
/sc {setcmykcolor} bdef
/sr /setrgbcolor ldef
/sg /setgray ldef
/w /setlinewidth ldef
/j /setlinejoin ldef
/cap /setlinecap ldef
/rc {rectclip} bdef
/rf {rectfill} bdef
% page state control
/pgsv () def
/bpage {/pgsv save def} bdef
/epage {pgsv restore} bdef
/bplot /gsave ldef
/eplot {stroke grestore} bdef
% orientation switch
/portraitMode 0 def /landscapeMode 1 def /rotateMode 2 def
% coordinate system mappings
/dpi2point 0 def
% font control
/FontSize 0 def
/FMS {/FontSize xstore findfont [FontSize 0 0 FontSize neg 0 0]
  makefont setfont} bdef
/reencode {exch dup where {pop load} {pop StandardEncoding} ifelse
  exch dup 3 1 roll findfont dup length dict begin
  { 1 index /FID ne {def}{pop pop} ifelse } forall
  /Encoding exch def currentdict end definefont pop} bdef
/isroman {findfont /CharStrings get /Agrave known} bdef
/FMSR {3 1 roll 1 index dup isroman {reencode} {pop pop} ifelse
  exch FMS} bdef
/csm {1 dpi2point div -1 dpi2point div scale neg translate
 dup landscapeMode eq {pop -90 rotate}
  {rotateMode eq {90 rotate} if} ifelse} bdef
% line types: solid, dotted, dashed, dotdash
/SO { [] 0 setdash } bdef
/DO { [.5 dpi2point mul 4 dpi2point mul] 0 setdash } bdef
/DA { [6 dpi2point mul] 0 setdash } bdef
/DD { [.5 dpi2point mul 4 dpi2point mul 6 dpi2point mul 4
  dpi2point mul] 0 setdash } bdef
% macros for lines and objects
/L {lineto stroke} bdef
/MP {3 1 roll moveto 1 sub {rlineto} repeat} bdef
/AP {{rlineto} repeat} bdef
/PDlw -1 def
/W {/PDlw currentlinewidth def setlinewidth} def
/PP {closepath eofill} bdef
/DP {closepath stroke} bdef
/MR {4 -2 roll moveto dup  0 exch rlineto exch 0 rlineto
  neg 0 exch rlineto closepath} bdef
/FR {MR stroke} bdef
/PR {MR fill} bdef
/L1i {{currentfile picstr readhexstring pop} image} bdef
/tMatrix matrix def
/MakeOval {newpath tMatrix currentmatrix pop translate scale
0 0 1 0 360 arc tMatrix setmatrix} bdef
/FO {MakeOval stroke} bdef
/PO {MakeOval fill} bdef
/PD {currentlinewidth 2 div 0 360 arc fill
   PDlw -1 eq not {PDlw w /PDlw -1 def} if} def
/FA {newpath tMatrix currentmatrix pop translate scale
  0 0 1 5 -2 roll arc tMatrix setmatrix stroke} bdef
/PA {newpath tMatrix currentmatrix pop	translate 0 0 moveto scale
  0 0 1 5 -2 roll arc closepath tMatrix setmatrix fill} bdef
/FAn {newpath tMatrix currentmatrix pop translate scale
  0 0 1 5 -2 roll arcn tMatrix setmatrix stroke} bdef
/PAn {newpath tMatrix currentmatrix pop translate 0 0 moveto scale
  0 0 1 5 -2 roll arcn closepath tMatrix setmatrix fill} bdef
/vradius 0 def /hradius 0 def /lry 0 def
/lrx 0 def /uly 0 def /ulx 0 def /rad 0 def
/MRR {/vradius xdef /hradius xdef /lry xdef /lrx xdef /uly xdef
  /ulx xdef newpath tMatrix currentmatrix pop ulx hradius add uly
  vradius add translate hradius vradius scale 0 0 1 180 270 arc 
  tMatrix setmatrix lrx hradius sub uly vradius add translate
  hradius vradius scale 0 0 1 270 360 arc tMatrix setmatrix
  lrx hradius sub lry vradius sub translate hradius vradius scale
  0 0 1 0 90 arc tMatrix setmatrix ulx hradius add lry vradius sub
  translate hradius vradius scale 0 0 1 90 180 arc tMatrix setmatrix
  closepath} bdef
/FRR {MRR stroke } bdef
/PRR {MRR fill } bdef
/MlrRR {/lry xdef /lrx xdef /uly xdef /ulx xdef /rad lry uly sub 2 div def
  newpath tMatrix currentmatrix pop ulx rad add uly rad add translate
  rad rad scale 0 0 1 90 270 arc tMatrix setmatrix lrx rad sub lry rad
  sub translate rad rad scale 0 0 1 270 90 arc tMatrix setmatrix
  closepath} bdef
/FlrRR {MlrRR stroke } bdef
/PlrRR {MlrRR fill } bdef
/MtbRR {/lry xdef /lrx xdef /uly xdef /ulx xdef /rad lrx ulx sub 2 div def
  newpath tMatrix currentmatrix pop ulx rad add uly rad add translate
  rad rad scale 0 0 1 180 360 arc tMatrix setmatrix lrx rad sub lry rad
  sub translate rad rad scale 0 0 1 0 180 arc tMatrix setmatrix
  closepath} bdef
/FtbRR {MtbRR stroke } bdef
/PtbRR {MtbRR fill } bdef
/stri 6 array def /dtri 6 array def
/smat 6 array def /dmat 6 array def
/tmat1 6 array def /tmat2 6 array def /dif 3 array def
/asub {/ind2 exch def /ind1 exch def dup dup
  ind1 get exch ind2 get sub exch } bdef
/tri_to_matrix {
  2 0 asub 3 1 asub 4 0 asub 5 1 asub
  dup 0 get exch 1 get 7 -1 roll astore } bdef
/compute_transform {
  dmat dtri tri_to_matrix tmat1 invertmatrix 
  smat stri tri_to_matrix tmat2 concatmatrix } bdef
/ds {stri astore pop} bdef
/dt {dtri astore pop} bdef
/db {2 copy /cols xdef /rows xdef mul dup 3 mul string
  currentfile 
  3 index 0 eq {/ASCIIHexDecode filter}
  {/ASCII85Decode filter 3 index 2 eq {/RunLengthDecode filter} if }
  ifelse exch readstring pop
  dup 0 3 index getinterval /rbmap xdef
  dup 2 index dup getinterval /gbmap xdef
  1 index dup 2 mul exch getinterval /bbmap xdef pop pop}bdef
/it {gs np dtri aload pop moveto lineto lineto cp c
  cols rows 8 compute_transform 
  rbmap gbmap bbmap true 3 colorimage gr}bdef
/il {newpath moveto lineto stroke}bdef
currentdict end def
%%EndProlog

%%BeginSetup
MathWorks begin

0 cap

end
%%EndSetup

%%Page: 1 1
%%BeginPageSetup
%%PageBoundingBox:    43   187   559   615
MathWorks begin
bpage
%%EndPageSetup

%%BeginObject: obj1
bplot

/dpi2point 4.16667 def
portraitMode 0075 2550 csm

  106   -15  2149  1783 rc
85 dict begin %Colortable dictionary
/c0 { 0.000000 0.000000 0.000000 sr} bdef
/c1 { 1.000000 1.000000 1.000000 sr} bdef
/c2 { 0.900000 0.000000 0.000000 sr} bdef
/c3 { 0.000000 0.820000 0.000000 sr} bdef
/c4 { 0.000000 0.000000 0.800000 sr} bdef
/c5 { 0.910000 0.820000 0.320000 sr} bdef
/c6 { 1.000000 0.260000 0.820000 sr} bdef
/c7 { 0.000000 0.820000 0.820000 sr} bdef
c0
1 j
1 sg
   0    0 2401 1802 rf
2.08333 w
0 1468 1861 0 0 -1468 311 1603 4 MP
PP
-1861 0 0 1468 1861 0 0 -1468 311 1603 5 MP stroke
1.38889 w
DO
0 sg
 680 1603 mt  680  135 L
 680  135 mt  680  135 L
 864 1603 mt  864  135 L
 864  135 mt  864  135 L
1048 1603 mt 1048  135 L
1048  135 mt 1048  135 L
1232 1603 mt 1232  135 L
1232  135 mt 1232  135 L
1416 1603 mt 1416  135 L
1416  135 mt 1416  135 L
1600 1603 mt 1600  135 L
1600  135 mt 1600  135 L
1784 1603 mt 1784  135 L
1784  135 mt 1784  135 L
1968 1603 mt 1968  135 L
1968  135 mt 1968  135 L
2152 1603 mt 2152  135 L
2152  135 mt 2152  135 L
 311 1603 mt 2172 1603 L
2172 1603 mt 2172 1603 L
 311 1460 mt 2172 1460 L
2172 1460 mt 2172 1460 L
 311 1317 mt 2172 1317 L
2172 1317 mt 2172 1317 L
 311 1175 mt 2172 1175 L
2172 1175 mt 2172 1175 L
 311 1032 mt 2172 1032 L
2172 1032 mt 2172 1032 L
 311  890 mt 2172  890 L
2172  890 mt 2172  890 L
 311  747 mt 2172  747 L
2172  747 mt 2172  747 L
 311  605 mt 2172  605 L
2172  605 mt 2172  605 L
 311  462 mt 2172  462 L
2172  462 mt 2172  462 L
 311  320 mt 2172  320 L
2172  320 mt 2172  320 L
 311  177 mt 2172  177 L
2172  177 mt 2172  177 L
SO
2.08333 w
 311 1603 mt 2172 1603 L
 311  135 mt 2172  135 L
 311 1603 mt  311  135 L
2172 1603 mt 2172  135 L
 311 1603 mt 2172 1603 L
 311 1603 mt  311  135 L
 680 1603 mt  680 1584 L
 680  135 mt  680  153 L
%%IncludeResource: font Helvetica-Bold
/Helvetica-Bold /ISOLatin1Encoding 62.5 FMSR

 663 1675 mt 
(4) s
 864 1603 mt  864 1584 L
 864  135 mt  864  153 L
 847 1675 mt 
(8) s
 864 1603 mt  864 1593 L
 864  135 mt  864  144 L
DO
 864 1603 mt  864  135 L
 864  135 mt  864  135 L
SO
 864 1603 mt  864 1593 L
 864  135 mt  864  144 L
DO
 864 1603 mt  864  135 L
 864  135 mt  864  135 L
SO
 864 1603 mt  864 1593 L
 864  135 mt  864  144 L
DO
 864 1603 mt  864  135 L
 864  135 mt  864  135 L
SO
 864 1603 mt  864 1593 L
 864  135 mt  864  144 L
DO
 864 1603 mt  864  135 L
 864  135 mt  864  135 L
SO
 864 1603 mt  864 1593 L
 864  135 mt  864  144 L
DO
 864 1603 mt  864  135 L
 864  135 mt  864  135 L
SO
 864 1603 mt  864 1593 L
 864  135 mt  864  144 L
DO
 864 1603 mt  864  135 L
 864  135 mt  864  135 L
SO
 864 1603 mt  864 1593 L
 864  135 mt  864  144 L
DO
 864 1603 mt  864  135 L
 864  135 mt  864  135 L
SO
 864 1603 mt  864 1593 L
 864  135 mt  864  144 L
DO
 864 1603 mt  864  135 L
 864  135 mt  864  135 L
SO
 864 1603 mt  864 1593 L
 864  135 mt  864  144 L
DO
 864 1603 mt  864  135 L
 864  135 mt  864  135 L
SO
1048 1603 mt 1048 1584 L
1048  135 mt 1048  153 L
1014 1675 mt 
(16) s
1048 1603 mt 1048 1593 L
1048  135 mt 1048  144 L
DO
1048 1603 mt 1048  135 L
1048  135 mt 1048  135 L
SO
1048 1603 mt 1048 1593 L
1048  135 mt 1048  144 L
DO
1048 1603 mt 1048  135 L
1048  135 mt 1048  135 L
SO
1048 1603 mt 1048 1593 L
1048  135 mt 1048  144 L
DO
1048 1603 mt 1048  135 L
1048  135 mt 1048  135 L
SO
1048 1603 mt 1048 1593 L
1048  135 mt 1048  144 L
DO
1048 1603 mt 1048  135 L
1048  135 mt 1048  135 L
SO
1048 1603 mt 1048 1593 L
1048  135 mt 1048  144 L
DO
1048 1603 mt 1048  135 L
1048  135 mt 1048  135 L
SO
1048 1603 mt 1048 1593 L
1048  135 mt 1048  144 L
DO
1048 1603 mt 1048  135 L
1048  135 mt 1048  135 L
SO
1048 1603 mt 1048 1593 L
1048  135 mt 1048  144 L
DO
1048 1603 mt 1048  135 L
1048  135 mt 1048  135 L
SO
1048 1603 mt 1048 1593 L
1048  135 mt 1048  144 L
DO
1048 1603 mt 1048  135 L
1048  135 mt 1048  135 L
SO
1048 1603 mt 1048 1593 L
1048  135 mt 1048  144 L
DO
1048 1603 mt 1048  135 L
1048  135 mt 1048  135 L
SO
1232 1603 mt 1232 1584 L
1232  135 mt 1232  153 L
1198 1675 mt 
(32) s
1232 1603 mt 1232 1593 L
1232  135 mt 1232  144 L
DO
1232 1603 mt 1232  135 L
1232  135 mt 1232  135 L
SO
1232 1603 mt 1232 1593 L
1232  135 mt 1232  144 L
DO
1232 1603 mt 1232  135 L
1232  135 mt 1232  135 L
SO
1232 1603 mt 1232 1593 L
1232  135 mt 1232  144 L
DO
1232 1603 mt 1232  135 L
1232  135 mt 1232  135 L
SO
1232 1603 mt 1232 1593 L
1232  135 mt 1232  144 L
DO
1232 1603 mt 1232  135 L
1232  135 mt 1232  135 L
SO
1232 1603 mt 1232 1593 L
1232  135 mt 1232  144 L
DO
1232 1603 mt 1232  135 L
1232  135 mt 1232  135 L
SO
1232 1603 mt 1232 1593 L
1232  135 mt 1232  144 L
DO
1232 1603 mt 1232  135 L
1232  135 mt 1232  135 L
SO
1232 1603 mt 1232 1593 L
1232  135 mt 1232  144 L
DO
1232 1603 mt 1232  135 L
1232  135 mt 1232  135 L
SO
1232 1603 mt 1232 1593 L
1232  135 mt 1232  144 L
DO
1232 1603 mt 1232  135 L
1232  135 mt 1232  135 L
SO
1232 1603 mt 1232 1593 L
1232  135 mt 1232  144 L
DO
1232 1603 mt 1232  135 L
1232  135 mt 1232  135 L
SO
1416 1603 mt 1416 1584 L
1416  135 mt 1416  153 L
1382 1675 mt 
(64) s
1416 1603 mt 1416 1593 L
1416  135 mt 1416  144 L
DO
1416 1603 mt 1416  135 L
1416  135 mt 1416  135 L
SO
1416 1603 mt 1416 1593 L
1416  135 mt 1416  144 L
DO
1416 1603 mt 1416  135 L
1416  135 mt 1416  135 L
SO
1416 1603 mt 1416 1593 L
1416  135 mt 1416  144 L
DO
1416 1603 mt 1416  135 L
1416  135 mt 1416  135 L
SO
1416 1603 mt 1416 1593 L
1416  135 mt 1416  144 L
DO
1416 1603 mt 1416  135 L
1416  135 mt 1416  135 L
SO
1416 1603 mt 1416 1593 L
1416  135 mt 1416  144 L
DO
1416 1603 mt 1416  135 L
1416  135 mt 1416  135 L
SO
1416 1603 mt 1416 1593 L
1416  135 mt 1416  144 L
DO
1416 1603 mt 1416  135 L
1416  135 mt 1416  135 L
SO
1416 1603 mt 1416 1593 L
1416  135 mt 1416  144 L
DO
1416 1603 mt 1416  135 L
1416  135 mt 1416  135 L
SO
1416 1603 mt 1416 1593 L
1416  135 mt 1416  144 L
DO
1416 1603 mt 1416  135 L
1416  135 mt 1416  135 L
SO
1416 1603 mt 1416 1593 L
1416  135 mt 1416  144 L
DO
1416 1603 mt 1416  135 L
1416  135 mt 1416  135 L
SO
1600 1603 mt 1600 1584 L
1600  135 mt 1600  153 L
1548 1675 mt 
(128) s
1600 1603 mt 1600 1593 L
1600  135 mt 1600  144 L
DO
1600 1603 mt 1600  135 L
1600  135 mt 1600  135 L
SO
1600 1603 mt 1600 1593 L
1600  135 mt 1600  144 L
DO
1600 1603 mt 1600  135 L
1600  135 mt 1600  135 L
SO
1600 1603 mt 1600 1593 L
1600  135 mt 1600  144 L
DO
1600 1603 mt 1600  135 L
1600  135 mt 1600  135 L
SO
1600 1603 mt 1600 1593 L
1600  135 mt 1600  144 L
DO
1600 1603 mt 1600  135 L
1600  135 mt 1600  135 L
SO
1600 1603 mt 1600 1593 L
1600  135 mt 1600  144 L
DO
1600 1603 mt 1600  135 L
1600  135 mt 1600  135 L
SO
1600 1603 mt 1600 1593 L
1600  135 mt 1600  144 L
DO
1600 1603 mt 1600  135 L
1600  135 mt 1600  135 L
SO
1600 1603 mt 1600 1593 L
1600  135 mt 1600  144 L
DO
1600 1603 mt 1600  135 L
1600  135 mt 1600  135 L
SO
1600 1603 mt 1600 1593 L
1600  135 mt 1600  144 L
DO
1600 1603 mt 1600  135 L
1600  135 mt 1600  135 L
SO
1600 1603 mt 1600 1593 L
1600  135 mt 1600  144 L
DO
1600 1603 mt 1600  135 L
1600  135 mt 1600  135 L
SO
1784 1603 mt 1784 1584 L
1784  135 mt 1784  153 L
1732 1675 mt 
(256) s
1784 1603 mt 1784 1593 L
1784  135 mt 1784  144 L
DO
1784 1603 mt 1784  135 L
1784  135 mt 1784  135 L
SO
1784 1603 mt 1784 1593 L
1784  135 mt 1784  144 L
DO
1784 1603 mt 1784  135 L
1784  135 mt 1784  135 L
SO
1784 1603 mt 1784 1593 L
1784  135 mt 1784  144 L
DO
1784 1603 mt 1784  135 L
1784  135 mt 1784  135 L
SO
1784 1603 mt 1784 1593 L
1784  135 mt 1784  144 L
DO
1784 1603 mt 1784  135 L
1784  135 mt 1784  135 L
SO
1784 1603 mt 1784 1593 L
1784  135 mt 1784  144 L
DO
1784 1603 mt 1784  135 L
1784  135 mt 1784  135 L
SO
1784 1603 mt 1784 1593 L
1784  135 mt 1784  144 L
DO
1784 1603 mt 1784  135 L
1784  135 mt 1784  135 L
SO
1784 1603 mt 1784 1593 L
1784  135 mt 1784  144 L
DO
1784 1603 mt 1784  135 L
1784  135 mt 1784  135 L
SO
1784 1603 mt 1784 1593 L
1784  135 mt 1784  144 L
DO
1784 1603 mt 1784  135 L
1784  135 mt 1784  135 L
SO
1784 1603 mt 1784 1593 L
1784  135 mt 1784  144 L
DO
1784 1603 mt 1784  135 L
1784  135 mt 1784  135 L
SO
1968 1603 mt 1968 1584 L
1968  135 mt 1968  153 L
1916 1675 mt 
(512) s
1968 1603 mt 1968 1593 L
1968  135 mt 1968  144 L
DO
1968 1603 mt 1968  135 L
1968  135 mt 1968  135 L
SO
1968 1603 mt 1968 1593 L
1968  135 mt 1968  144 L
DO
1968 1603 mt 1968  135 L
1968  135 mt 1968  135 L
SO
1968 1603 mt 1968 1593 L
1968  135 mt 1968  144 L
DO
1968 1603 mt 1968  135 L
1968  135 mt 1968  135 L
SO
1968 1603 mt 1968 1593 L
1968  135 mt 1968  144 L
DO
1968 1603 mt 1968  135 L
1968  135 mt 1968  135 L
SO
1968 1603 mt 1968 1593 L
1968  135 mt 1968  144 L
DO
1968 1603 mt 1968  135 L
1968  135 mt 1968  135 L
SO
1968 1603 mt 1968 1593 L
1968  135 mt 1968  144 L
DO
1968 1603 mt 1968  135 L
1968  135 mt 1968  135 L
SO
1968 1603 mt 1968 1593 L
1968  135 mt 1968  144 L
DO
1968 1603 mt 1968  135 L
1968  135 mt 1968  135 L
SO
1968 1603 mt 1968 1593 L
1968  135 mt 1968  144 L
DO
1968 1603 mt 1968  135 L
1968  135 mt 1968  135 L
SO
1968 1603 mt 1968 1593 L
1968  135 mt 1968  144 L
DO
1968 1603 mt 1968  135 L
1968  135 mt 1968  135 L
SO
2152 1603 mt 2152 1584 L
2152  135 mt 2152  153 L
2083 1675 mt 
(1024) s
2152 1603 mt 2152 1593 L
2152  135 mt 2152  144 L
DO
2152 1603 mt 2152  135 L
2152  135 mt 2152  135 L
SO
 311 1603 mt  330 1603 L
2172 1603 mt 2153 1603 L
 266 1627 mt 
(0) s
 311 1531 mt  321 1531 L
2172 1531 mt 2162 1531 L
DO
 311 1531 mt 2172 1531 L
2172 1531 mt 2172 1531 L
SO
 311 1460 mt  321 1460 L
2172 1460 mt 2162 1460 L
DO
 311 1460 mt 2172 1460 L
2172 1460 mt 2172 1460 L
SO
 311 1460 mt  321 1460 L
2172 1460 mt 2162 1460 L
DO
 311 1460 mt 2172 1460 L
2172 1460 mt 2172 1460 L
SO
 311 1460 mt  321 1460 L
2172 1460 mt 2162 1460 L
DO
 311 1460 mt 2172 1460 L
2172 1460 mt 2172 1460 L
SO
 311 1460 mt  321 1460 L
2172 1460 mt 2162 1460 L
DO
 311 1460 mt 2172 1460 L
2172 1460 mt 2172 1460 L
SO
 311 1460 mt  321 1460 L
2172 1460 mt 2162 1460 L
DO
 311 1460 mt 2172 1460 L
2172 1460 mt 2172 1460 L
SO
 311 1460 mt  321 1460 L
2172 1460 mt 2162 1460 L
DO
 311 1460 mt 2172 1460 L
2172 1460 mt 2172 1460 L
SO
 311 1460 mt  321 1460 L
2172 1460 mt 2162 1460 L
DO
 311 1460 mt 2172 1460 L
2172 1460 mt 2172 1460 L
SO
 311 1460 mt  321 1460 L
2172 1460 mt 2162 1460 L
DO
 311 1460 mt 2172 1460 L
2172 1460 mt 2172 1460 L
SO
 311 1460 mt  330 1460 L
2172 1460 mt 2153 1460 L
 214 1484 mt 
(0.1) s
 311 1389 mt  321 1389 L
2172 1389 mt 2162 1389 L
DO
 311 1389 mt 2172 1389 L
2172 1389 mt 2172 1389 L
SO
 311 1317 mt  321 1317 L
2172 1317 mt 2162 1317 L
DO
 311 1317 mt 2172 1317 L
2172 1317 mt 2172 1317 L
SO
 311 1317 mt  321 1317 L
2172 1317 mt 2162 1317 L
DO
 311 1317 mt 2172 1317 L
2172 1317 mt 2172 1317 L
SO
 311 1317 mt  321 1317 L
2172 1317 mt 2162 1317 L
DO
 311 1317 mt 2172 1317 L
2172 1317 mt 2172 1317 L
SO
 311 1317 mt  321 1317 L
2172 1317 mt 2162 1317 L
DO
 311 1317 mt 2172 1317 L
2172 1317 mt 2172 1317 L
SO
 311 1317 mt  321 1317 L
2172 1317 mt 2162 1317 L
DO
 311 1317 mt 2172 1317 L
2172 1317 mt 2172 1317 L
SO
 311 1317 mt  321 1317 L
2172 1317 mt 2162 1317 L
DO
 311 1317 mt 2172 1317 L
2172 1317 mt 2172 1317 L
SO
 311 1317 mt  321 1317 L
2172 1317 mt 2162 1317 L
DO
 311 1317 mt 2172 1317 L
2172 1317 mt 2172 1317 L
SO
 311 1317 mt  321 1317 L
2172 1317 mt 2162 1317 L
DO
 311 1317 mt 2172 1317 L
2172 1317 mt 2172 1317 L
SO
 311 1317 mt  330 1317 L
2172 1317 mt 2153 1317 L
 214 1341 mt 
(0.2) s
 311 1246 mt  321 1246 L
2172 1246 mt 2162 1246 L
DO
 311 1246 mt 2172 1246 L
2172 1246 mt 2172 1246 L
SO
 311 1175 mt  321 1175 L
2172 1175 mt 2162 1175 L
DO
 311 1175 mt 2172 1175 L
2172 1175 mt 2172 1175 L
SO
 311 1175 mt  321 1175 L
2172 1175 mt 2162 1175 L
DO
 311 1175 mt 2172 1175 L
2172 1175 mt 2172 1175 L
SO
 311 1175 mt  321 1175 L
2172 1175 mt 2162 1175 L
DO
 311 1175 mt 2172 1175 L
2172 1175 mt 2172 1175 L
SO
 311 1175 mt  321 1175 L
2172 1175 mt 2162 1175 L
DO
 311 1175 mt 2172 1175 L
2172 1175 mt 2172 1175 L
SO
 311 1175 mt  321 1175 L
2172 1175 mt 2162 1175 L
DO
 311 1175 mt 2172 1175 L
2172 1175 mt 2172 1175 L
SO
 311 1175 mt  321 1175 L
2172 1175 mt 2162 1175 L
DO
 311 1175 mt 2172 1175 L
2172 1175 mt 2172 1175 L
SO
 311 1175 mt  321 1175 L
2172 1175 mt 2162 1175 L
DO
 311 1175 mt 2172 1175 L
2172 1175 mt 2172 1175 L
SO
 311 1175 mt  321 1175 L
2172 1175 mt 2162 1175 L
DO
 311 1175 mt 2172 1175 L
2172 1175 mt 2172 1175 L
SO
 311 1175 mt  330 1175 L
2172 1175 mt 2153 1175 L
 214 1199 mt 
(0.3) s
 311 1104 mt  321 1104 L
2172 1104 mt 2162 1104 L
DO
 311 1104 mt 2172 1104 L
2172 1104 mt 2172 1104 L
SO
 311 1032 mt  321 1032 L
2172 1032 mt 2162 1032 L
DO
 311 1032 mt 2172 1032 L
2172 1032 mt 2172 1032 L
SO
 311 1032 mt  321 1032 L
2172 1032 mt 2162 1032 L
DO
 311 1032 mt 2172 1032 L
2172 1032 mt 2172 1032 L
SO
 311 1032 mt  321 1032 L
2172 1032 mt 2162 1032 L
DO
 311 1032 mt 2172 1032 L
2172 1032 mt 2172 1032 L
SO
 311 1032 mt  321 1032 L
2172 1032 mt 2162 1032 L
DO
 311 1032 mt 2172 1032 L
2172 1032 mt 2172 1032 L
SO
 311 1032 mt  321 1032 L
2172 1032 mt 2162 1032 L
DO
 311 1032 mt 2172 1032 L
2172 1032 mt 2172 1032 L
SO
 311 1032 mt  321 1032 L
2172 1032 mt 2162 1032 L
DO
 311 1032 mt 2172 1032 L
2172 1032 mt 2172 1032 L
SO
 311 1032 mt  321 1032 L
2172 1032 mt 2162 1032 L
DO
 311 1032 mt 2172 1032 L
2172 1032 mt 2172 1032 L
SO
 311 1032 mt  321 1032 L
2172 1032 mt 2162 1032 L
DO
 311 1032 mt 2172 1032 L
2172 1032 mt 2172 1032 L
SO
 311 1032 mt  330 1032 L
2172 1032 mt 2153 1032 L
 214 1056 mt 
(0.4) s
 311  961 mt  321  961 L
2172  961 mt 2162  961 L
DO
 311  961 mt 2172  961 L
2172  961 mt 2172  961 L
SO
 311  890 mt  321  890 L
2172  890 mt 2162  890 L
DO
 311  890 mt 2172  890 L
2172  890 mt 2172  890 L
SO
 311  890 mt  321  890 L
2172  890 mt 2162  890 L
DO
 311  890 mt 2172  890 L
2172  890 mt 2172  890 L
SO
 311  890 mt  321  890 L
2172  890 mt 2162  890 L
DO
 311  890 mt 2172  890 L
2172  890 mt 2172  890 L
SO
 311  890 mt  321  890 L
2172  890 mt 2162  890 L
DO
 311  890 mt 2172  890 L
2172  890 mt 2172  890 L
SO
 311  890 mt  321  890 L
2172  890 mt 2162  890 L
DO
 311  890 mt 2172  890 L
2172  890 mt 2172  890 L
SO
 311  890 mt  321  890 L
2172  890 mt 2162  890 L
DO
 311  890 mt 2172  890 L
2172  890 mt 2172  890 L
SO
 311  890 mt  321  890 L
2172  890 mt 2162  890 L
DO
 311  890 mt 2172  890 L
2172  890 mt 2172  890 L
SO
 311  890 mt  321  890 L
2172  890 mt 2162  890 L
DO
 311  890 mt 2172  890 L
2172  890 mt 2172  890 L
SO
 311  890 mt  330  890 L
2172  890 mt 2153  890 L
 214  914 mt 
(0.5) s
 311  819 mt  321  819 L
2172  819 mt 2162  819 L
DO
 311  819 mt 2172  819 L
2172  819 mt 2172  819 L
SO
 311  747 mt  321  747 L
2172  747 mt 2162  747 L
DO
 311  747 mt 2172  747 L
2172  747 mt 2172  747 L
SO
 311  747 mt  321  747 L
2172  747 mt 2162  747 L
DO
 311  747 mt 2172  747 L
2172  747 mt 2172  747 L
SO
 311  747 mt  321  747 L
2172  747 mt 2162  747 L
DO
 311  747 mt 2172  747 L
2172  747 mt 2172  747 L
SO
 311  747 mt  321  747 L
2172  747 mt 2162  747 L
DO
 311  747 mt 2172  747 L
2172  747 mt 2172  747 L
SO
 311  747 mt  321  747 L
2172  747 mt 2162  747 L
DO
 311  747 mt 2172  747 L
2172  747 mt 2172  747 L
SO
 311  747 mt  321  747 L
2172  747 mt 2162  747 L
DO
 311  747 mt 2172  747 L
2172  747 mt 2172  747 L
SO
 311  747 mt  321  747 L
2172  747 mt 2162  747 L
DO
 311  747 mt 2172  747 L
2172  747 mt 2172  747 L
SO
 311  747 mt  321  747 L
2172  747 mt 2162  747 L
DO
 311  747 mt 2172  747 L
2172  747 mt 2172  747 L
SO
 311  747 mt  330  747 L
2172  747 mt 2153  747 L
 214  771 mt 
(0.6) s
 311  676 mt  321  676 L
2172  676 mt 2162  676 L
DO
 311  676 mt 2172  676 L
2172  676 mt 2172  676 L
SO
 311  605 mt  321  605 L
2172  605 mt 2162  605 L
DO
 311  605 mt 2172  605 L
2172  605 mt 2172  605 L
SO
 311  605 mt  321  605 L
2172  605 mt 2162  605 L
DO
 311  605 mt 2172  605 L
2172  605 mt 2172  605 L
SO
 311  605 mt  321  605 L
2172  605 mt 2162  605 L
DO
 311  605 mt 2172  605 L
2172  605 mt 2172  605 L
SO
 311  605 mt  321  605 L
2172  605 mt 2162  605 L
DO
 311  605 mt 2172  605 L
2172  605 mt 2172  605 L
SO
 311  605 mt  321  605 L
2172  605 mt 2162  605 L
DO
 311  605 mt 2172  605 L
2172  605 mt 2172  605 L
SO
 311  605 mt  321  605 L
2172  605 mt 2162  605 L
DO
 311  605 mt 2172  605 L
2172  605 mt 2172  605 L
SO
 311  605 mt  321  605 L
2172  605 mt 2162  605 L
DO
 311  605 mt 2172  605 L
2172  605 mt 2172  605 L
SO
 311  605 mt  321  605 L
2172  605 mt 2162  605 L
DO
 311  605 mt 2172  605 L
2172  605 mt 2172  605 L
SO
 311  605 mt  330  605 L
2172  605 mt 2153  605 L
 214  629 mt 
(0.7) s
 311  534 mt  321  534 L
2172  534 mt 2162  534 L
DO
 311  534 mt 2172  534 L
2172  534 mt 2172  534 L
SO
 311  462 mt  321  462 L
2172  462 mt 2162  462 L
DO
 311  462 mt 2172  462 L
2172  462 mt 2172  462 L
SO
 311  462 mt  321  462 L
2172  462 mt 2162  462 L
DO
 311  462 mt 2172  462 L
2172  462 mt 2172  462 L
SO
 311  462 mt  321  462 L
2172  462 mt 2162  462 L
DO
 311  462 mt 2172  462 L
2172  462 mt 2172  462 L
SO
 311  462 mt  321  462 L
2172  462 mt 2162  462 L
DO
 311  462 mt 2172  462 L
2172  462 mt 2172  462 L
SO
 311  462 mt  321  462 L
2172  462 mt 2162  462 L
DO
 311  462 mt 2172  462 L
2172  462 mt 2172  462 L
SO
 311  462 mt  321  462 L
2172  462 mt 2162  462 L
DO
 311  462 mt 2172  462 L
2172  462 mt 2172  462 L
SO
 311  462 mt  321  462 L
2172  462 mt 2162  462 L
DO
 311  462 mt 2172  462 L
2172  462 mt 2172  462 L
SO
 311  462 mt  321  462 L
2172  462 mt 2162  462 L
DO
 311  462 mt 2172  462 L
2172  462 mt 2172  462 L
SO
 311  462 mt  330  462 L
2172  462 mt 2153  462 L
 214  486 mt 
(0.8) s
 311  391 mt  321  391 L
2172  391 mt 2162  391 L
DO
 311  391 mt 2172  391 L
2172  391 mt 2172  391 L
SO
 311  320 mt  321  320 L
2172  320 mt 2162  320 L
DO
 311  320 mt 2172  320 L
2172  320 mt 2172  320 L
SO
 311  320 mt  321  320 L
2172  320 mt 2162  320 L
DO
 311  320 mt 2172  320 L
2172  320 mt 2172  320 L
SO
 311  320 mt  321  320 L
2172  320 mt 2162  320 L
DO
 311  320 mt 2172  320 L
2172  320 mt 2172  320 L
SO
 311  320 mt  321  320 L
2172  320 mt 2162  320 L
DO
 311  320 mt 2172  320 L
2172  320 mt 2172  320 L
SO
 311  320 mt  321  320 L
2172  320 mt 2162  320 L
DO
 311  320 mt 2172  320 L
2172  320 mt 2172  320 L
SO
 311  320 mt  321  320 L
2172  320 mt 2162  320 L
DO
 311  320 mt 2172  320 L
2172  320 mt 2172  320 L
SO
 311  320 mt  321  320 L
2172  320 mt 2162  320 L
DO
 311  320 mt 2172  320 L
2172  320 mt 2172  320 L
SO
 311  320 mt  321  320 L
2172  320 mt 2162  320 L
DO
 311  320 mt 2172  320 L
2172  320 mt 2172  320 L
SO
 311  320 mt  330  320 L
2172  320 mt 2153  320 L
 214  344 mt 
(0.9) s
 311  249 mt  321  249 L
2172  249 mt 2162  249 L
DO
 311  249 mt 2172  249 L
2172  249 mt 2172  249 L
SO
 311  177 mt  321  177 L
2172  177 mt 2162  177 L
DO
 311  177 mt 2172  177 L
2172  177 mt 2172  177 L
SO
 311  177 mt  321  177 L
2172  177 mt 2162  177 L
DO
 311  177 mt 2172  177 L
2172  177 mt 2172  177 L
SO
 311  177 mt  321  177 L
2172  177 mt 2162  177 L
DO
 311  177 mt 2172  177 L
2172  177 mt 2172  177 L
SO
 311  177 mt  321  177 L
2172  177 mt 2162  177 L
DO
 311  177 mt 2172  177 L
2172  177 mt 2172  177 L
SO
 311  177 mt  321  177 L
2172  177 mt 2162  177 L
DO
 311  177 mt 2172  177 L
2172  177 mt 2172  177 L
SO
 311  177 mt  321  177 L
2172  177 mt 2162  177 L
DO
 311  177 mt 2172  177 L
2172  177 mt 2172  177 L
SO
 311  177 mt  321  177 L
2172  177 mt 2162  177 L
DO
 311  177 mt 2172  177 L
2172  177 mt 2172  177 L
SO
 311  177 mt  321  177 L
2172  177 mt 2162  177 L
DO
 311  177 mt 2172  177 L
2172  177 mt 2172  177 L
SO
 311  177 mt  330  177 L
2172  177 mt 2153  177 L
 266  201 mt 
(1) s
 311 1603 mt 2172 1603 L
 311  135 mt 2172  135 L
 311 1603 mt  311  135 L
2172 1603 mt 2172  135 L
gs 312 135 1861 1469 rc
8.33333 w
/c8 { 0.000000 0.000000 1.000000 sr} bdef
c8
184 186 184 161 184 74 184 54 184 17 184 8 184 7 184 11 
368 -3 312 177 10 MP stroke
gr

8.33333 w
c8
 660  174 mt  700  174 L
 680  154 mt  680  194 L
 844  185 mt  884  185 L
 864  165 mt  864  205 L
1028  192 mt 1068  192 L
1048  172 mt 1048  212 L
1212  200 mt 1252  200 L
1232  180 mt 1232  220 L
1396  217 mt 1436  217 L
1416  197 mt 1416  237 L
1580  271 mt 1620  271 L
1600  251 mt 1600  291 L
1764  345 mt 1804  345 L
1784  325 mt 1784  365 L
1948  506 mt 1988  506 L
1968  486 mt 1968  526 L
2132  692 mt 2172  692 L
2152  672 mt 2152  712 L
 666  160 mt  694  188 L
 694  160 mt  666  188 L
 850  171 mt  878  199 L
 878  171 mt  850  199 L
1034  178 mt 1062  206 L
1062  178 mt 1034  206 L
1218  186 mt 1246  214 L
1246  186 mt 1218  214 L
1402  203 mt 1430  231 L
1430  203 mt 1402  231 L
1586  257 mt 1614  285 L
1614  257 mt 1586  285 L
1770  331 mt 1798  359 L
1798  331 mt 1770  359 L
1954  492 mt 1982  520 L
1982  492 mt 1954  520 L
2138  678 mt 2166  706 L
2166  678 mt 2138  706 L
gs 312 135 1861 1469 rc
/c9 { 0.000000 0.500000 0.000000 sr} bdef
c9
184 230 184 251 184 189 184 131 184 71 184 34 184 25 184 13 
368 2 312 177 10 MP stroke
gr

c9
0 j
0 -40 -40 0 0 40 40 0 660 159 5 MP
DP
0 -40 -40 0 0 40 40 0 844 172 5 MP
DP
0 -40 -40 0 0 40 40 0 1028 197 5 MP
DP
0 -40 -40 0 0 40 40 0 1212 231 5 MP
DP
0 -40 -40 0 0 40 40 0 1396 302 5 MP
DP
0 -40 -40 0 0 40 40 0 1580 433 5 MP
DP
0 -40 -40 0 0 40 40 0 1764 622 5 MP
DP
0 -40 -40 0 0 40 40 0 1948 873 5 MP
DP
0 -40 -40 0 0 40 40 0 2132 1103 5 MP
DP
gs 312 135 1861 1469 rc
/c10 { 1.000000 0.000000 0.000000 sr} bdef
c10
184 0 184 0 184 0 184 0 184 0 184 0 184 0 184 0 
368 0 312 177 10 MP stroke
gr

c10
24 W
680 177 PD
24 W
864 177 PD
24 W
1048 177 PD
24 W
1232 177 PD
24 W
1416 177 PD
24 W
1600 177 PD
24 W
1784 177 PD
24 W
1968 177 PD
24 W
2152 177 PD
gs 312 135 1861 1469 rc
gr

0 sg
%%IncludeResource: font Helvetica-Bold
/Helvetica-Bold /ISOLatin1Encoding 66.6667 FMSR

 973 1744 mt 
(Number of Procs) s
 179 1233 mt  -90 rotate
(Efficiency \(SpeedUp/p\)) s
90 rotate
%%IncludeResource: font Helvetica-Bold
/Helvetica-Bold /ISOLatin1Encoding 75 FMSR

 335   82 mt 
(Efficiency - 10000 Hexahedra - P9 \(7403986 DOFs\)) s
%%IncludeResource: font Helvetica
/Helvetica /ISOLatin1Encoding 41.6667 FMSR

 306 1619 mt 
( ) s
2167  150 mt 
( ) s
2.08333 w
1 sg
0 320 918 0 0 -320 373 1383 4 MP
PP
-918 0 0 320 918 0 0 -320 373 1383 5 MP stroke
1.38889 w
DO
SO
2.08333 w
0 sg
 373 1383 mt 1291 1383 L
 373 1063 mt 1291 1063 L
 373 1383 mt  373 1063 L
1291 1383 mt 1291 1063 L
 373 1383 mt 1291 1383 L
 373 1383 mt  373 1063 L
 373 1383 mt 1291 1383 L
 373 1063 mt 1291 1063 L
 373 1383 mt  373 1063 L
1291 1383 mt 1291 1063 L
%%IncludeResource: font Helvetica-Bold
/Helvetica-Bold /ISOLatin1Encoding 62.5 FMSR

 536 1144 mt 
(Efficiency \(BLAS IBM\)) s
gs 373 1063 919 321 rc
8.33333 w
c8
125 0 397 1121 2 MP stroke
gs 408 1069 105 105 rc
 440 1121 mt  480 1121 L
 460 1101 mt  460 1141 L
 446 1107 mt  474 1135 L
 474 1107 mt  446 1135 L
gr

gr

8.33333 w
c8
0 sg
 536 1247 mt 
(Efficiency \(BLAS Netlib\)) s
gs 373 1063 919 321 rc
c9
125 0 397 1223 2 MP stroke
gs 400 1162 121 122 rc
0 -40 -40 0 0 40 40 0 440 1203 5 MP
DP
gr

gr

c9
0 sg
 536 1349 mt 
(Efficiency \(Ideal\)) s
gs 373 1063 919 321 rc
c10
125 0 397 1324 2 MP stroke
gr

c10
gs 375 1239 171 172 rc
24 W
460 1324 PD
gr

gs 373 1063 919 321 rc
2.08333 w
gr

2.08333 w

end %%Color Dict

eplot
%%EndObject

epage
end

showpage

%%Trailer
%%EOF
