%!PS-Adobe-3.0 EPSF-3.0
%%Creator: MATLAB, The MathWorks, Inc. Version 8.3.0.532 (R2014a). Operating System: Linux 4.15.0-101-generic #102-Ubuntu SMP Mon May 11 10:07:26 UTC 2020 x86_64.
%%Title: /home/doc/Work/Doutorado/thesis/thesis/eps/Efficiency_Hexa_10000_P9_test.eps
%%CreationDate: 06/01/2020  10:11:18
%%DocumentNeededFonts: Times-Roman
%%+ Helvetica
%%+ Times-Bold
%%DocumentProcessColors: Cyan Magenta Yellow Black
%%LanguageLevel: 2
%%Pages: 1
%%BoundingBox:   -76   154   690   637
%%EndComments

%%BeginProlog
% MathWorks dictionary
/MathWorks 160 dict begin
% definition operators
/bdef {bind def} bind def
/ldef {load def} bind def
/xdef {exch def} bdef
/xstore {exch store} bdef
% operator abbreviations
/c  /clip ldef
/cc /concat ldef
/cp /closepath ldef
/gr /grestore ldef
/gs /gsave ldef
/mt /moveto ldef
/np /newpath ldef
/cm /currentmatrix ldef
/sm /setmatrix ldef
/rm /rmoveto ldef
/rl /rlineto ldef
/s {show newpath} bdef
/sc {setcmykcolor} bdef
/sr /setrgbcolor ldef
/sg /setgray ldef
/w /setlinewidth ldef
/j /setlinejoin ldef
/cap /setlinecap ldef
/rc {rectclip} bdef
/rf {rectfill} bdef
% page state control
/pgsv () def
/bpage {/pgsv save def} bdef
/epage {pgsv restore} bdef
/bplot /gsave ldef
/eplot {stroke grestore} bdef
% orientation switch
/portraitMode 0 def /landscapeMode 1 def /rotateMode 2 def
% coordinate system mappings
/dpi2point 0 def
% font control
/FontSize 0 def
/FMS {/FontSize xstore findfont [FontSize 0 0 FontSize neg 0 0]
  makefont setfont} bdef
/reencode {exch dup where {pop load} {pop StandardEncoding} ifelse
  exch dup 3 1 roll findfont dup length dict begin
  { 1 index /FID ne {def}{pop pop} ifelse } forall
  /Encoding exch def currentdict end definefont pop} bdef
/isroman {findfont /CharStrings get /Agrave known} bdef
/FMSR {3 1 roll 1 index dup isroman {reencode} {pop pop} ifelse
  exch FMS} bdef
/csm {1 dpi2point div -1 dpi2point div scale neg translate
 dup landscapeMode eq {pop -90 rotate}
  {rotateMode eq {90 rotate} if} ifelse} bdef
% line types: solid, dotted, dashed, dotdash
/SO { [] 0 setdash } bdef
/DO { [.5 dpi2point mul 4 dpi2point mul] 0 setdash } bdef
/DA { [6 dpi2point mul] 0 setdash } bdef
/DD { [.5 dpi2point mul 4 dpi2point mul 6 dpi2point mul 4
  dpi2point mul] 0 setdash } bdef
% macros for lines and objects
/L {lineto stroke} bdef
/MP {3 1 roll moveto 1 sub {rlineto} repeat} bdef
/AP {{rlineto} repeat} bdef
/PDlw -1 def
/W {/PDlw currentlinewidth def setlinewidth} def
/PP {closepath eofill} bdef
/DP {closepath stroke} bdef
/MR {4 -2 roll moveto dup  0 exch rlineto exch 0 rlineto
  neg 0 exch rlineto closepath} bdef
/FR {MR stroke} bdef
/PR {MR fill} bdef
/L1i {{currentfile picstr readhexstring pop} image} bdef
/tMatrix matrix def
/MakeOval {newpath tMatrix currentmatrix pop translate scale
0 0 1 0 360 arc tMatrix setmatrix} bdef
/FO {MakeOval stroke} bdef
/PO {MakeOval fill} bdef
/PD {currentlinewidth 2 div 0 360 arc fill
   PDlw -1 eq not {PDlw w /PDlw -1 def} if} def
/FA {newpath tMatrix currentmatrix pop translate scale
  0 0 1 5 -2 roll arc tMatrix setmatrix stroke} bdef
/PA {newpath tMatrix currentmatrix pop	translate 0 0 moveto scale
  0 0 1 5 -2 roll arc closepath tMatrix setmatrix fill} bdef
/FAn {newpath tMatrix currentmatrix pop translate scale
  0 0 1 5 -2 roll arcn tMatrix setmatrix stroke} bdef
/PAn {newpath tMatrix currentmatrix pop translate 0 0 moveto scale
  0 0 1 5 -2 roll arcn closepath tMatrix setmatrix fill} bdef
/vradius 0 def /hradius 0 def /lry 0 def
/lrx 0 def /uly 0 def /ulx 0 def /rad 0 def
/MRR {/vradius xdef /hradius xdef /lry xdef /lrx xdef /uly xdef
  /ulx xdef newpath tMatrix currentmatrix pop ulx hradius add uly
  vradius add translate hradius vradius scale 0 0 1 180 270 arc 
  tMatrix setmatrix lrx hradius sub uly vradius add translate
  hradius vradius scale 0 0 1 270 360 arc tMatrix setmatrix
  lrx hradius sub lry vradius sub translate hradius vradius scale
  0 0 1 0 90 arc tMatrix setmatrix ulx hradius add lry vradius sub
  translate hradius vradius scale 0 0 1 90 180 arc tMatrix setmatrix
  closepath} bdef
/FRR {MRR stroke } bdef
/PRR {MRR fill } bdef
/MlrRR {/lry xdef /lrx xdef /uly xdef /ulx xdef /rad lry uly sub 2 div def
  newpath tMatrix currentmatrix pop ulx rad add uly rad add translate
  rad rad scale 0 0 1 90 270 arc tMatrix setmatrix lrx rad sub lry rad
  sub translate rad rad scale 0 0 1 270 90 arc tMatrix setmatrix
  closepath} bdef
/FlrRR {MlrRR stroke } bdef
/PlrRR {MlrRR fill } bdef
/MtbRR {/lry xdef /lrx xdef /uly xdef /ulx xdef /rad lrx ulx sub 2 div def
  newpath tMatrix currentmatrix pop ulx rad add uly rad add translate
  rad rad scale 0 0 1 180 360 arc tMatrix setmatrix lrx rad sub lry rad
  sub translate rad rad scale 0 0 1 0 180 arc tMatrix setmatrix
  closepath} bdef
/FtbRR {MtbRR stroke } bdef
/PtbRR {MtbRR fill } bdef
/stri 6 array def /dtri 6 array def
/smat 6 array def /dmat 6 array def
/tmat1 6 array def /tmat2 6 array def /dif 3 array def
/asub {/ind2 exch def /ind1 exch def dup dup
  ind1 get exch ind2 get sub exch } bdef
/tri_to_matrix {
  2 0 asub 3 1 asub 4 0 asub 5 1 asub
  dup 0 get exch 1 get 7 -1 roll astore } bdef
/compute_transform {
  dmat dtri tri_to_matrix tmat1 invertmatrix 
  smat stri tri_to_matrix tmat2 concatmatrix } bdef
/ds {stri astore pop} bdef
/dt {dtri astore pop} bdef
/db {2 copy /cols xdef /rows xdef mul dup 3 mul string
  currentfile 
  3 index 0 eq {/ASCIIHexDecode filter}
  {/ASCII85Decode filter 3 index 2 eq {/RunLengthDecode filter} if }
  ifelse exch readstring pop
  dup 0 3 index getinterval /rbmap xdef
  dup 2 index dup getinterval /gbmap xdef
  1 index dup 2 mul exch getinterval /bbmap xdef pop pop}bdef
/it {gs np dtri aload pop moveto lineto lineto cp c
  cols rows 8 compute_transform 
  rbmap gbmap bbmap true 3 colorimage gr}bdef
/il {newpath moveto lineto stroke}bdef
currentdict end def
%%EndProlog

%%BeginSetup
MathWorks begin

0 cap

end
%%EndSetup

%%Page: 1 1
%%BeginPageSetup
%%PageBoundingBox:   -76   154   690   637
MathWorks begin
bpage
%%EndPageSetup

%%BeginObject: obj1
bplot

/dpi2point 12 def
portraitMode -0912 7644 csm

    0     0  9196  5789 rc
89 dict begin %Colortable dictionary
/c0 { 0.000000 0.000000 0.000000 sr} bdef
/c1 { 1.000000 1.000000 1.000000 sr} bdef
/c2 { 0.900000 0.000000 0.000000 sr} bdef
/c3 { 0.000000 0.820000 0.000000 sr} bdef
/c4 { 0.000000 0.000000 0.800000 sr} bdef
/c5 { 0.910000 0.820000 0.320000 sr} bdef
/c6 { 1.000000 0.260000 0.820000 sr} bdef
/c7 { 0.000000 0.820000 0.820000 sr} bdef
c0
1 j
1 sg
   0    0 9197 5790 rf
6 w
0 4812 7352 0 0 -4812 1352 4996 4 MP
PP
-7352 0 0 4812 7352 0 0 -4812 1352 4996 5 MP stroke
4 w
DO
0 sg
2808 4996 mt 2808  184 L
2808  184 mt 2808  184 L
3535 4996 mt 3535  184 L
3535  184 mt 3535  184 L
4263 4996 mt 4263  184 L
4263  184 mt 4263  184 L
4990 4996 mt 4990  184 L
4990  184 mt 4990  184 L
5718 4996 mt 5718  184 L
5718  184 mt 5718  184 L
6446 4996 mt 6446  184 L
6446  184 mt 6446  184 L
7173 4996 mt 7173  184 L
7173  184 mt 7173  184 L
7901 4996 mt 7901  184 L
7901  184 mt 7901  184 L
8628 4996 mt 8628  184 L
8628  184 mt 8628  184 L
1352 4996 mt 8704 4996 L
8704 4996 mt 8704 4996 L
1352 4528 mt 8704 4528 L
8704 4528 mt 8704 4528 L
1352 4061 mt 8704 4061 L
8704 4061 mt 8704 4061 L
1352 3594 mt 8704 3594 L
8704 3594 mt 8704 3594 L
1352 3127 mt 8704 3127 L
8704 3127 mt 8704 3127 L
1352 2660 mt 8704 2660 L
8704 2660 mt 8704 2660 L
1352 2192 mt 8704 2192 L
8704 2192 mt 8704 2192 L
1352 1725 mt 8704 1725 L
8704 1725 mt 8704 1725 L
1352 1258 mt 8704 1258 L
8704 1258 mt 8704 1258 L
1352  791 mt 8704  791 L
8704  791 mt 8704  791 L
1352  324 mt 8704  324 L
8704  324 mt 8704  324 L
SO
6 w
1352 4996 mt 8704 4996 L
1352  184 mt 8704  184 L
1352 4996 mt 1352  184 L
8704 4996 mt 8704  184 L
1352 4996 mt 8704 4996 L
1352 4996 mt 1352  184 L
2808 4996 mt 2808 4922 L
2808  184 mt 2808  257 L
%%IncludeResource: font Times-Roman
/Times-Roman /ISOLatin1Encoding 336 FMSR

2724 5331 mt 
(4) s
3535 4996 mt 3535 4922 L
3535  184 mt 3535  257 L
3451 5331 mt 
(8) s
3535 4996 mt 3535 4959 L
3535  184 mt 3535  220 L
DO
3535 4996 mt 3535  184 L
3535  184 mt 3535  184 L
SO
3535 4996 mt 3535 4959 L
3535  184 mt 3535  220 L
DO
3535 4996 mt 3535  184 L
3535  184 mt 3535  184 L
SO
3535 4996 mt 3535 4959 L
3535  184 mt 3535  220 L
DO
3535 4996 mt 3535  184 L
3535  184 mt 3535  184 L
SO
3535 4996 mt 3535 4959 L
3535  184 mt 3535  220 L
DO
3535 4996 mt 3535  184 L
3535  184 mt 3535  184 L
SO
3535 4996 mt 3535 4959 L
3535  184 mt 3535  220 L
DO
3535 4996 mt 3535  184 L
3535  184 mt 3535  184 L
SO
3535 4996 mt 3535 4959 L
3535  184 mt 3535  220 L
DO
3535 4996 mt 3535  184 L
3535  184 mt 3535  184 L
SO
3535 4996 mt 3535 4959 L
3535  184 mt 3535  220 L
DO
3535 4996 mt 3535  184 L
3535  184 mt 3535  184 L
SO
3535 4996 mt 3535 4959 L
3535  184 mt 3535  220 L
DO
3535 4996 mt 3535  184 L
3535  184 mt 3535  184 L
SO
3535 4996 mt 3535 4959 L
3535  184 mt 3535  220 L
DO
3535 4996 mt 3535  184 L
3535  184 mt 3535  184 L
SO
4263 4996 mt 4263 4922 L
4263  184 mt 4263  257 L
4095 5331 mt 
(16) s
4263 4996 mt 4263 4959 L
4263  184 mt 4263  220 L
DO
4263 4996 mt 4263  184 L
4263  184 mt 4263  184 L
SO
4263 4996 mt 4263 4959 L
4263  184 mt 4263  220 L
DO
4263 4996 mt 4263  184 L
4263  184 mt 4263  184 L
SO
4263 4996 mt 4263 4959 L
4263  184 mt 4263  220 L
DO
4263 4996 mt 4263  184 L
4263  184 mt 4263  184 L
SO
4263 4996 mt 4263 4959 L
4263  184 mt 4263  220 L
DO
4263 4996 mt 4263  184 L
4263  184 mt 4263  184 L
SO
4263 4996 mt 4263 4959 L
4263  184 mt 4263  220 L
DO
4263 4996 mt 4263  184 L
4263  184 mt 4263  184 L
SO
4263 4996 mt 4263 4959 L
4263  184 mt 4263  220 L
DO
4263 4996 mt 4263  184 L
4263  184 mt 4263  184 L
SO
4263 4996 mt 4263 4959 L
4263  184 mt 4263  220 L
DO
4263 4996 mt 4263  184 L
4263  184 mt 4263  184 L
SO
4263 4996 mt 4263 4959 L
4263  184 mt 4263  220 L
DO
4263 4996 mt 4263  184 L
4263  184 mt 4263  184 L
SO
4263 4996 mt 4263 4959 L
4263  184 mt 4263  220 L
DO
4263 4996 mt 4263  184 L
4263  184 mt 4263  184 L
SO
4990 4996 mt 4990 4922 L
4990  184 mt 4990  257 L
4822 5331 mt 
(32) s
4990 4996 mt 4990 4959 L
4990  184 mt 4990  220 L
DO
4990 4996 mt 4990  184 L
4990  184 mt 4990  184 L
SO
4990 4996 mt 4990 4959 L
4990  184 mt 4990  220 L
DO
4990 4996 mt 4990  184 L
4990  184 mt 4990  184 L
SO
4990 4996 mt 4990 4959 L
4990  184 mt 4990  220 L
DO
4990 4996 mt 4990  184 L
4990  184 mt 4990  184 L
SO
4990 4996 mt 4990 4959 L
4990  184 mt 4990  220 L
DO
4990 4996 mt 4990  184 L
4990  184 mt 4990  184 L
SO
4990 4996 mt 4990 4959 L
4990  184 mt 4990  220 L
DO
4990 4996 mt 4990  184 L
4990  184 mt 4990  184 L
SO
4990 4996 mt 4990 4959 L
4990  184 mt 4990  220 L
DO
4990 4996 mt 4990  184 L
4990  184 mt 4990  184 L
SO
4990 4996 mt 4990 4959 L
4990  184 mt 4990  220 L
DO
4990 4996 mt 4990  184 L
4990  184 mt 4990  184 L
SO
4990 4996 mt 4990 4959 L
4990  184 mt 4990  220 L
DO
4990 4996 mt 4990  184 L
4990  184 mt 4990  184 L
SO
4990 4996 mt 4990 4959 L
4990  184 mt 4990  220 L
DO
4990 4996 mt 4990  184 L
4990  184 mt 4990  184 L
SO
5718 4996 mt 5718 4922 L
5718  184 mt 5718  257 L
5550 5331 mt 
(64) s
5718 4996 mt 5718 4959 L
5718  184 mt 5718  220 L
DO
5718 4996 mt 5718  184 L
5718  184 mt 5718  184 L
SO
5718 4996 mt 5718 4959 L
5718  184 mt 5718  220 L
DO
5718 4996 mt 5718  184 L
5718  184 mt 5718  184 L
SO
5718 4996 mt 5718 4959 L
5718  184 mt 5718  220 L
DO
5718 4996 mt 5718  184 L
5718  184 mt 5718  184 L
SO
5718 4996 mt 5718 4959 L
5718  184 mt 5718  220 L
DO
5718 4996 mt 5718  184 L
5718  184 mt 5718  184 L
SO
5718 4996 mt 5718 4959 L
5718  184 mt 5718  220 L
DO
5718 4996 mt 5718  184 L
5718  184 mt 5718  184 L
SO
5718 4996 mt 5718 4959 L
5718  184 mt 5718  220 L
DO
5718 4996 mt 5718  184 L
5718  184 mt 5718  184 L
SO
5718 4996 mt 5718 4959 L
5718  184 mt 5718  220 L
DO
5718 4996 mt 5718  184 L
5718  184 mt 5718  184 L
SO
5718 4996 mt 5718 4959 L
5718  184 mt 5718  220 L
DO
5718 4996 mt 5718  184 L
5718  184 mt 5718  184 L
SO
5718 4996 mt 5718 4959 L
5718  184 mt 5718  220 L
DO
5718 4996 mt 5718  184 L
5718  184 mt 5718  184 L
SO
6446 4996 mt 6446 4922 L
6446  184 mt 6446  257 L
6194 5331 mt 
(128) s
6446 4996 mt 6446 4959 L
6446  184 mt 6446  220 L
DO
6446 4996 mt 6446  184 L
6446  184 mt 6446  184 L
SO
6446 4996 mt 6446 4959 L
6446  184 mt 6446  220 L
DO
6446 4996 mt 6446  184 L
6446  184 mt 6446  184 L
SO
6446 4996 mt 6446 4959 L
6446  184 mt 6446  220 L
DO
6446 4996 mt 6446  184 L
6446  184 mt 6446  184 L
SO
6446 4996 mt 6446 4959 L
6446  184 mt 6446  220 L
DO
6446 4996 mt 6446  184 L
6446  184 mt 6446  184 L
SO
6446 4996 mt 6446 4959 L
6446  184 mt 6446  220 L
DO
6446 4996 mt 6446  184 L
6446  184 mt 6446  184 L
SO
6446 4996 mt 6446 4959 L
6446  184 mt 6446  220 L
DO
6446 4996 mt 6446  184 L
6446  184 mt 6446  184 L
SO
6446 4996 mt 6446 4959 L
6446  184 mt 6446  220 L
DO
6446 4996 mt 6446  184 L
6446  184 mt 6446  184 L
SO
6446 4996 mt 6446 4959 L
6446  184 mt 6446  220 L
DO
6446 4996 mt 6446  184 L
6446  184 mt 6446  184 L
SO
6446 4996 mt 6446 4959 L
6446  184 mt 6446  220 L
DO
6446 4996 mt 6446  184 L
6446  184 mt 6446  184 L
SO
7173 4996 mt 7173 4922 L
7173  184 mt 7173  257 L
6921 5331 mt 
(256) s
7173 4996 mt 7173 4959 L
7173  184 mt 7173  220 L
DO
7173 4996 mt 7173  184 L
7173  184 mt 7173  184 L
SO
7173 4996 mt 7173 4959 L
7173  184 mt 7173  220 L
DO
7173 4996 mt 7173  184 L
7173  184 mt 7173  184 L
SO
7173 4996 mt 7173 4959 L
7173  184 mt 7173  220 L
DO
7173 4996 mt 7173  184 L
7173  184 mt 7173  184 L
SO
7173 4996 mt 7173 4959 L
7173  184 mt 7173  220 L
DO
7173 4996 mt 7173  184 L
7173  184 mt 7173  184 L
SO
7173 4996 mt 7173 4959 L
7173  184 mt 7173  220 L
DO
7173 4996 mt 7173  184 L
7173  184 mt 7173  184 L
SO
7173 4996 mt 7173 4959 L
7173  184 mt 7173  220 L
DO
7173 4996 mt 7173  184 L
7173  184 mt 7173  184 L
SO
7173 4996 mt 7173 4959 L
7173  184 mt 7173  220 L
DO
7173 4996 mt 7173  184 L
7173  184 mt 7173  184 L
SO
7173 4996 mt 7173 4959 L
7173  184 mt 7173  220 L
DO
7173 4996 mt 7173  184 L
7173  184 mt 7173  184 L
SO
7173 4996 mt 7173 4959 L
7173  184 mt 7173  220 L
DO
7173 4996 mt 7173  184 L
7173  184 mt 7173  184 L
SO
7901 4996 mt 7901 4922 L
7901  184 mt 7901  257 L
7649 5331 mt 
(512) s
7901 4996 mt 7901 4959 L
7901  184 mt 7901  220 L
DO
7901 4996 mt 7901  184 L
7901  184 mt 7901  184 L
SO
7901 4996 mt 7901 4959 L
7901  184 mt 7901  220 L
DO
7901 4996 mt 7901  184 L
7901  184 mt 7901  184 L
SO
7901 4996 mt 7901 4959 L
7901  184 mt 7901  220 L
DO
7901 4996 mt 7901  184 L
7901  184 mt 7901  184 L
SO
7901 4996 mt 7901 4959 L
7901  184 mt 7901  220 L
DO
7901 4996 mt 7901  184 L
7901  184 mt 7901  184 L
SO
7901 4996 mt 7901 4959 L
7901  184 mt 7901  220 L
DO
7901 4996 mt 7901  184 L
7901  184 mt 7901  184 L
SO
7901 4996 mt 7901 4959 L
7901  184 mt 7901  220 L
DO
7901 4996 mt 7901  184 L
7901  184 mt 7901  184 L
SO
7901 4996 mt 7901 4959 L
7901  184 mt 7901  220 L
DO
7901 4996 mt 7901  184 L
7901  184 mt 7901  184 L
SO
7901 4996 mt 7901 4959 L
7901  184 mt 7901  220 L
DO
7901 4996 mt 7901  184 L
7901  184 mt 7901  184 L
SO
7901 4996 mt 7901 4959 L
7901  184 mt 7901  220 L
DO
7901 4996 mt 7901  184 L
7901  184 mt 7901  184 L
SO
8628 4996 mt 8628 4922 L
8628  184 mt 8628  257 L
8292 5331 mt 
(1024) s
8628 4996 mt 8628 4959 L
8628  184 mt 8628  220 L
DO
8628 4996 mt 8628  184 L
8628  184 mt 8628  184 L
SO
1352 4996 mt 1426 4996 L
8704 4996 mt 8630 4996 L
1150 5116 mt 
(0) s
1352 4762 mt 1389 4762 L
8704 4762 mt 8667 4762 L
DO
1352 4762 mt 8704 4762 L
8704 4762 mt 8704 4762 L
SO
1352 4528 mt 1389 4528 L
8704 4528 mt 8667 4528 L
DO
1352 4528 mt 8704 4528 L
8704 4528 mt 8704 4528 L
SO
1352 4528 mt 1389 4528 L
8704 4528 mt 8667 4528 L
DO
1352 4528 mt 8704 4528 L
8704 4528 mt 8704 4528 L
SO
1352 4528 mt 1389 4528 L
8704 4528 mt 8667 4528 L
DO
1352 4528 mt 8704 4528 L
8704 4528 mt 8704 4528 L
SO
1352 4528 mt 1389 4528 L
8704 4528 mt 8667 4528 L
DO
1352 4528 mt 8704 4528 L
8704 4528 mt 8704 4528 L
SO
1352 4528 mt 1389 4528 L
8704 4528 mt 8667 4528 L
DO
1352 4528 mt 8704 4528 L
8704 4528 mt 8704 4528 L
SO
1352 4528 mt 1389 4528 L
8704 4528 mt 8667 4528 L
DO
1352 4528 mt 8704 4528 L
8704 4528 mt 8704 4528 L
SO
1352 4528 mt 1389 4528 L
8704 4528 mt 8667 4528 L
DO
1352 4528 mt 8704 4528 L
8704 4528 mt 8704 4528 L
SO
1352 4528 mt 1389 4528 L
8704 4528 mt 8667 4528 L
DO
1352 4528 mt 8704 4528 L
8704 4528 mt 8704 4528 L
SO
1352 4528 mt 1426 4528 L
8704 4528 mt 8630 4528 L
 898 4648 mt 
(0.1) s
1352 4295 mt 1389 4295 L
8704 4295 mt 8667 4295 L
DO
1352 4295 mt 8704 4295 L
8704 4295 mt 8704 4295 L
SO
1352 4061 mt 1389 4061 L
8704 4061 mt 8667 4061 L
DO
1352 4061 mt 8704 4061 L
8704 4061 mt 8704 4061 L
SO
1352 4061 mt 1389 4061 L
8704 4061 mt 8667 4061 L
DO
1352 4061 mt 8704 4061 L
8704 4061 mt 8704 4061 L
SO
1352 4061 mt 1389 4061 L
8704 4061 mt 8667 4061 L
DO
1352 4061 mt 8704 4061 L
8704 4061 mt 8704 4061 L
SO
1352 4061 mt 1389 4061 L
8704 4061 mt 8667 4061 L
DO
1352 4061 mt 8704 4061 L
8704 4061 mt 8704 4061 L
SO
1352 4061 mt 1389 4061 L
8704 4061 mt 8667 4061 L
DO
1352 4061 mt 8704 4061 L
8704 4061 mt 8704 4061 L
SO
1352 4061 mt 1389 4061 L
8704 4061 mt 8667 4061 L
DO
1352 4061 mt 8704 4061 L
8704 4061 mt 8704 4061 L
SO
1352 4061 mt 1389 4061 L
8704 4061 mt 8667 4061 L
DO
1352 4061 mt 8704 4061 L
8704 4061 mt 8704 4061 L
SO
1352 4061 mt 1389 4061 L
8704 4061 mt 8667 4061 L
DO
1352 4061 mt 8704 4061 L
8704 4061 mt 8704 4061 L
SO
1352 4061 mt 1426 4061 L
8704 4061 mt 8630 4061 L
 898 4181 mt 
(0.2) s
1352 3828 mt 1389 3828 L
8704 3828 mt 8667 3828 L
DO
1352 3828 mt 8704 3828 L
8704 3828 mt 8704 3828 L
SO
1352 3594 mt 1389 3594 L
8704 3594 mt 8667 3594 L
DO
1352 3594 mt 8704 3594 L
8704 3594 mt 8704 3594 L
SO
1352 3594 mt 1389 3594 L
8704 3594 mt 8667 3594 L
DO
1352 3594 mt 8704 3594 L
8704 3594 mt 8704 3594 L
SO
1352 3594 mt 1389 3594 L
8704 3594 mt 8667 3594 L
DO
1352 3594 mt 8704 3594 L
8704 3594 mt 8704 3594 L
SO
1352 3594 mt 1389 3594 L
8704 3594 mt 8667 3594 L
DO
1352 3594 mt 8704 3594 L
8704 3594 mt 8704 3594 L
SO
1352 3594 mt 1389 3594 L
8704 3594 mt 8667 3594 L
DO
1352 3594 mt 8704 3594 L
8704 3594 mt 8704 3594 L
SO
1352 3594 mt 1389 3594 L
8704 3594 mt 8667 3594 L
DO
1352 3594 mt 8704 3594 L
8704 3594 mt 8704 3594 L
SO
1352 3594 mt 1389 3594 L
8704 3594 mt 8667 3594 L
DO
1352 3594 mt 8704 3594 L
8704 3594 mt 8704 3594 L
SO
1352 3594 mt 1389 3594 L
8704 3594 mt 8667 3594 L
DO
1352 3594 mt 8704 3594 L
8704 3594 mt 8704 3594 L
SO
1352 3594 mt 1426 3594 L
8704 3594 mt 8630 3594 L
 898 3714 mt 
(0.3) s
1352 3360 mt 1389 3360 L
8704 3360 mt 8667 3360 L
DO
1352 3360 mt 8704 3360 L
8704 3360 mt 8704 3360 L
SO
1352 3127 mt 1389 3127 L
8704 3127 mt 8667 3127 L
DO
1352 3127 mt 8704 3127 L
8704 3127 mt 8704 3127 L
SO
1352 3127 mt 1389 3127 L
8704 3127 mt 8667 3127 L
DO
1352 3127 mt 8704 3127 L
8704 3127 mt 8704 3127 L
SO
1352 3127 mt 1389 3127 L
8704 3127 mt 8667 3127 L
DO
1352 3127 mt 8704 3127 L
8704 3127 mt 8704 3127 L
SO
1352 3127 mt 1389 3127 L
8704 3127 mt 8667 3127 L
DO
1352 3127 mt 8704 3127 L
8704 3127 mt 8704 3127 L
SO
1352 3127 mt 1389 3127 L
8704 3127 mt 8667 3127 L
DO
1352 3127 mt 8704 3127 L
8704 3127 mt 8704 3127 L
SO
1352 3127 mt 1389 3127 L
8704 3127 mt 8667 3127 L
DO
1352 3127 mt 8704 3127 L
8704 3127 mt 8704 3127 L
SO
1352 3127 mt 1389 3127 L
8704 3127 mt 8667 3127 L
DO
1352 3127 mt 8704 3127 L
8704 3127 mt 8704 3127 L
SO
1352 3127 mt 1389 3127 L
8704 3127 mt 8667 3127 L
DO
1352 3127 mt 8704 3127 L
8704 3127 mt 8704 3127 L
SO
1352 3127 mt 1426 3127 L
8704 3127 mt 8630 3127 L
 898 3247 mt 
(0.4) s
1352 2893 mt 1389 2893 L
8704 2893 mt 8667 2893 L
DO
1352 2893 mt 8704 2893 L
8704 2893 mt 8704 2893 L
SO
1352 2660 mt 1389 2660 L
8704 2660 mt 8667 2660 L
DO
1352 2660 mt 8704 2660 L
8704 2660 mt 8704 2660 L
SO
1352 2660 mt 1389 2660 L
8704 2660 mt 8667 2660 L
DO
1352 2660 mt 8704 2660 L
8704 2660 mt 8704 2660 L
SO
1352 2660 mt 1389 2660 L
8704 2660 mt 8667 2660 L
DO
1352 2660 mt 8704 2660 L
8704 2660 mt 8704 2660 L
SO
1352 2660 mt 1389 2660 L
8704 2660 mt 8667 2660 L
DO
1352 2660 mt 8704 2660 L
8704 2660 mt 8704 2660 L
SO
1352 2660 mt 1389 2660 L
8704 2660 mt 8667 2660 L
DO
1352 2660 mt 8704 2660 L
8704 2660 mt 8704 2660 L
SO
1352 2660 mt 1389 2660 L
8704 2660 mt 8667 2660 L
DO
1352 2660 mt 8704 2660 L
8704 2660 mt 8704 2660 L
SO
1352 2660 mt 1389 2660 L
8704 2660 mt 8667 2660 L
DO
1352 2660 mt 8704 2660 L
8704 2660 mt 8704 2660 L
SO
1352 2660 mt 1389 2660 L
8704 2660 mt 8667 2660 L
DO
1352 2660 mt 8704 2660 L
8704 2660 mt 8704 2660 L
SO
1352 2660 mt 1426 2660 L
8704 2660 mt 8630 2660 L
 898 2780 mt 
(0.5) s
1352 2426 mt 1389 2426 L
8704 2426 mt 8667 2426 L
DO
1352 2426 mt 8704 2426 L
8704 2426 mt 8704 2426 L
SO
1352 2192 mt 1389 2192 L
8704 2192 mt 8667 2192 L
DO
1352 2192 mt 8704 2192 L
8704 2192 mt 8704 2192 L
SO
1352 2192 mt 1389 2192 L
8704 2192 mt 8667 2192 L
DO
1352 2192 mt 8704 2192 L
8704 2192 mt 8704 2192 L
SO
1352 2192 mt 1389 2192 L
8704 2192 mt 8667 2192 L
DO
1352 2192 mt 8704 2192 L
8704 2192 mt 8704 2192 L
SO
1352 2192 mt 1389 2192 L
8704 2192 mt 8667 2192 L
DO
1352 2192 mt 8704 2192 L
8704 2192 mt 8704 2192 L
SO
1352 2192 mt 1389 2192 L
8704 2192 mt 8667 2192 L
DO
1352 2192 mt 8704 2192 L
8704 2192 mt 8704 2192 L
SO
1352 2192 mt 1389 2192 L
8704 2192 mt 8667 2192 L
DO
1352 2192 mt 8704 2192 L
8704 2192 mt 8704 2192 L
SO
1352 2192 mt 1389 2192 L
8704 2192 mt 8667 2192 L
DO
1352 2192 mt 8704 2192 L
8704 2192 mt 8704 2192 L
SO
1352 2192 mt 1389 2192 L
8704 2192 mt 8667 2192 L
DO
1352 2192 mt 8704 2192 L
8704 2192 mt 8704 2192 L
SO
1352 2192 mt 1426 2192 L
8704 2192 mt 8630 2192 L
 898 2312 mt 
(0.6) s
1352 1959 mt 1389 1959 L
8704 1959 mt 8667 1959 L
DO
1352 1959 mt 8704 1959 L
8704 1959 mt 8704 1959 L
SO
1352 1725 mt 1389 1725 L
8704 1725 mt 8667 1725 L
DO
1352 1725 mt 8704 1725 L
8704 1725 mt 8704 1725 L
SO
1352 1725 mt 1389 1725 L
8704 1725 mt 8667 1725 L
DO
1352 1725 mt 8704 1725 L
8704 1725 mt 8704 1725 L
SO
1352 1725 mt 1389 1725 L
8704 1725 mt 8667 1725 L
DO
1352 1725 mt 8704 1725 L
8704 1725 mt 8704 1725 L
SO
1352 1725 mt 1389 1725 L
8704 1725 mt 8667 1725 L
DO
1352 1725 mt 8704 1725 L
8704 1725 mt 8704 1725 L
SO
1352 1725 mt 1389 1725 L
8704 1725 mt 8667 1725 L
DO
1352 1725 mt 8704 1725 L
8704 1725 mt 8704 1725 L
SO
1352 1725 mt 1389 1725 L
8704 1725 mt 8667 1725 L
DO
1352 1725 mt 8704 1725 L
8704 1725 mt 8704 1725 L
SO
1352 1725 mt 1389 1725 L
8704 1725 mt 8667 1725 L
DO
1352 1725 mt 8704 1725 L
8704 1725 mt 8704 1725 L
SO
1352 1725 mt 1389 1725 L
8704 1725 mt 8667 1725 L
DO
1352 1725 mt 8704 1725 L
8704 1725 mt 8704 1725 L
SO
1352 1725 mt 1426 1725 L
8704 1725 mt 8630 1725 L
 898 1845 mt 
(0.7) s
1352 1492 mt 1389 1492 L
8704 1492 mt 8667 1492 L
DO
1352 1492 mt 8704 1492 L
8704 1492 mt 8704 1492 L
SO
1352 1258 mt 1389 1258 L
8704 1258 mt 8667 1258 L
DO
1352 1258 mt 8704 1258 L
8704 1258 mt 8704 1258 L
SO
1352 1258 mt 1389 1258 L
8704 1258 mt 8667 1258 L
DO
1352 1258 mt 8704 1258 L
8704 1258 mt 8704 1258 L
SO
1352 1258 mt 1389 1258 L
8704 1258 mt 8667 1258 L
DO
1352 1258 mt 8704 1258 L
8704 1258 mt 8704 1258 L
SO
1352 1258 mt 1389 1258 L
8704 1258 mt 8667 1258 L
DO
1352 1258 mt 8704 1258 L
8704 1258 mt 8704 1258 L
SO
1352 1258 mt 1389 1258 L
8704 1258 mt 8667 1258 L
DO
1352 1258 mt 8704 1258 L
8704 1258 mt 8704 1258 L
SO
1352 1258 mt 1389 1258 L
8704 1258 mt 8667 1258 L
DO
1352 1258 mt 8704 1258 L
8704 1258 mt 8704 1258 L
SO
1352 1258 mt 1389 1258 L
8704 1258 mt 8667 1258 L
DO
1352 1258 mt 8704 1258 L
8704 1258 mt 8704 1258 L
SO
1352 1258 mt 1389 1258 L
8704 1258 mt 8667 1258 L
DO
1352 1258 mt 8704 1258 L
8704 1258 mt 8704 1258 L
SO
1352 1258 mt 1426 1258 L
8704 1258 mt 8630 1258 L
 898 1378 mt 
(0.8) s
1352 1024 mt 1389 1024 L
8704 1024 mt 8667 1024 L
DO
1352 1024 mt 8704 1024 L
8704 1024 mt 8704 1024 L
SO
1352  791 mt 1389  791 L
8704  791 mt 8667  791 L
DO
1352  791 mt 8704  791 L
8704  791 mt 8704  791 L
SO
1352  791 mt 1389  791 L
8704  791 mt 8667  791 L
DO
1352  791 mt 8704  791 L
8704  791 mt 8704  791 L
SO
1352  791 mt 1389  791 L
8704  791 mt 8667  791 L
DO
1352  791 mt 8704  791 L
8704  791 mt 8704  791 L
SO
1352  791 mt 1389  791 L
8704  791 mt 8667  791 L
DO
1352  791 mt 8704  791 L
8704  791 mt 8704  791 L
SO
1352  791 mt 1389  791 L
8704  791 mt 8667  791 L
DO
1352  791 mt 8704  791 L
8704  791 mt 8704  791 L
SO
1352  791 mt 1389  791 L
8704  791 mt 8667  791 L
DO
1352  791 mt 8704  791 L
8704  791 mt 8704  791 L
SO
1352  791 mt 1389  791 L
8704  791 mt 8667  791 L
DO
1352  791 mt 8704  791 L
8704  791 mt 8704  791 L
SO
1352  791 mt 1389  791 L
8704  791 mt 8667  791 L
DO
1352  791 mt 8704  791 L
8704  791 mt 8704  791 L
SO
1352  791 mt 1426  791 L
8704  791 mt 8630  791 L
 898  911 mt 
(0.9) s
1352  557 mt 1389  557 L
8704  557 mt 8667  557 L
DO
1352  557 mt 8704  557 L
8704  557 mt 8704  557 L
SO
1352  324 mt 1389  324 L
8704  324 mt 8667  324 L
DO
1352  324 mt 8704  324 L
8704  324 mt 8704  324 L
SO
1352  324 mt 1389  324 L
8704  324 mt 8667  324 L
DO
1352  324 mt 8704  324 L
8704  324 mt 8704  324 L
SO
1352  324 mt 1389  324 L
8704  324 mt 8667  324 L
DO
1352  324 mt 8704  324 L
8704  324 mt 8704  324 L
SO
1352  324 mt 1389  324 L
8704  324 mt 8667  324 L
DO
1352  324 mt 8704  324 L
8704  324 mt 8704  324 L
SO
1352  324 mt 1389  324 L
8704  324 mt 8667  324 L
DO
1352  324 mt 8704  324 L
8704  324 mt 8704  324 L
SO
1352  324 mt 1389  324 L
8704  324 mt 8667  324 L
DO
1352  324 mt 8704  324 L
8704  324 mt 8704  324 L
SO
1352  324 mt 1389  324 L
8704  324 mt 8667  324 L
DO
1352  324 mt 8704  324 L
8704  324 mt 8704  324 L
SO
1352  324 mt 1389  324 L
8704  324 mt 8667  324 L
DO
1352  324 mt 8704  324 L
8704  324 mt 8704  324 L
SO
1352  324 mt 1426  324 L
8704  324 mt 8630  324 L
1150  444 mt 
(1) s
1352 4996 mt 8704 4996 L
1352  184 mt 8704  184 L
1352 4996 mt 1352  184 L
8704 4996 mt 8704  184 L
gs 1353 184 7352 4813 rc
48 w
/c8 { 0.000000 0.447000 0.741000 sr} bdef
c8
727 608 728 528 727 244 728 176 728 57 727 27 728 23 727 34 
1455 -10 1353 324 10 MP stroke
gr

48 w
c8
gs 1111 72 7760 2182 rc
2712  314 mt 2904  314 L
2808  218 mt 2808  410 L
3439  348 mt 3631  348 L
3535  252 mt 3535  444 L
4167  371 mt 4359  371 L
4263  275 mt 4263  467 L
4894  398 mt 5086  398 L
4990  302 mt 4990  494 L
5622  455 mt 5814  455 L
5718  359 mt 5718  551 L
6350  631 mt 6542  631 L
6446  535 mt 6446  727 L
7077  875 mt 7269  875 L
7173  779 mt 7173  971 L
7805 1403 mt 7997 1403 L
7901 1307 mt 7901 1499 L
8532 2011 mt 8724 2011 L
8628 1915 mt 8628 2107 L
2741  247 mt 2875  381 L
2875  247 mt 2741  381 L
3468  281 mt 3602  415 L
3602  281 mt 3468  415 L
4196  304 mt 4330  438 L
4330  304 mt 4196  438 L
4923  331 mt 5057  465 L
5057  331 mt 4923  465 L
5651  388 mt 5785  522 L
5785  388 mt 5651  522 L
6379  564 mt 6513  698 L
6513  564 mt 6379  698 L
7106  808 mt 7240  942 L
7240  808 mt 7106  942 L
7834 1336 mt 7968 1470 L
7968 1336 mt 7834 1470 L
8561 1944 mt 8695 2078 L
8695 1944 mt 8561 2078 L
gr

gs 1353 184 7352 4813 rc
/c9 { 0.850000 0.325000 0.098000 sr} bdef
c9
727 755 728 823 727 619 728 428 728 233 727 111 728 83 727 43 
1455 5 1353 324 10 MP stroke
gr

c9
gs 1111 82 7760 3585 rc
0 j
0 -150 -150 0 0 150 150 0 2733 254 5 MP
/c10 { 0.850980 0.325490 0.098039 sr} bdef
c10
gs
PP
gr
c9
DP
0 -150 -150 0 0 150 150 0 3460 297 5 MP
c10
gs
PP
gr
c9
DP
0 -150 -150 0 0 150 150 0 4188 380 5 MP
c10
gs
PP
gr
c9
DP
0 -150 -150 0 0 150 150 0 4915 491 5 MP
c10
gs
PP
gr
c9
DP
0 -150 -150 0 0 150 150 0 5643 724 5 MP
c10
gs
PP
gr
c9
DP
0 -150 -150 0 0 150 150 0 6371 1152 5 MP
c10
gs
PP
gr
c9
DP
0 -150 -150 0 0 150 150 0 7098 1771 5 MP
c10
gs
PP
gr
c9
DP
0 -150 -150 0 0 150 150 0 7826 2594 5 MP
c10
gs
PP
gr
c9
DP
0 -150 -150 0 0 150 150 0 8553 3349 5 MP
c10
gs
PP
gr
c9
DP
gr

gs 1353 184 7352 4813 rc
/c11 { 0.929000 0.694000 0.125000 sr} bdef
c11
727 0 728 0 727 0 728 0 728 0 727 0 728 0 727 0 
1455 0 1353 324 10 MP stroke
gr

c11
gs 823 0 8336 855 rc
160 W
2808 324 PD
160 W
3535 324 PD
160 W
4263 324 PD
160 W
4990 324 PD
160 W
5718 324 PD
160 W
6446 324 PD
160 W
7173 324 PD
160 W
7901 324 PD
160 W
8628 324 PD
gr

gs 1353 184 7352 4813 rc
gr

0.15 sg
%%IncludeResource: font Times-Bold
/Times-Bold /ISOLatin1Encoding 336 FMSR

3444 5700 mt 
(Number of Processors) s
 756 4222 mt  -90 rotate
(Efficiency \(SpeedUp/p\)) s
90 rotate
0 sg
%%IncludeResource: font Helvetica
/Helvetica /ISOLatin1Encoding 120 FMSR

1336 5039 mt 
( ) s
8688  226 mt 
( ) s
6 w
1 sg
0 1270 4066 0 0 -1270 1737 4752 4 MP
PP
-4066 0 0 1270 4066 0 0 -1270 1737 4752 5 MP stroke
4 w
DO
SO
6 w
0.15 sg
1737 4752 mt 5803 4752 L
1737 3482 mt 5803 3482 L
1737 4752 mt 1737 3482 L
5803 4752 mt 5803 3482 L
1737 4752 mt 5803 4752 L
1737 4752 mt 1737 3482 L
1737 4752 mt 5803 4752 L
1737 3482 mt 5803 3482 L
1737 4752 mt 1737 3482 L
5803 4752 mt 5803 3482 L
0 sg
%%IncludeResource: font Times-Roman
/Times-Roman /ISOLatin1Encoding 336 FMSR

2205 3822 mt 
(Efficiency \(BLAS IBM\)) s
gs 1737 3482 4067 1271 rc
48 w
c8
360 0 1809 3707 2 MP stroke
gr

48 w
c8
gs 1747 3465 485 485 rc
1893 3707 mt 2085 3707 L
1989 3611 mt 1989 3803 L
1922 3640 mt 2056 3774 L
2056 3640 mt 1922 3774 L
gr

gs 1737 3482 4067 1271 rc
gr

0 sg
2205 4232 mt 
(Efficiency \(BLAS Netlib\)) s
gs 1737 3482 4067 1271 rc
c9
360 0 1809 4117 2 MP stroke
gs 1747 3875 485 485 rc
0 j
0 -150 -150 0 0 150 150 0 1914 4042 5 MP
c10
gs
PP
gr
c9
DP
gr

gr

c9
0 sg
2205 4641 mt 
(Efficiency \(Ideal\)) s
gs 1737 3482 4067 1271 rc
c11
360 0 1809 4526 2 MP stroke
gr

c11
gs 1459 3996 1061 1061 rc
160 W
1989 4526 PD
gr

gs 1737 3482 4067 1271 rc
6 w
gr

6 w

end %%Color Dict

eplot
%%EndObject

epage
end

showpage

%%Trailer
%%EOF
