%!PS-Adobe-3.0 EPSF-3.0
%%Creator: MATLAB, The MathWorks, Inc. Version 8.3.0.532 (R2014a). Operating System: Linux 3.19.0-30-generic #34-Ubuntu SMP Fri Oct 2 22:08:41 UTC 2015 x86_64.
%%Title: /home/betogil/work/hp2fem/src/CPP/src/test/solvercontrol/outfiles/Parallel/MPI/csv/WeakScaling/Figures/mpi_communication.eps
%%CreationDate: 03/29/2016  10:35:09
%%DocumentNeededFonts: Helvetica
%%+ Helvetica-Bold
%%DocumentProcessColors: Cyan Magenta Yellow Black
%%LanguageLevel: 2
%%Pages: 1
%%BoundingBox:   -62   149   674   641
%%EndComments

%%BeginProlog
% MathWorks dictionary
/MathWorks 160 dict begin
% definition operators
/bdef {bind def} bind def
/ldef {load def} bind def
/xdef {exch def} bdef
/xstore {exch store} bdef
% operator abbreviations
/c  /clip ldef
/cc /concat ldef
/cp /closepath ldef
/gr /grestore ldef
/gs /gsave ldef
/mt /moveto ldef
/np /newpath ldef
/cm /currentmatrix ldef
/sm /setmatrix ldef
/rm /rmoveto ldef
/rl /rlineto ldef
/s {show newpath} bdef
/sc {setcmykcolor} bdef
/sr /setrgbcolor ldef
/sg /setgray ldef
/w /setlinewidth ldef
/j /setlinejoin ldef
/cap /setlinecap ldef
/rc {rectclip} bdef
/rf {rectfill} bdef
% page state control
/pgsv () def
/bpage {/pgsv save def} bdef
/epage {pgsv restore} bdef
/bplot /gsave ldef
/eplot {stroke grestore} bdef
% orientation switch
/portraitMode 0 def /landscapeMode 1 def /rotateMode 2 def
% coordinate system mappings
/dpi2point 0 def
% font control
/FontSize 0 def
/FMS {/FontSize xstore findfont [FontSize 0 0 FontSize neg 0 0]
  makefont setfont} bdef
/reencode {exch dup where {pop load} {pop StandardEncoding} ifelse
  exch dup 3 1 roll findfont dup length dict begin
  { 1 index /FID ne {def}{pop pop} ifelse } forall
  /Encoding exch def currentdict end definefont pop} bdef
/isroman {findfont /CharStrings get /Agrave known} bdef
/FMSR {3 1 roll 1 index dup isroman {reencode} {pop pop} ifelse
  exch FMS} bdef
/csm {1 dpi2point div -1 dpi2point div scale neg translate
 dup landscapeMode eq {pop -90 rotate}
  {rotateMode eq {90 rotate} if} ifelse} bdef
% line types: solid, dotted, dashed, dotdash
/SO { [] 0 setdash } bdef
/DO { [.5 dpi2point mul 4 dpi2point mul] 0 setdash } bdef
/DA { [6 dpi2point mul] 0 setdash } bdef
/DD { [.5 dpi2point mul 4 dpi2point mul 6 dpi2point mul 4
  dpi2point mul] 0 setdash } bdef
% macros for lines and objects
/L {lineto stroke} bdef
/MP {3 1 roll moveto 1 sub {rlineto} repeat} bdef
/AP {{rlineto} repeat} bdef
/PDlw -1 def
/W {/PDlw currentlinewidth def setlinewidth} def
/PP {closepath eofill} bdef
/DP {closepath stroke} bdef
/MR {4 -2 roll moveto dup  0 exch rlineto exch 0 rlineto
  neg 0 exch rlineto closepath} bdef
/FR {MR stroke} bdef
/PR {MR fill} bdef
/L1i {{currentfile picstr readhexstring pop} image} bdef
/tMatrix matrix def
/MakeOval {newpath tMatrix currentmatrix pop translate scale
0 0 1 0 360 arc tMatrix setmatrix} bdef
/FO {MakeOval stroke} bdef
/PO {MakeOval fill} bdef
/PD {currentlinewidth 2 div 0 360 arc fill
   PDlw -1 eq not {PDlw w /PDlw -1 def} if} def
/FA {newpath tMatrix currentmatrix pop translate scale
  0 0 1 5 -2 roll arc tMatrix setmatrix stroke} bdef
/PA {newpath tMatrix currentmatrix pop	translate 0 0 moveto scale
  0 0 1 5 -2 roll arc closepath tMatrix setmatrix fill} bdef
/FAn {newpath tMatrix currentmatrix pop translate scale
  0 0 1 5 -2 roll arcn tMatrix setmatrix stroke} bdef
/PAn {newpath tMatrix currentmatrix pop translate 0 0 moveto scale
  0 0 1 5 -2 roll arcn closepath tMatrix setmatrix fill} bdef
/vradius 0 def /hradius 0 def /lry 0 def
/lrx 0 def /uly 0 def /ulx 0 def /rad 0 def
/MRR {/vradius xdef /hradius xdef /lry xdef /lrx xdef /uly xdef
  /ulx xdef newpath tMatrix currentmatrix pop ulx hradius add uly
  vradius add translate hradius vradius scale 0 0 1 180 270 arc 
  tMatrix setmatrix lrx hradius sub uly vradius add translate
  hradius vradius scale 0 0 1 270 360 arc tMatrix setmatrix
  lrx hradius sub lry vradius sub translate hradius vradius scale
  0 0 1 0 90 arc tMatrix setmatrix ulx hradius add lry vradius sub
  translate hradius vradius scale 0 0 1 90 180 arc tMatrix setmatrix
  closepath} bdef
/FRR {MRR stroke } bdef
/PRR {MRR fill } bdef
/MlrRR {/lry xdef /lrx xdef /uly xdef /ulx xdef /rad lry uly sub 2 div def
  newpath tMatrix currentmatrix pop ulx rad add uly rad add translate
  rad rad scale 0 0 1 90 270 arc tMatrix setmatrix lrx rad sub lry rad
  sub translate rad rad scale 0 0 1 270 90 arc tMatrix setmatrix
  closepath} bdef
/FlrRR {MlrRR stroke } bdef
/PlrRR {MlrRR fill } bdef
/MtbRR {/lry xdef /lrx xdef /uly xdef /ulx xdef /rad lrx ulx sub 2 div def
  newpath tMatrix currentmatrix pop ulx rad add uly rad add translate
  rad rad scale 0 0 1 180 360 arc tMatrix setmatrix lrx rad sub lry rad
  sub translate rad rad scale 0 0 1 0 180 arc tMatrix setmatrix
  closepath} bdef
/FtbRR {MtbRR stroke } bdef
/PtbRR {MtbRR fill } bdef
/stri 6 array def /dtri 6 array def
/smat 6 array def /dmat 6 array def
/tmat1 6 array def /tmat2 6 array def /dif 3 array def
/asub {/ind2 exch def /ind1 exch def dup dup
  ind1 get exch ind2 get sub exch } bdef
/tri_to_matrix {
  2 0 asub 3 1 asub 4 0 asub 5 1 asub
  dup 0 get exch 1 get 7 -1 roll astore } bdef
/compute_transform {
  dmat dtri tri_to_matrix tmat1 invertmatrix 
  smat stri tri_to_matrix tmat2 concatmatrix } bdef
/ds {stri astore pop} bdef
/dt {dtri astore pop} bdef
/db {2 copy /cols xdef /rows xdef mul dup 3 mul string
  currentfile 
  3 index 0 eq {/ASCIIHexDecode filter}
  {/ASCII85Decode filter 3 index 2 eq {/RunLengthDecode filter} if }
  ifelse exch readstring pop
  dup 0 3 index getinterval /rbmap xdef
  dup 2 index dup getinterval /gbmap xdef
  1 index dup 2 mul exch getinterval /bbmap xdef pop pop}bdef
/it {gs np dtri aload pop moveto lineto lineto cp c
  cols rows 8 compute_transform 
  rbmap gbmap bbmap true 3 colorimage gr}bdef
/il {newpath moveto lineto stroke}bdef
currentdict end def
%%EndProlog

%%BeginSetup
MathWorks begin

0 cap

end
%%EndSetup

%%Page: 1 1
%%BeginPageSetup
%%PageBoundingBox:   -62   149   674   641
MathWorks begin
bpage
%%EndPageSetup

%%BeginObject: obj1
bplot

/dpi2point 12 def
portraitMode -0744 7692 csm

    0     0  8840  5895 rc
85 dict begin %Colortable dictionary
/c0 { 0.000000 0.000000 0.000000 sr} bdef
/c1 { 1.000000 1.000000 1.000000 sr} bdef
/c2 { 0.900000 0.000000 0.000000 sr} bdef
/c3 { 0.000000 0.820000 0.000000 sr} bdef
/c4 { 0.000000 0.000000 0.800000 sr} bdef
/c5 { 0.910000 0.820000 0.320000 sr} bdef
/c6 { 1.000000 0.260000 0.820000 sr} bdef
/c7 { 0.000000 0.820000 0.820000 sr} bdef
c0
1 j
1 sg
   0    0 8841 5896 rf
6 w
0 4805 6851 0 0 -4805 1149 5247 4 MP
PP
-6851 0 0 4805 6851 0 0 -4805 1149 5247 5 MP stroke
4 w
DO
0 sg
2005 5247 mt 2005  442 L
2005  442 mt 2005  442 L
2861 5247 mt 2861  442 L
2861  442 mt 2861  442 L
3718 5247 mt 3718  442 L
3718  442 mt 3718  442 L
4574 5247 mt 4574  442 L
4574  442 mt 4574  442 L
5430 5247 mt 5430  442 L
5430  442 mt 5430  442 L
6287 5247 mt 6287  442 L
6287  442 mt 6287  442 L
7143 5247 mt 7143  442 L
7143  442 mt 7143  442 L
1149 5247 mt 8000 5247 L
8000 5247 mt 8000 5247 L
1149 4766 mt 8000 4766 L
8000 4766 mt 8000 4766 L
1149 4286 mt 8000 4286 L
8000 4286 mt 8000 4286 L
1149 3805 mt 8000 3805 L
8000 3805 mt 8000 3805 L
1149 3325 mt 8000 3325 L
8000 3325 mt 8000 3325 L
1149 2844 mt 8000 2844 L
8000 2844 mt 8000 2844 L
1149 2364 mt 8000 2364 L
8000 2364 mt 8000 2364 L
1149 1883 mt 8000 1883 L
8000 1883 mt 8000 1883 L
1149 1403 mt 8000 1403 L
8000 1403 mt 8000 1403 L
1149  922 mt 8000  922 L
8000  922 mt 8000  922 L
1149  442 mt 8000  442 L
8000  442 mt 8000  442 L
SO
6 w
1149 5247 mt 8000 5247 L
1149  442 mt 8000  442 L
1149 5247 mt 1149  442 L
8000 5247 mt 8000  442 L
1149 5247 mt 8000 5247 L
1149 5247 mt 1149  442 L
2005 5247 mt 2005 5178 L
2005  442 mt 2005  510 L
%%IncludeResource: font Helvetica-Bold
/Helvetica-Bold /ISOLatin1Encoding 168 FMSR

1959 5442 mt 
(8) s
2861 5247 mt 2861 5178 L
2861  442 mt 2861  510 L
2768 5442 mt 
(16) s
3718 5247 mt 3718 5178 L
3718  442 mt 3718  510 L
3625 5442 mt 
(32) s
4574 5247 mt 4574 5178 L
4574  442 mt 4574  510 L
4481 5442 mt 
(64) s
5430 5247 mt 5430 5178 L
5430  442 mt 5430  510 L
5290 5442 mt 
(128) s
6287 5247 mt 6287 5178 L
6287  442 mt 6287  510 L
6147 5442 mt 
(256) s
7143 5247 mt 7143 5178 L
7143  442 mt 7143  510 L
7003 5442 mt 
(512) s
1149 5247 mt 1217 5247 L
8000 5247 mt 7931 5247 L
1021 5311 mt 
(0) s
1149 4766 mt 1217 4766 L
8000 4766 mt 7931 4766 L
 928 4830 mt 
(10) s
1149 4286 mt 1217 4286 L
8000 4286 mt 7931 4286 L
 928 4350 mt 
(20) s
1149 3805 mt 1217 3805 L
8000 3805 mt 7931 3805 L
 928 3869 mt 
(30) s
1149 3325 mt 1217 3325 L
8000 3325 mt 7931 3325 L
 928 3389 mt 
(40) s
1149 2844 mt 1217 2844 L
8000 2844 mt 7931 2844 L
 928 2908 mt 
(50) s
1149 2364 mt 1217 2364 L
8000 2364 mt 7931 2364 L
 928 2428 mt 
(60) s
1149 1883 mt 1217 1883 L
8000 1883 mt 7931 1883 L
 928 1947 mt 
(70) s
1149 1403 mt 1217 1403 L
8000 1403 mt 7931 1403 L
 928 1467 mt 
(80) s
1149  922 mt 1217  922 L
8000  922 mt 7931  922 L
 928  986 mt 
(90) s
1149  442 mt 1217  442 L
8000  442 mt 7931  442 L
 834  506 mt 
(100) s
1149 5247 mt 8000 5247 L
1149  442 mt 8000  442 L
1149 5247 mt 1149  442 L
8000 5247 mt 8000  442 L
gs 1149 442 6852 4806 rc
/c8 { 0.000000 0.000000 0.562500 sr} bdef
c8
0 84 685 0 0 -84 1662 5247 4 MP
PP
0 sg
-685 0 0 84 685 0 0 -84 1662 5247 5 MP stroke
c8
0 364 685 0 0 -364 2519 5247 4 MP
PP
0 sg
-685 0 0 364 685 0 0 -364 2519 5247 5 MP stroke
c8
0 1282 685 0 0 -1282 3375 5247 4 MP
PP
0 sg
-685 0 0 1282 685 0 0 -1282 3375 5247 5 MP stroke
c8
0 904 686 0 0 -904 4231 5247 4 MP
PP
0 sg
-686 0 0 904 686 0 0 -904 4231 5247 5 MP stroke
c8
0 1014 685 0 0 -1014 5088 5247 4 MP
PP
0 sg
-685 0 0 1014 685 0 0 -1014 5088 5247 5 MP stroke
c8
0 814 685 0 0 -814 5944 5247 4 MP
PP
0 sg
-685 0 0 814 685 0 0 -814 5944 5247 5 MP stroke
c8
0 1006 685 0 0 -1006 6801 5247 4 MP
PP
0 sg
-685 0 0 1006 685 0 0 -1006 6801 5247 5 MP stroke
6851 0 1149 5247 2 MP stroke
/c9 { 0.500000 0.000000 0.000000 sr} bdef
c9
0 4721 685 0 0 -4721 1662 5163 4 MP
PP
0 sg
-685 0 0 4721 685 0 0 -4721 1662 5163 5 MP stroke
c9
0 4441 685 0 0 -4441 2519 4883 4 MP
PP
0 sg
-685 0 0 4441 685 0 0 -4441 2519 4883 5 MP stroke
c9
0 3523 685 0 0 -3523 3375 3965 4 MP
PP
0 sg
-685 0 0 3523 685 0 0 -3523 3375 3965 5 MP stroke
c9
0 3901 686 0 0 -3901 4231 4343 4 MP
PP
0 sg
-686 0 0 3901 686 0 0 -3901 4231 4343 5 MP stroke
c9
0 3791 685 0 0 -3791 5088 4233 4 MP
PP
0 sg
-685 0 0 3791 685 0 0 -3791 5088 4233 5 MP stroke
c9
0 3991 685 0 0 -3991 5944 4433 4 MP
PP
0 sg
-685 0 0 3991 685 0 0 -3991 5944 4433 5 MP stroke
c9
0 3799 685 0 0 -3799 6801 4241 4 MP
PP
0 sg
-685 0 0 3799 685 0 0 -3799 6801 4241 5 MP stroke
gr

%%IncludeResource: font Helvetica-Bold
/Helvetica-Bold /ISOLatin1Encoding 216 FMSR

2196  295 mt 
(MPI Communication Versus Computation Time) s
%%IncludeResource: font Helvetica-Bold
/Helvetica-Bold /ISOLatin1Encoding 192 FMSR

3695 5638 mt 
(Number of Process) s
 736 3630 mt  -90 rotate
(Elapsed Time \(%\)) s
90 rotate

end %%Color Dict

eplot
%%EndObject

epage
end

showpage

%%Trailer
%%EOF
