%!PS-Adobe-3.0 EPSF-3.0
%%Creator: MATLAB, The Mathworks, Inc. Version 7.10.0.499 (R2010a). Operating System: Linux 3.16.0-46-generic #62~14.04.1-Ubuntu SMP Tue Aug 11 16:27:16 UTC 2015 x86_64.
%%Title: /home/doc/Work/Doutorado/Article_hp2FEM/Article_hp2FEM-Architecture_english/matlab/Comparing_BLAS/figures/eps/Scalability_Hexa_10000_P9.eps
%%CreationDate: 08/25/2015  14:53:33
%%DocumentNeededFonts: Helvetica-Bold
%%+ Helvetica
%%DocumentProcessColors: Cyan Magenta Yellow Black
%%LanguageLevel: 2
%%Pages: 1
%%BoundingBox:    30   187   559   615
%%EndComments

%%BeginProlog
% MathWorks dictionary
/MathWorks 160 dict begin
% definition operators
/bdef {bind def} bind def
/ldef {load def} bind def
/xdef {exch def} bdef
/xstore {exch store} bdef
% operator abbreviations
/c  /clip ldef
/cc /concat ldef
/cp /closepath ldef
/gr /grestore ldef
/gs /gsave ldef
/mt /moveto ldef
/np /newpath ldef
/cm /currentmatrix ldef
/sm /setmatrix ldef
/rm /rmoveto ldef
/rl /rlineto ldef
/s {show newpath} bdef
/sc {setcmykcolor} bdef
/sr /setrgbcolor ldef
/sg /setgray ldef
/w /setlinewidth ldef
/j /setlinejoin ldef
/cap /setlinecap ldef
/rc {rectclip} bdef
/rf {rectfill} bdef
% page state control
/pgsv () def
/bpage {/pgsv save def} bdef
/epage {pgsv restore} bdef
/bplot /gsave ldef
/eplot {stroke grestore} bdef
% orientation switch
/portraitMode 0 def /landscapeMode 1 def /rotateMode 2 def
% coordinate system mappings
/dpi2point 0 def
% font control
/FontSize 0 def
/FMS {/FontSize xstore findfont [FontSize 0 0 FontSize neg 0 0]
  makefont setfont} bdef
/reencode {exch dup where {pop load} {pop StandardEncoding} ifelse
  exch dup 3 1 roll findfont dup length dict begin
  { 1 index /FID ne {def}{pop pop} ifelse } forall
  /Encoding exch def currentdict end definefont pop} bdef
/isroman {findfont /CharStrings get /Agrave known} bdef
/FMSR {3 1 roll 1 index dup isroman {reencode} {pop pop} ifelse
  exch FMS} bdef
/csm {1 dpi2point div -1 dpi2point div scale neg translate
 dup landscapeMode eq {pop -90 rotate}
  {rotateMode eq {90 rotate} if} ifelse} bdef
% line types: solid, dotted, dashed, dotdash
/SO { [] 0 setdash } bdef
/DO { [.5 dpi2point mul 4 dpi2point mul] 0 setdash } bdef
/DA { [6 dpi2point mul] 0 setdash } bdef
/DD { [.5 dpi2point mul 4 dpi2point mul 6 dpi2point mul 4
  dpi2point mul] 0 setdash } bdef
% macros for lines and objects
/L {lineto stroke} bdef
/MP {3 1 roll moveto 1 sub {rlineto} repeat} bdef
/AP {{rlineto} repeat} bdef
/PDlw -1 def
/W {/PDlw currentlinewidth def setlinewidth} def
/PP {closepath eofill} bdef
/DP {closepath stroke} bdef
/MR {4 -2 roll moveto dup  0 exch rlineto exch 0 rlineto
  neg 0 exch rlineto closepath} bdef
/FR {MR stroke} bdef
/PR {MR fill} bdef
/L1i {{currentfile picstr readhexstring pop} image} bdef
/tMatrix matrix def
/MakeOval {newpath tMatrix currentmatrix pop translate scale
0 0 1 0 360 arc tMatrix setmatrix} bdef
/FO {MakeOval stroke} bdef
/PO {MakeOval fill} bdef
/PD {currentlinewidth 2 div 0 360 arc fill
   PDlw -1 eq not {PDlw w /PDlw -1 def} if} def
/FA {newpath tMatrix currentmatrix pop translate scale
  0 0 1 5 -2 roll arc tMatrix setmatrix stroke} bdef
/PA {newpath tMatrix currentmatrix pop	translate 0 0 moveto scale
  0 0 1 5 -2 roll arc closepath tMatrix setmatrix fill} bdef
/FAn {newpath tMatrix currentmatrix pop translate scale
  0 0 1 5 -2 roll arcn tMatrix setmatrix stroke} bdef
/PAn {newpath tMatrix currentmatrix pop translate 0 0 moveto scale
  0 0 1 5 -2 roll arcn closepath tMatrix setmatrix fill} bdef
/vradius 0 def /hradius 0 def /lry 0 def
/lrx 0 def /uly 0 def /ulx 0 def /rad 0 def
/MRR {/vradius xdef /hradius xdef /lry xdef /lrx xdef /uly xdef
  /ulx xdef newpath tMatrix currentmatrix pop ulx hradius add uly
  vradius add translate hradius vradius scale 0 0 1 180 270 arc 
  tMatrix setmatrix lrx hradius sub uly vradius add translate
  hradius vradius scale 0 0 1 270 360 arc tMatrix setmatrix
  lrx hradius sub lry vradius sub translate hradius vradius scale
  0 0 1 0 90 arc tMatrix setmatrix ulx hradius add lry vradius sub
  translate hradius vradius scale 0 0 1 90 180 arc tMatrix setmatrix
  closepath} bdef
/FRR {MRR stroke } bdef
/PRR {MRR fill } bdef
/MlrRR {/lry xdef /lrx xdef /uly xdef /ulx xdef /rad lry uly sub 2 div def
  newpath tMatrix currentmatrix pop ulx rad add uly rad add translate
  rad rad scale 0 0 1 90 270 arc tMatrix setmatrix lrx rad sub lry rad
  sub translate rad rad scale 0 0 1 270 90 arc tMatrix setmatrix
  closepath} bdef
/FlrRR {MlrRR stroke } bdef
/PlrRR {MlrRR fill } bdef
/MtbRR {/lry xdef /lrx xdef /uly xdef /ulx xdef /rad lrx ulx sub 2 div def
  newpath tMatrix currentmatrix pop ulx rad add uly rad add translate
  rad rad scale 0 0 1 180 360 arc tMatrix setmatrix lrx rad sub lry rad
  sub translate rad rad scale 0 0 1 0 180 arc tMatrix setmatrix
  closepath} bdef
/FtbRR {MtbRR stroke } bdef
/PtbRR {MtbRR fill } bdef
/stri 6 array def /dtri 6 array def
/smat 6 array def /dmat 6 array def
/tmat1 6 array def /tmat2 6 array def /dif 3 array def
/asub {/ind2 exch def /ind1 exch def dup dup
  ind1 get exch ind2 get sub exch } bdef
/tri_to_matrix {
  2 0 asub 3 1 asub 4 0 asub 5 1 asub
  dup 0 get exch 1 get 7 -1 roll astore } bdef
/compute_transform {
  dmat dtri tri_to_matrix tmat1 invertmatrix 
  smat stri tri_to_matrix tmat2 concatmatrix } bdef
/ds {stri astore pop} bdef
/dt {dtri astore pop} bdef
/db {2 copy /cols xdef /rows xdef mul dup 3 mul string
  currentfile 
  3 index 0 eq {/ASCIIHexDecode filter}
  {/ASCII85Decode filter 3 index 2 eq {/RunLengthDecode filter} if }
  ifelse exch readstring pop
  dup 0 3 index getinterval /rbmap xdef
  dup 2 index dup getinterval /gbmap xdef
  1 index dup 2 mul exch getinterval /bbmap xdef pop pop}bdef
/it {gs np dtri aload pop moveto lineto lineto cp c
  cols rows 8 compute_transform 
  rbmap gbmap bbmap true 3 colorimage gr}bdef
/il {newpath moveto lineto stroke}bdef
currentdict end def
%%EndProlog

%%BeginSetup
MathWorks begin

0 cap

end
%%EndSetup

%%Page: 1 1
%%BeginPageSetup
%%PageBoundingBox:    30   187   559   615
MathWorks begin
bpage
%%EndPageSetup

%%BeginObject: obj1
bplot

/dpi2point 4.16667 def
portraitMode 0075 2550 csm

   53   -15  2202  1783 rc
85 dict begin %Colortable dictionary
/c0 { 0.000000 0.000000 0.000000 sr} bdef
/c1 { 1.000000 1.000000 1.000000 sr} bdef
/c2 { 0.900000 0.000000 0.000000 sr} bdef
/c3 { 0.000000 0.820000 0.000000 sr} bdef
/c4 { 0.000000 0.000000 0.800000 sr} bdef
/c5 { 0.910000 0.820000 0.320000 sr} bdef
/c6 { 1.000000 0.260000 0.820000 sr} bdef
/c7 { 0.000000 0.820000 0.820000 sr} bdef
c0
1 j
1 sg
   0    0 2401 1802 rf
2.08333 w
0 1468 1860 0 0 -1468 312 1603 4 MP
PP
-1860 0 0 1468 1860 0 0 -1468 312 1603 5 MP stroke
1.38889 w
DO
0 sg
 680 1603 mt  680  135 L
 680  135 mt  680  135 L
 864 1603 mt  864  135 L
 864  135 mt  864  135 L
1048 1603 mt 1048  135 L
1048  135 mt 1048  135 L
1232 1603 mt 1232  135 L
1232  135 mt 1232  135 L
1416 1603 mt 1416  135 L
1416  135 mt 1416  135 L
1600 1603 mt 1600  135 L
1600  135 mt 1600  135 L
1784 1603 mt 1784  135 L
1784  135 mt 1784  135 L
1968 1603 mt 1968  135 L
1968  135 mt 1968  135 L
2152 1603 mt 2152  135 L
2152  135 mt 2152  135 L
 312 1312 mt 2172 1312 L
2172 1312 mt 2172 1312 L
 312 1167 mt 2172 1167 L
2172 1167 mt 2172 1167 L
 312 1021 mt 2172 1021 L
2172 1021 mt 2172 1021 L
 312  876 mt 2172  876 L
2172  876 mt 2172  876 L
 312  731 mt 2172  731 L
2172  731 mt 2172  731 L
 312  585 mt 2172  585 L
2172  585 mt 2172  585 L
 312  440 mt 2172  440 L
2172  440 mt 2172  440 L
 312  295 mt 2172  295 L
2172  295 mt 2172  295 L
 312  201 mt 2172  201 L
2172  201 mt 2172  201 L
 312  150 mt 2172  150 L
2172  150 mt 2172  150 L
SO
2.08333 w
 312 1603 mt 2172 1603 L
 312  135 mt 2172  135 L
 312 1603 mt  312  135 L
2172 1603 mt 2172  135 L
 312 1603 mt 2172 1603 L
 312 1603 mt  312  135 L
 680 1603 mt  680 1584 L
 680  135 mt  680  153 L
%%IncludeResource: font Helvetica-Bold
/Helvetica-Bold /ISOLatin1Encoding 62.5 FMSR

 663 1675 mt 
(4) s
 864 1603 mt  864 1584 L
 864  135 mt  864  153 L
 847 1675 mt 
(8) s
 864 1603 mt  864 1593 L
 864  135 mt  864  144 L
DO
 864 1603 mt  864  135 L
 864  135 mt  864  135 L
SO
 864 1603 mt  864 1593 L
 864  135 mt  864  144 L
DO
 864 1603 mt  864  135 L
 864  135 mt  864  135 L
SO
 864 1603 mt  864 1593 L
 864  135 mt  864  144 L
DO
 864 1603 mt  864  135 L
 864  135 mt  864  135 L
SO
 864 1603 mt  864 1593 L
 864  135 mt  864  144 L
DO
 864 1603 mt  864  135 L
 864  135 mt  864  135 L
SO
 864 1603 mt  864 1593 L
 864  135 mt  864  144 L
DO
 864 1603 mt  864  135 L
 864  135 mt  864  135 L
SO
 864 1603 mt  864 1593 L
 864  135 mt  864  144 L
DO
 864 1603 mt  864  135 L
 864  135 mt  864  135 L
SO
 864 1603 mt  864 1593 L
 864  135 mt  864  144 L
DO
 864 1603 mt  864  135 L
 864  135 mt  864  135 L
SO
 864 1603 mt  864 1593 L
 864  135 mt  864  144 L
DO
 864 1603 mt  864  135 L
 864  135 mt  864  135 L
SO
 864 1603 mt  864 1593 L
 864  135 mt  864  144 L
DO
 864 1603 mt  864  135 L
 864  135 mt  864  135 L
SO
1048 1603 mt 1048 1584 L
1048  135 mt 1048  153 L
1014 1675 mt 
(16) s
1048 1603 mt 1048 1593 L
1048  135 mt 1048  144 L
DO
1048 1603 mt 1048  135 L
1048  135 mt 1048  135 L
SO
1048 1603 mt 1048 1593 L
1048  135 mt 1048  144 L
DO
1048 1603 mt 1048  135 L
1048  135 mt 1048  135 L
SO
1048 1603 mt 1048 1593 L
1048  135 mt 1048  144 L
DO
1048 1603 mt 1048  135 L
1048  135 mt 1048  135 L
SO
1048 1603 mt 1048 1593 L
1048  135 mt 1048  144 L
DO
1048 1603 mt 1048  135 L
1048  135 mt 1048  135 L
SO
1048 1603 mt 1048 1593 L
1048  135 mt 1048  144 L
DO
1048 1603 mt 1048  135 L
1048  135 mt 1048  135 L
SO
1048 1603 mt 1048 1593 L
1048  135 mt 1048  144 L
DO
1048 1603 mt 1048  135 L
1048  135 mt 1048  135 L
SO
1048 1603 mt 1048 1593 L
1048  135 mt 1048  144 L
DO
1048 1603 mt 1048  135 L
1048  135 mt 1048  135 L
SO
1048 1603 mt 1048 1593 L
1048  135 mt 1048  144 L
DO
1048 1603 mt 1048  135 L
1048  135 mt 1048  135 L
SO
1048 1603 mt 1048 1593 L
1048  135 mt 1048  144 L
DO
1048 1603 mt 1048  135 L
1048  135 mt 1048  135 L
SO
1232 1603 mt 1232 1584 L
1232  135 mt 1232  153 L
1198 1675 mt 
(32) s
1232 1603 mt 1232 1593 L
1232  135 mt 1232  144 L
DO
1232 1603 mt 1232  135 L
1232  135 mt 1232  135 L
SO
1232 1603 mt 1232 1593 L
1232  135 mt 1232  144 L
DO
1232 1603 mt 1232  135 L
1232  135 mt 1232  135 L
SO
1232 1603 mt 1232 1593 L
1232  135 mt 1232  144 L
DO
1232 1603 mt 1232  135 L
1232  135 mt 1232  135 L
SO
1232 1603 mt 1232 1593 L
1232  135 mt 1232  144 L
DO
1232 1603 mt 1232  135 L
1232  135 mt 1232  135 L
SO
1232 1603 mt 1232 1593 L
1232  135 mt 1232  144 L
DO
1232 1603 mt 1232  135 L
1232  135 mt 1232  135 L
SO
1232 1603 mt 1232 1593 L
1232  135 mt 1232  144 L
DO
1232 1603 mt 1232  135 L
1232  135 mt 1232  135 L
SO
1232 1603 mt 1232 1593 L
1232  135 mt 1232  144 L
DO
1232 1603 mt 1232  135 L
1232  135 mt 1232  135 L
SO
1232 1603 mt 1232 1593 L
1232  135 mt 1232  144 L
DO
1232 1603 mt 1232  135 L
1232  135 mt 1232  135 L
SO
1232 1603 mt 1232 1593 L
1232  135 mt 1232  144 L
DO
1232 1603 mt 1232  135 L
1232  135 mt 1232  135 L
SO
1416 1603 mt 1416 1584 L
1416  135 mt 1416  153 L
1382 1675 mt 
(64) s
1416 1603 mt 1416 1593 L
1416  135 mt 1416  144 L
DO
1416 1603 mt 1416  135 L
1416  135 mt 1416  135 L
SO
1416 1603 mt 1416 1593 L
1416  135 mt 1416  144 L
DO
1416 1603 mt 1416  135 L
1416  135 mt 1416  135 L
SO
1416 1603 mt 1416 1593 L
1416  135 mt 1416  144 L
DO
1416 1603 mt 1416  135 L
1416  135 mt 1416  135 L
SO
1416 1603 mt 1416 1593 L
1416  135 mt 1416  144 L
DO
1416 1603 mt 1416  135 L
1416  135 mt 1416  135 L
SO
1416 1603 mt 1416 1593 L
1416  135 mt 1416  144 L
DO
1416 1603 mt 1416  135 L
1416  135 mt 1416  135 L
SO
1416 1603 mt 1416 1593 L
1416  135 mt 1416  144 L
DO
1416 1603 mt 1416  135 L
1416  135 mt 1416  135 L
SO
1416 1603 mt 1416 1593 L
1416  135 mt 1416  144 L
DO
1416 1603 mt 1416  135 L
1416  135 mt 1416  135 L
SO
1416 1603 mt 1416 1593 L
1416  135 mt 1416  144 L
DO
1416 1603 mt 1416  135 L
1416  135 mt 1416  135 L
SO
1416 1603 mt 1416 1593 L
1416  135 mt 1416  144 L
DO
1416 1603 mt 1416  135 L
1416  135 mt 1416  135 L
SO
1600 1603 mt 1600 1584 L
1600  135 mt 1600  153 L
1548 1675 mt 
(128) s
1600 1603 mt 1600 1593 L
1600  135 mt 1600  144 L
DO
1600 1603 mt 1600  135 L
1600  135 mt 1600  135 L
SO
1600 1603 mt 1600 1593 L
1600  135 mt 1600  144 L
DO
1600 1603 mt 1600  135 L
1600  135 mt 1600  135 L
SO
1600 1603 mt 1600 1593 L
1600  135 mt 1600  144 L
DO
1600 1603 mt 1600  135 L
1600  135 mt 1600  135 L
SO
1600 1603 mt 1600 1593 L
1600  135 mt 1600  144 L
DO
1600 1603 mt 1600  135 L
1600  135 mt 1600  135 L
SO
1600 1603 mt 1600 1593 L
1600  135 mt 1600  144 L
DO
1600 1603 mt 1600  135 L
1600  135 mt 1600  135 L
SO
1600 1603 mt 1600 1593 L
1600  135 mt 1600  144 L
DO
1600 1603 mt 1600  135 L
1600  135 mt 1600  135 L
SO
1600 1603 mt 1600 1593 L
1600  135 mt 1600  144 L
DO
1600 1603 mt 1600  135 L
1600  135 mt 1600  135 L
SO
1600 1603 mt 1600 1593 L
1600  135 mt 1600  144 L
DO
1600 1603 mt 1600  135 L
1600  135 mt 1600  135 L
SO
1600 1603 mt 1600 1593 L
1600  135 mt 1600  144 L
DO
1600 1603 mt 1600  135 L
1600  135 mt 1600  135 L
SO
1784 1603 mt 1784 1584 L
1784  135 mt 1784  153 L
1732 1675 mt 
(256) s
1784 1603 mt 1784 1593 L
1784  135 mt 1784  144 L
DO
1784 1603 mt 1784  135 L
1784  135 mt 1784  135 L
SO
1784 1603 mt 1784 1593 L
1784  135 mt 1784  144 L
DO
1784 1603 mt 1784  135 L
1784  135 mt 1784  135 L
SO
1784 1603 mt 1784 1593 L
1784  135 mt 1784  144 L
DO
1784 1603 mt 1784  135 L
1784  135 mt 1784  135 L
SO
1784 1603 mt 1784 1593 L
1784  135 mt 1784  144 L
DO
1784 1603 mt 1784  135 L
1784  135 mt 1784  135 L
SO
1784 1603 mt 1784 1593 L
1784  135 mt 1784  144 L
DO
1784 1603 mt 1784  135 L
1784  135 mt 1784  135 L
SO
1784 1603 mt 1784 1593 L
1784  135 mt 1784  144 L
DO
1784 1603 mt 1784  135 L
1784  135 mt 1784  135 L
SO
1784 1603 mt 1784 1593 L
1784  135 mt 1784  144 L
DO
1784 1603 mt 1784  135 L
1784  135 mt 1784  135 L
SO
1784 1603 mt 1784 1593 L
1784  135 mt 1784  144 L
DO
1784 1603 mt 1784  135 L
1784  135 mt 1784  135 L
SO
1784 1603 mt 1784 1593 L
1784  135 mt 1784  144 L
DO
1784 1603 mt 1784  135 L
1784  135 mt 1784  135 L
SO
1968 1603 mt 1968 1584 L
1968  135 mt 1968  153 L
1916 1675 mt 
(512) s
1968 1603 mt 1968 1593 L
1968  135 mt 1968  144 L
DO
1968 1603 mt 1968  135 L
1968  135 mt 1968  135 L
SO
1968 1603 mt 1968 1593 L
1968  135 mt 1968  144 L
DO
1968 1603 mt 1968  135 L
1968  135 mt 1968  135 L
SO
1968 1603 mt 1968 1593 L
1968  135 mt 1968  144 L
DO
1968 1603 mt 1968  135 L
1968  135 mt 1968  135 L
SO
1968 1603 mt 1968 1593 L
1968  135 mt 1968  144 L
DO
1968 1603 mt 1968  135 L
1968  135 mt 1968  135 L
SO
1968 1603 mt 1968 1593 L
1968  135 mt 1968  144 L
DO
1968 1603 mt 1968  135 L
1968  135 mt 1968  135 L
SO
1968 1603 mt 1968 1593 L
1968  135 mt 1968  144 L
DO
1968 1603 mt 1968  135 L
1968  135 mt 1968  135 L
SO
1968 1603 mt 1968 1593 L
1968  135 mt 1968  144 L
DO
1968 1603 mt 1968  135 L
1968  135 mt 1968  135 L
SO
1968 1603 mt 1968 1593 L
1968  135 mt 1968  144 L
DO
1968 1603 mt 1968  135 L
1968  135 mt 1968  135 L
SO
1968 1603 mt 1968 1593 L
1968  135 mt 1968  144 L
DO
1968 1603 mt 1968  135 L
1968  135 mt 1968  135 L
SO
2152 1603 mt 2152 1584 L
2152  135 mt 2152  153 L
2083 1675 mt 
(1024) s
2152 1603 mt 2152 1593 L
2152  135 mt 2152  144 L
DO
2152 1603 mt 2152  135 L
2152  135 mt 2152  135 L
SO
 312 1312 mt  330 1312 L
2172 1312 mt 2153 1312 L
 266 1336 mt 
(4) s
 312 1167 mt  330 1167 L
2172 1167 mt 2153 1167 L
 266 1191 mt 
(8) s
 312 1167 mt  321 1167 L
2172 1167 mt 2162 1167 L
DO
 312 1167 mt 2172 1167 L
2172 1167 mt 2172 1167 L
SO
 312 1167 mt  321 1167 L
2172 1167 mt 2162 1167 L
DO
 312 1167 mt 2172 1167 L
2172 1167 mt 2172 1167 L
SO
 312 1167 mt  321 1167 L
2172 1167 mt 2162 1167 L
DO
 312 1167 mt 2172 1167 L
2172 1167 mt 2172 1167 L
SO
 312 1167 mt  321 1167 L
2172 1167 mt 2162 1167 L
DO
 312 1167 mt 2172 1167 L
2172 1167 mt 2172 1167 L
SO
 312 1167 mt  321 1167 L
2172 1167 mt 2162 1167 L
DO
 312 1167 mt 2172 1167 L
2172 1167 mt 2172 1167 L
SO
 312 1167 mt  321 1167 L
2172 1167 mt 2162 1167 L
DO
 312 1167 mt 2172 1167 L
2172 1167 mt 2172 1167 L
SO
 312 1167 mt  321 1167 L
2172 1167 mt 2162 1167 L
DO
 312 1167 mt 2172 1167 L
2172 1167 mt 2172 1167 L
SO
 312 1167 mt  321 1167 L
2172 1167 mt 2162 1167 L
DO
 312 1167 mt 2172 1167 L
2172 1167 mt 2172 1167 L
SO
 312 1167 mt  321 1167 L
2172 1167 mt 2162 1167 L
DO
 312 1167 mt 2172 1167 L
2172 1167 mt 2172 1167 L
SO
 312 1021 mt  330 1021 L
2172 1021 mt 2153 1021 L
 231 1045 mt 
(16) s
 312 1021 mt  321 1021 L
2172 1021 mt 2162 1021 L
DO
 312 1021 mt 2172 1021 L
2172 1021 mt 2172 1021 L
SO
 312 1021 mt  321 1021 L
2172 1021 mt 2162 1021 L
DO
 312 1021 mt 2172 1021 L
2172 1021 mt 2172 1021 L
SO
 312 1021 mt  321 1021 L
2172 1021 mt 2162 1021 L
DO
 312 1021 mt 2172 1021 L
2172 1021 mt 2172 1021 L
SO
 312 1021 mt  321 1021 L
2172 1021 mt 2162 1021 L
DO
 312 1021 mt 2172 1021 L
2172 1021 mt 2172 1021 L
SO
 312 1021 mt  321 1021 L
2172 1021 mt 2162 1021 L
DO
 312 1021 mt 2172 1021 L
2172 1021 mt 2172 1021 L
SO
 312 1021 mt  321 1021 L
2172 1021 mt 2162 1021 L
DO
 312 1021 mt 2172 1021 L
2172 1021 mt 2172 1021 L
SO
 312 1021 mt  321 1021 L
2172 1021 mt 2162 1021 L
DO
 312 1021 mt 2172 1021 L
2172 1021 mt 2172 1021 L
SO
 312 1021 mt  321 1021 L
2172 1021 mt 2162 1021 L
DO
 312 1021 mt 2172 1021 L
2172 1021 mt 2172 1021 L
SO
 312 1021 mt  321 1021 L
2172 1021 mt 2162 1021 L
DO
 312 1021 mt 2172 1021 L
2172 1021 mt 2172 1021 L
SO
 312  876 mt  330  876 L
2172  876 mt 2153  876 L
 231  900 mt 
(32) s
 312  876 mt  321  876 L
2172  876 mt 2162  876 L
DO
 312  876 mt 2172  876 L
2172  876 mt 2172  876 L
SO
 312  876 mt  321  876 L
2172  876 mt 2162  876 L
DO
 312  876 mt 2172  876 L
2172  876 mt 2172  876 L
SO
 312  876 mt  321  876 L
2172  876 mt 2162  876 L
DO
 312  876 mt 2172  876 L
2172  876 mt 2172  876 L
SO
 312  876 mt  321  876 L
2172  876 mt 2162  876 L
DO
 312  876 mt 2172  876 L
2172  876 mt 2172  876 L
SO
 312  876 mt  321  876 L
2172  876 mt 2162  876 L
DO
 312  876 mt 2172  876 L
2172  876 mt 2172  876 L
SO
 312  876 mt  321  876 L
2172  876 mt 2162  876 L
DO
 312  876 mt 2172  876 L
2172  876 mt 2172  876 L
SO
 312  876 mt  321  876 L
2172  876 mt 2162  876 L
DO
 312  876 mt 2172  876 L
2172  876 mt 2172  876 L
SO
 312  876 mt  321  876 L
2172  876 mt 2162  876 L
DO
 312  876 mt 2172  876 L
2172  876 mt 2172  876 L
SO
 312  876 mt  321  876 L
2172  876 mt 2162  876 L
DO
 312  876 mt 2172  876 L
2172  876 mt 2172  876 L
SO
 312  731 mt  330  731 L
2172  731 mt 2153  731 L
 231  755 mt 
(64) s
 312  731 mt  321  731 L
2172  731 mt 2162  731 L
DO
 312  731 mt 2172  731 L
2172  731 mt 2172  731 L
SO
 312  731 mt  321  731 L
2172  731 mt 2162  731 L
DO
 312  731 mt 2172  731 L
2172  731 mt 2172  731 L
SO
 312  731 mt  321  731 L
2172  731 mt 2162  731 L
DO
 312  731 mt 2172  731 L
2172  731 mt 2172  731 L
SO
 312  731 mt  321  731 L
2172  731 mt 2162  731 L
DO
 312  731 mt 2172  731 L
2172  731 mt 2172  731 L
SO
 312  731 mt  321  731 L
2172  731 mt 2162  731 L
DO
 312  731 mt 2172  731 L
2172  731 mt 2172  731 L
SO
 312  731 mt  321  731 L
2172  731 mt 2162  731 L
DO
 312  731 mt 2172  731 L
2172  731 mt 2172  731 L
SO
 312  731 mt  321  731 L
2172  731 mt 2162  731 L
DO
 312  731 mt 2172  731 L
2172  731 mt 2172  731 L
SO
 312  731 mt  321  731 L
2172  731 mt 2162  731 L
DO
 312  731 mt 2172  731 L
2172  731 mt 2172  731 L
SO
 312  731 mt  321  731 L
2172  731 mt 2162  731 L
DO
 312  731 mt 2172  731 L
2172  731 mt 2172  731 L
SO
 312  585 mt  330  585 L
2172  585 mt 2153  585 L
 196  609 mt 
(128) s
 312  585 mt  321  585 L
2172  585 mt 2162  585 L
DO
 312  585 mt 2172  585 L
2172  585 mt 2172  585 L
SO
 312  585 mt  321  585 L
2172  585 mt 2162  585 L
DO
 312  585 mt 2172  585 L
2172  585 mt 2172  585 L
SO
 312  585 mt  321  585 L
2172  585 mt 2162  585 L
DO
 312  585 mt 2172  585 L
2172  585 mt 2172  585 L
SO
 312  585 mt  321  585 L
2172  585 mt 2162  585 L
DO
 312  585 mt 2172  585 L
2172  585 mt 2172  585 L
SO
 312  585 mt  321  585 L
2172  585 mt 2162  585 L
DO
 312  585 mt 2172  585 L
2172  585 mt 2172  585 L
SO
 312  585 mt  321  585 L
2172  585 mt 2162  585 L
DO
 312  585 mt 2172  585 L
2172  585 mt 2172  585 L
SO
 312  585 mt  321  585 L
2172  585 mt 2162  585 L
DO
 312  585 mt 2172  585 L
2172  585 mt 2172  585 L
SO
 312  585 mt  321  585 L
2172  585 mt 2162  585 L
DO
 312  585 mt 2172  585 L
2172  585 mt 2172  585 L
SO
 312  585 mt  321  585 L
2172  585 mt 2162  585 L
DO
 312  585 mt 2172  585 L
2172  585 mt 2172  585 L
SO
 312  440 mt  330  440 L
2172  440 mt 2153  440 L
 196  464 mt 
(256) s
 312  440 mt  321  440 L
2172  440 mt 2162  440 L
DO
 312  440 mt 2172  440 L
2172  440 mt 2172  440 L
SO
 312  440 mt  321  440 L
2172  440 mt 2162  440 L
DO
 312  440 mt 2172  440 L
2172  440 mt 2172  440 L
SO
 312  440 mt  321  440 L
2172  440 mt 2162  440 L
DO
 312  440 mt 2172  440 L
2172  440 mt 2172  440 L
SO
 312  440 mt  321  440 L
2172  440 mt 2162  440 L
DO
 312  440 mt 2172  440 L
2172  440 mt 2172  440 L
SO
 312  440 mt  321  440 L
2172  440 mt 2162  440 L
DO
 312  440 mt 2172  440 L
2172  440 mt 2172  440 L
SO
 312  440 mt  321  440 L
2172  440 mt 2162  440 L
DO
 312  440 mt 2172  440 L
2172  440 mt 2172  440 L
SO
 312  440 mt  321  440 L
2172  440 mt 2162  440 L
DO
 312  440 mt 2172  440 L
2172  440 mt 2172  440 L
SO
 312  440 mt  321  440 L
2172  440 mt 2162  440 L
DO
 312  440 mt 2172  440 L
2172  440 mt 2172  440 L
SO
 312  440 mt  321  440 L
2172  440 mt 2162  440 L
DO
 312  440 mt 2172  440 L
2172  440 mt 2172  440 L
SO
 312  295 mt  330  295 L
2172  295 mt 2153  295 L
 196  319 mt 
(512) s
 312  295 mt  321  295 L
2172  295 mt 2162  295 L
DO
 312  295 mt 2172  295 L
2172  295 mt 2172  295 L
SO
 312  295 mt  321  295 L
2172  295 mt 2162  295 L
DO
 312  295 mt 2172  295 L
2172  295 mt 2172  295 L
SO
 312  295 mt  321  295 L
2172  295 mt 2162  295 L
DO
 312  295 mt 2172  295 L
2172  295 mt 2172  295 L
SO
 312  295 mt  321  295 L
2172  295 mt 2162  295 L
DO
 312  295 mt 2172  295 L
2172  295 mt 2172  295 L
SO
 312  295 mt  321  295 L
2172  295 mt 2162  295 L
DO
 312  295 mt 2172  295 L
2172  295 mt 2172  295 L
SO
 312  295 mt  321  295 L
2172  295 mt 2162  295 L
DO
 312  295 mt 2172  295 L
2172  295 mt 2172  295 L
SO
 312  295 mt  321  295 L
2172  295 mt 2162  295 L
DO
 312  295 mt 2172  295 L
2172  295 mt 2172  295 L
SO
 312  295 mt  321  295 L
2172  295 mt 2162  295 L
DO
 312  295 mt 2172  295 L
2172  295 mt 2172  295 L
SO
 312  295 mt  321  295 L
2172  295 mt 2162  295 L
DO
 312  295 mt 2172  295 L
2172  295 mt 2172  295 L
SO
 312  201 mt  330  201 L
2172  201 mt 2153  201 L
 196  225 mt 
(800) s
 312  201 mt  321  201 L
2172  201 mt 2162  201 L
DO
 312  201 mt 2172  201 L
2172  201 mt 2172  201 L
SO
 312  201 mt  321  201 L
2172  201 mt 2162  201 L
DO
 312  201 mt 2172  201 L
2172  201 mt 2172  201 L
SO
 312  201 mt  321  201 L
2172  201 mt 2162  201 L
DO
 312  201 mt 2172  201 L
2172  201 mt 2172  201 L
SO
 312  201 mt  321  201 L
2172  201 mt 2162  201 L
DO
 312  201 mt 2172  201 L
2172  201 mt 2172  201 L
SO
 312  201 mt  321  201 L
2172  201 mt 2162  201 L
DO
 312  201 mt 2172  201 L
2172  201 mt 2172  201 L
SO
 312  201 mt  321  201 L
2172  201 mt 2162  201 L
DO
 312  201 mt 2172  201 L
2172  201 mt 2172  201 L
SO
 312  201 mt  321  201 L
2172  201 mt 2162  201 L
DO
 312  201 mt 2172  201 L
2172  201 mt 2172  201 L
SO
 312  201 mt  321  201 L
2172  201 mt 2162  201 L
DO
 312  201 mt 2172  201 L
2172  201 mt 2172  201 L
SO
 312  201 mt  321  201 L
2172  201 mt 2162  201 L
DO
 312  201 mt 2172  201 L
2172  201 mt 2172  201 L
SO
 312  150 mt  330  150 L
2172  150 mt 2153  150 L
 161  174 mt 
(1024) s
 312 1603 mt 2172 1603 L
 312  135 mt 2172  135 L
 312 1603 mt  312  135 L
2172 1603 mt 2172  135 L
gs 312 135 1861 1469 rc
8.33333 w
/c8 { 0.000000 0.000000 1.000000 sr} bdef
c8
184 -107 184 -116 184 -134 184 -137 184 -142 184 -144 184 -145 184 -143 
368 -292 312 1603 10 MP stroke
gr

8.33333 w
c8
 292 1603 mt  332 1603 L
 312 1583 mt  312 1623 L
 660 1311 mt  700 1311 L
 680 1291 mt  680 1331 L
 844 1168 mt  884 1168 L
 864 1148 mt  864 1188 L
1028 1023 mt 1068 1023 L
1048 1003 mt 1048 1043 L
1212  879 mt 1252  879 L
1232  859 mt 1232  899 L
1396  737 mt 1436  737 L
1416  717 mt 1416  757 L
1580  600 mt 1620  600 L
1600  580 mt 1600  620 L
1764  466 mt 1804  466 L
1784  446 mt 1784  486 L
1948  350 mt 1988  350 L
1968  330 mt 1968  370 L
2132  243 mt 2172  243 L
2152  223 mt 2152  263 L
 298 1589 mt  326 1617 L
 326 1589 mt  298 1617 L
 666 1297 mt  694 1325 L
 694 1297 mt  666 1325 L
 850 1154 mt  878 1182 L
 878 1154 mt  850 1182 L
1034 1009 mt 1062 1037 L
1062 1009 mt 1034 1037 L
1218  865 mt 1246  893 L
1246  865 mt 1218  893 L
1402  723 mt 1430  751 L
1430  723 mt 1402  751 L
1586  586 mt 1614  614 L
1614  586 mt 1586  614 L
1770  452 mt 1798  480 L
1798  452 mt 1770  480 L
1954  336 mt 1982  364 L
1982  336 mt 1954  364 L
2138  229 mt 2166  257 L
2166  229 mt 2138  257 L
gs 312 135 1861 1469 rc
/c9 { 0.000000 0.500000 0.000000 sr} bdef
c9
184 -63 184 -82 184 -107 184 -123 184 -134 184 -140 184 -142 184 -143 
368 -291 312 1603 10 MP stroke
gr

c9
0 j
0 -40 -40 0 0 40 40 0 292 1583 5 MP
DP
0 -40 -40 0 0 40 40 0 660 1292 5 MP
DP
0 -40 -40 0 0 40 40 0 844 1149 5 MP
DP
0 -40 -40 0 0 40 40 0 1028 1007 5 MP
DP
0 -40 -40 0 0 40 40 0 1212 867 5 MP
DP
0 -40 -40 0 0 40 40 0 1396 733 5 MP
DP
0 -40 -40 0 0 40 40 0 1580 610 5 MP
DP
0 -40 -40 0 0 40 40 0 1764 503 5 MP
DP
0 -40 -40 0 0 40 40 0 1948 421 5 MP
DP
0 -40 -40 0 0 40 40 0 2132 358 5 MP
DP
gs 312 135 1861 1469 rc
/c10 { 1.000000 0.000000 0.000000 sr} bdef
c10
184 -145 184 -145 184 -145 184 -146 184 -145 184 -145 184 -146 184 -145 
368 -291 312 1603 10 MP stroke
gr

c10
24 W
312 1603 PD
24 W
680 1312 PD
24 W
864 1167 PD
24 W
1048 1021 PD
24 W
1232 876 PD
24 W
1416 731 PD
24 W
1600 585 PD
24 W
1784 440 PD
24 W
1968 295 PD
24 W
2152 150 PD
gs 312 135 1861 1469 rc
gr

0 sg
%%IncludeResource: font Helvetica-Bold
/Helvetica-Bold /ISOLatin1Encoding 66.6667 FMSR

 973 1744 mt 
(Number of Procs) s
 126 1135 mt  -90 rotate
(SpeedUp \(Ts/Tp\)) s
90 rotate
%%IncludeResource: font Helvetica-Bold
/Helvetica-Bold /ISOLatin1Encoding 75 FMSR

 349   82 mt 
(SpeedUp - 10000 Hexahedra - P9 \(7403986 DOFs\)) s
%%IncludeResource: font Helvetica
/Helvetica /ISOLatin1Encoding 41.6667 FMSR

 306 1619 mt 
( ) s
2167  150 mt 
( ) s
2.08333 w
1 sg
0 321 912 0 0 -321 376 537 4 MP
PP
-912 0 0 321 912 0 0 -321 376 537 5 MP stroke
1.38889 w
DO
SO
2.08333 w
0 sg
 376  537 mt 1288  537 L
 376  216 mt 1288  216 L
 376  537 mt  376  216 L
1288  537 mt 1288  216 L
 376  537 mt 1288  537 L
 376  537 mt  376  216 L
 376  537 mt 1288  537 L
 376  216 mt 1288  216 L
 376  537 mt  376  216 L
1288  537 mt 1288  216 L
%%IncludeResource: font Helvetica-Bold
/Helvetica-Bold /ISOLatin1Encoding 62.5 FMSR

 539  298 mt 
(Speed Up \(BLAS IBM\)) s
gs 376 216 913 322 rc
8.33333 w
c8
125 0 401 274 2 MP stroke
gs 411 222 105 105 rc
 443  274 mt  483  274 L
 463  254 mt  463  294 L
 449  260 mt  477  288 L
 477  260 mt  449  288 L
gr

gr

8.33333 w
c8
0 sg
 539  400 mt 
(Speed Up \(BLAS Netlib\)) s
gs 376 216 913 322 rc
c9
125 0 401 376 2 MP stroke
gs 403 316 121 121 rc
0 -40 -40 0 0 40 40 0 443 356 5 MP
DP
gr

gr

c9
0 sg
 539  502 mt 
(Speed Up \(Ideal\)) s
gs 376 216 913 322 rc
c10
125 0 401 478 2 MP stroke
gr

c10
gs 378 393 171 171 rc
24 W
463 478 PD
gr

gs 376 216 913 322 rc
2.08333 w
gr

2.08333 w

end %%Color Dict

eplot
%%EndObject

epage
end

showpage

%%Trailer
%%EOF
