%!PS-Adobe-3.0 EPSF-3.0
%%Creator: (MATLAB, The Mathworks, Inc. Version 8.5.0.197613 \(R2015a\). Operating System: Linux)
%%Title: /home/betogil/hp2fem-article/Text/eps/StrongScalingOnAllMira.eps
%%CreationDate: 2016-05-24T15:44:38
%%Pages: (atend)
%%BoundingBox: 0 0 701 504
%%LanguageLevel: 2
%%EndComments
%%BeginProlog
%%BeginResource: procset (Apache XML Graphics Std ProcSet) 1.2 0
%%Version: 1.2 0
%%Copyright: (Copyright 2001-2003,2010 The Apache Software Foundation. License terms: http://www.apache.org/licenses/LICENSE-2.0)
/bd{bind def}bind def
/ld{load def}bd
/GR/grestore ld
/M/moveto ld
/LJ/setlinejoin ld
/C/curveto ld
/f/fill ld
/LW/setlinewidth ld
/GC/setgray ld
/t/show ld
/N/newpath ld
/CT/concat ld
/cp/closepath ld
/S/stroke ld
/L/lineto ld
/CC/setcmykcolor ld
/A/ashow ld
/GS/gsave ld
/RC/setrgbcolor ld
/RM/rmoveto ld
/ML/setmiterlimit ld
/re {4 2 roll M
1 index 0 rlineto
0 exch rlineto
neg 0 rlineto
cp } bd
/_ctm matrix def
/_tm matrix def
/BT { _ctm currentmatrix pop matrix _tm copy pop 0 0 moveto } bd
/ET { _ctm setmatrix } bd
/iTm { _ctm setmatrix _tm concat } bd
/Tm { _tm astore pop iTm 0 0 moveto } bd
/ux 0.0 def
/uy 0.0 def
/F {
  /Tp exch def
  /Tf exch def
  Tf findfont Tp scalefont setfont
  /cf Tf def  /cs Tp def
} bd
/ULS {currentpoint /uy exch def /ux exch def} bd
/ULE {
  /Tcx currentpoint pop def
  gsave
  newpath
  cf findfont cs scalefont dup
  /FontMatrix get 0 get /Ts exch def /FontInfo get dup
  /UnderlinePosition get Ts mul /To exch def
  /UnderlineThickness get Ts mul /Tt exch def
  ux uy To add moveto  Tcx uy To add lineto
  Tt setlinewidth stroke
  grestore
} bd
/OLE {
  /Tcx currentpoint pop def
  gsave
  newpath
  cf findfont cs scalefont dup
  /FontMatrix get 0 get /Ts exch def /FontInfo get dup
  /UnderlinePosition get Ts mul /To exch def
  /UnderlineThickness get Ts mul /Tt exch def
  ux uy To add cs add moveto Tcx uy To add cs add lineto
  Tt setlinewidth stroke
  grestore
} bd
/SOE {
  /Tcx currentpoint pop def
  gsave
  newpath
  cf findfont cs scalefont dup
  /FontMatrix get 0 get /Ts exch def /FontInfo get dup
  /UnderlinePosition get Ts mul /To exch def
  /UnderlineThickness get Ts mul /Tt exch def
  ux uy To add cs 10 mul 26 idiv add moveto Tcx uy To add cs 10 mul 26 idiv add lineto
  Tt setlinewidth stroke
  grestore
} bd
/QT {
/Y22 exch store
/X22 exch store
/Y21 exch store
/X21 exch store
currentpoint
/Y21 load 2 mul add 3 div exch
/X21 load 2 mul add 3 div exch
/X21 load 2 mul /X22 load add 3 div
/Y21 load 2 mul /Y22 load add 3 div
/X22 load /Y22 load curveto
} bd
/SSPD {
dup length /d exch dict def
{
/v exch def
/k exch def
currentpagedevice k known {
/cpdv currentpagedevice k get def
v cpdv ne {
/upd false def
/nullv v type /nulltype eq def
/nullcpdv cpdv type /nulltype eq def
nullv nullcpdv or
{
/upd true def
} {
/sametype v type cpdv type eq def
sametype {
v type /arraytype eq {
/vlen v length def
/cpdvlen cpdv length def
vlen cpdvlen eq {
0 1 vlen 1 sub {
/i exch def
/obj v i get def
/cpdobj cpdv i get def
obj cpdobj ne {
/upd true def
exit
} if
} for
} {
/upd true def
} ifelse
} {
v type /dicttype eq {
v {
/dv exch def
/dk exch def
/cpddv cpdv dk get def
dv cpddv ne {
/upd true def
exit
} if
} forall
} {
/upd true def
} ifelse
} ifelse
} if
} ifelse
upd true eq {
d k v put
} if
} if
} if
} forall
d length 0 gt {
d setpagedevice
} if
} bd
%%EndResource
%%BeginResource: procset (Apache XML Graphics EPS ProcSet) 1.0 0
%%Version: 1.0 0
%%Copyright: (Copyright 2002-2003 The Apache Software Foundation. License terms: http://www.apache.org/licenses/LICENSE-2.0)
/BeginEPSF { %def
/b4_Inc_state save def         % Save state for cleanup
/dict_count countdictstack def % Count objects on dict stack
/op_count count 1 sub def      % Count objects on operand stack
userdict begin                 % Push userdict on dict stack
/showpage { } def              % Redefine showpage, { } = null proc
0 setgray 0 setlinecap         % Prepare graphics state
1 setlinewidth 0 setlinejoin
10 setmiterlimit [ ] 0 setdash newpath
/languagelevel where           % If level not equal to 1 then
{pop languagelevel             % set strokeadjust and
1 ne                           % overprint to their defaults.
{false setstrokeadjust false setoverprint
} if
} if
} bd
/EndEPSF { %def
count op_count sub {pop} repeat            % Clean up stacks
countdictstack dict_count sub {end} repeat
b4_Inc_state restore
} bd
%%EndResource
%FOPBeginFontDict
%%IncludeResource: font Courier-Bold
%%IncludeResource: font Helvetica
%%IncludeResource: font Courier-BoldOblique
%%IncludeResource: font Courier-Oblique
%%IncludeResource: font Times-Roman
%%IncludeResource: font Helvetica-BoldOblique
%%IncludeResource: font Helvetica-Bold
%%IncludeResource: font Helvetica-Oblique
%%IncludeResource: font Times-BoldItalic
%%IncludeResource: font Courier
%%IncludeResource: font Times-Italic
%%IncludeResource: font Times-Bold
%%IncludeResource: font Symbol
%%IncludeResource: font ZapfDingbats
%FOPEndFontDict
%%BeginResource: encoding WinAnsiEncoding
/WinAnsiEncoding [
/.notdef /.notdef /.notdef /.notdef /.notdef
/.notdef /.notdef /.notdef /.notdef /.notdef
/.notdef /.notdef /.notdef /.notdef /.notdef
/.notdef /.notdef /.notdef /.notdef /.notdef
/.notdef /.notdef /.notdef /.notdef /.notdef
/.notdef /.notdef /.notdef /.notdef /.notdef
/.notdef /.notdef /space /exclam /quotedbl
/numbersign /dollar /percent /ampersand /quotesingle
/parenleft /parenright /asterisk /plus /comma
/hyphen /period /slash /zero /one
/two /three /four /five /six
/seven /eight /nine /colon /semicolon
/less /equal /greater /question /at
/A /B /C /D /E
/F /G /H /I /J
/K /L /M /N /O
/P /Q /R /S /T
/U /V /W /X /Y
/Z /bracketleft /backslash /bracketright /asciicircum
/underscore /quoteleft /a /b /c
/d /e /f /g /h
/i /j /k /l /m
/n /o /p /q /r
/s /t /u /v /w
/x /y /z /braceleft /bar
/braceright /asciitilde /bullet /Euro /bullet
/quotesinglbase /florin /quotedblbase /ellipsis /dagger
/daggerdbl /circumflex /perthousand /Scaron /guilsinglleft
/OE /bullet /Zcaron /bullet /bullet
/quoteleft /quoteright /quotedblleft /quotedblright /bullet
/endash /emdash /asciitilde /trademark /scaron
/guilsinglright /oe /bullet /zcaron /Ydieresis
/space /exclamdown /cent /sterling /currency
/yen /brokenbar /section /dieresis /copyright
/ordfeminine /guillemotleft /logicalnot /sfthyphen /registered
/macron /degree /plusminus /twosuperior /threesuperior
/acute /mu /paragraph /middot /cedilla
/onesuperior /ordmasculine /guillemotright /onequarter /onehalf
/threequarters /questiondown /Agrave /Aacute /Acircumflex
/Atilde /Adieresis /Aring /AE /Ccedilla
/Egrave /Eacute /Ecircumflex /Edieresis /Igrave
/Iacute /Icircumflex /Idieresis /Eth /Ntilde
/Ograve /Oacute /Ocircumflex /Otilde /Odieresis
/multiply /Oslash /Ugrave /Uacute /Ucircumflex
/Udieresis /Yacute /Thorn /germandbls /agrave
/aacute /acircumflex /atilde /adieresis /aring
/ae /ccedilla /egrave /eacute /ecircumflex
/edieresis /igrave /iacute /icircumflex /idieresis
/eth /ntilde /ograve /oacute /ocircumflex
/otilde /odieresis /divide /oslash /ugrave
/uacute /ucircumflex /udieresis /yacute /thorn
/ydieresis
] def
%%EndResource
%FOPBeginFontReencode
/Courier-Bold findfont
dup length dict begin
  {1 index /FID ne {def} {pop pop} ifelse} forall
  /Encoding WinAnsiEncoding def
  currentdict
end
/Courier-Bold exch definefont pop
/Helvetica findfont
dup length dict begin
  {1 index /FID ne {def} {pop pop} ifelse} forall
  /Encoding WinAnsiEncoding def
  currentdict
end
/Helvetica exch definefont pop
/Courier-BoldOblique findfont
dup length dict begin
  {1 index /FID ne {def} {pop pop} ifelse} forall
  /Encoding WinAnsiEncoding def
  currentdict
end
/Courier-BoldOblique exch definefont pop
/Courier-Oblique findfont
dup length dict begin
  {1 index /FID ne {def} {pop pop} ifelse} forall
  /Encoding WinAnsiEncoding def
  currentdict
end
/Courier-Oblique exch definefont pop
/Times-Roman findfont
dup length dict begin
  {1 index /FID ne {def} {pop pop} ifelse} forall
  /Encoding WinAnsiEncoding def
  currentdict
end
/Times-Roman exch definefont pop
/Helvetica-BoldOblique findfont
dup length dict begin
  {1 index /FID ne {def} {pop pop} ifelse} forall
  /Encoding WinAnsiEncoding def
  currentdict
end
/Helvetica-BoldOblique exch definefont pop
/Helvetica-Bold findfont
dup length dict begin
  {1 index /FID ne {def} {pop pop} ifelse} forall
  /Encoding WinAnsiEncoding def
  currentdict
end
/Helvetica-Bold exch definefont pop
/Helvetica-Oblique findfont
dup length dict begin
  {1 index /FID ne {def} {pop pop} ifelse} forall
  /Encoding WinAnsiEncoding def
  currentdict
end
/Helvetica-Oblique exch definefont pop
/Times-BoldItalic findfont
dup length dict begin
  {1 index /FID ne {def} {pop pop} ifelse} forall
  /Encoding WinAnsiEncoding def
  currentdict
end
/Times-BoldItalic exch definefont pop
/Courier findfont
dup length dict begin
  {1 index /FID ne {def} {pop pop} ifelse} forall
  /Encoding WinAnsiEncoding def
  currentdict
end
/Courier exch definefont pop
/Times-Italic findfont
dup length dict begin
  {1 index /FID ne {def} {pop pop} ifelse} forall
  /Encoding WinAnsiEncoding def
  currentdict
end
/Times-Italic exch definefont pop
/Times-Bold findfont
dup length dict begin
  {1 index /FID ne {def} {pop pop} ifelse} forall
  /Encoding WinAnsiEncoding def
  currentdict
end
/Times-Bold exch definefont pop
%FOPEndFontReencode
%%EndProlog
%%Page: 1 1
%%PageBoundingBox: 0 0 701 504
%%BeginPageSetup
[1 0 0 -1 0 504] CT
%%EndPageSetup
GS
[0.75 0 0 0.75 0 0] CT
1 GC
N
0 0 935 672 re
f
GR
GS
[0.75 0 0 0.75 0 0] CT
1 GC
N
0 0 935 672 re
f
GR
GS
[0.75 0 0 0.75 0 0] CT
1 GC
N
139 570 M
846 570 L
846 19 L
139 19 L
cp
f
GR
GS
[0.75 0 0 0.75 0 0] CT
0.873 GC
2 setlinecap
10.0 ML
N
228.285 570 M
228.285 19 L
S
GR
GS
[0.75 0 0 0.75 0 0] CT
0.873 GC
2 setlinecap
10.0 ML
N
281.492 570 M
281.492 19 L
S
GR
GS
[0.75 0 0 0.75 0 0] CT
0.873 GC
2 setlinecap
10.0 ML
N
334.699 570 M
334.699 19 L
S
GR
GS
[0.75 0 0 0.75 0 0] CT
0.873 GC
2 setlinecap
10.0 ML
N
387.906 570 M
387.906 19 L
S
GR
GS
[0.75 0 0 0.75 0 0] CT
0.873 GC
2 setlinecap
10.0 ML
N
441.113 570 M
441.113 19 L
S
GR
GS
[0.75 0 0 0.75 0 0] CT
0.873 GC
2 setlinecap
10.0 ML
N
494.321 570 M
494.321 19 L
S
GR
GS
[0.75 0 0 0.75 0 0] CT
0.873 GC
2 setlinecap
10.0 ML
N
547.528 570 M
547.528 19 L
S
GR
GS
[0.75 0 0 0.75 0 0] CT
0.873 GC
2 setlinecap
10.0 ML
N
600.735 570 M
600.735 19 L
S
GR
GS
[0.75 0 0 0.75 0 0] CT
0.873 GC
2 setlinecap
10.0 ML
N
653.942 570 M
653.942 19 L
S
GR
GS
[0.75 0 0 0.75 0 0] CT
0.873 GC
2 setlinecap
10.0 ML
N
707.149 570 M
707.149 19 L
S
GR
GS
[0.75 0 0 0.75 0 0] CT
0.873 GC
2 setlinecap
10.0 ML
N
760.356 570 M
760.356 19 L
S
GR
GS
[0.75 0 0 0.75 0 0] CT
0.873 GC
2 setlinecap
10.0 ML
N
846 500.416 M
139 500.416 L
S
GR
GS
[0.75 0 0 0.75 0 0] CT
0.873 GC
2 setlinecap
10.0 ML
N
846 458.949 M
139 458.949 L
S
GR
GS
[0.75 0 0 0.75 0 0] CT
0.873 GC
2 setlinecap
10.0 ML
N
846 417.482 M
139 417.482 L
S
GR
GS
[0.75 0 0 0.75 0 0] CT
0.873 GC
2 setlinecap
10.0 ML
N
846 376.015 M
139 376.015 L
S
GR
GS
[0.75 0 0 0.75 0 0] CT
0.873 GC
2 setlinecap
10.0 ML
N
846 334.548 M
139 334.548 L
S
GR
GS
[0.75 0 0 0.75 0 0] CT
0.873 GC
2 setlinecap
10.0 ML
N
846 293.081 M
139 293.081 L
S
GR
GS
[0.75 0 0 0.75 0 0] CT
0.873 GC
2 setlinecap
10.0 ML
N
846 251.614 M
139 251.614 L
S
GR
GS
[0.75 0 0 0.75 0 0] CT
0.873 GC
2 setlinecap
10.0 ML
N
846 210.147 M
139 210.147 L
S
GR
GS
[0.75 0 0 0.75 0 0] CT
0.873 GC
2 setlinecap
10.0 ML
N
846 168.681 M
139 168.681 L
S
GR
GS
[0.75 0 0 0.75 0 0] CT
0.873 GC
2 setlinecap
10.0 ML
N
846 127.214 M
139 127.214 L
S
GR
GS
[0.75 0 0 0.75 0 0] CT
0.873 GC
2 setlinecap
10.0 ML
N
846 85.747 M
139 85.747 L
S
GR
GS
[0.75 0 0 0.75 363.37525 392.85544] CT
0.149 GC
/Times 29 F
GS
[1 0 0 1 0 0] CT
-159.5 27 moveto 
1 -1 scale
(Number of Processors) t 
GR
GR
GS
[0.75 0 0 0.75 0 0] CT
0.149 GC
2 setlinecap
10.0 ML
N
139 570 M
846 570 L
S
GR
GS
[0.75 0 0 0.75 0 0] CT
0.149 GC
2 setlinecap
10.0 ML
N
139 19 M
846 19 L
S
GR
GS
[0.75 0 0 0.75 0 0] CT
0.149 GC
2 setlinecap
10.0 ML
N
228.285 570 M
228.285 562.93 L
S
GR
GS
[0.75 0 0 0.75 0 0] CT
0.149 GC
2 setlinecap
10.0 ML
N
281.492 570 M
281.492 562.93 L
S
GR
GS
[0.75 0 0 0.75 0 0] CT
0.149 GC
2 setlinecap
10.0 ML
N
334.699 570 M
334.699 562.93 L
S
GR
GS
[0.75 0 0 0.75 0 0] CT
0.149 GC
2 setlinecap
10.0 ML
N
387.906 570 M
387.906 562.93 L
S
GR
GS
[0.75 0 0 0.75 0 0] CT
0.149 GC
2 setlinecap
10.0 ML
N
441.113 570 M
441.113 562.93 L
S
GR
GS
[0.75 0 0 0.75 0 0] CT
0.149 GC
2 setlinecap
10.0 ML
N
494.321 570 M
494.321 562.93 L
S
GR
GS
[0.75 0 0 0.75 0 0] CT
0.149 GC
2 setlinecap
10.0 ML
N
547.528 570 M
547.528 562.93 L
S
GR
GS
[0.75 0 0 0.75 0 0] CT
0.149 GC
2 setlinecap
10.0 ML
N
600.735 570 M
600.735 562.93 L
S
GR
GS
[0.75 0 0 0.75 0 0] CT
0.149 GC
2 setlinecap
10.0 ML
N
653.942 570 M
653.942 562.93 L
S
GR
GS
[0.75 0 0 0.75 0 0] CT
0.149 GC
2 setlinecap
10.0 ML
N
707.149 570 M
707.149 562.93 L
S
GR
GS
[0.75 0 0 0.75 0 0] CT
0.149 GC
2 setlinecap
10.0 ML
N
760.356 570 M
760.356 562.93 L
S
GR
GS
[0.75 0 0 0.75 0 0] CT
0.149 GC
2 setlinecap
10.0 ML
N
228.285 19 M
228.285 26.07 L
S
GR
GS
[0.75 0 0 0.75 0 0] CT
0.149 GC
2 setlinecap
10.0 ML
N
281.492 19 M
281.492 26.07 L
S
GR
GS
[0.75 0 0 0.75 0 0] CT
0.149 GC
2 setlinecap
10.0 ML
N
334.699 19 M
334.699 26.07 L
S
GR
GS
[0.75 0 0 0.75 0 0] CT
0.149 GC
2 setlinecap
10.0 ML
N
387.906 19 M
387.906 26.07 L
S
GR
GS
[0.75 0 0 0.75 0 0] CT
0.149 GC
2 setlinecap
10.0 ML
N
441.113 19 M
441.113 26.07 L
S
GR
GS
[0.75 0 0 0.75 0 0] CT
0.149 GC
2 setlinecap
10.0 ML
N
494.321 19 M
494.321 26.07 L
S
GR
GS
[0.75 0 0 0.75 0 0] CT
0.149 GC
2 setlinecap
10.0 ML
N
547.528 19 M
547.528 26.07 L
S
GR
GS
[0.75 0 0 0.75 0 0] CT
0.149 GC
2 setlinecap
10.0 ML
N
600.735 19 M
600.735 26.07 L
S
GR
GS
[0.75 0 0 0.75 0 0] CT
0.149 GC
2 setlinecap
10.0 ML
N
653.942 19 M
653.942 26.07 L
S
GR
GS
[0.75 0 0 0.75 0 0] CT
0.149 GC
2 setlinecap
10.0 ML
N
707.149 19 M
707.149 26.07 L
S
GR
GS
[0.75 0 0 0.75 0 0] CT
0.149 GC
2 setlinecap
10.0 ML
N
760.356 19 M
760.356 26.07 L
S
GR
GS
[0 -0.75 0.75 0 171.21395 433.89999] CT
0.149 GC
/Times 29 F
GS
[1 0 0 1 0 0] CT
-37 10 moveto 
1 -1 scale
(32) t 
GR
GR
GS
[0 -0.75 0.75 0 211.11923 433.89999] CT
0.149 GC
/Times 29 F
GS
[1 0 0 1 0 0] CT
-37 10 moveto 
1 -1 scale
(64) t 
GR
GR
GS
[0 -0.75 0.75 0 251.02451 433.89999] CT
0.149 GC
/Times 29 F
GS
[1 0 0 1 0 0] CT
-56 10 moveto 
1 -1 scale
(128) t 
GR
GR
GS
[0 -0.75 0.75 0 290.9298 433.89999] CT
0.149 GC
/Times 29 F
GS
[1 0 0 1 0 0] CT
-56 10 moveto 
1 -1 scale
(256) t 
GR
GR
GS
[0 -0.75 0.75 0 330.8351 433.89999] CT
0.149 GC
/Times 29 F
GS
[1 0 0 1 0 0] CT
-56 10 moveto 
1 -1 scale
(512) t 
GR
GR
GS
[0 -0.75 0.75 0 370.74039 433.89999] CT
0.149 GC
/Times 29 F
GS
[1 0 0 1 0 0] CT
-74 10 moveto 
1 -1 scale
(1024) t 
GR
GR
GS
[0 -0.75 0.75 0 410.64565 433.89999] CT
0.149 GC
/Times 29 F
GS
[1 0 0 1 0 0] CT
-74 10 moveto 
1 -1 scale
(2048) t 
GR
GR
GS
[0 -0.75 0.75 0 450.55096 433.89999] CT
0.149 GC
/Times 29 F
GS
[1 0 0 1 0 0] CT
-74 10 moveto 
1 -1 scale
(4096) t 
GR
GR
GS
[0 -0.75 0.75 0 490.45624 433.89999] CT
0.149 GC
/Times 29 F
GS
[1 0 0 1 0 0] CT
-74 10 moveto 
1 -1 scale
(8192) t 
GR
GR
GS
[0 -0.75 0.75 0 530.36151 433.89999] CT
0.149 GC
/Times 29 F
GS
[1 0 0 1 0 0] CT
-93 10 moveto 
1 -1 scale
(16384) t 
GR
GR
GS
[0 -0.75 0.75 0 570.26683 433.89999] CT
0.149 GC
/Times 29 F
GS
[1 0 0 1 0 0] CT
-93 10 moveto 
1 -1 scale
(32768) t 
GR
GR
GS
[0 -0.75 0.75 0 25.1 220.87479] CT
0 0 1 RC
/Times 29 F
GS
[1 0 0 1 0 0] CT
-65.5 -7 moveto 
1 -1 scale
(SpeedUp) t 
GR
GR
GS
[0.75 0 0 0.75 0 0] CT
0 0 1 RC
2 setlinecap
10.0 ML
N
139 570 M
139 19 L
S
GR
GS
[0.75 0 0 0.75 0 0] CT
0 0 1 RC
2 setlinecap
10.0 ML
N
846 570 M
846 19 L
S
GR
GS
[0.75 0 0 0.75 0 0] CT
0 0 1 RC
2 setlinecap
10.0 ML
N
139 500.416 M
146.07 500.416 L
S
GR
GS
[0.75 0 0 0.75 0 0] CT
0 0 1 RC
2 setlinecap
10.0 ML
N
139 458.949 M
146.07 458.949 L
S
GR
GS
[0.75 0 0 0.75 0 0] CT
0 0 1 RC
2 setlinecap
10.0 ML
N
139 417.482 M
146.07 417.482 L
S
GR
GS
[0.75 0 0 0.75 0 0] CT
0 0 1 RC
2 setlinecap
10.0 ML
N
139 376.015 M
146.07 376.015 L
S
GR
GS
[0.75 0 0 0.75 0 0] CT
0 0 1 RC
2 setlinecap
10.0 ML
N
139 334.548 M
146.07 334.548 L
S
GR
GS
[0.75 0 0 0.75 0 0] CT
0 0 1 RC
2 setlinecap
10.0 ML
N
139 293.081 M
146.07 293.081 L
S
GR
GS
[0.75 0 0 0.75 0 0] CT
0 0 1 RC
2 setlinecap
10.0 ML
N
139 251.614 M
146.07 251.614 L
S
GR
GS
[0.75 0 0 0.75 0 0] CT
0 0 1 RC
2 setlinecap
10.0 ML
N
139 210.147 M
146.07 210.147 L
S
GR
GS
[0.75 0 0 0.75 0 0] CT
0 0 1 RC
2 setlinecap
10.0 ML
N
139 168.681 M
146.07 168.681 L
S
GR
GS
[0.75 0 0 0.75 0 0] CT
0 0 1 RC
2 setlinecap
10.0 ML
N
139 127.214 M
146.07 127.214 L
S
GR
GS
[0.75 0 0 0.75 0 0] CT
0 0 1 RC
2 setlinecap
10.0 ML
N
139 85.747 M
146.07 85.747 L
S
GR
GS
[0.75 0 0 0.75 0 0] CT
0 0 1 RC
2 setlinecap
10.0 ML
N
846 500.416 M
838.93 500.416 L
S
GR
GS
[0.75 0 0 0.75 0 0] CT
0 0 1 RC
2 setlinecap
10.0 ML
N
846 458.949 M
838.93 458.949 L
S
GR
GS
[0.75 0 0 0.75 0 0] CT
0 0 1 RC
2 setlinecap
10.0 ML
N
846 417.482 M
838.93 417.482 L
S
GR
GS
[0.75 0 0 0.75 0 0] CT
0 0 1 RC
2 setlinecap
10.0 ML
N
846 376.015 M
838.93 376.015 L
S
GR
GS
[0.75 0 0 0.75 0 0] CT
0 0 1 RC
2 setlinecap
10.0 ML
N
846 334.548 M
838.93 334.548 L
S
GR
GS
[0.75 0 0 0.75 0 0] CT
0 0 1 RC
2 setlinecap
10.0 ML
N
846 293.081 M
838.93 293.081 L
S
GR
GS
[0.75 0 0 0.75 0 0] CT
0 0 1 RC
2 setlinecap
10.0 ML
N
846 251.614 M
838.93 251.614 L
S
GR
GS
[0.75 0 0 0.75 0 0] CT
0 0 1 RC
2 setlinecap
10.0 ML
N
846 210.147 M
838.93 210.147 L
S
GR
GS
[0.75 0 0 0.75 0 0] CT
0 0 1 RC
2 setlinecap
10.0 ML
N
846 168.681 M
838.93 168.681 L
S
GR
GS
[0.75 0 0 0.75 0 0] CT
0 0 1 RC
2 setlinecap
10.0 ML
N
846 127.214 M
838.93 127.214 L
S
GR
GS
[0.75 0 0 0.75 0 0] CT
0 0 1 RC
2 setlinecap
10.0 ML
N
846 85.747 M
838.93 85.747 L
S
GR
GS
[0.75 0 0 0.75 97.84999 375.31169] CT
0 0 1 RC
/Times 29 F
GS
[1 0 0 1 0 0] CT
-37 10 moveto 
1 -1 scale
(32) t 
GR
GR
GS
[0.75 0 0 0.75 97.84999 344.21152] CT
0 0 1 RC
/Times 29 F
GS
[1 0 0 1 0 0] CT
-37 10 moveto 
1 -1 scale
(64) t 
GR
GR
GS
[0.75 0 0 0.75 97.84999 313.11138] CT
0 0 1 RC
/Times 29 F
GS
[1 0 0 1 0 0] CT
-56 10 moveto 
1 -1 scale
(128) t 
GR
GR
GS
[0.75 0 0 0.75 97.84999 282.01122] CT
0 0 1 RC
/Times 29 F
GS
[1 0 0 1 0 0] CT
-56 10 moveto 
1 -1 scale
(256) t 
GR
GR
GS
[0.75 0 0 0.75 97.84999 250.91105] CT
0 0 1 RC
/Times 29 F
GS
[1 0 0 1 0 0] CT
-56 10 moveto 
1 -1 scale
(512) t 
GR
GR
GS
[0.75 0 0 0.75 97.84999 219.81088] CT
0 0 1 RC
/Times 29 F
GS
[1 0 0 1 0 0] CT
-74 10 moveto 
1 -1 scale
(1024) t 
GR
GR
GS
[0.75 0 0 0.75 97.84999 188.71074] CT
0 0 1 RC
/Times 29 F
GS
[1 0 0 1 0 0] CT
-74 10 moveto 
1 -1 scale
(2048) t 
GR
GR
GS
[0.75 0 0 0.75 97.84999 157.61056] CT
0 0 1 RC
/Times 29 F
GS
[1 0 0 1 0 0] CT
-74 10 moveto 
1 -1 scale
(4096) t 
GR
GR
GS
[0.75 0 0 0.75 97.84999 126.51041] CT
0 0 1 RC
/Times 29 F
GS
[1 0 0 1 0 0] CT
-74 10 moveto 
1 -1 scale
(8192) t 
GR
GR
GS
[0.75 0 0 0.75 97.84999 95.41025] CT
0 0 1 RC
/Times 29 F
GS
[1 0 0 1 0 0] CT
-93 10 moveto 
1 -1 scale
(16384) t 
GR
GR
GS
[0.75 0 0 0.75 97.84999 64.31007] CT
0 0 1 RC
/Times 29 F
GS
[1 0 0 1 0 0] CT
-93 10 moveto 
1 -1 scale
(32768) t 
GR
GR
GS
[0.75 0 0 0.75 0 0] CT
0.306 0.396 0.58 RC
2 setlinecap
10.0 ML
4 LW
N
228.285 502.398 M
281.492 459.973 L
334.699 418.561 L
387.906 377.172 L
441.113 336.209 L
494.321 295.024 L
547.528 254 L
600.735 213.359 L
653.942 173.308 L
707.149 134.676 L
760.356 98.593 L
S
GR
GS
[0.75 0 0 0.75 0 0] CT
0.204 0.302 0.494 RC
N
222.26 508.74 M
222.26 496.26 L
234.74 496.26 L
234.74 508.74 L
cp
f
GR
GS
[0.75 0 0 0.75 0 0] CT
0.306 0.396 0.58 RC
2 setlinecap
10.0 ML
4 LW
N
222.26 508.74 M
222.26 496.26 L
234.74 496.26 L
234.74 508.74 L
222.26 508.74 L
S
GR
GS
[0.75 0 0 0.75 0 0] CT
0.204 0.302 0.494 RC
N
275.26 465.74 M
275.26 453.26 L
287.74 453.26 L
287.74 465.74 L
cp
f
GR
GS
[0.75 0 0 0.75 0 0] CT
0.306 0.396 0.58 RC
2 setlinecap
10.0 ML
4 LW
N
275.26 465.74 M
275.26 453.26 L
287.74 453.26 L
287.74 465.74 L
275.26 465.74 L
S
GR
GS
[0.75 0 0 0.75 0 0] CT
0.204 0.302 0.494 RC
N
328.26 424.74 M
328.26 412.26 L
340.74 412.26 L
340.74 424.74 L
cp
f
GR
GS
[0.75 0 0 0.75 0 0] CT
0.306 0.396 0.58 RC
2 setlinecap
10.0 ML
4 LW
N
328.26 424.74 M
328.26 412.26 L
340.74 412.26 L
340.74 424.74 L
328.26 424.74 L
S
GR
GS
[0.75 0 0 0.75 0 0] CT
0.204 0.302 0.494 RC
N
381.26 383.74 M
381.26 371.26 L
393.74 371.26 L
393.74 383.74 L
cp
f
GR
GS
[0.75 0 0 0.75 0 0] CT
0.306 0.396 0.58 RC
2 setlinecap
10.0 ML
4 LW
N
381.26 383.74 M
381.26 371.26 L
393.74 371.26 L
393.74 383.74 L
381.26 383.74 L
S
GR
GS
[0.75 0 0 0.75 0 0] CT
0.204 0.302 0.494 RC
N
435.26 342.74 M
435.26 330.26 L
447.74 330.26 L
447.74 342.74 L
cp
f
GR
GS
[0.75 0 0 0.75 0 0] CT
0.306 0.396 0.58 RC
2 setlinecap
10.0 ML
4 LW
N
435.26 342.74 M
435.26 330.26 L
447.74 330.26 L
447.74 342.74 L
435.26 342.74 L
S
GR
GS
[0.75 0 0 0.75 0 0] CT
0.204 0.302 0.494 RC
N
488.26 301.74 M
488.26 289.26 L
500.74 289.26 L
500.74 301.74 L
cp
f
GR
GS
[0.75 0 0 0.75 0 0] CT
0.306 0.396 0.58 RC
2 setlinecap
10.0 ML
4 LW
N
488.26 301.74 M
488.26 289.26 L
500.74 289.26 L
500.74 301.74 L
488.26 301.74 L
S
GR
GS
[0.75 0 0 0.75 0 0] CT
0.204 0.302 0.494 RC
N
541.26 259.74 M
541.26 247.26 L
553.74 247.26 L
553.74 259.74 L
cp
f
GR
GS
[0.75 0 0 0.75 0 0] CT
0.306 0.396 0.58 RC
2 setlinecap
10.0 ML
4 LW
N
541.26 259.74 M
541.26 247.26 L
553.74 247.26 L
553.74 259.74 L
541.26 259.74 L
S
GR
GS
[0.75 0 0 0.75 0 0] CT
0.204 0.302 0.494 RC
N
594.26 219.74 M
594.26 207.26 L
606.74 207.26 L
606.74 219.74 L
cp
f
GR
GS
[0.75 0 0 0.75 0 0] CT
0.306 0.396 0.58 RC
2 setlinecap
10.0 ML
4 LW
N
594.26 219.74 M
594.26 207.26 L
606.74 207.26 L
606.74 219.74 L
594.26 219.74 L
S
GR
GS
[0.75 0 0 0.75 0 0] CT
0.204 0.302 0.494 RC
N
647.26 179.74 M
647.26 167.26 L
659.74 167.26 L
659.74 179.74 L
cp
f
GR
GS
[0.75 0 0 0.75 0 0] CT
0.306 0.396 0.58 RC
2 setlinecap
10.0 ML
4 LW
N
647.26 179.74 M
647.26 167.26 L
659.74 167.26 L
659.74 179.74 L
647.26 179.74 L
S
GR
GS
[0.75 0 0 0.75 0 0] CT
0.204 0.302 0.494 RC
N
701.26 140.74 M
701.26 128.26 L
713.74 128.26 L
713.74 140.74 L
cp
f
GR
GS
[0.75 0 0 0.75 0 0] CT
0.306 0.396 0.58 RC
2 setlinecap
10.0 ML
4 LW
N
701.26 140.74 M
701.26 128.26 L
713.74 128.26 L
713.74 140.74 L
701.26 140.74 L
S
GR
GS
[0.75 0 0 0.75 0 0] CT
0.204 0.302 0.494 RC
N
754.26 104.74 M
754.26 92.26 L
766.74 92.26 L
766.74 104.74 L
cp
f
GR
GS
[0.75 0 0 0.75 0 0] CT
0.306 0.396 0.58 RC
2 setlinecap
10.0 ML
4 LW
N
754.26 104.74 M
754.26 92.26 L
766.74 92.26 L
766.74 104.74 L
754.26 104.74 L
S
GR
GS
[0.75 0 0 0.75 0 0] CT
0.851 0.926 0.851 RC
2 setlinecap
10.0 ML
N
846 570 M
126 570 L
S
GR
GS
[0.75 0 0 0.75 0 0] CT
0.851 0.926 0.851 RC
2 setlinecap
10.0 ML
N
846 515.3 M
126 515.3 L
S
GR
GS
[0.75 0 0 0.75 0 0] CT
0.851 0.926 0.851 RC
2 setlinecap
10.0 ML
N
846 460.6 M
126 460.6 L
S
GR
GS
[0.75 0 0 0.75 0 0] CT
0.851 0.926 0.851 RC
2 setlinecap
10.0 ML
N
846 405.9 M
126 405.9 L
S
GR
GS
[0.75 0 0 0.75 0 0] CT
0.851 0.926 0.851 RC
2 setlinecap
10.0 ML
N
846 351.2 M
126 351.2 L
S
GR
GS
[0.75 0 0 0.75 0 0] CT
0.851 0.926 0.851 RC
2 setlinecap
10.0 ML
N
846 296.5 M
126 296.5 L
S
GR
GS
[0.75 0 0 0.75 0 0] CT
0.851 0.926 0.851 RC
2 setlinecap
10.0 ML
N
846 241.8 M
126 241.8 L
S
GR
GS
[0.75 0 0 0.75 0 0] CT
0.851 0.926 0.851 RC
2 setlinecap
10.0 ML
N
846 187.1 M
126 187.1 L
S
GR
GS
[0.75 0 0 0.75 0 0] CT
0.851 0.926 0.851 RC
2 setlinecap
10.0 ML
N
846 132.4 M
126 132.4 L
S
GR
GS
[0.75 0 0 0.75 0 0] CT
0.851 0.926 0.851 RC
2 setlinecap
10.0 ML
N
846 77.7 M
126 77.7 L
S
GR
GS
[0.75 0 0 0.75 0 0] CT
0.851 0.926 0.851 RC
2 setlinecap
10.0 ML
N
846 23 M
126 23 L
S
GR
GS
[0.75 0 0 0.75 0 0] CT
0.149 GC
2 setlinecap
10.0 ML
N
126 570 M
846 570 L
S
GR
GS
[0 -0.75 0.75 0 674.65004 223.87479] CT
0 0.502 0 RC
/Times 29 F
GS
[1 0 0 1 0 0] CT
-70.5 27.344 moveto 
1 -1 scale
(Efficiency) t 
GR
GR
GS
[0.75 0 0 0.75 0 0] CT
0 0.502 0 RC
2 setlinecap
10.0 ML
N
846 570 M
846 23 L
S
GR
GS
[0.75 0 0 0.75 0 0] CT
0 0.502 0 RC
2 setlinecap
10.0 ML
N
846 570 M
838.8 570 L
S
GR
GS
[0.75 0 0 0.75 0 0] CT
0 0.502 0 RC
2 setlinecap
10.0 ML
N
846 515.3 M
838.8 515.3 L
S
GR
GS
[0.75 0 0 0.75 0 0] CT
0 0.502 0 RC
2 setlinecap
10.0 ML
N
846 460.6 M
838.8 460.6 L
S
GR
GS
[0.75 0 0 0.75 0 0] CT
0 0.502 0 RC
2 setlinecap
10.0 ML
N
846 405.9 M
838.8 405.9 L
S
GR
GS
[0.75 0 0 0.75 0 0] CT
0 0.502 0 RC
2 setlinecap
10.0 ML
N
846 351.2 M
838.8 351.2 L
S
GR
GS
[0.75 0 0 0.75 0 0] CT
0 0.502 0 RC
2 setlinecap
10.0 ML
N
846 296.5 M
838.8 296.5 L
S
GR
GS
[0.75 0 0 0.75 0 0] CT
0 0.502 0 RC
2 setlinecap
10.0 ML
N
846 241.8 M
838.8 241.8 L
S
GR
GS
[0.75 0 0 0.75 0 0] CT
0 0.502 0 RC
2 setlinecap
10.0 ML
N
846 187.1 M
838.8 187.1 L
S
GR
GS
[0.75 0 0 0.75 0 0] CT
0 0.502 0 RC
2 setlinecap
10.0 ML
N
846 132.4 M
838.8 132.4 L
S
GR
GS
[0.75 0 0 0.75 0 0] CT
0 0.502 0 RC
2 setlinecap
10.0 ML
N
846 77.7 M
838.8 77.7 L
S
GR
GS
[0.75 0 0 0.75 0 0] CT
0 0.502 0 RC
2 setlinecap
10.0 ML
N
846 23 M
838.8 23 L
S
GR
GS
[0.75 0 0 0.75 640.90004 427.5] CT
0 0.502 0 RC
/Times 29 F
GS
[1 0 0 1 0 0] CT
0 10 moveto 
1 -1 scale
(0) t 
GR
GR
GS
[0.75 0 0 0.75 640.90004 386.47499] CT
0 0.502 0 RC
/Times 29 F
GS
[1 0 0 1 0 0] CT
0 10 moveto 
1 -1 scale
(0.1) t 
GR
GR
GS
[0.75 0 0 0.75 640.90004 345.45] CT
0 0.502 0 RC
/Times 29 F
GS
[1 0 0 1 0 0] CT
0 10 moveto 
1 -1 scale
(0.2) t 
GR
GR
GS
[0.75 0 0 0.75 640.90004 304.425] CT
0 0.502 0 RC
/Times 29 F
GS
[1 0 0 1 0 0] CT
0 10 moveto 
1 -1 scale
(0.3) t 
GR
GR
GS
[0.75 0 0 0.75 640.90004 263.39999] CT
0 0.502 0 RC
/Times 29 F
GS
[1 0 0 1 0 0] CT
0 10 moveto 
1 -1 scale
(0.4) t 
GR
GR
GS
[0.75 0 0 0.75 640.90004 222.375] CT
0 0.502 0 RC
/Times 29 F
GS
[1 0 0 1 0 0] CT
0 10 moveto 
1 -1 scale
(0.5) t 
GR
GR
GS
[0.75 0 0 0.75 640.90004 181.34999] CT
0 0.502 0 RC
/Times 29 F
GS
[1 0 0 1 0 0] CT
0 10 moveto 
1 -1 scale
(0.6) t 
GR
GR
GS
[0.75 0 0 0.75 640.90004 140.325] CT
0 0.502 0 RC
/Times 29 F
GS
[1 0 0 1 0 0] CT
0 10 moveto 
1 -1 scale
(0.7) t 
GR
GR
GS
[0.75 0 0 0.75 640.90004 99.3] CT
0 0.502 0 RC
/Times 29 F
GS
[1 0 0 1 0 0] CT
0 10 moveto 
1 -1 scale
(0.8) t 
GR
GR
GS
[0.75 0 0 0.75 640.90004 58.27501] CT
0 0.502 0 RC
/Times 29 F
GS
[1 0 0 1 0 0] CT
0 10 moveto 
1 -1 scale
(0.9) t 
GR
GR
GS
[0.75 0 0 0.75 640.90004 17.25] CT
0 0.502 0 RC
/Times 29 F
GS
[1 0 0 1 0 0] CT
0 10 moveto 
1 -1 scale
(1) t 
GR
GR
GS
[0.75 0 0 0.75 0 0] CT
0.165 0.384 0.275 RC
2 setlinecap
10.0 ML
4 LW
N
216.927 40.832 M
271.112 32.289 L
325.298 32.782 L
379.483 33.475 L
433.669 37.979 L
487.854 40.475 L
542.039 44.384 L
596.225 51.592 L
650.41 63.717 L
704.596 87.148 L
758.781 128.701 L
S
GR
GS
[0.75 0 0 0.75 0 0] CT
0.165 0.384 0.275 RC
N
223.833 40.5 M
222.851 36.833 L
220.167 34.149 L
216.5 33.167 L
212.833 34.149 L
210.149 36.833 L
209.167 40.5 L
210.149 44.167 L
212.833 46.851 L
216.5 47.833 L
220.167 46.851 L
222.851 44.167 L
223.833 40.5 L
cp
f
GR
GS
[0.75 0 0 0.75 0 0] CT
0.165 0.384 0.275 RC
2 setlinecap
10.0 ML
4 LW
N
223.833 40.5 M
223.107 37.318 L
221.072 34.767 L
218.132 33.351 L
214.868 33.351 L
211.928 34.767 L
209.893 37.318 L
209.167 40.5 L
209.893 43.682 L
211.928 46.233 L
214.868 47.649 L
218.132 47.649 L
221.072 46.233 L
223.107 43.682 L
223.833 40.5 L
S
GR
GS
[0.75 0 0 0.75 0 0] CT
0.165 0.384 0.275 RC
N
278.833 32.5 M
277.851 28.833 L
275.167 26.149 L
271.5 25.167 L
267.833 26.149 L
265.149 28.833 L
264.167 32.5 L
265.149 36.167 L
267.833 38.851 L
271.5 39.833 L
275.167 38.851 L
277.851 36.167 L
278.833 32.5 L
cp
f
GR
GS
[0.75 0 0 0.75 0 0] CT
0.165 0.384 0.275 RC
2 setlinecap
10.0 ML
4 LW
N
278.833 32.5 M
278.107 29.318 L
276.072 26.767 L
273.132 25.351 L
269.868 25.351 L
266.928 26.767 L
264.893 29.318 L
264.167 32.5 L
264.893 35.682 L
266.928 38.233 L
269.868 39.649 L
273.132 39.649 L
276.072 38.233 L
278.107 35.682 L
278.833 32.5 L
S
GR
GS
[0.75 0 0 0.75 0 0] CT
0.165 0.384 0.275 RC
N
332.833 32.5 M
331.851 28.833 L
329.167 26.149 L
325.5 25.167 L
321.833 26.149 L
319.149 28.833 L
318.167 32.5 L
319.149 36.167 L
321.833 38.851 L
325.5 39.833 L
329.167 38.851 L
331.851 36.167 L
332.833 32.5 L
cp
f
GR
GS
[0.75 0 0 0.75 0 0] CT
0.165 0.384 0.275 RC
2 setlinecap
10.0 ML
4 LW
N
332.833 32.5 M
332.107 29.318 L
330.072 26.767 L
327.132 25.351 L
323.868 25.351 L
320.928 26.767 L
318.893 29.318 L
318.167 32.5 L
318.893 35.682 L
320.928 38.233 L
323.868 39.649 L
327.132 39.649 L
330.072 38.233 L
332.107 35.682 L
332.833 32.5 L
S
GR
GS
[0.75 0 0 0.75 0 0] CT
0.165 0.384 0.275 RC
N
386.833 33.5 M
385.851 29.833 L
383.167 27.149 L
379.5 26.167 L
375.833 27.149 L
373.149 29.833 L
372.167 33.5 L
373.149 37.167 L
375.833 39.851 L
379.5 40.833 L
383.167 39.851 L
385.851 37.167 L
386.833 33.5 L
cp
f
GR
GS
[0.75 0 0 0.75 0 0] CT
0.165 0.384 0.275 RC
2 setlinecap
10.0 ML
4 LW
N
386.833 33.5 M
386.107 30.318 L
384.072 27.767 L
381.132 26.351 L
377.868 26.351 L
374.928 27.767 L
372.893 30.318 L
372.167 33.5 L
372.893 36.682 L
374.928 39.233 L
377.868 40.649 L
381.132 40.649 L
384.072 39.233 L
386.107 36.682 L
386.833 33.5 L
S
GR
GS
[0.75 0 0 0.75 0 0] CT
0.165 0.384 0.275 RC
N
440.833 37.5 M
439.851 33.833 L
437.167 31.149 L
433.5 30.167 L
429.833 31.149 L
427.149 33.833 L
426.167 37.5 L
427.149 41.167 L
429.833 43.851 L
433.5 44.833 L
437.167 43.851 L
439.851 41.167 L
440.833 37.5 L
cp
f
GR
GS
[0.75 0 0 0.75 0 0] CT
0.165 0.384 0.275 RC
2 setlinecap
10.0 ML
4 LW
N
440.833 37.5 M
440.107 34.318 L
438.072 31.767 L
435.132 30.351 L
431.868 30.351 L
428.928 31.767 L
426.893 34.318 L
426.167 37.5 L
426.893 40.682 L
428.928 43.233 L
431.868 44.649 L
435.132 44.649 L
438.072 43.233 L
440.107 40.682 L
440.833 37.5 L
S
GR
GS
[0.75 0 0 0.75 0 0] CT
0.165 0.384 0.275 RC
N
494.833 40.5 M
493.851 36.833 L
491.167 34.149 L
487.5 33.167 L
483.833 34.149 L
481.149 36.833 L
480.167 40.5 L
481.149 44.167 L
483.833 46.851 L
487.5 47.833 L
491.167 46.851 L
493.851 44.167 L
494.833 40.5 L
cp
f
GR
GS
[0.75 0 0 0.75 0 0] CT
0.165 0.384 0.275 RC
2 setlinecap
10.0 ML
4 LW
N
494.833 40.5 M
494.107 37.318 L
492.072 34.767 L
489.132 33.351 L
485.868 33.351 L
482.928 34.767 L
480.893 37.318 L
480.167 40.5 L
480.893 43.682 L
482.928 46.233 L
485.868 47.649 L
489.132 47.649 L
492.072 46.233 L
494.107 43.682 L
494.833 40.5 L
S
GR
GS
[0.75 0 0 0.75 0 0] CT
0.165 0.384 0.275 RC
N
549.833 44.5 M
548.851 40.833 L
546.167 38.149 L
542.5 37.167 L
538.833 38.149 L
536.149 40.833 L
535.167 44.5 L
536.149 48.167 L
538.833 50.851 L
542.5 51.833 L
546.167 50.851 L
548.851 48.167 L
549.833 44.5 L
cp
f
GR
GS
[0.75 0 0 0.75 0 0] CT
0.165 0.384 0.275 RC
2 setlinecap
10.0 ML
4 LW
N
549.833 44.5 M
549.107 41.318 L
547.072 38.767 L
544.132 37.351 L
540.868 37.351 L
537.928 38.767 L
535.893 41.318 L
535.167 44.5 L
535.893 47.682 L
537.928 50.233 L
540.868 51.649 L
544.132 51.649 L
547.072 50.233 L
549.107 47.682 L
549.833 44.5 L
S
GR
GS
[0.75 0 0 0.75 0 0] CT
0.165 0.384 0.275 RC
N
603.833 51.5 M
602.851 47.833 L
600.167 45.149 L
596.5 44.167 L
592.833 45.149 L
590.149 47.833 L
589.167 51.5 L
590.149 55.167 L
592.833 57.851 L
596.5 58.833 L
600.167 57.851 L
602.851 55.167 L
603.833 51.5 L
cp
f
GR
GS
[0.75 0 0 0.75 0 0] CT
0.165 0.384 0.275 RC
2 setlinecap
10.0 ML
4 LW
N
603.833 51.5 M
603.107 48.318 L
601.072 45.767 L
598.132 44.351 L
594.868 44.351 L
591.928 45.767 L
589.893 48.318 L
589.167 51.5 L
589.893 54.682 L
591.928 57.233 L
594.868 58.649 L
598.132 58.649 L
601.072 57.233 L
603.107 54.682 L
603.833 51.5 L
S
GR
GS
[0.75 0 0 0.75 0 0] CT
0.165 0.384 0.275 RC
N
657.833 63.5 M
656.851 59.833 L
654.167 57.149 L
650.5 56.167 L
646.833 57.149 L
644.149 59.833 L
643.167 63.5 L
644.149 67.167 L
646.833 69.851 L
650.5 70.833 L
654.167 69.851 L
656.851 67.167 L
657.833 63.5 L
cp
f
GR
GS
[0.75 0 0 0.75 0 0] CT
0.165 0.384 0.275 RC
2 setlinecap
10.0 ML
4 LW
N
657.833 63.5 M
657.107 60.318 L
655.072 57.767 L
652.132 56.351 L
648.868 56.351 L
645.928 57.767 L
643.893 60.318 L
643.167 63.5 L
643.893 66.682 L
645.928 69.233 L
648.868 70.649 L
652.132 70.649 L
655.072 69.233 L
657.107 66.682 L
657.833 63.5 L
S
GR
GS
[0.75 0 0 0.75 0 0] CT
0.165 0.384 0.275 RC
N
711.833 87.5 M
710.851 83.833 L
708.167 81.149 L
704.5 80.167 L
700.833 81.149 L
698.149 83.833 L
697.167 87.5 L
698.149 91.167 L
700.833 93.851 L
704.5 94.833 L
708.167 93.851 L
710.851 91.167 L
711.833 87.5 L
cp
f
GR
GS
[0.75 0 0 0.75 0 0] CT
0.165 0.384 0.275 RC
2 setlinecap
10.0 ML
4 LW
N
711.833 87.5 M
711.107 84.318 L
709.072 81.767 L
706.132 80.351 L
702.868 80.351 L
699.928 81.767 L
697.893 84.318 L
697.167 87.5 L
697.893 90.682 L
699.928 93.233 L
702.868 94.649 L
706.132 94.649 L
709.072 93.233 L
711.107 90.682 L
711.833 87.5 L
S
GR
GS
[0.75 0 0 0.75 0 0] CT
0.165 0.384 0.275 RC
N
765.833 128.5 M
764.851 124.833 L
762.167 122.149 L
758.5 121.167 L
754.833 122.149 L
752.149 124.833 L
751.167 128.5 L
752.149 132.167 L
754.833 134.851 L
758.5 135.833 L
762.167 134.851 L
764.851 132.167 L
765.833 128.5 L
cp
f
GR
GS
[0.75 0 0 0.75 0 0] CT
0.165 0.384 0.275 RC
2 setlinecap
10.0 ML
4 LW
N
765.833 128.5 M
765.107 125.318 L
763.072 122.767 L
760.132 121.351 L
756.868 121.351 L
753.928 122.767 L
751.893 125.318 L
751.167 128.5 L
751.893 131.682 L
753.928 134.233 L
756.868 135.649 L
760.132 135.649 L
763.072 134.233 L
765.107 131.682 L
765.833 128.5 L
S
GR
%%Trailer
%%Pages: 1
%%EOF
