%!PS-Adobe-3.0 EPSF-3.0
%%Creator: (MATLAB, The Mathworks, Inc. Version 8.5.0.197613 \(R2015a\). Operating System: Linux)
%%Title: /home/betogil/hp2fem-article/Text/eps/TimeOptimization.eps
%%CreationDate: 2016-05-03T21:59:29
%%Pages: (atend)
%%BoundingBox: 0 0 701 473
%%LanguageLevel: 2
%%EndComments
%%BeginProlog
%%BeginResource: procset (Apache XML Graphics Std ProcSet) 1.2 0
%%Version: 1.2 0
%%Copyright: (Copyright 2001-2003,2010 The Apache Software Foundation. License terms: http://www.apache.org/licenses/LICENSE-2.0)
/bd{bind def}bind def
/ld{load def}bd
/GR/grestore ld
/M/moveto ld
/LJ/setlinejoin ld
/C/curveto ld
/f/fill ld
/LW/setlinewidth ld
/GC/setgray ld
/t/show ld
/N/newpath ld
/CT/concat ld
/cp/closepath ld
/S/stroke ld
/L/lineto ld
/CC/setcmykcolor ld
/A/ashow ld
/GS/gsave ld
/RC/setrgbcolor ld
/RM/rmoveto ld
/ML/setmiterlimit ld
/re {4 2 roll M
1 index 0 rlineto
0 exch rlineto
neg 0 rlineto
cp } bd
/_ctm matrix def
/_tm matrix def
/BT { _ctm currentmatrix pop matrix _tm copy pop 0 0 moveto } bd
/ET { _ctm setmatrix } bd
/iTm { _ctm setmatrix _tm concat } bd
/Tm { _tm astore pop iTm 0 0 moveto } bd
/ux 0.0 def
/uy 0.0 def
/F {
  /Tp exch def
  /Tf exch def
  Tf findfont Tp scalefont setfont
  /cf Tf def  /cs Tp def
} bd
/ULS {currentpoint /uy exch def /ux exch def} bd
/ULE {
  /Tcx currentpoint pop def
  gsave
  newpath
  cf findfont cs scalefont dup
  /FontMatrix get 0 get /Ts exch def /FontInfo get dup
  /UnderlinePosition get Ts mul /To exch def
  /UnderlineThickness get Ts mul /Tt exch def
  ux uy To add moveto  Tcx uy To add lineto
  Tt setlinewidth stroke
  grestore
} bd
/OLE {
  /Tcx currentpoint pop def
  gsave
  newpath
  cf findfont cs scalefont dup
  /FontMatrix get 0 get /Ts exch def /FontInfo get dup
  /UnderlinePosition get Ts mul /To exch def
  /UnderlineThickness get Ts mul /Tt exch def
  ux uy To add cs add moveto Tcx uy To add cs add lineto
  Tt setlinewidth stroke
  grestore
} bd
/SOE {
  /Tcx currentpoint pop def
  gsave
  newpath
  cf findfont cs scalefont dup
  /FontMatrix get 0 get /Ts exch def /FontInfo get dup
  /UnderlinePosition get Ts mul /To exch def
  /UnderlineThickness get Ts mul /Tt exch def
  ux uy To add cs 10 mul 26 idiv add moveto Tcx uy To add cs 10 mul 26 idiv add lineto
  Tt setlinewidth stroke
  grestore
} bd
/QT {
/Y22 exch store
/X22 exch store
/Y21 exch store
/X21 exch store
currentpoint
/Y21 load 2 mul add 3 div exch
/X21 load 2 mul add 3 div exch
/X21 load 2 mul /X22 load add 3 div
/Y21 load 2 mul /Y22 load add 3 div
/X22 load /Y22 load curveto
} bd
/SSPD {
dup length /d exch dict def
{
/v exch def
/k exch def
currentpagedevice k known {
/cpdv currentpagedevice k get def
v cpdv ne {
/upd false def
/nullv v type /nulltype eq def
/nullcpdv cpdv type /nulltype eq def
nullv nullcpdv or
{
/upd true def
} {
/sametype v type cpdv type eq def
sametype {
v type /arraytype eq {
/vlen v length def
/cpdvlen cpdv length def
vlen cpdvlen eq {
0 1 vlen 1 sub {
/i exch def
/obj v i get def
/cpdobj cpdv i get def
obj cpdobj ne {
/upd true def
exit
} if
} for
} {
/upd true def
} ifelse
} {
v type /dicttype eq {
v {
/dv exch def
/dk exch def
/cpddv cpdv dk get def
dv cpddv ne {
/upd true def
exit
} if
} forall
} {
/upd true def
} ifelse
} ifelse
} if
} ifelse
upd true eq {
d k v put
} if
} if
} if
} forall
d length 0 gt {
d setpagedevice
} if
} bd
%%EndResource
%%BeginResource: procset (Apache XML Graphics EPS ProcSet) 1.0 0
%%Version: 1.0 0
%%Copyright: (Copyright 2002-2003 The Apache Software Foundation. License terms: http://www.apache.org/licenses/LICENSE-2.0)
/BeginEPSF { %def
/b4_Inc_state save def         % Save state for cleanup
/dict_count countdictstack def % Count objects on dict stack
/op_count count 1 sub def      % Count objects on operand stack
userdict begin                 % Push userdict on dict stack
/showpage { } def              % Redefine showpage, { } = null proc
0 setgray 0 setlinecap         % Prepare graphics state
1 setlinewidth 0 setlinejoin
10 setmiterlimit [ ] 0 setdash newpath
/languagelevel where           % If level not equal to 1 then
{pop languagelevel             % set strokeadjust and
1 ne                           % overprint to their defaults.
{false setstrokeadjust false setoverprint
} if
} if
} bd
/EndEPSF { %def
count op_count sub {pop} repeat            % Clean up stacks
countdictstack dict_count sub {end} repeat
b4_Inc_state restore
} bd
%%EndResource
%FOPBeginFontDict
%%IncludeResource: font Courier-Bold
%%IncludeResource: font Helvetica
%%IncludeResource: font Courier-BoldOblique
%%IncludeResource: font Courier-Oblique
%%IncludeResource: font Times-Roman
%%IncludeResource: font Helvetica-BoldOblique
%%IncludeResource: font Helvetica-Bold
%%IncludeResource: font Helvetica-Oblique
%%IncludeResource: font Times-BoldItalic
%%IncludeResource: font Courier
%%IncludeResource: font Times-Italic
%%IncludeResource: font Times-Bold
%%IncludeResource: font Symbol
%%IncludeResource: font ZapfDingbats
%FOPEndFontDict
%%BeginResource: encoding WinAnsiEncoding
/WinAnsiEncoding [
/.notdef /.notdef /.notdef /.notdef /.notdef
/.notdef /.notdef /.notdef /.notdef /.notdef
/.notdef /.notdef /.notdef /.notdef /.notdef
/.notdef /.notdef /.notdef /.notdef /.notdef
/.notdef /.notdef /.notdef /.notdef /.notdef
/.notdef /.notdef /.notdef /.notdef /.notdef
/.notdef /.notdef /space /exclam /quotedbl
/numbersign /dollar /percent /ampersand /quotesingle
/parenleft /parenright /asterisk /plus /comma
/hyphen /period /slash /zero /one
/two /three /four /five /six
/seven /eight /nine /colon /semicolon
/less /equal /greater /question /at
/A /B /C /D /E
/F /G /H /I /J
/K /L /M /N /O
/P /Q /R /S /T
/U /V /W /X /Y
/Z /bracketleft /backslash /bracketright /asciicircum
/underscore /quoteleft /a /b /c
/d /e /f /g /h
/i /j /k /l /m
/n /o /p /q /r
/s /t /u /v /w
/x /y /z /braceleft /bar
/braceright /asciitilde /bullet /Euro /bullet
/quotesinglbase /florin /quotedblbase /ellipsis /dagger
/daggerdbl /circumflex /perthousand /Scaron /guilsinglleft
/OE /bullet /Zcaron /bullet /bullet
/quoteleft /quoteright /quotedblleft /quotedblright /bullet
/endash /emdash /asciitilde /trademark /scaron
/guilsinglright /oe /bullet /zcaron /Ydieresis
/space /exclamdown /cent /sterling /currency
/yen /brokenbar /section /dieresis /copyright
/ordfeminine /guillemotleft /logicalnot /sfthyphen /registered
/macron /degree /plusminus /twosuperior /threesuperior
/acute /mu /paragraph /middot /cedilla
/onesuperior /ordmasculine /guillemotright /onequarter /onehalf
/threequarters /questiondown /Agrave /Aacute /Acircumflex
/Atilde /Adieresis /Aring /AE /Ccedilla
/Egrave /Eacute /Ecircumflex /Edieresis /Igrave
/Iacute /Icircumflex /Idieresis /Eth /Ntilde
/Ograve /Oacute /Ocircumflex /Otilde /Odieresis
/multiply /Oslash /Ugrave /Uacute /Ucircumflex
/Udieresis /Yacute /Thorn /germandbls /agrave
/aacute /acircumflex /atilde /adieresis /aring
/ae /ccedilla /egrave /eacute /ecircumflex
/edieresis /igrave /iacute /icircumflex /idieresis
/eth /ntilde /ograve /oacute /ocircumflex
/otilde /odieresis /divide /oslash /ugrave
/uacute /ucircumflex /udieresis /yacute /thorn
/ydieresis
] def
%%EndResource
%FOPBeginFontReencode
/Courier-Bold findfont
dup length dict begin
  {1 index /FID ne {def} {pop pop} ifelse} forall
  /Encoding WinAnsiEncoding def
  currentdict
end
/Courier-Bold exch definefont pop
/Helvetica findfont
dup length dict begin
  {1 index /FID ne {def} {pop pop} ifelse} forall
  /Encoding WinAnsiEncoding def
  currentdict
end
/Helvetica exch definefont pop
/Courier-BoldOblique findfont
dup length dict begin
  {1 index /FID ne {def} {pop pop} ifelse} forall
  /Encoding WinAnsiEncoding def
  currentdict
end
/Courier-BoldOblique exch definefont pop
/Courier-Oblique findfont
dup length dict begin
  {1 index /FID ne {def} {pop pop} ifelse} forall
  /Encoding WinAnsiEncoding def
  currentdict
end
/Courier-Oblique exch definefont pop
/Times-Roman findfont
dup length dict begin
  {1 index /FID ne {def} {pop pop} ifelse} forall
  /Encoding WinAnsiEncoding def
  currentdict
end
/Times-Roman exch definefont pop
/Helvetica-BoldOblique findfont
dup length dict begin
  {1 index /FID ne {def} {pop pop} ifelse} forall
  /Encoding WinAnsiEncoding def
  currentdict
end
/Helvetica-BoldOblique exch definefont pop
/Helvetica-Bold findfont
dup length dict begin
  {1 index /FID ne {def} {pop pop} ifelse} forall
  /Encoding WinAnsiEncoding def
  currentdict
end
/Helvetica-Bold exch definefont pop
/Helvetica-Oblique findfont
dup length dict begin
  {1 index /FID ne {def} {pop pop} ifelse} forall
  /Encoding WinAnsiEncoding def
  currentdict
end
/Helvetica-Oblique exch definefont pop
/Times-BoldItalic findfont
dup length dict begin
  {1 index /FID ne {def} {pop pop} ifelse} forall
  /Encoding WinAnsiEncoding def
  currentdict
end
/Times-BoldItalic exch definefont pop
/Courier findfont
dup length dict begin
  {1 index /FID ne {def} {pop pop} ifelse} forall
  /Encoding WinAnsiEncoding def
  currentdict
end
/Courier exch definefont pop
/Times-Italic findfont
dup length dict begin
  {1 index /FID ne {def} {pop pop} ifelse} forall
  /Encoding WinAnsiEncoding def
  currentdict
end
/Times-Italic exch definefont pop
/Times-Bold findfont
dup length dict begin
  {1 index /FID ne {def} {pop pop} ifelse} forall
  /Encoding WinAnsiEncoding def
  currentdict
end
/Times-Bold exch definefont pop
%FOPEndFontReencode
%%EndProlog
%%Page: 1 1
%%PageBoundingBox: 0 0 701 473
%%BeginPageSetup
[1 0 0 -1 0 473] CT
%%EndPageSetup
GS
[0.75 0 0 0.75 0 0.5] CT
1 GC
N
0 0 935 630 re
f
GR
GS
[0.75 0 0 0.75 0 0.5] CT
1 GC
N
0 0 935 630 re
f
GR
GS
[0.75 0 0 0.75 0 0.5] CT
1 GC
N
119 513 M
900 513 L
900 34 L
119 34 L
cp
f
GR
GS
[0.75 0 0 0.75 0 0.5] CT
0.873 GC
2 setlinecap
10.0 ML
N
900 513 M
119 513 L
S
GR
GS
[0.75 0 0 0.75 0 0.5] CT
0.873 GC
2 setlinecap
10.0 ML
N
900 444.571 M
119 444.571 L
S
GR
GS
[0.75 0 0 0.75 0 0.5] CT
0.873 GC
2 setlinecap
10.0 ML
N
900 376.143 M
119 376.143 L
S
GR
GS
[0.75 0 0 0.75 0 0.5] CT
0.873 GC
2 setlinecap
10.0 ML
N
900 307.714 M
119 307.714 L
S
GR
GS
[0.75 0 0 0.75 0 0.5] CT
0.873 GC
2 setlinecap
10.0 ML
N
900 239.286 M
119 239.286 L
S
GR
GS
[0.75 0 0 0.75 0 0.5] CT
0.873 GC
2 setlinecap
10.0 ML
N
900 170.857 M
119 170.857 L
S
GR
GS
[0.75 0 0 0.75 0 0.5] CT
0.873 GC
2 setlinecap
10.0 ML
N
900 102.429 M
119 102.429 L
S
GR
GS
[0.75 0 0 0.75 0 0.5] CT
0.873 GC
2 setlinecap
10.0 ML
N
900 34 M
119 34 L
S
GR
GS
[0.75 0 0 0.75 0 0.5] CT
0.149 GC
2 setlinecap
10.0 ML
N
119 513 M
900 513 L
S
GR
GS
[0.75 0 0 0.75 0 0.5] CT
0.149 GC
2 setlinecap
10.0 ML
N
119 34 M
900 34 L
S
GR
GS
[0.75 0 0 0.75 0 0.5] CT
0.149 GC
2 setlinecap
10.0 ML
N
230.571 513 M
230.571 505.19 L
S
GR
GS
[0.75 0 0 0.75 0 0.5] CT
0.149 GC
2 setlinecap
10.0 ML
N
342.143 513 M
342.143 505.19 L
S
GR
GS
[0.75 0 0 0.75 0 0.5] CT
0.149 GC
2 setlinecap
10.0 ML
N
453.714 513 M
453.714 505.19 L
S
GR
GS
[0.75 0 0 0.75 0 0.5] CT
0.149 GC
2 setlinecap
10.0 ML
N
565.286 513 M
565.286 505.19 L
S
GR
GS
[0.75 0 0 0.75 0 0.5] CT
0.149 GC
2 setlinecap
10.0 ML
N
676.857 513 M
676.857 505.19 L
S
GR
GS
[0.75 0 0 0.75 0 0.5] CT
0.149 GC
2 setlinecap
10.0 ML
N
788.429 513 M
788.429 505.19 L
S
GR
GS
[0.75 0 0 0.75 0 0.5] CT
0.149 GC
2 setlinecap
10.0 ML
N
230.571 34 M
230.571 41.81 L
S
GR
GS
[0.75 0 0 0.75 0 0.5] CT
0.149 GC
2 setlinecap
10.0 ML
N
342.143 34 M
342.143 41.81 L
S
GR
GS
[0.75 0 0 0.75 0 0.5] CT
0.149 GC
2 setlinecap
10.0 ML
N
453.714 34 M
453.714 41.81 L
S
GR
GS
[0.75 0 0 0.75 0 0.5] CT
0.149 GC
2 setlinecap
10.0 ML
N
565.286 34 M
565.286 41.81 L
S
GR
GS
[0.75 0 0 0.75 0 0.5] CT
0.149 GC
2 setlinecap
10.0 ML
N
676.857 34 M
676.857 41.81 L
S
GR
GS
[0.75 0 0 0.75 0 0.5] CT
0.149 GC
2 setlinecap
10.0 ML
N
788.429 34 M
788.429 41.81 L
S
GR
GS
[0.53033 -0.53033 0.53033 0.53033 172.92857 390.45001] CT
0.149 GC
/Times 21 F
GS
[1 0 0 1 0 0] CT
-38 20 moveto 
1 -1 scale
(-O3) t 
GR
GR
GS
[0.53033 -0.53033 0.53033 0.53033 256.60714 390.45001] CT
0.149 GC
/Times 21 F
GS
[1 0 0 1 0 0] CT
-54 20 moveto 
1 -1 scale
(BLAS) t 
GR
GR
GS
[0.53033 -0.53033 0.53033 0.53033 340.28572 390.45001] CT
0.149 GC
/Times 21 F
GS
[1 0 0 1 0 0] CT
-56 20 moveto 
1 -1 scale
(-qhot) t 
GR
GR
GS
[0.53033 -0.53033 0.53033 0.53033 423.96428 390.45001] CT
0.149 GC
/Times 21 F
GS
[1 0 0 1 0 0] CT
-134 20 moveto 
1 -1 scale
(Manual LICM) t 
GR
GR
GS
[0.53033 -0.53033 0.53033 0.53033 507.64284 390.45001] CT
0.149 GC
/Times 21 F
GS
[1 0 0 1 0 0] CT
-82 20 moveto 
1 -1 scale
(LAPACK) t 
GR
GR
GS
[0.53033 -0.53033 0.53033 0.53033 591.32144 390.45001] CT
0.149 GC
/Times 21 F
GS
[1 0 0 1 0 0] CT
-127 20 moveto 
1 -1 scale
(D1-Matrices) t 
GR
GR
GS
[0 -0.75 0.75 0 51.90349 209.06844] CT
/Times 21 F
GS
[1 0 0 1 0 0] CT
-98.5 -5 moveto 
1 -1 scale
(Execution Time \(s\)) t 
GR
GR
GS
[0.75 0 0 0.75 0 0.5] CT
0.149 GC
2 setlinecap
10.0 ML
N
119 513 M
119 34 L
S
GR
GS
[0.75 0 0 0.75 0 0.5] CT
0.149 GC
2 setlinecap
10.0 ML
N
900 513 M
900 34 L
S
GR
GS
[0.75 0 0 0.75 0 0.5] CT
0.149 GC
2 setlinecap
10.0 ML
N
119 513 M
126.81 513 L
S
GR
GS
[0.75 0 0 0.75 0 0.5] CT
0.149 GC
2 setlinecap
10.0 ML
N
119 444.571 M
126.81 444.571 L
S
GR
GS
[0.75 0 0 0.75 0 0.5] CT
0.149 GC
2 setlinecap
10.0 ML
N
119 376.143 M
126.81 376.143 L
S
GR
GS
[0.75 0 0 0.75 0 0.5] CT
0.149 GC
2 setlinecap
10.0 ML
N
119 307.714 M
126.81 307.714 L
S
GR
GS
[0.75 0 0 0.75 0 0.5] CT
0.149 GC
2 setlinecap
10.0 ML
N
119 239.286 M
126.81 239.286 L
S
GR
GS
[0.75 0 0 0.75 0 0.5] CT
0.149 GC
2 setlinecap
10.0 ML
N
119 170.857 M
126.81 170.857 L
S
GR
GS
[0.75 0 0 0.75 0 0.5] CT
0.149 GC
2 setlinecap
10.0 ML
N
119 102.429 M
126.81 102.429 L
S
GR
GS
[0.75 0 0 0.75 0 0.5] CT
0.149 GC
2 setlinecap
10.0 ML
N
119 34 M
126.81 34 L
S
GR
GS
[0.75 0 0 0.75 0 0.5] CT
0.149 GC
2 setlinecap
10.0 ML
N
900 513 M
892.19 513 L
S
GR
GS
[0.75 0 0 0.75 0 0.5] CT
0.149 GC
2 setlinecap
10.0 ML
N
900 444.571 M
892.19 444.571 L
S
GR
GS
[0.75 0 0 0.75 0 0.5] CT
0.149 GC
2 setlinecap
10.0 ML
N
900 376.143 M
892.19 376.143 L
S
GR
GS
[0.75 0 0 0.75 0 0.5] CT
0.149 GC
2 setlinecap
10.0 ML
N
900 307.714 M
892.19 307.714 L
S
GR
GS
[0.75 0 0 0.75 0 0.5] CT
0.149 GC
2 setlinecap
10.0 ML
N
900 239.286 M
892.19 239.286 L
S
GR
GS
[0.75 0 0 0.75 0 0.5] CT
0.149 GC
2 setlinecap
10.0 ML
N
900 170.857 M
892.19 170.857 L
S
GR
GS
[0.75 0 0 0.75 0 0.5] CT
0.149 GC
2 setlinecap
10.0 ML
N
900 102.429 M
892.19 102.429 L
S
GR
GS
[0.75 0 0 0.75 0 0.5] CT
0.149 GC
2 setlinecap
10.0 ML
N
900 34 M
892.19 34 L
S
GR
GS
[0.75 0 0 0.75 84.05 385.25] CT
0.149 GC
/Times 21 F
GS
[1 0 0 1 0 0] CT
-14 7.5 moveto 
1 -1 scale
(0) t 
GR
GR
GS
[0.75 0 0 0.75 84.05 333.92858] CT
0.149 GC
/Times 21 F
GS
[1 0 0 1 0 0] CT
-27 7.5 moveto 
1 -1 scale
(10) t 
GR
GR
GS
[0.75 0 0 0.75 84.05 282.60714] CT
0.149 GC
/Times 21 F
GS
[1 0 0 1 0 0] CT
-27 7.5 moveto 
1 -1 scale
(20) t 
GR
GR
GS
[0.75 0 0 0.75 84.05 231.28572] CT
0.149 GC
/Times 21 F
GS
[1 0 0 1 0 0] CT
-27 7.5 moveto 
1 -1 scale
(30) t 
GR
GR
GS
[0.75 0 0 0.75 84.05 179.96429] CT
0.149 GC
/Times 21 F
GS
[1 0 0 1 0 0] CT
-27 7.5 moveto 
1 -1 scale
(40) t 
GR
GR
GS
[0.75 0 0 0.75 84.05 128.64286] CT
0.149 GC
/Times 21 F
GS
[1 0 0 1 0 0] CT
-27 7.5 moveto 
1 -1 scale
(50) t 
GR
GR
GS
[0.75 0 0 0.75 84.05 77.32143] CT
0.149 GC
/Times 21 F
GS
[1 0 0 1 0 0] CT
-27 7.5 moveto 
1 -1 scale
(60) t 
GR
GR
GS
[0.75 0 0 0.75 84.05 26] CT
0.149 GC
/Times 21 F
GS
[1 0 0 1 0 0] CT
-27 7.5 moveto 
1 -1 scale
(70) t 
GR
GR
GS
[0.75 0 0 0.75 0 0.5] CT
0.306 0.396 0.58 RC
N
185.943 513 M
275.2 513 L
275.2 75.605 L
185.943 75.605 L
cp
f
GR
GS
[0.75 0 0 0.75 0 0.5] CT
2 setlinecap
10.0 ML
N
185.943 513 M
185.943 75.605 L
275.2 75.605 L
275.2 513 L
185.943 513 L
S
GR
GS
[0.75 0 0 0.75 0 0.5] CT
0.306 0.396 0.58 RC
N
297.514 513 M
386.771 513 L
386.771 199.802 L
297.514 199.802 L
cp
f
GR
GS
[0.75 0 0 0.75 0 0.5] CT
2 setlinecap
10.0 ML
N
297.514 513 M
297.514 199.802 L
386.771 199.802 L
386.771 513 L
297.514 513 L
S
GR
GS
[0.75 0 0 0.75 0 0.5] CT
0.306 0.396 0.58 RC
N
409.086 513 M
498.343 513 L
498.343 284.312 L
409.086 284.312 L
cp
f
GR
GS
[0.75 0 0 0.75 0 0.5] CT
2 setlinecap
10.0 ML
N
409.086 513 M
409.086 284.312 L
498.343 284.312 L
498.343 513 L
409.086 513 L
S
GR
GS
[0.75 0 0 0.75 0 0.5] CT
0.306 0.396 0.58 RC
N
520.657 513 M
609.914 513 L
609.914 342.75 L
520.657 342.75 L
cp
f
GR
GS
[0.75 0 0 0.75 0 0.5] CT
2 setlinecap
10.0 ML
N
520.657 513 M
520.657 342.75 L
609.914 342.75 L
609.914 513 L
520.657 513 L
S
GR
GS
[0.75 0 0 0.75 0 0.5] CT
0.306 0.396 0.58 RC
N
632.229 513 M
721.486 513 L
721.486 351.645 L
632.229 351.645 L
cp
f
GR
GS
[0.75 0 0 0.75 0 0.5] CT
2 setlinecap
10.0 ML
N
632.229 513 M
632.229 351.645 L
721.486 351.645 L
721.486 513 L
632.229 513 L
S
GR
GS
[0.75 0 0 0.75 0 0.5] CT
0.306 0.396 0.58 RC
N
743.8 513 M
833.057 513 L
833.057 416.31 L
743.8 416.31 L
cp
f
GR
GS
[0.75 0 0 0.75 0 0.5] CT
2 setlinecap
10.0 ML
N
743.8 513 M
743.8 416.31 L
833.057 416.31 L
833.057 513 L
743.8 513 L
S
GR
GS
[0.75 0 0 0.75 0 0.5] CT
2 setlinecap
10.0 ML
N
119 513 M
900 513 L
S
GR
%%Trailer
%%Pages: 1
%%EOF
