%!PS-Adobe-3.0 EPSF-3.0
%%Creator: MATLAB, The Mathworks, Inc. Version 7.10.0.499 (R2010a). Operating System: Linux 3.16.0-46-generic #62~14.04.1-Ubuntu SMP Tue Aug 11 16:27:16 UTC 2015 x86_64.
%%Title: /home/doc/Work/Doutorado/Article_hp2FEM/Article_hp2FEM-Architecture_english/matlab/Comparing_BLAS/WeakScalability/../figures/eps/WeakScalability_Efficiency_Hexa_10000.eps
%%CreationDate: 08/25/2015  15:34:45
%%DocumentNeededFonts: Helvetica-Bold
%%+ Helvetica
%%DocumentProcessColors: Cyan Magenta Yellow Black
%%LanguageLevel: 2
%%Pages: 1
%%BoundingBox:    43   187   559   615
%%EndComments

%%BeginProlog
% MathWorks dictionary
/MathWorks 160 dict begin
% definition operators
/bdef {bind def} bind def
/ldef {load def} bind def
/xdef {exch def} bdef
/xstore {exch store} bdef
% operator abbreviations
/c  /clip ldef
/cc /concat ldef
/cp /closepath ldef
/gr /grestore ldef
/gs /gsave ldef
/mt /moveto ldef
/np /newpath ldef
/cm /currentmatrix ldef
/sm /setmatrix ldef
/rm /rmoveto ldef
/rl /rlineto ldef
/s {show newpath} bdef
/sc {setcmykcolor} bdef
/sr /setrgbcolor ldef
/sg /setgray ldef
/w /setlinewidth ldef
/j /setlinejoin ldef
/cap /setlinecap ldef
/rc {rectclip} bdef
/rf {rectfill} bdef
% page state control
/pgsv () def
/bpage {/pgsv save def} bdef
/epage {pgsv restore} bdef
/bplot /gsave ldef
/eplot {stroke grestore} bdef
% orientation switch
/portraitMode 0 def /landscapeMode 1 def /rotateMode 2 def
% coordinate system mappings
/dpi2point 0 def
% font control
/FontSize 0 def
/FMS {/FontSize xstore findfont [FontSize 0 0 FontSize neg 0 0]
  makefont setfont} bdef
/reencode {exch dup where {pop load} {pop StandardEncoding} ifelse
  exch dup 3 1 roll findfont dup length dict begin
  { 1 index /FID ne {def}{pop pop} ifelse } forall
  /Encoding exch def currentdict end definefont pop} bdef
/isroman {findfont /CharStrings get /Agrave known} bdef
/FMSR {3 1 roll 1 index dup isroman {reencode} {pop pop} ifelse
  exch FMS} bdef
/csm {1 dpi2point div -1 dpi2point div scale neg translate
 dup landscapeMode eq {pop -90 rotate}
  {rotateMode eq {90 rotate} if} ifelse} bdef
% line types: solid, dotted, dashed, dotdash
/SO { [] 0 setdash } bdef
/DO { [.5 dpi2point mul 4 dpi2point mul] 0 setdash } bdef
/DA { [6 dpi2point mul] 0 setdash } bdef
/DD { [.5 dpi2point mul 4 dpi2point mul 6 dpi2point mul 4
  dpi2point mul] 0 setdash } bdef
% macros for lines and objects
/L {lineto stroke} bdef
/MP {3 1 roll moveto 1 sub {rlineto} repeat} bdef
/AP {{rlineto} repeat} bdef
/PDlw -1 def
/W {/PDlw currentlinewidth def setlinewidth} def
/PP {closepath eofill} bdef
/DP {closepath stroke} bdef
/MR {4 -2 roll moveto dup  0 exch rlineto exch 0 rlineto
  neg 0 exch rlineto closepath} bdef
/FR {MR stroke} bdef
/PR {MR fill} bdef
/L1i {{currentfile picstr readhexstring pop} image} bdef
/tMatrix matrix def
/MakeOval {newpath tMatrix currentmatrix pop translate scale
0 0 1 0 360 arc tMatrix setmatrix} bdef
/FO {MakeOval stroke} bdef
/PO {MakeOval fill} bdef
/PD {currentlinewidth 2 div 0 360 arc fill
   PDlw -1 eq not {PDlw w /PDlw -1 def} if} def
/FA {newpath tMatrix currentmatrix pop translate scale
  0 0 1 5 -2 roll arc tMatrix setmatrix stroke} bdef
/PA {newpath tMatrix currentmatrix pop	translate 0 0 moveto scale
  0 0 1 5 -2 roll arc closepath tMatrix setmatrix fill} bdef
/FAn {newpath tMatrix currentmatrix pop translate scale
  0 0 1 5 -2 roll arcn tMatrix setmatrix stroke} bdef
/PAn {newpath tMatrix currentmatrix pop translate 0 0 moveto scale
  0 0 1 5 -2 roll arcn closepath tMatrix setmatrix fill} bdef
/vradius 0 def /hradius 0 def /lry 0 def
/lrx 0 def /uly 0 def /ulx 0 def /rad 0 def
/MRR {/vradius xdef /hradius xdef /lry xdef /lrx xdef /uly xdef
  /ulx xdef newpath tMatrix currentmatrix pop ulx hradius add uly
  vradius add translate hradius vradius scale 0 0 1 180 270 arc 
  tMatrix setmatrix lrx hradius sub uly vradius add translate
  hradius vradius scale 0 0 1 270 360 arc tMatrix setmatrix
  lrx hradius sub lry vradius sub translate hradius vradius scale
  0 0 1 0 90 arc tMatrix setmatrix ulx hradius add lry vradius sub
  translate hradius vradius scale 0 0 1 90 180 arc tMatrix setmatrix
  closepath} bdef
/FRR {MRR stroke } bdef
/PRR {MRR fill } bdef
/MlrRR {/lry xdef /lrx xdef /uly xdef /ulx xdef /rad lry uly sub 2 div def
  newpath tMatrix currentmatrix pop ulx rad add uly rad add translate
  rad rad scale 0 0 1 90 270 arc tMatrix setmatrix lrx rad sub lry rad
  sub translate rad rad scale 0 0 1 270 90 arc tMatrix setmatrix
  closepath} bdef
/FlrRR {MlrRR stroke } bdef
/PlrRR {MlrRR fill } bdef
/MtbRR {/lry xdef /lrx xdef /uly xdef /ulx xdef /rad lrx ulx sub 2 div def
  newpath tMatrix currentmatrix pop ulx rad add uly rad add translate
  rad rad scale 0 0 1 180 360 arc tMatrix setmatrix lrx rad sub lry rad
  sub translate rad rad scale 0 0 1 0 180 arc tMatrix setmatrix
  closepath} bdef
/FtbRR {MtbRR stroke } bdef
/PtbRR {MtbRR fill } bdef
/stri 6 array def /dtri 6 array def
/smat 6 array def /dmat 6 array def
/tmat1 6 array def /tmat2 6 array def /dif 3 array def
/asub {/ind2 exch def /ind1 exch def dup dup
  ind1 get exch ind2 get sub exch } bdef
/tri_to_matrix {
  2 0 asub 3 1 asub 4 0 asub 5 1 asub
  dup 0 get exch 1 get 7 -1 roll astore } bdef
/compute_transform {
  dmat dtri tri_to_matrix tmat1 invertmatrix 
  smat stri tri_to_matrix tmat2 concatmatrix } bdef
/ds {stri astore pop} bdef
/dt {dtri astore pop} bdef
/db {2 copy /cols xdef /rows xdef mul dup 3 mul string
  currentfile 
  3 index 0 eq {/ASCIIHexDecode filter}
  {/ASCII85Decode filter 3 index 2 eq {/RunLengthDecode filter} if }
  ifelse exch readstring pop
  dup 0 3 index getinterval /rbmap xdef
  dup 2 index dup getinterval /gbmap xdef
  1 index dup 2 mul exch getinterval /bbmap xdef pop pop}bdef
/it {gs np dtri aload pop moveto lineto lineto cp c
  cols rows 8 compute_transform 
  rbmap gbmap bbmap true 3 colorimage gr}bdef
/il {newpath moveto lineto stroke}bdef
currentdict end def
%%EndProlog

%%BeginSetup
MathWorks begin

0 cap

end
%%EndSetup

%%Page: 1 1
%%BeginPageSetup
%%PageBoundingBox:    43   187   559   615
MathWorks begin
bpage
%%EndPageSetup

%%BeginObject: obj1
bplot

/dpi2point 4.16667 def
portraitMode 0075 2550 csm

  106   -15  2149  1783 rc
85 dict begin %Colortable dictionary
/c0 { 0.000000 0.000000 0.000000 sr} bdef
/c1 { 1.000000 1.000000 1.000000 sr} bdef
/c2 { 0.900000 0.000000 0.000000 sr} bdef
/c3 { 0.000000 0.820000 0.000000 sr} bdef
/c4 { 0.000000 0.000000 0.800000 sr} bdef
/c5 { 0.910000 0.820000 0.320000 sr} bdef
/c6 { 1.000000 0.260000 0.820000 sr} bdef
/c7 { 0.000000 0.820000 0.820000 sr} bdef
c0
1 j
1 sg
   0    0 2401 1802 rf
2.08333 w
0 1468 1861 0 0 -1468 311 1603 4 MP
PP
-1861 0 0 1468 1861 0 0 -1468 311 1603 5 MP stroke
1.38889 w
DO
0 sg
 680 1603 mt  680  135 L
 680  135 mt  680  135 L
 864 1603 mt  864  135 L
 864  135 mt  864  135 L
1048 1603 mt 1048  135 L
1048  135 mt 1048  135 L
1232 1603 mt 1232  135 L
1232  135 mt 1232  135 L
1416 1603 mt 1416  135 L
1416  135 mt 1416  135 L
1600 1603 mt 1600  135 L
1600  135 mt 1600  135 L
1784 1603 mt 1784  135 L
1784  135 mt 1784  135 L
1968 1603 mt 1968  135 L
1968  135 mt 1968  135 L
2152 1603 mt 2152  135 L
2152  135 mt 2152  135 L
 311 1603 mt 2172 1603 L
2172 1603 mt 2172 1603 L
 311 1460 mt 2172 1460 L
2172 1460 mt 2172 1460 L
 311 1317 mt 2172 1317 L
2172 1317 mt 2172 1317 L
 311 1175 mt 2172 1175 L
2172 1175 mt 2172 1175 L
 311 1032 mt 2172 1032 L
2172 1032 mt 2172 1032 L
 311  890 mt 2172  890 L
2172  890 mt 2172  890 L
 311  747 mt 2172  747 L
2172  747 mt 2172  747 L
 311  605 mt 2172  605 L
2172  605 mt 2172  605 L
 311  462 mt 2172  462 L
2172  462 mt 2172  462 L
 311  320 mt 2172  320 L
2172  320 mt 2172  320 L
 311  177 mt 2172  177 L
2172  177 mt 2172  177 L
SO
2.08333 w
 311 1603 mt 2172 1603 L
 311  135 mt 2172  135 L
 311 1603 mt  311  135 L
2172 1603 mt 2172  135 L
 311 1603 mt 2172 1603 L
 311 1603 mt  311  135 L
 680 1603 mt  680 1584 L
 680  135 mt  680  153 L
%%IncludeResource: font Helvetica-Bold
/Helvetica-Bold /ISOLatin1Encoding 62.5 FMSR

 663 1675 mt 
(4) s
 864 1603 mt  864 1584 L
 864  135 mt  864  153 L
 847 1675 mt 
(8) s
 864 1603 mt  864 1593 L
 864  135 mt  864  144 L
DO
 864 1603 mt  864  135 L
 864  135 mt  864  135 L
SO
 864 1603 mt  864 1593 L
 864  135 mt  864  144 L
DO
 864 1603 mt  864  135 L
 864  135 mt  864  135 L
SO
 864 1603 mt  864 1593 L
 864  135 mt  864  144 L
DO
 864 1603 mt  864  135 L
 864  135 mt  864  135 L
SO
 864 1603 mt  864 1593 L
 864  135 mt  864  144 L
DO
 864 1603 mt  864  135 L
 864  135 mt  864  135 L
SO
 864 1603 mt  864 1593 L
 864  135 mt  864  144 L
DO
 864 1603 mt  864  135 L
 864  135 mt  864  135 L
SO
 864 1603 mt  864 1593 L
 864  135 mt  864  144 L
DO
 864 1603 mt  864  135 L
 864  135 mt  864  135 L
SO
 864 1603 mt  864 1593 L
 864  135 mt  864  144 L
DO
 864 1603 mt  864  135 L
 864  135 mt  864  135 L
SO
 864 1603 mt  864 1593 L
 864  135 mt  864  144 L
DO
 864 1603 mt  864  135 L
 864  135 mt  864  135 L
SO
 864 1603 mt  864 1593 L
 864  135 mt  864  144 L
DO
 864 1603 mt  864  135 L
 864  135 mt  864  135 L
SO
1048 1603 mt 1048 1584 L
1048  135 mt 1048  153 L
1014 1675 mt 
(16) s
1048 1603 mt 1048 1593 L
1048  135 mt 1048  144 L
DO
1048 1603 mt 1048  135 L
1048  135 mt 1048  135 L
SO
1048 1603 mt 1048 1593 L
1048  135 mt 1048  144 L
DO
1048 1603 mt 1048  135 L
1048  135 mt 1048  135 L
SO
1048 1603 mt 1048 1593 L
1048  135 mt 1048  144 L
DO
1048 1603 mt 1048  135 L
1048  135 mt 1048  135 L
SO
1048 1603 mt 1048 1593 L
1048  135 mt 1048  144 L
DO
1048 1603 mt 1048  135 L
1048  135 mt 1048  135 L
SO
1048 1603 mt 1048 1593 L
1048  135 mt 1048  144 L
DO
1048 1603 mt 1048  135 L
1048  135 mt 1048  135 L
SO
1048 1603 mt 1048 1593 L
1048  135 mt 1048  144 L
DO
1048 1603 mt 1048  135 L
1048  135 mt 1048  135 L
SO
1048 1603 mt 1048 1593 L
1048  135 mt 1048  144 L
DO
1048 1603 mt 1048  135 L
1048  135 mt 1048  135 L
SO
1048 1603 mt 1048 1593 L
1048  135 mt 1048  144 L
DO
1048 1603 mt 1048  135 L
1048  135 mt 1048  135 L
SO
1048 1603 mt 1048 1593 L
1048  135 mt 1048  144 L
DO
1048 1603 mt 1048  135 L
1048  135 mt 1048  135 L
SO
1232 1603 mt 1232 1584 L
1232  135 mt 1232  153 L
1198 1675 mt 
(32) s
1232 1603 mt 1232 1593 L
1232  135 mt 1232  144 L
DO
1232 1603 mt 1232  135 L
1232  135 mt 1232  135 L
SO
1232 1603 mt 1232 1593 L
1232  135 mt 1232  144 L
DO
1232 1603 mt 1232  135 L
1232  135 mt 1232  135 L
SO
1232 1603 mt 1232 1593 L
1232  135 mt 1232  144 L
DO
1232 1603 mt 1232  135 L
1232  135 mt 1232  135 L
SO
1232 1603 mt 1232 1593 L
1232  135 mt 1232  144 L
DO
1232 1603 mt 1232  135 L
1232  135 mt 1232  135 L
SO
1232 1603 mt 1232 1593 L
1232  135 mt 1232  144 L
DO
1232 1603 mt 1232  135 L
1232  135 mt 1232  135 L
SO
1232 1603 mt 1232 1593 L
1232  135 mt 1232  144 L
DO
1232 1603 mt 1232  135 L
1232  135 mt 1232  135 L
SO
1232 1603 mt 1232 1593 L
1232  135 mt 1232  144 L
DO
1232 1603 mt 1232  135 L
1232  135 mt 1232  135 L
SO
1232 1603 mt 1232 1593 L
1232  135 mt 1232  144 L
DO
1232 1603 mt 1232  135 L
1232  135 mt 1232  135 L
SO
1232 1603 mt 1232 1593 L
1232  135 mt 1232  144 L
DO
1232 1603 mt 1232  135 L
1232  135 mt 1232  135 L
SO
1416 1603 mt 1416 1584 L
1416  135 mt 1416  153 L
1382 1675 mt 
(64) s
1416 1603 mt 1416 1593 L
1416  135 mt 1416  144 L
DO
1416 1603 mt 1416  135 L
1416  135 mt 1416  135 L
SO
1416 1603 mt 1416 1593 L
1416  135 mt 1416  144 L
DO
1416 1603 mt 1416  135 L
1416  135 mt 1416  135 L
SO
1416 1603 mt 1416 1593 L
1416  135 mt 1416  144 L
DO
1416 1603 mt 1416  135 L
1416  135 mt 1416  135 L
SO
1416 1603 mt 1416 1593 L
1416  135 mt 1416  144 L
DO
1416 1603 mt 1416  135 L
1416  135 mt 1416  135 L
SO
1416 1603 mt 1416 1593 L
1416  135 mt 1416  144 L
DO
1416 1603 mt 1416  135 L
1416  135 mt 1416  135 L
SO
1416 1603 mt 1416 1593 L
1416  135 mt 1416  144 L
DO
1416 1603 mt 1416  135 L
1416  135 mt 1416  135 L
SO
1416 1603 mt 1416 1593 L
1416  135 mt 1416  144 L
DO
1416 1603 mt 1416  135 L
1416  135 mt 1416  135 L
SO
1416 1603 mt 1416 1593 L
1416  135 mt 1416  144 L
DO
1416 1603 mt 1416  135 L
1416  135 mt 1416  135 L
SO
1416 1603 mt 1416 1593 L
1416  135 mt 1416  144 L
DO
1416 1603 mt 1416  135 L
1416  135 mt 1416  135 L
SO
1600 1603 mt 1600 1584 L
1600  135 mt 1600  153 L
1548 1675 mt 
(128) s
1600 1603 mt 1600 1593 L
1600  135 mt 1600  144 L
DO
1600 1603 mt 1600  135 L
1600  135 mt 1600  135 L
SO
1600 1603 mt 1600 1593 L
1600  135 mt 1600  144 L
DO
1600 1603 mt 1600  135 L
1600  135 mt 1600  135 L
SO
1600 1603 mt 1600 1593 L
1600  135 mt 1600  144 L
DO
1600 1603 mt 1600  135 L
1600  135 mt 1600  135 L
SO
1600 1603 mt 1600 1593 L
1600  135 mt 1600  144 L
DO
1600 1603 mt 1600  135 L
1600  135 mt 1600  135 L
SO
1600 1603 mt 1600 1593 L
1600  135 mt 1600  144 L
DO
1600 1603 mt 1600  135 L
1600  135 mt 1600  135 L
SO
1600 1603 mt 1600 1593 L
1600  135 mt 1600  144 L
DO
1600 1603 mt 1600  135 L
1600  135 mt 1600  135 L
SO
1600 1603 mt 1600 1593 L
1600  135 mt 1600  144 L
DO
1600 1603 mt 1600  135 L
1600  135 mt 1600  135 L
SO
1600 1603 mt 1600 1593 L
1600  135 mt 1600  144 L
DO
1600 1603 mt 1600  135 L
1600  135 mt 1600  135 L
SO
1600 1603 mt 1600 1593 L
1600  135 mt 1600  144 L
DO
1600 1603 mt 1600  135 L
1600  135 mt 1600  135 L
SO
1784 1603 mt 1784 1584 L
1784  135 mt 1784  153 L
1732 1675 mt 
(256) s
1784 1603 mt 1784 1593 L
1784  135 mt 1784  144 L
DO
1784 1603 mt 1784  135 L
1784  135 mt 1784  135 L
SO
1784 1603 mt 1784 1593 L
1784  135 mt 1784  144 L
DO
1784 1603 mt 1784  135 L
1784  135 mt 1784  135 L
SO
1784 1603 mt 1784 1593 L
1784  135 mt 1784  144 L
DO
1784 1603 mt 1784  135 L
1784  135 mt 1784  135 L
SO
1784 1603 mt 1784 1593 L
1784  135 mt 1784  144 L
DO
1784 1603 mt 1784  135 L
1784  135 mt 1784  135 L
SO
1784 1603 mt 1784 1593 L
1784  135 mt 1784  144 L
DO
1784 1603 mt 1784  135 L
1784  135 mt 1784  135 L
SO
1784 1603 mt 1784 1593 L
1784  135 mt 1784  144 L
DO
1784 1603 mt 1784  135 L
1784  135 mt 1784  135 L
SO
1784 1603 mt 1784 1593 L
1784  135 mt 1784  144 L
DO
1784 1603 mt 1784  135 L
1784  135 mt 1784  135 L
SO
1784 1603 mt 1784 1593 L
1784  135 mt 1784  144 L
DO
1784 1603 mt 1784  135 L
1784  135 mt 1784  135 L
SO
1784 1603 mt 1784 1593 L
1784  135 mt 1784  144 L
DO
1784 1603 mt 1784  135 L
1784  135 mt 1784  135 L
SO
1968 1603 mt 1968 1584 L
1968  135 mt 1968  153 L
1916 1675 mt 
(512) s
1968 1603 mt 1968 1593 L
1968  135 mt 1968  144 L
DO
1968 1603 mt 1968  135 L
1968  135 mt 1968  135 L
SO
1968 1603 mt 1968 1593 L
1968  135 mt 1968  144 L
DO
1968 1603 mt 1968  135 L
1968  135 mt 1968  135 L
SO
1968 1603 mt 1968 1593 L
1968  135 mt 1968  144 L
DO
1968 1603 mt 1968  135 L
1968  135 mt 1968  135 L
SO
1968 1603 mt 1968 1593 L
1968  135 mt 1968  144 L
DO
1968 1603 mt 1968  135 L
1968  135 mt 1968  135 L
SO
1968 1603 mt 1968 1593 L
1968  135 mt 1968  144 L
DO
1968 1603 mt 1968  135 L
1968  135 mt 1968  135 L
SO
1968 1603 mt 1968 1593 L
1968  135 mt 1968  144 L
DO
1968 1603 mt 1968  135 L
1968  135 mt 1968  135 L
SO
1968 1603 mt 1968 1593 L
1968  135 mt 1968  144 L
DO
1968 1603 mt 1968  135 L
1968  135 mt 1968  135 L
SO
1968 1603 mt 1968 1593 L
1968  135 mt 1968  144 L
DO
1968 1603 mt 1968  135 L
1968  135 mt 1968  135 L
SO
1968 1603 mt 1968 1593 L
1968  135 mt 1968  144 L
DO
1968 1603 mt 1968  135 L
1968  135 mt 1968  135 L
SO
2152 1603 mt 2152 1584 L
2152  135 mt 2152  153 L
2083 1675 mt 
(1024) s
2152 1603 mt 2152 1593 L
2152  135 mt 2152  144 L
DO
2152 1603 mt 2152  135 L
2152  135 mt 2152  135 L
SO
 311 1603 mt  330 1603 L
2172 1603 mt 2153 1603 L
 266 1627 mt 
(0) s
 311 1531 mt  321 1531 L
2172 1531 mt 2162 1531 L
DO
 311 1531 mt 2172 1531 L
2172 1531 mt 2172 1531 L
SO
 311 1460 mt  321 1460 L
2172 1460 mt 2162 1460 L
DO
 311 1460 mt 2172 1460 L
2172 1460 mt 2172 1460 L
SO
 311 1460 mt  321 1460 L
2172 1460 mt 2162 1460 L
DO
 311 1460 mt 2172 1460 L
2172 1460 mt 2172 1460 L
SO
 311 1460 mt  321 1460 L
2172 1460 mt 2162 1460 L
DO
 311 1460 mt 2172 1460 L
2172 1460 mt 2172 1460 L
SO
 311 1460 mt  321 1460 L
2172 1460 mt 2162 1460 L
DO
 311 1460 mt 2172 1460 L
2172 1460 mt 2172 1460 L
SO
 311 1460 mt  321 1460 L
2172 1460 mt 2162 1460 L
DO
 311 1460 mt 2172 1460 L
2172 1460 mt 2172 1460 L
SO
 311 1460 mt  321 1460 L
2172 1460 mt 2162 1460 L
DO
 311 1460 mt 2172 1460 L
2172 1460 mt 2172 1460 L
SO
 311 1460 mt  321 1460 L
2172 1460 mt 2162 1460 L
DO
 311 1460 mt 2172 1460 L
2172 1460 mt 2172 1460 L
SO
 311 1460 mt  321 1460 L
2172 1460 mt 2162 1460 L
DO
 311 1460 mt 2172 1460 L
2172 1460 mt 2172 1460 L
SO
 311 1460 mt  330 1460 L
2172 1460 mt 2153 1460 L
 214 1484 mt 
(0.1) s
 311 1389 mt  321 1389 L
2172 1389 mt 2162 1389 L
DO
 311 1389 mt 2172 1389 L
2172 1389 mt 2172 1389 L
SO
 311 1317 mt  321 1317 L
2172 1317 mt 2162 1317 L
DO
 311 1317 mt 2172 1317 L
2172 1317 mt 2172 1317 L
SO
 311 1317 mt  321 1317 L
2172 1317 mt 2162 1317 L
DO
 311 1317 mt 2172 1317 L
2172 1317 mt 2172 1317 L
SO
 311 1317 mt  321 1317 L
2172 1317 mt 2162 1317 L
DO
 311 1317 mt 2172 1317 L
2172 1317 mt 2172 1317 L
SO
 311 1317 mt  321 1317 L
2172 1317 mt 2162 1317 L
DO
 311 1317 mt 2172 1317 L
2172 1317 mt 2172 1317 L
SO
 311 1317 mt  321 1317 L
2172 1317 mt 2162 1317 L
DO
 311 1317 mt 2172 1317 L
2172 1317 mt 2172 1317 L
SO
 311 1317 mt  321 1317 L
2172 1317 mt 2162 1317 L
DO
 311 1317 mt 2172 1317 L
2172 1317 mt 2172 1317 L
SO
 311 1317 mt  321 1317 L
2172 1317 mt 2162 1317 L
DO
 311 1317 mt 2172 1317 L
2172 1317 mt 2172 1317 L
SO
 311 1317 mt  321 1317 L
2172 1317 mt 2162 1317 L
DO
 311 1317 mt 2172 1317 L
2172 1317 mt 2172 1317 L
SO
 311 1317 mt  330 1317 L
2172 1317 mt 2153 1317 L
 214 1341 mt 
(0.2) s
 311 1246 mt  321 1246 L
2172 1246 mt 2162 1246 L
DO
 311 1246 mt 2172 1246 L
2172 1246 mt 2172 1246 L
SO
 311 1175 mt  321 1175 L
2172 1175 mt 2162 1175 L
DO
 311 1175 mt 2172 1175 L
2172 1175 mt 2172 1175 L
SO
 311 1175 mt  321 1175 L
2172 1175 mt 2162 1175 L
DO
 311 1175 mt 2172 1175 L
2172 1175 mt 2172 1175 L
SO
 311 1175 mt  321 1175 L
2172 1175 mt 2162 1175 L
DO
 311 1175 mt 2172 1175 L
2172 1175 mt 2172 1175 L
SO
 311 1175 mt  321 1175 L
2172 1175 mt 2162 1175 L
DO
 311 1175 mt 2172 1175 L
2172 1175 mt 2172 1175 L
SO
 311 1175 mt  321 1175 L
2172 1175 mt 2162 1175 L
DO
 311 1175 mt 2172 1175 L
2172 1175 mt 2172 1175 L
SO
 311 1175 mt  321 1175 L
2172 1175 mt 2162 1175 L
DO
 311 1175 mt 2172 1175 L
2172 1175 mt 2172 1175 L
SO
 311 1175 mt  321 1175 L
2172 1175 mt 2162 1175 L
DO
 311 1175 mt 2172 1175 L
2172 1175 mt 2172 1175 L
SO
 311 1175 mt  321 1175 L
2172 1175 mt 2162 1175 L
DO
 311 1175 mt 2172 1175 L
2172 1175 mt 2172 1175 L
SO
 311 1175 mt  330 1175 L
2172 1175 mt 2153 1175 L
 214 1199 mt 
(0.3) s
 311 1104 mt  321 1104 L
2172 1104 mt 2162 1104 L
DO
 311 1104 mt 2172 1104 L
2172 1104 mt 2172 1104 L
SO
 311 1032 mt  321 1032 L
2172 1032 mt 2162 1032 L
DO
 311 1032 mt 2172 1032 L
2172 1032 mt 2172 1032 L
SO
 311 1032 mt  321 1032 L
2172 1032 mt 2162 1032 L
DO
 311 1032 mt 2172 1032 L
2172 1032 mt 2172 1032 L
SO
 311 1032 mt  321 1032 L
2172 1032 mt 2162 1032 L
DO
 311 1032 mt 2172 1032 L
2172 1032 mt 2172 1032 L
SO
 311 1032 mt  321 1032 L
2172 1032 mt 2162 1032 L
DO
 311 1032 mt 2172 1032 L
2172 1032 mt 2172 1032 L
SO
 311 1032 mt  321 1032 L
2172 1032 mt 2162 1032 L
DO
 311 1032 mt 2172 1032 L
2172 1032 mt 2172 1032 L
SO
 311 1032 mt  321 1032 L
2172 1032 mt 2162 1032 L
DO
 311 1032 mt 2172 1032 L
2172 1032 mt 2172 1032 L
SO
 311 1032 mt  321 1032 L
2172 1032 mt 2162 1032 L
DO
 311 1032 mt 2172 1032 L
2172 1032 mt 2172 1032 L
SO
 311 1032 mt  321 1032 L
2172 1032 mt 2162 1032 L
DO
 311 1032 mt 2172 1032 L
2172 1032 mt 2172 1032 L
SO
 311 1032 mt  330 1032 L
2172 1032 mt 2153 1032 L
 214 1056 mt 
(0.4) s
 311  961 mt  321  961 L
2172  961 mt 2162  961 L
DO
 311  961 mt 2172  961 L
2172  961 mt 2172  961 L
SO
 311  890 mt  321  890 L
2172  890 mt 2162  890 L
DO
 311  890 mt 2172  890 L
2172  890 mt 2172  890 L
SO
 311  890 mt  321  890 L
2172  890 mt 2162  890 L
DO
 311  890 mt 2172  890 L
2172  890 mt 2172  890 L
SO
 311  890 mt  321  890 L
2172  890 mt 2162  890 L
DO
 311  890 mt 2172  890 L
2172  890 mt 2172  890 L
SO
 311  890 mt  321  890 L
2172  890 mt 2162  890 L
DO
 311  890 mt 2172  890 L
2172  890 mt 2172  890 L
SO
 311  890 mt  321  890 L
2172  890 mt 2162  890 L
DO
 311  890 mt 2172  890 L
2172  890 mt 2172  890 L
SO
 311  890 mt  321  890 L
2172  890 mt 2162  890 L
DO
 311  890 mt 2172  890 L
2172  890 mt 2172  890 L
SO
 311  890 mt  321  890 L
2172  890 mt 2162  890 L
DO
 311  890 mt 2172  890 L
2172  890 mt 2172  890 L
SO
 311  890 mt  321  890 L
2172  890 mt 2162  890 L
DO
 311  890 mt 2172  890 L
2172  890 mt 2172  890 L
SO
 311  890 mt  330  890 L
2172  890 mt 2153  890 L
 214  914 mt 
(0.5) s
 311  819 mt  321  819 L
2172  819 mt 2162  819 L
DO
 311  819 mt 2172  819 L
2172  819 mt 2172  819 L
SO
 311  747 mt  321  747 L
2172  747 mt 2162  747 L
DO
 311  747 mt 2172  747 L
2172  747 mt 2172  747 L
SO
 311  747 mt  321  747 L
2172  747 mt 2162  747 L
DO
 311  747 mt 2172  747 L
2172  747 mt 2172  747 L
SO
 311  747 mt  321  747 L
2172  747 mt 2162  747 L
DO
 311  747 mt 2172  747 L
2172  747 mt 2172  747 L
SO
 311  747 mt  321  747 L
2172  747 mt 2162  747 L
DO
 311  747 mt 2172  747 L
2172  747 mt 2172  747 L
SO
 311  747 mt  321  747 L
2172  747 mt 2162  747 L
DO
 311  747 mt 2172  747 L
2172  747 mt 2172  747 L
SO
 311  747 mt  321  747 L
2172  747 mt 2162  747 L
DO
 311  747 mt 2172  747 L
2172  747 mt 2172  747 L
SO
 311  747 mt  321  747 L
2172  747 mt 2162  747 L
DO
 311  747 mt 2172  747 L
2172  747 mt 2172  747 L
SO
 311  747 mt  321  747 L
2172  747 mt 2162  747 L
DO
 311  747 mt 2172  747 L
2172  747 mt 2172  747 L
SO
 311  747 mt  330  747 L
2172  747 mt 2153  747 L
 214  771 mt 
(0.6) s
 311  676 mt  321  676 L
2172  676 mt 2162  676 L
DO
 311  676 mt 2172  676 L
2172  676 mt 2172  676 L
SO
 311  605 mt  321  605 L
2172  605 mt 2162  605 L
DO
 311  605 mt 2172  605 L
2172  605 mt 2172  605 L
SO
 311  605 mt  321  605 L
2172  605 mt 2162  605 L
DO
 311  605 mt 2172  605 L
2172  605 mt 2172  605 L
SO
 311  605 mt  321  605 L
2172  605 mt 2162  605 L
DO
 311  605 mt 2172  605 L
2172  605 mt 2172  605 L
SO
 311  605 mt  321  605 L
2172  605 mt 2162  605 L
DO
 311  605 mt 2172  605 L
2172  605 mt 2172  605 L
SO
 311  605 mt  321  605 L
2172  605 mt 2162  605 L
DO
 311  605 mt 2172  605 L
2172  605 mt 2172  605 L
SO
 311  605 mt  321  605 L
2172  605 mt 2162  605 L
DO
 311  605 mt 2172  605 L
2172  605 mt 2172  605 L
SO
 311  605 mt  321  605 L
2172  605 mt 2162  605 L
DO
 311  605 mt 2172  605 L
2172  605 mt 2172  605 L
SO
 311  605 mt  321  605 L
2172  605 mt 2162  605 L
DO
 311  605 mt 2172  605 L
2172  605 mt 2172  605 L
SO
 311  605 mt  330  605 L
2172  605 mt 2153  605 L
 214  629 mt 
(0.7) s
 311  534 mt  321  534 L
2172  534 mt 2162  534 L
DO
 311  534 mt 2172  534 L
2172  534 mt 2172  534 L
SO
 311  462 mt  321  462 L
2172  462 mt 2162  462 L
DO
 311  462 mt 2172  462 L
2172  462 mt 2172  462 L
SO
 311  462 mt  321  462 L
2172  462 mt 2162  462 L
DO
 311  462 mt 2172  462 L
2172  462 mt 2172  462 L
SO
 311  462 mt  321  462 L
2172  462 mt 2162  462 L
DO
 311  462 mt 2172  462 L
2172  462 mt 2172  462 L
SO
 311  462 mt  321  462 L
2172  462 mt 2162  462 L
DO
 311  462 mt 2172  462 L
2172  462 mt 2172  462 L
SO
 311  462 mt  321  462 L
2172  462 mt 2162  462 L
DO
 311  462 mt 2172  462 L
2172  462 mt 2172  462 L
SO
 311  462 mt  321  462 L
2172  462 mt 2162  462 L
DO
 311  462 mt 2172  462 L
2172  462 mt 2172  462 L
SO
 311  462 mt  321  462 L
2172  462 mt 2162  462 L
DO
 311  462 mt 2172  462 L
2172  462 mt 2172  462 L
SO
 311  462 mt  321  462 L
2172  462 mt 2162  462 L
DO
 311  462 mt 2172  462 L
2172  462 mt 2172  462 L
SO
 311  462 mt  330  462 L
2172  462 mt 2153  462 L
 214  486 mt 
(0.8) s
 311  391 mt  321  391 L
2172  391 mt 2162  391 L
DO
 311  391 mt 2172  391 L
2172  391 mt 2172  391 L
SO
 311  320 mt  321  320 L
2172  320 mt 2162  320 L
DO
 311  320 mt 2172  320 L
2172  320 mt 2172  320 L
SO
 311  320 mt  321  320 L
2172  320 mt 2162  320 L
DO
 311  320 mt 2172  320 L
2172  320 mt 2172  320 L
SO
 311  320 mt  321  320 L
2172  320 mt 2162  320 L
DO
 311  320 mt 2172  320 L
2172  320 mt 2172  320 L
SO
 311  320 mt  321  320 L
2172  320 mt 2162  320 L
DO
 311  320 mt 2172  320 L
2172  320 mt 2172  320 L
SO
 311  320 mt  321  320 L
2172  320 mt 2162  320 L
DO
 311  320 mt 2172  320 L
2172  320 mt 2172  320 L
SO
 311  320 mt  321  320 L
2172  320 mt 2162  320 L
DO
 311  320 mt 2172  320 L
2172  320 mt 2172  320 L
SO
 311  320 mt  321  320 L
2172  320 mt 2162  320 L
DO
 311  320 mt 2172  320 L
2172  320 mt 2172  320 L
SO
 311  320 mt  321  320 L
2172  320 mt 2162  320 L
DO
 311  320 mt 2172  320 L
2172  320 mt 2172  320 L
SO
 311  320 mt  330  320 L
2172  320 mt 2153  320 L
 214  344 mt 
(0.9) s
 311  249 mt  321  249 L
2172  249 mt 2162  249 L
DO
 311  249 mt 2172  249 L
2172  249 mt 2172  249 L
SO
 311  177 mt  321  177 L
2172  177 mt 2162  177 L
DO
 311  177 mt 2172  177 L
2172  177 mt 2172  177 L
SO
 311  177 mt  321  177 L
2172  177 mt 2162  177 L
DO
 311  177 mt 2172  177 L
2172  177 mt 2172  177 L
SO
 311  177 mt  321  177 L
2172  177 mt 2162  177 L
DO
 311  177 mt 2172  177 L
2172  177 mt 2172  177 L
SO
 311  177 mt  321  177 L
2172  177 mt 2162  177 L
DO
 311  177 mt 2172  177 L
2172  177 mt 2172  177 L
SO
 311  177 mt  321  177 L
2172  177 mt 2162  177 L
DO
 311  177 mt 2172  177 L
2172  177 mt 2172  177 L
SO
 311  177 mt  321  177 L
2172  177 mt 2162  177 L
DO
 311  177 mt 2172  177 L
2172  177 mt 2172  177 L
SO
 311  177 mt  321  177 L
2172  177 mt 2162  177 L
DO
 311  177 mt 2172  177 L
2172  177 mt 2172  177 L
SO
 311  177 mt  321  177 L
2172  177 mt 2162  177 L
DO
 311  177 mt 2172  177 L
2172  177 mt 2172  177 L
SO
 311  177 mt  330  177 L
2172  177 mt 2153  177 L
 266  201 mt 
(1) s
 311 1603 mt 2172 1603 L
 311  135 mt 2172  135 L
 311 1603 mt  311  135 L
2172 1603 mt 2172  135 L
gs 312 135 1861 1469 rc
8.33333 w
/c8 { 0.000000 0.000000 1.000000 sr} bdef
c8
184 143 184 118 184 44 184 24 184 4 184 -1 184 4 184 0 
368 -1 312 177 10 MP stroke
gr

8.33333 w
c8
 660  176 mt  700  176 L
 680  156 mt  680  196 L
 844  176 mt  884  176 L
 864  156 mt  864  196 L
1028  180 mt 1068  180 L
1048  160 mt 1048  200 L
1212  179 mt 1252  179 L
1232  159 mt 1232  199 L
1396  183 mt 1436  183 L
1416  163 mt 1416  203 L
1580  207 mt 1620  207 L
1600  187 mt 1600  227 L
1764  251 mt 1804  251 L
1784  231 mt 1784  271 L
1948  369 mt 1988  369 L
1968  349 mt 1968  389 L
2132  512 mt 2172  512 L
2152  492 mt 2152  532 L
 666  162 mt  694  190 L
 694  162 mt  666  190 L
 850  162 mt  878  190 L
 878  162 mt  850  190 L
1034  166 mt 1062  194 L
1062  166 mt 1034  194 L
1218  165 mt 1246  193 L
1246  165 mt 1218  193 L
1402  169 mt 1430  197 L
1430  169 mt 1402  197 L
1586  193 mt 1614  221 L
1614  193 mt 1586  221 L
1770  237 mt 1798  265 L
1798  237 mt 1770  265 L
1954  355 mt 1982  383 L
1982  355 mt 1954  383 L
2138  498 mt 2166  526 L
2166  498 mt 2138  526 L
gs 312 135 1861 1469 rc
/c9 { 0.000000 0.500000 0.000000 sr} bdef
c9
184 105 184 103 184 31 184 25 184 17 184 -2 184 -4 184 28 
368 11 312 177 10 MP stroke
gr

c9
0 j
0 -40 -40 0 0 40 40 0 660 168 5 MP
DP
0 -40 -40 0 0 40 40 0 844 196 5 MP
DP
0 -40 -40 0 0 40 40 0 1028 192 5 MP
DP
0 -40 -40 0 0 40 40 0 1212 190 5 MP
DP
0 -40 -40 0 0 40 40 0 1396 207 5 MP
DP
0 -40 -40 0 0 40 40 0 1580 232 5 MP
DP
0 -40 -40 0 0 40 40 0 1764 263 5 MP
DP
0 -40 -40 0 0 40 40 0 1948 366 5 MP
DP
0 -40 -40 0 0 40 40 0 2132 471 5 MP
DP
gs 312 135 1861 1469 rc
/c10 { 1.000000 0.000000 0.000000 sr} bdef
c10
184 144 184 113 184 59 184 25 184 9 184 9 184 3 184 9 
368 -1 312 177 10 MP stroke
gr

c10
24 W
680 176 PD
24 W
864 185 PD
24 W
1048 188 PD
24 W
1232 197 PD
24 W
1416 206 PD
24 W
1600 231 PD
24 W
1784 290 PD
24 W
1968 403 PD
24 W
2152 547 PD
gs 312 135 1861 1469 rc
0 sg
184 186 184 161 184 74 184 54 184 17 184 8 184 7 184 11 
368 -3 312 177 10 MP stroke
gr

0 sg
  25   25  680  174 FO
  25   25  864  185 FO
  25   25 1048  192 FO
  25   25 1232  200 FO
  25   25 1416  217 FO
  25   25 1600  271 FO
  25   25 1784  345 FO
  25   25 1968  506 FO
  25   25 2152  692 FO
gs 312 135 1861 1469 rc
gr

%%IncludeResource: font Helvetica-Bold
/Helvetica-Bold /ISOLatin1Encoding 66.6667 FMSR

 973 1744 mt 
(Number of Procs) s
 179 1233 mt  -90 rotate
(Efficiency \(SpeedUp/p\)) s
90 rotate
%%IncludeResource: font Helvetica-Bold
/Helvetica-Bold /ISOLatin1Encoding 75 FMSR

 732   82 mt 
(Efficiency - Weak Scalability) s
%%IncludeResource: font Helvetica
/Helvetica /ISOLatin1Encoding 41.6667 FMSR

 306 1619 mt 
( ) s
2167  150 mt 
( ) s
2.08333 w
1 sg
0 422 915 0 0 -422 374 1434 4 MP
PP
-915 0 0 422 915 0 0 -422 374 1434 5 MP stroke
1.38889 w
DO
SO
2.08333 w
0 sg
 374 1434 mt 1289 1434 L
 374 1012 mt 1289 1012 L
 374 1434 mt  374 1012 L
1289 1434 mt 1289 1012 L
 374 1434 mt 1289 1434 L
 374 1434 mt  374 1012 L
 374 1434 mt 1289 1434 L
 374 1012 mt 1289 1012 L
 374 1434 mt  374 1012 L
1289 1434 mt 1289 1012 L
%%IncludeResource: font Helvetica-Bold
/Helvetica-Bold /ISOLatin1Encoding 62.5 FMSR

 537 1093 mt 
(Efficiency \(Blas IBM P1\)) s
gs 374 1012 916 423 rc
8.33333 w
c8
125 0 399 1070 2 MP stroke
gs 409 1018 105 105 rc
 441 1070 mt  481 1070 L
 461 1050 mt  461 1090 L
 447 1056 mt  475 1084 L
 475 1056 mt  447 1084 L
gr

gr

8.33333 w
c8
0 sg
 537 1195 mt 
(Efficiency \(Blas IBM P3\)) s
gs 374 1012 916 423 rc
c9
125 0 399 1172 2 MP stroke
gs 401 1111 121 122 rc
0 -40 -40 0 0 40 40 0 441 1152 5 MP
DP
gr

gr

c9
0 sg
 537 1298 mt 
(Efficiency \(Blas IBM P6\)) s
gs 374 1012 916 423 rc
c10
125 0 399 1273 2 MP stroke
gs 376 1188 171 172 rc
24 W
461 1273 PD
gr

gr

c10
0 sg
 537 1400 mt 
(Efficiency \(Blas IBM P9\)) s
gs 374 1012 916 423 rc
125 0 399 1375 2 MP stroke
gr

gs 401 1315 121 122 rc
  25   25  461 1375 FO
gr

gs 374 1012 916 423 rc
2.08333 w
gr

2.08333 w

end %%Color Dict

eplot
%%EndObject

epage
end

showpage

%%Trailer
%%EOF
