%!PS-Adobe-3.0 EPSF-3.0
%%Creator: MATLAB, The MathWorks, Inc. Version 8.3.0.532 (R2014a). Operating System: Linux 4.15.0-109-generic #110-Ubuntu SMP Tue Jun 23 02:39:32 UTC 2020 x86_64.
%%Title: /home/doc/Work/Doutorado/thesis/thesis/eps/WeakScaling_Efficiency.eps
%%CreationDate: 07/15/2020  11:32:17
%%DocumentNeededFonts: Times-Roman
%%+ Helvetica
%%+ Times-Bold
%%DocumentProcessColors: Cyan Magenta Yellow Black
%%LanguageLevel: 2
%%Pages: 1
%%BoundingBox:   -72   142   684   650
%%EndComments

%%BeginProlog
% MathWorks dictionary
/MathWorks 160 dict begin
% definition operators
/bdef {bind def} bind def
/ldef {load def} bind def
/xdef {exch def} bdef
/xstore {exch store} bdef
% operator abbreviations
/c  /clip ldef
/cc /concat ldef
/cp /closepath ldef
/gr /grestore ldef
/gs /gsave ldef
/mt /moveto ldef
/np /newpath ldef
/cm /currentmatrix ldef
/sm /setmatrix ldef
/rm /rmoveto ldef
/rl /rlineto ldef
/s {show newpath} bdef
/sc {setcmykcolor} bdef
/sr /setrgbcolor ldef
/sg /setgray ldef
/w /setlinewidth ldef
/j /setlinejoin ldef
/cap /setlinecap ldef
/rc {rectclip} bdef
/rf {rectfill} bdef
% page state control
/pgsv () def
/bpage {/pgsv save def} bdef
/epage {pgsv restore} bdef
/bplot /gsave ldef
/eplot {stroke grestore} bdef
% orientation switch
/portraitMode 0 def /landscapeMode 1 def /rotateMode 2 def
% coordinate system mappings
/dpi2point 0 def
% font control
/FontSize 0 def
/FMS {/FontSize xstore findfont [FontSize 0 0 FontSize neg 0 0]
  makefont setfont} bdef
/reencode {exch dup where {pop load} {pop StandardEncoding} ifelse
  exch dup 3 1 roll findfont dup length dict begin
  { 1 index /FID ne {def}{pop pop} ifelse } forall
  /Encoding exch def currentdict end definefont pop} bdef
/isroman {findfont /CharStrings get /Agrave known} bdef
/FMSR {3 1 roll 1 index dup isroman {reencode} {pop pop} ifelse
  exch FMS} bdef
/csm {1 dpi2point div -1 dpi2point div scale neg translate
 dup landscapeMode eq {pop -90 rotate}
  {rotateMode eq {90 rotate} if} ifelse} bdef
% line types: solid, dotted, dashed, dotdash
/SO { [] 0 setdash } bdef
/DO { [.5 dpi2point mul 4 dpi2point mul] 0 setdash } bdef
/DA { [6 dpi2point mul] 0 setdash } bdef
/DD { [.5 dpi2point mul 4 dpi2point mul 6 dpi2point mul 4
  dpi2point mul] 0 setdash } bdef
% macros for lines and objects
/L {lineto stroke} bdef
/MP {3 1 roll moveto 1 sub {rlineto} repeat} bdef
/AP {{rlineto} repeat} bdef
/PDlw -1 def
/W {/PDlw currentlinewidth def setlinewidth} def
/PP {closepath eofill} bdef
/DP {closepath stroke} bdef
/MR {4 -2 roll moveto dup  0 exch rlineto exch 0 rlineto
  neg 0 exch rlineto closepath} bdef
/FR {MR stroke} bdef
/PR {MR fill} bdef
/L1i {{currentfile picstr readhexstring pop} image} bdef
/tMatrix matrix def
/MakeOval {newpath tMatrix currentmatrix pop translate scale
0 0 1 0 360 arc tMatrix setmatrix} bdef
/FO {MakeOval stroke} bdef
/PO {MakeOval fill} bdef
/PD {currentlinewidth 2 div 0 360 arc fill
   PDlw -1 eq not {PDlw w /PDlw -1 def} if} def
/FA {newpath tMatrix currentmatrix pop translate scale
  0 0 1 5 -2 roll arc tMatrix setmatrix stroke} bdef
/PA {newpath tMatrix currentmatrix pop	translate 0 0 moveto scale
  0 0 1 5 -2 roll arc closepath tMatrix setmatrix fill} bdef
/FAn {newpath tMatrix currentmatrix pop translate scale
  0 0 1 5 -2 roll arcn tMatrix setmatrix stroke} bdef
/PAn {newpath tMatrix currentmatrix pop translate 0 0 moveto scale
  0 0 1 5 -2 roll arcn closepath tMatrix setmatrix fill} bdef
/vradius 0 def /hradius 0 def /lry 0 def
/lrx 0 def /uly 0 def /ulx 0 def /rad 0 def
/MRR {/vradius xdef /hradius xdef /lry xdef /lrx xdef /uly xdef
  /ulx xdef newpath tMatrix currentmatrix pop ulx hradius add uly
  vradius add translate hradius vradius scale 0 0 1 180 270 arc 
  tMatrix setmatrix lrx hradius sub uly vradius add translate
  hradius vradius scale 0 0 1 270 360 arc tMatrix setmatrix
  lrx hradius sub lry vradius sub translate hradius vradius scale
  0 0 1 0 90 arc tMatrix setmatrix ulx hradius add lry vradius sub
  translate hradius vradius scale 0 0 1 90 180 arc tMatrix setmatrix
  closepath} bdef
/FRR {MRR stroke } bdef
/PRR {MRR fill } bdef
/MlrRR {/lry xdef /lrx xdef /uly xdef /ulx xdef /rad lry uly sub 2 div def
  newpath tMatrix currentmatrix pop ulx rad add uly rad add translate
  rad rad scale 0 0 1 90 270 arc tMatrix setmatrix lrx rad sub lry rad
  sub translate rad rad scale 0 0 1 270 90 arc tMatrix setmatrix
  closepath} bdef
/FlrRR {MlrRR stroke } bdef
/PlrRR {MlrRR fill } bdef
/MtbRR {/lry xdef /lrx xdef /uly xdef /ulx xdef /rad lrx ulx sub 2 div def
  newpath tMatrix currentmatrix pop ulx rad add uly rad add translate
  rad rad scale 0 0 1 180 360 arc tMatrix setmatrix lrx rad sub lry rad
  sub translate rad rad scale 0 0 1 0 180 arc tMatrix setmatrix
  closepath} bdef
/FtbRR {MtbRR stroke } bdef
/PtbRR {MtbRR fill } bdef
/stri 6 array def /dtri 6 array def
/smat 6 array def /dmat 6 array def
/tmat1 6 array def /tmat2 6 array def /dif 3 array def
/asub {/ind2 exch def /ind1 exch def dup dup
  ind1 get exch ind2 get sub exch } bdef
/tri_to_matrix {
  2 0 asub 3 1 asub 4 0 asub 5 1 asub
  dup 0 get exch 1 get 7 -1 roll astore } bdef
/compute_transform {
  dmat dtri tri_to_matrix tmat1 invertmatrix 
  smat stri tri_to_matrix tmat2 concatmatrix } bdef
/ds {stri astore pop} bdef
/dt {dtri astore pop} bdef
/db {2 copy /cols xdef /rows xdef mul dup 3 mul string
  currentfile 
  3 index 0 eq {/ASCIIHexDecode filter}
  {/ASCII85Decode filter 3 index 2 eq {/RunLengthDecode filter} if }
  ifelse exch readstring pop
  dup 0 3 index getinterval /rbmap xdef
  dup 2 index dup getinterval /gbmap xdef
  1 index dup 2 mul exch getinterval /bbmap xdef pop pop}bdef
/it {gs np dtri aload pop moveto lineto lineto cp c
  cols rows 8 compute_transform 
  rbmap gbmap bbmap true 3 colorimage gr}bdef
/il {newpath moveto lineto stroke}bdef
currentdict end def
%%EndProlog

%%BeginSetup
MathWorks begin

0 cap

end
%%EndSetup

%%Page: 1 1
%%BeginPageSetup
%%PageBoundingBox:   -72   142   684   650
MathWorks begin
bpage
%%EndPageSetup

%%BeginObject: obj1
bplot

/dpi2point 12 def
portraitMode -0864 7800 csm

    0     0  9081  6096 rc
86 dict begin %Colortable dictionary
/c0 { 0.000000 0.000000 0.000000 sr} bdef
/c1 { 1.000000 1.000000 1.000000 sr} bdef
/c2 { 0.900000 0.000000 0.000000 sr} bdef
/c3 { 0.000000 0.820000 0.000000 sr} bdef
/c4 { 0.000000 0.000000 0.800000 sr} bdef
/c5 { 0.910000 0.820000 0.320000 sr} bdef
/c6 { 1.000000 0.260000 0.820000 sr} bdef
/c7 { 0.000000 0.820000 0.820000 sr} bdef
c0
1 j
1 sg
   0    0 9082 6097 rf
6 w
0 4832 7660 0 0 -4832 1027 5013 4 MP
PP
-7660 0 0 4832 7660 0 0 -4832 1027 5013 5 MP stroke
4 w
DO
0 sg
1027 5013 mt 1027  182 L
1027  182 mt 1027  182 L
1775 5013 mt 1775  182 L
1775  182 mt 1775  182 L
2524 5013 mt 2524  182 L
2524  182 mt 2524  182 L
3273 5013 mt 3273  182 L
3273  182 mt 3273  182 L
4022 5013 mt 4022  182 L
4022  182 mt 4022  182 L
4771 5013 mt 4771  182 L
4771  182 mt 4771  182 L
5520 5013 mt 5520  182 L
5520  182 mt 5520  182 L
6269 5013 mt 6269  182 L
6269  182 mt 6269  182 L
7017 5013 mt 7017  182 L
7017  182 mt 7017  182 L
7766 5013 mt 7766  182 L
7766  182 mt 7766  182 L
8515 5013 mt 8515  182 L
8515  182 mt 8515  182 L
1027 5013 mt 8687 5013 L
8687 5013 mt 8687 5013 L
1027 4573 mt 8687 4573 L
8687 4573 mt 8687 4573 L
1027 4134 mt 8687 4134 L
8687 4134 mt 8687 4134 L
1027 3695 mt 8687 3695 L
8687 3695 mt 8687 3695 L
1027 3256 mt 8687 3256 L
8687 3256 mt 8687 3256 L
1027 2817 mt 8687 2817 L
8687 2817 mt 8687 2817 L
1027 2377 mt 8687 2377 L
8687 2377 mt 8687 2377 L
1027 1938 mt 8687 1938 L
8687 1938 mt 8687 1938 L
1027 1499 mt 8687 1499 L
8687 1499 mt 8687 1499 L
1027 1060 mt 8687 1060 L
8687 1060 mt 8687 1060 L
1027  621 mt 8687  621 L
8687  621 mt 8687  621 L
1027  182 mt 8687  182 L
8687  182 mt 8687  182 L
SO
6 w
1027 5013 mt 8687 5013 L
1027  181 mt 8687  181 L
1027 5013 mt 1027  181 L
8687 5013 mt 8687  181 L
1027 5013 mt 8687 5013 L
1027 5013 mt 1027  181 L
1027 5013 mt 1027 4974 L
1027  182 mt 1027  220 L
DO
1027 5013 mt 1027  182 L
1027  182 mt 1027  182 L
SO
1027 5013 mt 1027 4936 L
1027  182 mt 1027  258 L
%%IncludeResource: font Times-Roman
/Times-Roman /ISOLatin1Encoding 300 FMSR

 952 5316 mt 
(1) s
1775 5013 mt 1775 4974 L
1775  182 mt 1775  220 L
DO
1775 5013 mt 1775  182 L
1775  182 mt 1775  182 L
SO
1775 5013 mt 1775 4974 L
1775  182 mt 1775  220 L
DO
1775 5013 mt 1775  182 L
1775  182 mt 1775  182 L
SO
1775 5013 mt 1775 4974 L
1775  182 mt 1775  220 L
DO
1775 5013 mt 1775  182 L
1775  182 mt 1775  182 L
SO
1775 5013 mt 1775 4974 L
1775  182 mt 1775  220 L
DO
1775 5013 mt 1775  182 L
1775  182 mt 1775  182 L
SO
1775 5013 mt 1775 4974 L
1775  182 mt 1775  220 L
DO
1775 5013 mt 1775  182 L
1775  182 mt 1775  182 L
SO
1775 5013 mt 1775 4974 L
1775  182 mt 1775  220 L
DO
1775 5013 mt 1775  182 L
1775  182 mt 1775  182 L
SO
1775 5013 mt 1775 4974 L
1775  182 mt 1775  220 L
DO
1775 5013 mt 1775  182 L
1775  182 mt 1775  182 L
SO
1775 5013 mt 1775 4974 L
1775  182 mt 1775  220 L
DO
1775 5013 mt 1775  182 L
1775  182 mt 1775  182 L
SO
1775 5013 mt 1775 4974 L
1775  182 mt 1775  220 L
DO
1775 5013 mt 1775  182 L
1775  182 mt 1775  182 L
SO
1775 5013 mt 1775 4936 L
1775  182 mt 1775  258 L
1700 5316 mt 
(2) s
2524 5013 mt 2524 4974 L
2524  182 mt 2524  220 L
DO
2524 5013 mt 2524  182 L
2524  182 mt 2524  182 L
SO
2524 5013 mt 2524 4974 L
2524  182 mt 2524  220 L
DO
2524 5013 mt 2524  182 L
2524  182 mt 2524  182 L
SO
2524 5013 mt 2524 4974 L
2524  182 mt 2524  220 L
DO
2524 5013 mt 2524  182 L
2524  182 mt 2524  182 L
SO
2524 5013 mt 2524 4974 L
2524  182 mt 2524  220 L
DO
2524 5013 mt 2524  182 L
2524  182 mt 2524  182 L
SO
2524 5013 mt 2524 4974 L
2524  182 mt 2524  220 L
DO
2524 5013 mt 2524  182 L
2524  182 mt 2524  182 L
SO
2524 5013 mt 2524 4974 L
2524  182 mt 2524  220 L
DO
2524 5013 mt 2524  182 L
2524  182 mt 2524  182 L
SO
2524 5013 mt 2524 4974 L
2524  182 mt 2524  220 L
DO
2524 5013 mt 2524  182 L
2524  182 mt 2524  182 L
SO
2524 5013 mt 2524 4974 L
2524  182 mt 2524  220 L
DO
2524 5013 mt 2524  182 L
2524  182 mt 2524  182 L
SO
2524 5013 mt 2524 4974 L
2524  182 mt 2524  220 L
DO
2524 5013 mt 2524  182 L
2524  182 mt 2524  182 L
SO
2524 5013 mt 2524 4936 L
2524  182 mt 2524  258 L
2449 5316 mt 
(4) s
3273 5013 mt 3273 4974 L
3273  182 mt 3273  220 L
DO
3273 5013 mt 3273  182 L
3273  182 mt 3273  182 L
SO
3273 5013 mt 3273 4974 L
3273  182 mt 3273  220 L
DO
3273 5013 mt 3273  182 L
3273  182 mt 3273  182 L
SO
3273 5013 mt 3273 4974 L
3273  182 mt 3273  220 L
DO
3273 5013 mt 3273  182 L
3273  182 mt 3273  182 L
SO
3273 5013 mt 3273 4974 L
3273  182 mt 3273  220 L
DO
3273 5013 mt 3273  182 L
3273  182 mt 3273  182 L
SO
3273 5013 mt 3273 4974 L
3273  182 mt 3273  220 L
DO
3273 5013 mt 3273  182 L
3273  182 mt 3273  182 L
SO
3273 5013 mt 3273 4974 L
3273  182 mt 3273  220 L
DO
3273 5013 mt 3273  182 L
3273  182 mt 3273  182 L
SO
3273 5013 mt 3273 4974 L
3273  182 mt 3273  220 L
DO
3273 5013 mt 3273  182 L
3273  182 mt 3273  182 L
SO
3273 5013 mt 3273 4974 L
3273  182 mt 3273  220 L
DO
3273 5013 mt 3273  182 L
3273  182 mt 3273  182 L
SO
3273 5013 mt 3273 4974 L
3273  182 mt 3273  220 L
DO
3273 5013 mt 3273  182 L
3273  182 mt 3273  182 L
SO
3273 5013 mt 3273 4936 L
3273  182 mt 3273  258 L
3198 5316 mt 
(8) s
4022 5013 mt 4022 4974 L
4022  182 mt 4022  220 L
DO
4022 5013 mt 4022  182 L
4022  182 mt 4022  182 L
SO
4022 5013 mt 4022 4974 L
4022  182 mt 4022  220 L
DO
4022 5013 mt 4022  182 L
4022  182 mt 4022  182 L
SO
4022 5013 mt 4022 4974 L
4022  182 mt 4022  220 L
DO
4022 5013 mt 4022  182 L
4022  182 mt 4022  182 L
SO
4022 5013 mt 4022 4974 L
4022  182 mt 4022  220 L
DO
4022 5013 mt 4022  182 L
4022  182 mt 4022  182 L
SO
4022 5013 mt 4022 4974 L
4022  182 mt 4022  220 L
DO
4022 5013 mt 4022  182 L
4022  182 mt 4022  182 L
SO
4022 5013 mt 4022 4974 L
4022  182 mt 4022  220 L
DO
4022 5013 mt 4022  182 L
4022  182 mt 4022  182 L
SO
4022 5013 mt 4022 4974 L
4022  182 mt 4022  220 L
DO
4022 5013 mt 4022  182 L
4022  182 mt 4022  182 L
SO
4022 5013 mt 4022 4974 L
4022  182 mt 4022  220 L
DO
4022 5013 mt 4022  182 L
4022  182 mt 4022  182 L
SO
4022 5013 mt 4022 4974 L
4022  182 mt 4022  220 L
DO
4022 5013 mt 4022  182 L
4022  182 mt 4022  182 L
SO
4022 5013 mt 4022 4936 L
4022  182 mt 4022  258 L
3872 5316 mt 
(16) s
4771 5013 mt 4771 4974 L
4771  182 mt 4771  220 L
DO
4771 5013 mt 4771  182 L
4771  182 mt 4771  182 L
SO
4771 5013 mt 4771 4974 L
4771  182 mt 4771  220 L
DO
4771 5013 mt 4771  182 L
4771  182 mt 4771  182 L
SO
4771 5013 mt 4771 4974 L
4771  182 mt 4771  220 L
DO
4771 5013 mt 4771  182 L
4771  182 mt 4771  182 L
SO
4771 5013 mt 4771 4974 L
4771  182 mt 4771  220 L
DO
4771 5013 mt 4771  182 L
4771  182 mt 4771  182 L
SO
4771 5013 mt 4771 4974 L
4771  182 mt 4771  220 L
DO
4771 5013 mt 4771  182 L
4771  182 mt 4771  182 L
SO
4771 5013 mt 4771 4974 L
4771  182 mt 4771  220 L
DO
4771 5013 mt 4771  182 L
4771  182 mt 4771  182 L
SO
4771 5013 mt 4771 4974 L
4771  182 mt 4771  220 L
DO
4771 5013 mt 4771  182 L
4771  182 mt 4771  182 L
SO
4771 5013 mt 4771 4974 L
4771  182 mt 4771  220 L
DO
4771 5013 mt 4771  182 L
4771  182 mt 4771  182 L
SO
4771 5013 mt 4771 4974 L
4771  182 mt 4771  220 L
DO
4771 5013 mt 4771  182 L
4771  182 mt 4771  182 L
SO
4771 5013 mt 4771 4936 L
4771  182 mt 4771  258 L
4621 5316 mt 
(32) s
5520 5013 mt 5520 4974 L
5520  182 mt 5520  220 L
DO
5520 5013 mt 5520  182 L
5520  182 mt 5520  182 L
SO
5520 5013 mt 5520 4974 L
5520  182 mt 5520  220 L
DO
5520 5013 mt 5520  182 L
5520  182 mt 5520  182 L
SO
5520 5013 mt 5520 4974 L
5520  182 mt 5520  220 L
DO
5520 5013 mt 5520  182 L
5520  182 mt 5520  182 L
SO
5520 5013 mt 5520 4974 L
5520  182 mt 5520  220 L
DO
5520 5013 mt 5520  182 L
5520  182 mt 5520  182 L
SO
5520 5013 mt 5520 4974 L
5520  182 mt 5520  220 L
DO
5520 5013 mt 5520  182 L
5520  182 mt 5520  182 L
SO
5520 5013 mt 5520 4974 L
5520  182 mt 5520  220 L
DO
5520 5013 mt 5520  182 L
5520  182 mt 5520  182 L
SO
5520 5013 mt 5520 4974 L
5520  182 mt 5520  220 L
DO
5520 5013 mt 5520  182 L
5520  182 mt 5520  182 L
SO
5520 5013 mt 5520 4974 L
5520  182 mt 5520  220 L
DO
5520 5013 mt 5520  182 L
5520  182 mt 5520  182 L
SO
5520 5013 mt 5520 4974 L
5520  182 mt 5520  220 L
DO
5520 5013 mt 5520  182 L
5520  182 mt 5520  182 L
SO
5520 5013 mt 5520 4936 L
5520  182 mt 5520  258 L
5370 5316 mt 
(64) s
6269 5013 mt 6269 4974 L
6269  182 mt 6269  220 L
DO
6269 5013 mt 6269  182 L
6269  182 mt 6269  182 L
SO
6269 5013 mt 6269 4974 L
6269  182 mt 6269  220 L
DO
6269 5013 mt 6269  182 L
6269  182 mt 6269  182 L
SO
6269 5013 mt 6269 4974 L
6269  182 mt 6269  220 L
DO
6269 5013 mt 6269  182 L
6269  182 mt 6269  182 L
SO
6269 5013 mt 6269 4974 L
6269  182 mt 6269  220 L
DO
6269 5013 mt 6269  182 L
6269  182 mt 6269  182 L
SO
6269 5013 mt 6269 4974 L
6269  182 mt 6269  220 L
DO
6269 5013 mt 6269  182 L
6269  182 mt 6269  182 L
SO
6269 5013 mt 6269 4974 L
6269  182 mt 6269  220 L
DO
6269 5013 mt 6269  182 L
6269  182 mt 6269  182 L
SO
6269 5013 mt 6269 4974 L
6269  182 mt 6269  220 L
DO
6269 5013 mt 6269  182 L
6269  182 mt 6269  182 L
SO
6269 5013 mt 6269 4974 L
6269  182 mt 6269  220 L
DO
6269 5013 mt 6269  182 L
6269  182 mt 6269  182 L
SO
6269 5013 mt 6269 4974 L
6269  182 mt 6269  220 L
DO
6269 5013 mt 6269  182 L
6269  182 mt 6269  182 L
SO
6269 5013 mt 6269 4936 L
6269  182 mt 6269  258 L
6044 5316 mt 
(128) s
7017 5013 mt 7017 4974 L
7017  182 mt 7017  220 L
DO
7017 5013 mt 7017  182 L
7017  182 mt 7017  182 L
SO
7017 5013 mt 7017 4974 L
7017  182 mt 7017  220 L
DO
7017 5013 mt 7017  182 L
7017  182 mt 7017  182 L
SO
7017 5013 mt 7017 4974 L
7017  182 mt 7017  220 L
DO
7017 5013 mt 7017  182 L
7017  182 mt 7017  182 L
SO
7017 5013 mt 7017 4974 L
7017  182 mt 7017  220 L
DO
7017 5013 mt 7017  182 L
7017  182 mt 7017  182 L
SO
7017 5013 mt 7017 4974 L
7017  182 mt 7017  220 L
DO
7017 5013 mt 7017  182 L
7017  182 mt 7017  182 L
SO
7017 5013 mt 7017 4974 L
7017  182 mt 7017  220 L
DO
7017 5013 mt 7017  182 L
7017  182 mt 7017  182 L
SO
7017 5013 mt 7017 4974 L
7017  182 mt 7017  220 L
DO
7017 5013 mt 7017  182 L
7017  182 mt 7017  182 L
SO
7017 5013 mt 7017 4974 L
7017  182 mt 7017  220 L
DO
7017 5013 mt 7017  182 L
7017  182 mt 7017  182 L
SO
7017 5013 mt 7017 4974 L
7017  182 mt 7017  220 L
DO
7017 5013 mt 7017  182 L
7017  182 mt 7017  182 L
SO
7017 5013 mt 7017 4936 L
7017  182 mt 7017  258 L
6792 5316 mt 
(256) s
7766 5013 mt 7766 4974 L
7766  182 mt 7766  220 L
DO
7766 5013 mt 7766  182 L
7766  182 mt 7766  182 L
SO
7766 5013 mt 7766 4974 L
7766  182 mt 7766  220 L
DO
7766 5013 mt 7766  182 L
7766  182 mt 7766  182 L
SO
7766 5013 mt 7766 4974 L
7766  182 mt 7766  220 L
DO
7766 5013 mt 7766  182 L
7766  182 mt 7766  182 L
SO
7766 5013 mt 7766 4974 L
7766  182 mt 7766  220 L
DO
7766 5013 mt 7766  182 L
7766  182 mt 7766  182 L
SO
7766 5013 mt 7766 4974 L
7766  182 mt 7766  220 L
DO
7766 5013 mt 7766  182 L
7766  182 mt 7766  182 L
SO
7766 5013 mt 7766 4974 L
7766  182 mt 7766  220 L
DO
7766 5013 mt 7766  182 L
7766  182 mt 7766  182 L
SO
7766 5013 mt 7766 4974 L
7766  182 mt 7766  220 L
DO
7766 5013 mt 7766  182 L
7766  182 mt 7766  182 L
SO
7766 5013 mt 7766 4974 L
7766  182 mt 7766  220 L
DO
7766 5013 mt 7766  182 L
7766  182 mt 7766  182 L
SO
7766 5013 mt 7766 4974 L
7766  182 mt 7766  220 L
DO
7766 5013 mt 7766  182 L
7766  182 mt 7766  182 L
SO
7766 5013 mt 7766 4936 L
7766  182 mt 7766  258 L
7541 5316 mt 
(512) s
8515 5013 mt 8515 4974 L
8515  182 mt 8515  220 L
DO
8515 5013 mt 8515  182 L
8515  182 mt 8515  182 L
SO
8515 5013 mt 8515 4974 L
8515  182 mt 8515  220 L
DO
8515 5013 mt 8515  182 L
8515  182 mt 8515  182 L
SO
8515 5013 mt 8515 4974 L
8515  182 mt 8515  220 L
DO
8515 5013 mt 8515  182 L
8515  182 mt 8515  182 L
SO
8515 5013 mt 8515 4974 L
8515  182 mt 8515  220 L
DO
8515 5013 mt 8515  182 L
8515  182 mt 8515  182 L
SO
8515 5013 mt 8515 4974 L
8515  182 mt 8515  220 L
DO
8515 5013 mt 8515  182 L
8515  182 mt 8515  182 L
SO
8515 5013 mt 8515 4974 L
8515  182 mt 8515  220 L
DO
8515 5013 mt 8515  182 L
8515  182 mt 8515  182 L
SO
8515 5013 mt 8515 4974 L
8515  182 mt 8515  220 L
DO
8515 5013 mt 8515  182 L
8515  182 mt 8515  182 L
SO
8515 5013 mt 8515 4974 L
8515  182 mt 8515  220 L
DO
8515 5013 mt 8515  182 L
8515  182 mt 8515  182 L
SO
8515 5013 mt 8515 4974 L
8515  182 mt 8515  220 L
DO
8515 5013 mt 8515  182 L
8515  182 mt 8515  182 L
SO
8515 5013 mt 8515 4936 L
8515  182 mt 8515  258 L
8215 5316 mt 
(1024) s
1027 5013 mt 1103 5013 L
8687 5013 mt 8610 5013 L
 842 5120 mt 
(0) s
1027 4573 mt 1103 4573 L
8687 4573 mt 8610 4573 L
 617 4680 mt 
(0.1) s
1027 4134 mt 1103 4134 L
8687 4134 mt 8610 4134 L
 617 4241 mt 
(0.2) s
1027 3695 mt 1103 3695 L
8687 3695 mt 8610 3695 L
 617 3802 mt 
(0.3) s
1027 3256 mt 1103 3256 L
8687 3256 mt 8610 3256 L
 617 3363 mt 
(0.4) s
1027 2817 mt 1103 2817 L
8687 2817 mt 8610 2817 L
 617 2924 mt 
(0.5) s
1027 2377 mt 1103 2377 L
8687 2377 mt 8610 2377 L
 617 2484 mt 
(0.6) s
1027 1938 mt 1103 1938 L
8687 1938 mt 8610 1938 L
 617 2045 mt 
(0.7) s
1027 1499 mt 1103 1499 L
8687 1499 mt 8610 1499 L
 617 1606 mt 
(0.8) s
1027 1060 mt 1103 1060 L
8687 1060 mt 8610 1060 L
 617 1167 mt 
(0.9) s
1027  621 mt 1103  621 L
8687  621 mt 8610  621 L
 842  728 mt 
(1) s
1027  182 mt 1103  182 L
8687  182 mt 8610  182 L
 617  289 mt 
(1.1) s
1027 5013 mt 8687 5013 L
1027  181 mt 8687  181 L
1027 5013 mt 1027  181 L
8687 5013 mt 8687  181 L
gs 1027 182 7661 4832 rc
36 w
/c8 { 0.000000 0.000000 1.000000 sr} bdef
c8
749 -53 749 20 748 0 749 21 749 102 749 197 749 432 749 76 
749 -6 748 48 1027 621 11 MP stroke
gr

36 w
c8
gs 869 463 7805 1207 rc
  60   60 1027  621 PO
  60   60 1775  669 PO
  60   60 2524  663 PO
  60   60 3273  739 PO
  60   60 4022 1171 PO
  60   60 4771 1368 PO
  60   60 5520 1470 PO
  60   60 6269 1491 PO
  60   60 7017 1491 PO
  60   60 7766 1511 PO
  60   60 8515 1458 PO
  60   60 1027  621 FO
  60   60 1775  669 FO
  60   60 2524  663 FO
  60   60 3273  739 FO
  60   60 4022 1171 FO
  60   60 4771 1368 FO
  60   60 5520 1470 FO
  60   60 6269 1491 FO
  60   60 7017 1491 FO
  60   60 7766 1511 FO
  60   60 8515 1458 FO
gr

gs 1027 182 7661 4832 rc
/c9 { 0.000000 0.500000 0.000000 sr} bdef
c9
749 9 749 30 748 -1 749 -9 749 120 749 260 749 386 749 60 
749 25 748 -93 1027 621 11 MP stroke
gr

c9
gs 821 322 7901 1293 rc
 943  621 mt 1111  621 L
1027  537 mt 1027  705 L
1691  528 mt 1859  528 L
1775  444 mt 1775  612 L
2440  553 mt 2608  553 L
2524  469 mt 2524  637 L
3189  613 mt 3357  613 L
3273  529 mt 3273  697 L
3938  999 mt 4106  999 L
4022  915 mt 4022 1083 L
4687 1259 mt 4855 1259 L
4771 1175 mt 4771 1343 L
5436 1379 mt 5604 1379 L
5520 1295 mt 5520 1463 L
6185 1370 mt 6353 1370 L
6269 1286 mt 6269 1454 L
6933 1369 mt 7101 1369 L
7017 1285 mt 7017 1453 L
7682 1399 mt 7850 1399 L
7766 1315 mt 7766 1483 L
8431 1408 mt 8599 1408 L
8515 1324 mt 8515 1492 L
 968  562 mt 1086  680 L
1086  562 mt  968  680 L
1716  469 mt 1834  587 L
1834  469 mt 1716  587 L
2465  494 mt 2583  612 L
2583  494 mt 2465  612 L
3214  554 mt 3332  672 L
3332  554 mt 3214  672 L
3963  940 mt 4081 1058 L
4081  940 mt 3963 1058 L
4712 1200 mt 4830 1318 L
4830 1200 mt 4712 1318 L
5461 1320 mt 5579 1438 L
5579 1320 mt 5461 1438 L
6210 1311 mt 6328 1429 L
6328 1311 mt 6210 1429 L
6958 1310 mt 7076 1428 L
7076 1310 mt 6958 1428 L
7707 1340 mt 7825 1458 L
7825 1340 mt 7707 1458 L
8456 1349 mt 8574 1467 L
8574 1349 mt 8456 1467 L
gr

gs 1027 182 7661 4832 rc
30 w
/c10 { 1.000000 0.000000 0.000000 sr} bdef
c10
749 -10 749 6 748 5 749 58 749 72 749 161 749 413 749 -79 
749 126 748 -23 1027 621 11 MP stroke
gr

30 w
c10
gs 863 434 7817 1091 rc
0 j
0 -104 -104 0 0 104 104 0 975 569 5 MP
gs
PP
gr
DP
0 -104 -104 0 0 104 104 0 1723 546 5 MP
gs
PP
gr
DP
0 -104 -104 0 0 104 104 0 2472 672 5 MP
gs
PP
gr
DP
0 -104 -104 0 0 104 104 0 3221 593 5 MP
gs
PP
gr
DP
0 -104 -104 0 0 104 104 0 3970 1006 5 MP
gs
PP
gr
DP
0 -104 -104 0 0 104 104 0 4719 1167 5 MP
gs
PP
gr
DP
0 -104 -104 0 0 104 104 0 5468 1239 5 MP
gs
PP
gr
DP
0 -104 -104 0 0 104 104 0 6217 1297 5 MP
gs
PP
gr
DP
0 -104 -104 0 0 104 104 0 6965 1302 5 MP
gs
PP
gr
DP
0 -104 -104 0 0 104 104 0 7714 1308 5 MP
gs
PP
gr
DP
0 -104 -104 0 0 104 104 0 8463 1298 5 MP
gs
PP
gr
DP
gr

gs 1027 182 7661 4832 rc
36 w
/c11 { 0.000000 0.750000 0.750000 sr} bdef
c11
749 1 749 15 748 -13 749 30 749 104 749 168 749 320 749 -35 
749 35 748 56 1027 621 11 MP stroke
gr

36 w
c11
gs 845 439 7853 1046 rc
0 j
72 95 -72 95 -72 -95 72 -95 1027 716 5 MP
/c12 { 0.000000 0.749020 0.749020 sr} bdef
c12
gs
PP
gr
c11
DP
72 95 -72 95 -72 -95 72 -95 1775 772 5 MP
c12
gs
PP
gr
c11
DP
72 95 -72 95 -72 -95 72 -95 2524 807 5 MP
c12
gs
PP
gr
c11
DP
72 95 -72 95 -72 -95 72 -95 3273 772 5 MP
c12
gs
PP
gr
c11
DP
72 95 -72 95 -72 -95 72 -95 4022 1092 5 MP
c12
gs
PP
gr
c11
DP
72 95 -72 95 -72 -95 72 -95 4771 1260 5 MP
c12
gs
PP
gr
c11
DP
72 95 -72 95 -72 -95 72 -95 5520 1364 5 MP
c12
gs
PP
gr
c11
DP
72 95 -72 95 -72 -95 72 -95 6269 1394 5 MP
c12
gs
PP
gr
c11
DP
72 95 -72 95 -72 -95 72 -95 7017 1381 5 MP
c12
gs
PP
gr
c11
DP
72 95 -72 95 -72 -95 72 -95 7766 1396 5 MP
c12
gs
PP
gr
c11
DP
72 95 -72 95 -72 -95 72 -95 8515 1397 5 MP
c12
gs
PP
gr
c11
DP
gr

gs 1027 182 7661 4832 rc
gr

0 sg
1965 5716 mt 
(Number of Compute Nodes \(or MPI Processes\)) s
2710 6050 mt 
(and Number of Hexahedra \(x1000\)) s
 497 3214 mt  -90 rotate
(Efficiency) s
90 rotate
%%IncludeResource: font Helvetica
/Helvetica /ISOLatin1Encoding 120 FMSR

1010 5056 mt 
( ) s
8671  224 mt 
( ) s
6 w
1 sg
0 1526 840 0 0 -1526 1370 4768 4 MP
PP
-840 0 0 1526 840 0 0 -1526 1370 4768 5 MP stroke
4 w
DO
SO
6 w
0 sg
1370 4768 mt 2210 4768 L
1370 3242 mt 2210 3242 L
1370 4768 mt 1370 3242 L
2210 4768 mt 2210 3242 L
1370 4768 mt 2210 4768 L
1370 4768 mt 1370 3242 L
1370 4768 mt 2210 4768 L
1370 3242 mt 2210 3242 L
1370 4768 mt 1370 3242 L
2210 4768 mt 2210 3242 L
%%IncludeResource: font Times-Roman
/Times-Roman /ISOLatin1Encoding 300 FMSR

1839 3551 mt 
(P1) s
gs 1370 3242 841 1527 rc
36 w
c8
360 0 1442 3448 2 MP stroke
gs 1464 3290 317 317 rc
  60   60 1622 3448 PO
  60   60 1622 3448 FO
gr

gr

36 w
c8
0 sg
1839 3922 mt 
(P3) s
gs 1370 3242 841 1527 rc
c9
360 0 1442 3819 2 MP stroke
gs 1416 3613 413 413 rc
1538 3819 mt 1706 3819 L
1622 3735 mt 1622 3903 L
1563 3760 mt 1681 3878 L
1681 3760 mt 1563 3878 L
gr

gr

c9
0 sg
1839 4293 mt 
(P6) s
gs 1370 3242 841 1527 rc
30 w
c10
360 0 1442 4190 2 MP stroke
gs 1458 4026 329 329 rc
0 j
0 -104 -104 0 0 104 104 0 1570 4138 5 MP
gs
PP
gr
DP
gr

gr

30 w
c10
0 sg
1839 4664 mt 
(P9) s
gs 1370 3242 841 1527 rc
36 w
c11
360 0 1442 4561 2 MP stroke
gs 1440 4379 365 365 rc
0 j
72 95 -72 95 -72 -95 72 -95 1622 4656 5 MP
c12
gs
PP
gr
c11
DP
gr

6 w
gr

6 w
c11

end %%Color Dict

eplot
%%EndObject

epage
end

showpage

%%Trailer
%%EOF
