%!PS-Adobe-3.0 EPSF-3.0
%%Creator: MATLAB, The Mathworks, Inc. Version 7.10.0.499 (R2010a). Operating System: Linux 3.16.0-46-generic #62~14.04.1-Ubuntu SMP Tue Aug 11 16:27:16 UTC 2015 x86_64.
%%Title: /home/doc/Work/Doutorado/Article_hp2FEM/Article_hp2FEM-Architecture_english/matlab/Comparing_BLAS/WeakScalability/../figures/eps/WeakScalability_ByProc_Efficiency_Hexa_10000.eps
%%CreationDate: 08/25/2015  15:34:46
%%DocumentNeededFonts: Helvetica-Bold
%%+ Helvetica
%%DocumentProcessColors: Cyan Magenta Yellow Black
%%LanguageLevel: 2
%%Pages: 1
%%BoundingBox:    43   187   562   615
%%EndComments

%%BeginProlog
% MathWorks dictionary
/MathWorks 160 dict begin
% definition operators
/bdef {bind def} bind def
/ldef {load def} bind def
/xdef {exch def} bdef
/xstore {exch store} bdef
% operator abbreviations
/c  /clip ldef
/cc /concat ldef
/cp /closepath ldef
/gr /grestore ldef
/gs /gsave ldef
/mt /moveto ldef
/np /newpath ldef
/cm /currentmatrix ldef
/sm /setmatrix ldef
/rm /rmoveto ldef
/rl /rlineto ldef
/s {show newpath} bdef
/sc {setcmykcolor} bdef
/sr /setrgbcolor ldef
/sg /setgray ldef
/w /setlinewidth ldef
/j /setlinejoin ldef
/cap /setlinecap ldef
/rc {rectclip} bdef
/rf {rectfill} bdef
% page state control
/pgsv () def
/bpage {/pgsv save def} bdef
/epage {pgsv restore} bdef
/bplot /gsave ldef
/eplot {stroke grestore} bdef
% orientation switch
/portraitMode 0 def /landscapeMode 1 def /rotateMode 2 def
% coordinate system mappings
/dpi2point 0 def
% font control
/FontSize 0 def
/FMS {/FontSize xstore findfont [FontSize 0 0 FontSize neg 0 0]
  makefont setfont} bdef
/reencode {exch dup where {pop load} {pop StandardEncoding} ifelse
  exch dup 3 1 roll findfont dup length dict begin
  { 1 index /FID ne {def}{pop pop} ifelse } forall
  /Encoding exch def currentdict end definefont pop} bdef
/isroman {findfont /CharStrings get /Agrave known} bdef
/FMSR {3 1 roll 1 index dup isroman {reencode} {pop pop} ifelse
  exch FMS} bdef
/csm {1 dpi2point div -1 dpi2point div scale neg translate
 dup landscapeMode eq {pop -90 rotate}
  {rotateMode eq {90 rotate} if} ifelse} bdef
% line types: solid, dotted, dashed, dotdash
/SO { [] 0 setdash } bdef
/DO { [.5 dpi2point mul 4 dpi2point mul] 0 setdash } bdef
/DA { [6 dpi2point mul] 0 setdash } bdef
/DD { [.5 dpi2point mul 4 dpi2point mul 6 dpi2point mul 4
  dpi2point mul] 0 setdash } bdef
% macros for lines and objects
/L {lineto stroke} bdef
/MP {3 1 roll moveto 1 sub {rlineto} repeat} bdef
/AP {{rlineto} repeat} bdef
/PDlw -1 def
/W {/PDlw currentlinewidth def setlinewidth} def
/PP {closepath eofill} bdef
/DP {closepath stroke} bdef
/MR {4 -2 roll moveto dup  0 exch rlineto exch 0 rlineto
  neg 0 exch rlineto closepath} bdef
/FR {MR stroke} bdef
/PR {MR fill} bdef
/L1i {{currentfile picstr readhexstring pop} image} bdef
/tMatrix matrix def
/MakeOval {newpath tMatrix currentmatrix pop translate scale
0 0 1 0 360 arc tMatrix setmatrix} bdef
/FO {MakeOval stroke} bdef
/PO {MakeOval fill} bdef
/PD {currentlinewidth 2 div 0 360 arc fill
   PDlw -1 eq not {PDlw w /PDlw -1 def} if} def
/FA {newpath tMatrix currentmatrix pop translate scale
  0 0 1 5 -2 roll arc tMatrix setmatrix stroke} bdef
/PA {newpath tMatrix currentmatrix pop	translate 0 0 moveto scale
  0 0 1 5 -2 roll arc closepath tMatrix setmatrix fill} bdef
/FAn {newpath tMatrix currentmatrix pop translate scale
  0 0 1 5 -2 roll arcn tMatrix setmatrix stroke} bdef
/PAn {newpath tMatrix currentmatrix pop translate 0 0 moveto scale
  0 0 1 5 -2 roll arcn closepath tMatrix setmatrix fill} bdef
/vradius 0 def /hradius 0 def /lry 0 def
/lrx 0 def /uly 0 def /ulx 0 def /rad 0 def
/MRR {/vradius xdef /hradius xdef /lry xdef /lrx xdef /uly xdef
  /ulx xdef newpath tMatrix currentmatrix pop ulx hradius add uly
  vradius add translate hradius vradius scale 0 0 1 180 270 arc 
  tMatrix setmatrix lrx hradius sub uly vradius add translate
  hradius vradius scale 0 0 1 270 360 arc tMatrix setmatrix
  lrx hradius sub lry vradius sub translate hradius vradius scale
  0 0 1 0 90 arc tMatrix setmatrix ulx hradius add lry vradius sub
  translate hradius vradius scale 0 0 1 90 180 arc tMatrix setmatrix
  closepath} bdef
/FRR {MRR stroke } bdef
/PRR {MRR fill } bdef
/MlrRR {/lry xdef /lrx xdef /uly xdef /ulx xdef /rad lry uly sub 2 div def
  newpath tMatrix currentmatrix pop ulx rad add uly rad add translate
  rad rad scale 0 0 1 90 270 arc tMatrix setmatrix lrx rad sub lry rad
  sub translate rad rad scale 0 0 1 270 90 arc tMatrix setmatrix
  closepath} bdef
/FlrRR {MlrRR stroke } bdef
/PlrRR {MlrRR fill } bdef
/MtbRR {/lry xdef /lrx xdef /uly xdef /ulx xdef /rad lrx ulx sub 2 div def
  newpath tMatrix currentmatrix pop ulx rad add uly rad add translate
  rad rad scale 0 0 1 180 360 arc tMatrix setmatrix lrx rad sub lry rad
  sub translate rad rad scale 0 0 1 0 180 arc tMatrix setmatrix
  closepath} bdef
/FtbRR {MtbRR stroke } bdef
/PtbRR {MtbRR fill } bdef
/stri 6 array def /dtri 6 array def
/smat 6 array def /dmat 6 array def
/tmat1 6 array def /tmat2 6 array def /dif 3 array def
/asub {/ind2 exch def /ind1 exch def dup dup
  ind1 get exch ind2 get sub exch } bdef
/tri_to_matrix {
  2 0 asub 3 1 asub 4 0 asub 5 1 asub
  dup 0 get exch 1 get 7 -1 roll astore } bdef
/compute_transform {
  dmat dtri tri_to_matrix tmat1 invertmatrix 
  smat stri tri_to_matrix tmat2 concatmatrix } bdef
/ds {stri astore pop} bdef
/dt {dtri astore pop} bdef
/db {2 copy /cols xdef /rows xdef mul dup 3 mul string
  currentfile 
  3 index 0 eq {/ASCIIHexDecode filter}
  {/ASCII85Decode filter 3 index 2 eq {/RunLengthDecode filter} if }
  ifelse exch readstring pop
  dup 0 3 index getinterval /rbmap xdef
  dup 2 index dup getinterval /gbmap xdef
  1 index dup 2 mul exch getinterval /bbmap xdef pop pop}bdef
/it {gs np dtri aload pop moveto lineto lineto cp c
  cols rows 8 compute_transform 
  rbmap gbmap bbmap true 3 colorimage gr}bdef
/il {newpath moveto lineto stroke}bdef
currentdict end def
%%EndProlog

%%BeginSetup
MathWorks begin

0 cap

end
%%EndSetup

%%Page: 1 1
%%BeginPageSetup
%%PageBoundingBox:    43   187   562   615
MathWorks begin
bpage
%%EndPageSetup

%%BeginObject: obj1
bplot

/dpi2point 4.16667 def
portraitMode 0075 2550 csm

  106   -15  2163  1783 rc
89 dict begin %Colortable dictionary
/c0 { 0.000000 0.000000 0.000000 sr} bdef
/c1 { 1.000000 1.000000 1.000000 sr} bdef
/c2 { 0.900000 0.000000 0.000000 sr} bdef
/c3 { 0.000000 0.820000 0.000000 sr} bdef
/c4 { 0.000000 0.000000 0.800000 sr} bdef
/c5 { 0.910000 0.820000 0.320000 sr} bdef
/c6 { 1.000000 0.260000 0.820000 sr} bdef
/c7 { 0.000000 0.820000 0.820000 sr} bdef
c0
1 j
1 sg
   0    0 2401 1802 rf
2.08333 w
0 1468 1861 0 0 -1468 311 1603 4 MP
PP
-1861 0 0 1468 1861 0 0 -1468 311 1603 5 MP stroke
1.38889 w
DO
0 sg
 311 1603 mt  311  135 L
 311  135 mt  311  135 L
1242 1603 mt 1242  135 L
1242  135 mt 1242  135 L
1786 1603 mt 1786  135 L
1786  135 mt 1786  135 L
2172 1603 mt 2172  135 L
2172  135 mt 2172  135 L
 311 1603 mt 2172 1603 L
2172 1603 mt 2172 1603 L
 311 1460 mt 2172 1460 L
2172 1460 mt 2172 1460 L
 311 1317 mt 2172 1317 L
2172 1317 mt 2172 1317 L
 311 1175 mt 2172 1175 L
2172 1175 mt 2172 1175 L
 311 1032 mt 2172 1032 L
2172 1032 mt 2172 1032 L
 311  890 mt 2172  890 L
2172  890 mt 2172  890 L
 311  747 mt 2172  747 L
2172  747 mt 2172  747 L
 311  605 mt 2172  605 L
2172  605 mt 2172  605 L
 311  462 mt 2172  462 L
2172  462 mt 2172  462 L
 311  320 mt 2172  320 L
2172  320 mt 2172  320 L
 311  177 mt 2172  177 L
2172  177 mt 2172  177 L
SO
2.08333 w
 311 1603 mt 2172 1603 L
 311  135 mt 2172  135 L
 311 1603 mt  311  135 L
2172 1603 mt 2172  135 L
 311 1603 mt 2172 1603 L
 311 1603 mt  311  135 L
 311 1603 mt  311 1603 L
 311 1603 mt  311 1603 L
DO
 311 1603 mt  311 1603 L
 311 1603 mt  311 1603 L
SO
 311 1603 mt  311 1603 L
 311 1603 mt  311 1603 L
DO
 311 1603 mt  311 1603 L
 311 1603 mt  311 1603 L
SO
 311 1603 mt  311 1603 L
 311 1603 mt  311 1603 L
DO
 311 1603 mt  311 1603 L
 311 1603 mt  311 1603 L
SO
 311 1603 mt  311 1603 L
 311 1603 mt  311 1603 L
DO
 311 1603 mt  311 1603 L
 311 1603 mt  311 1603 L
SO
 311 1603 mt  311 1603 L
 311 1603 mt  311 1603 L
DO
 311 1603 mt  311 1603 L
 311 1603 mt  311 1603 L
SO
 311 1603 mt  311 1603 L
 311 1603 mt  311 1603 L
DO
 311 1603 mt  311 1603 L
 311 1603 mt  311 1603 L
SO
 311 1603 mt  311 1603 L
 311 1603 mt  311 1603 L
DO
 311 1603 mt  311 1603 L
 311 1603 mt  311 1603 L
SO
 311 1603 mt  311 1603 L
 311 1603 mt  311 1603 L
DO
 311 1603 mt  311 1603 L
 311 1603 mt  311 1603 L
SO
 311 1603 mt  311 1603 L
 311 1603 mt  311 1603 L
DO
 311 1603 mt  311 1603 L
 311 1603 mt  311 1603 L
SO
 311 1603 mt  311 1584 L
 311  135 mt  311  153 L
%%IncludeResource: font Helvetica-Bold
/Helvetica-Bold /ISOLatin1Encoding 62.5 FMSR

 273 1675 mt 
(P1) s
 311 1603 mt  311 1603 L
 311 1603 mt  311 1603 L
DO
 311 1603 mt  311 1603 L
 311 1603 mt  311 1603 L
SO
 311 1603 mt  311 1603 L
 311 1603 mt  311 1603 L
DO
 311 1603 mt  311 1603 L
 311 1603 mt  311 1603 L
SO
 311 1603 mt  311 1603 L
 311 1603 mt  311 1603 L
DO
 311 1603 mt  311 1603 L
 311 1603 mt  311 1603 L
SO
 311 1603 mt  311 1603 L
 311 1603 mt  311 1603 L
DO
 311 1603 mt  311 1603 L
 311 1603 mt  311 1603 L
SO
 311 1603 mt  311 1603 L
 311 1603 mt  311 1603 L
DO
 311 1603 mt  311 1603 L
 311 1603 mt  311 1603 L
SO
 311 1603 mt  311 1603 L
 311 1603 mt  311 1603 L
DO
 311 1603 mt  311 1603 L
 311 1603 mt  311 1603 L
SO
 311 1603 mt  311 1603 L
 311 1603 mt  311 1603 L
DO
 311 1603 mt  311 1603 L
 311 1603 mt  311 1603 L
SO
 311 1603 mt  311 1603 L
 311 1603 mt  311 1603 L
DO
 311 1603 mt  311 1603 L
 311 1603 mt  311 1603 L
SO
 311 1603 mt  311 1603 L
 311 1603 mt  311 1603 L
DO
 311 1603 mt  311 1603 L
 311 1603 mt  311 1603 L
SO
1242 1603 mt 1242 1584 L
1242  135 mt 1242  153 L
1204 1675 mt 
(P3) s
 311 1603 mt  311 1603 L
 311 1603 mt  311 1603 L
DO
 311 1603 mt  311 1603 L
 311 1603 mt  311 1603 L
SO
 311 1603 mt  311 1603 L
 311 1603 mt  311 1603 L
DO
 311 1603 mt  311 1603 L
 311 1603 mt  311 1603 L
SO
 311 1603 mt  311 1603 L
 311 1603 mt  311 1603 L
DO
 311 1603 mt  311 1603 L
 311 1603 mt  311 1603 L
SO
 311 1603 mt  311 1603 L
 311 1603 mt  311 1603 L
DO
 311 1603 mt  311 1603 L
 311 1603 mt  311 1603 L
SO
 311 1603 mt  311 1603 L
 311 1603 mt  311 1603 L
DO
 311 1603 mt  311 1603 L
 311 1603 mt  311 1603 L
SO
 311 1603 mt  311 1603 L
 311 1603 mt  311 1603 L
DO
 311 1603 mt  311 1603 L
 311 1603 mt  311 1603 L
SO
 311 1603 mt  311 1603 L
 311 1603 mt  311 1603 L
DO
 311 1603 mt  311 1603 L
 311 1603 mt  311 1603 L
SO
 311 1603 mt  311 1603 L
 311 1603 mt  311 1603 L
DO
 311 1603 mt  311 1603 L
 311 1603 mt  311 1603 L
SO
 311 1603 mt  311 1603 L
 311 1603 mt  311 1603 L
DO
 311 1603 mt  311 1603 L
 311 1603 mt  311 1603 L
SO
1786 1603 mt 1786 1584 L
1786  135 mt 1786  153 L
1748 1675 mt 
(P6) s
 311 1603 mt  311 1603 L
 311 1603 mt  311 1603 L
DO
 311 1603 mt  311 1603 L
 311 1603 mt  311 1603 L
SO
 311 1603 mt  311 1603 L
 311 1603 mt  311 1603 L
DO
 311 1603 mt  311 1603 L
 311 1603 mt  311 1603 L
SO
 311 1603 mt  311 1603 L
 311 1603 mt  311 1603 L
DO
 311 1603 mt  311 1603 L
 311 1603 mt  311 1603 L
SO
 311 1603 mt  311 1603 L
 311 1603 mt  311 1603 L
DO
 311 1603 mt  311 1603 L
 311 1603 mt  311 1603 L
SO
 311 1603 mt  311 1603 L
 311 1603 mt  311 1603 L
DO
 311 1603 mt  311 1603 L
 311 1603 mt  311 1603 L
SO
 311 1603 mt  311 1603 L
 311 1603 mt  311 1603 L
DO
 311 1603 mt  311 1603 L
 311 1603 mt  311 1603 L
SO
 311 1603 mt  311 1603 L
 311 1603 mt  311 1603 L
DO
 311 1603 mt  311 1603 L
 311 1603 mt  311 1603 L
SO
 311 1603 mt  311 1603 L
 311 1603 mt  311 1603 L
DO
 311 1603 mt  311 1603 L
 311 1603 mt  311 1603 L
SO
 311 1603 mt  311 1603 L
 311 1603 mt  311 1603 L
DO
 311 1603 mt  311 1603 L
 311 1603 mt  311 1603 L
SO
2172 1603 mt 2172 1584 L
2172  135 mt 2172  153 L
2134 1675 mt 
(P9) s
 311 1603 mt  311 1603 L
 311 1603 mt  311 1603 L
DO
 311 1603 mt  311 1603 L
 311 1603 mt  311 1603 L
SO
 311 1603 mt  311 1603 L
 311 1603 mt  311 1603 L
DO
 311 1603 mt  311 1603 L
 311 1603 mt  311 1603 L
SO
 311 1603 mt  311 1603 L
 311 1603 mt  311 1603 L
DO
 311 1603 mt  311 1603 L
 311 1603 mt  311 1603 L
SO
 311 1603 mt  311 1603 L
 311 1603 mt  311 1603 L
DO
 311 1603 mt  311 1603 L
 311 1603 mt  311 1603 L
SO
 311 1603 mt  311 1603 L
 311 1603 mt  311 1603 L
DO
 311 1603 mt  311 1603 L
 311 1603 mt  311 1603 L
SO
 311 1603 mt  311 1603 L
 311 1603 mt  311 1603 L
DO
 311 1603 mt  311 1603 L
 311 1603 mt  311 1603 L
SO
 311 1603 mt  311 1603 L
 311 1603 mt  311 1603 L
DO
 311 1603 mt  311 1603 L
 311 1603 mt  311 1603 L
SO
 311 1603 mt  311 1603 L
 311 1603 mt  311 1603 L
DO
 311 1603 mt  311 1603 L
 311 1603 mt  311 1603 L
SO
 311 1603 mt  311 1603 L
 311 1603 mt  311 1603 L
DO
 311 1603 mt  311 1603 L
 311 1603 mt  311 1603 L
SO
 311 1603 mt  330 1603 L
2172 1603 mt 2153 1603 L
 266 1627 mt 
(0) s
 311 1531 mt  321 1531 L
2172 1531 mt 2162 1531 L
DO
 311 1531 mt 2172 1531 L
2172 1531 mt 2172 1531 L
SO
 311 1460 mt  321 1460 L
2172 1460 mt 2162 1460 L
DO
 311 1460 mt 2172 1460 L
2172 1460 mt 2172 1460 L
SO
 311 1460 mt  321 1460 L
2172 1460 mt 2162 1460 L
DO
 311 1460 mt 2172 1460 L
2172 1460 mt 2172 1460 L
SO
 311 1460 mt  321 1460 L
2172 1460 mt 2162 1460 L
DO
 311 1460 mt 2172 1460 L
2172 1460 mt 2172 1460 L
SO
 311 1460 mt  321 1460 L
2172 1460 mt 2162 1460 L
DO
 311 1460 mt 2172 1460 L
2172 1460 mt 2172 1460 L
SO
 311 1460 mt  321 1460 L
2172 1460 mt 2162 1460 L
DO
 311 1460 mt 2172 1460 L
2172 1460 mt 2172 1460 L
SO
 311 1460 mt  321 1460 L
2172 1460 mt 2162 1460 L
DO
 311 1460 mt 2172 1460 L
2172 1460 mt 2172 1460 L
SO
 311 1460 mt  321 1460 L
2172 1460 mt 2162 1460 L
DO
 311 1460 mt 2172 1460 L
2172 1460 mt 2172 1460 L
SO
 311 1460 mt  321 1460 L
2172 1460 mt 2162 1460 L
DO
 311 1460 mt 2172 1460 L
2172 1460 mt 2172 1460 L
SO
 311 1460 mt  330 1460 L
2172 1460 mt 2153 1460 L
 214 1484 mt 
(0.1) s
 311 1389 mt  321 1389 L
2172 1389 mt 2162 1389 L
DO
 311 1389 mt 2172 1389 L
2172 1389 mt 2172 1389 L
SO
 311 1317 mt  321 1317 L
2172 1317 mt 2162 1317 L
DO
 311 1317 mt 2172 1317 L
2172 1317 mt 2172 1317 L
SO
 311 1317 mt  321 1317 L
2172 1317 mt 2162 1317 L
DO
 311 1317 mt 2172 1317 L
2172 1317 mt 2172 1317 L
SO
 311 1317 mt  321 1317 L
2172 1317 mt 2162 1317 L
DO
 311 1317 mt 2172 1317 L
2172 1317 mt 2172 1317 L
SO
 311 1317 mt  321 1317 L
2172 1317 mt 2162 1317 L
DO
 311 1317 mt 2172 1317 L
2172 1317 mt 2172 1317 L
SO
 311 1317 mt  321 1317 L
2172 1317 mt 2162 1317 L
DO
 311 1317 mt 2172 1317 L
2172 1317 mt 2172 1317 L
SO
 311 1317 mt  321 1317 L
2172 1317 mt 2162 1317 L
DO
 311 1317 mt 2172 1317 L
2172 1317 mt 2172 1317 L
SO
 311 1317 mt  321 1317 L
2172 1317 mt 2162 1317 L
DO
 311 1317 mt 2172 1317 L
2172 1317 mt 2172 1317 L
SO
 311 1317 mt  321 1317 L
2172 1317 mt 2162 1317 L
DO
 311 1317 mt 2172 1317 L
2172 1317 mt 2172 1317 L
SO
 311 1317 mt  330 1317 L
2172 1317 mt 2153 1317 L
 214 1341 mt 
(0.2) s
 311 1246 mt  321 1246 L
2172 1246 mt 2162 1246 L
DO
 311 1246 mt 2172 1246 L
2172 1246 mt 2172 1246 L
SO
 311 1175 mt  321 1175 L
2172 1175 mt 2162 1175 L
DO
 311 1175 mt 2172 1175 L
2172 1175 mt 2172 1175 L
SO
 311 1175 mt  321 1175 L
2172 1175 mt 2162 1175 L
DO
 311 1175 mt 2172 1175 L
2172 1175 mt 2172 1175 L
SO
 311 1175 mt  321 1175 L
2172 1175 mt 2162 1175 L
DO
 311 1175 mt 2172 1175 L
2172 1175 mt 2172 1175 L
SO
 311 1175 mt  321 1175 L
2172 1175 mt 2162 1175 L
DO
 311 1175 mt 2172 1175 L
2172 1175 mt 2172 1175 L
SO
 311 1175 mt  321 1175 L
2172 1175 mt 2162 1175 L
DO
 311 1175 mt 2172 1175 L
2172 1175 mt 2172 1175 L
SO
 311 1175 mt  321 1175 L
2172 1175 mt 2162 1175 L
DO
 311 1175 mt 2172 1175 L
2172 1175 mt 2172 1175 L
SO
 311 1175 mt  321 1175 L
2172 1175 mt 2162 1175 L
DO
 311 1175 mt 2172 1175 L
2172 1175 mt 2172 1175 L
SO
 311 1175 mt  321 1175 L
2172 1175 mt 2162 1175 L
DO
 311 1175 mt 2172 1175 L
2172 1175 mt 2172 1175 L
SO
 311 1175 mt  330 1175 L
2172 1175 mt 2153 1175 L
 214 1199 mt 
(0.3) s
 311 1104 mt  321 1104 L
2172 1104 mt 2162 1104 L
DO
 311 1104 mt 2172 1104 L
2172 1104 mt 2172 1104 L
SO
 311 1032 mt  321 1032 L
2172 1032 mt 2162 1032 L
DO
 311 1032 mt 2172 1032 L
2172 1032 mt 2172 1032 L
SO
 311 1032 mt  321 1032 L
2172 1032 mt 2162 1032 L
DO
 311 1032 mt 2172 1032 L
2172 1032 mt 2172 1032 L
SO
 311 1032 mt  321 1032 L
2172 1032 mt 2162 1032 L
DO
 311 1032 mt 2172 1032 L
2172 1032 mt 2172 1032 L
SO
 311 1032 mt  321 1032 L
2172 1032 mt 2162 1032 L
DO
 311 1032 mt 2172 1032 L
2172 1032 mt 2172 1032 L
SO
 311 1032 mt  321 1032 L
2172 1032 mt 2162 1032 L
DO
 311 1032 mt 2172 1032 L
2172 1032 mt 2172 1032 L
SO
 311 1032 mt  321 1032 L
2172 1032 mt 2162 1032 L
DO
 311 1032 mt 2172 1032 L
2172 1032 mt 2172 1032 L
SO
 311 1032 mt  321 1032 L
2172 1032 mt 2162 1032 L
DO
 311 1032 mt 2172 1032 L
2172 1032 mt 2172 1032 L
SO
 311 1032 mt  321 1032 L
2172 1032 mt 2162 1032 L
DO
 311 1032 mt 2172 1032 L
2172 1032 mt 2172 1032 L
SO
 311 1032 mt  330 1032 L
2172 1032 mt 2153 1032 L
 214 1056 mt 
(0.4) s
 311  961 mt  321  961 L
2172  961 mt 2162  961 L
DO
 311  961 mt 2172  961 L
2172  961 mt 2172  961 L
SO
 311  890 mt  321  890 L
2172  890 mt 2162  890 L
DO
 311  890 mt 2172  890 L
2172  890 mt 2172  890 L
SO
 311  890 mt  321  890 L
2172  890 mt 2162  890 L
DO
 311  890 mt 2172  890 L
2172  890 mt 2172  890 L
SO
 311  890 mt  321  890 L
2172  890 mt 2162  890 L
DO
 311  890 mt 2172  890 L
2172  890 mt 2172  890 L
SO
 311  890 mt  321  890 L
2172  890 mt 2162  890 L
DO
 311  890 mt 2172  890 L
2172  890 mt 2172  890 L
SO
 311  890 mt  321  890 L
2172  890 mt 2162  890 L
DO
 311  890 mt 2172  890 L
2172  890 mt 2172  890 L
SO
 311  890 mt  321  890 L
2172  890 mt 2162  890 L
DO
 311  890 mt 2172  890 L
2172  890 mt 2172  890 L
SO
 311  890 mt  321  890 L
2172  890 mt 2162  890 L
DO
 311  890 mt 2172  890 L
2172  890 mt 2172  890 L
SO
 311  890 mt  321  890 L
2172  890 mt 2162  890 L
DO
 311  890 mt 2172  890 L
2172  890 mt 2172  890 L
SO
 311  890 mt  330  890 L
2172  890 mt 2153  890 L
 214  914 mt 
(0.5) s
 311  819 mt  321  819 L
2172  819 mt 2162  819 L
DO
 311  819 mt 2172  819 L
2172  819 mt 2172  819 L
SO
 311  747 mt  321  747 L
2172  747 mt 2162  747 L
DO
 311  747 mt 2172  747 L
2172  747 mt 2172  747 L
SO
 311  747 mt  321  747 L
2172  747 mt 2162  747 L
DO
 311  747 mt 2172  747 L
2172  747 mt 2172  747 L
SO
 311  747 mt  321  747 L
2172  747 mt 2162  747 L
DO
 311  747 mt 2172  747 L
2172  747 mt 2172  747 L
SO
 311  747 mt  321  747 L
2172  747 mt 2162  747 L
DO
 311  747 mt 2172  747 L
2172  747 mt 2172  747 L
SO
 311  747 mt  321  747 L
2172  747 mt 2162  747 L
DO
 311  747 mt 2172  747 L
2172  747 mt 2172  747 L
SO
 311  747 mt  321  747 L
2172  747 mt 2162  747 L
DO
 311  747 mt 2172  747 L
2172  747 mt 2172  747 L
SO
 311  747 mt  321  747 L
2172  747 mt 2162  747 L
DO
 311  747 mt 2172  747 L
2172  747 mt 2172  747 L
SO
 311  747 mt  321  747 L
2172  747 mt 2162  747 L
DO
 311  747 mt 2172  747 L
2172  747 mt 2172  747 L
SO
 311  747 mt  330  747 L
2172  747 mt 2153  747 L
 214  771 mt 
(0.6) s
 311  676 mt  321  676 L
2172  676 mt 2162  676 L
DO
 311  676 mt 2172  676 L
2172  676 mt 2172  676 L
SO
 311  605 mt  321  605 L
2172  605 mt 2162  605 L
DO
 311  605 mt 2172  605 L
2172  605 mt 2172  605 L
SO
 311  605 mt  321  605 L
2172  605 mt 2162  605 L
DO
 311  605 mt 2172  605 L
2172  605 mt 2172  605 L
SO
 311  605 mt  321  605 L
2172  605 mt 2162  605 L
DO
 311  605 mt 2172  605 L
2172  605 mt 2172  605 L
SO
 311  605 mt  321  605 L
2172  605 mt 2162  605 L
DO
 311  605 mt 2172  605 L
2172  605 mt 2172  605 L
SO
 311  605 mt  321  605 L
2172  605 mt 2162  605 L
DO
 311  605 mt 2172  605 L
2172  605 mt 2172  605 L
SO
 311  605 mt  321  605 L
2172  605 mt 2162  605 L
DO
 311  605 mt 2172  605 L
2172  605 mt 2172  605 L
SO
 311  605 mt  321  605 L
2172  605 mt 2162  605 L
DO
 311  605 mt 2172  605 L
2172  605 mt 2172  605 L
SO
 311  605 mt  321  605 L
2172  605 mt 2162  605 L
DO
 311  605 mt 2172  605 L
2172  605 mt 2172  605 L
SO
 311  605 mt  330  605 L
2172  605 mt 2153  605 L
 214  629 mt 
(0.7) s
 311  534 mt  321  534 L
2172  534 mt 2162  534 L
DO
 311  534 mt 2172  534 L
2172  534 mt 2172  534 L
SO
 311  462 mt  321  462 L
2172  462 mt 2162  462 L
DO
 311  462 mt 2172  462 L
2172  462 mt 2172  462 L
SO
 311  462 mt  321  462 L
2172  462 mt 2162  462 L
DO
 311  462 mt 2172  462 L
2172  462 mt 2172  462 L
SO
 311  462 mt  321  462 L
2172  462 mt 2162  462 L
DO
 311  462 mt 2172  462 L
2172  462 mt 2172  462 L
SO
 311  462 mt  321  462 L
2172  462 mt 2162  462 L
DO
 311  462 mt 2172  462 L
2172  462 mt 2172  462 L
SO
 311  462 mt  321  462 L
2172  462 mt 2162  462 L
DO
 311  462 mt 2172  462 L
2172  462 mt 2172  462 L
SO
 311  462 mt  321  462 L
2172  462 mt 2162  462 L
DO
 311  462 mt 2172  462 L
2172  462 mt 2172  462 L
SO
 311  462 mt  321  462 L
2172  462 mt 2162  462 L
DO
 311  462 mt 2172  462 L
2172  462 mt 2172  462 L
SO
 311  462 mt  321  462 L
2172  462 mt 2162  462 L
DO
 311  462 mt 2172  462 L
2172  462 mt 2172  462 L
SO
 311  462 mt  330  462 L
2172  462 mt 2153  462 L
 214  486 mt 
(0.8) s
 311  391 mt  321  391 L
2172  391 mt 2162  391 L
DO
 311  391 mt 2172  391 L
2172  391 mt 2172  391 L
SO
 311  320 mt  321  320 L
2172  320 mt 2162  320 L
DO
 311  320 mt 2172  320 L
2172  320 mt 2172  320 L
SO
 311  320 mt  321  320 L
2172  320 mt 2162  320 L
DO
 311  320 mt 2172  320 L
2172  320 mt 2172  320 L
SO
 311  320 mt  321  320 L
2172  320 mt 2162  320 L
DO
 311  320 mt 2172  320 L
2172  320 mt 2172  320 L
SO
 311  320 mt  321  320 L
2172  320 mt 2162  320 L
DO
 311  320 mt 2172  320 L
2172  320 mt 2172  320 L
SO
 311  320 mt  321  320 L
2172  320 mt 2162  320 L
DO
 311  320 mt 2172  320 L
2172  320 mt 2172  320 L
SO
 311  320 mt  321  320 L
2172  320 mt 2162  320 L
DO
 311  320 mt 2172  320 L
2172  320 mt 2172  320 L
SO
 311  320 mt  321  320 L
2172  320 mt 2162  320 L
DO
 311  320 mt 2172  320 L
2172  320 mt 2172  320 L
SO
 311  320 mt  321  320 L
2172  320 mt 2162  320 L
DO
 311  320 mt 2172  320 L
2172  320 mt 2172  320 L
SO
 311  320 mt  330  320 L
2172  320 mt 2153  320 L
 214  344 mt 
(0.9) s
 311  249 mt  321  249 L
2172  249 mt 2162  249 L
DO
 311  249 mt 2172  249 L
2172  249 mt 2172  249 L
SO
 311  177 mt  321  177 L
2172  177 mt 2162  177 L
DO
 311  177 mt 2172  177 L
2172  177 mt 2172  177 L
SO
 311  177 mt  321  177 L
2172  177 mt 2162  177 L
DO
 311  177 mt 2172  177 L
2172  177 mt 2172  177 L
SO
 311  177 mt  321  177 L
2172  177 mt 2162  177 L
DO
 311  177 mt 2172  177 L
2172  177 mt 2172  177 L
SO
 311  177 mt  321  177 L
2172  177 mt 2162  177 L
DO
 311  177 mt 2172  177 L
2172  177 mt 2172  177 L
SO
 311  177 mt  321  177 L
2172  177 mt 2162  177 L
DO
 311  177 mt 2172  177 L
2172  177 mt 2172  177 L
SO
 311  177 mt  321  177 L
2172  177 mt 2162  177 L
DO
 311  177 mt 2172  177 L
2172  177 mt 2172  177 L
SO
 311  177 mt  321  177 L
2172  177 mt 2162  177 L
DO
 311  177 mt 2172  177 L
2172  177 mt 2172  177 L
SO
 311  177 mt  321  177 L
2172  177 mt 2162  177 L
DO
 311  177 mt 2172  177 L
2172  177 mt 2172  177 L
SO
 311  177 mt  330  177 L
2172  177 mt 2153  177 L
 266  201 mt 
(1) s
 311 1603 mt 2172 1603 L
 311  135 mt 2172  135 L
 311 1603 mt  311  135 L
2172 1603 mt 2172  135 L
gs 312 135 1861 1469 rc
8.33333 w
/c8 { 1.000000 0.000000 0.000000 sr} bdef
c8
386 0 544 0 930 0 312 177 4 MP stroke
gr

8.33333 w
c8
26 W
1242 177 PD
26 W
1786 177 PD
26 W
2172 177 PD
gs 312 135 1861 1469 rc
/c9 { 0.000000 1.000000 0.000000 sr} bdef
c9
386 -2 544 -12 930 12 312 176 4 MP stroke
gr

c9
1222  188 mt 1262  188 L
1242  168 mt 1242  208 L
1766  176 mt 1806  176 L
1786  156 mt 1786  196 L
2152  174 mt 2192  174 L
2172  154 mt 2172  194 L
gs 312 135 1861 1469 rc
/c10 { 0.000000 0.000000 1.000000 sr} bdef
c10
386 0 544 -31 930 40 312 176 4 MP stroke
gr

c10
0 j
0 -32 -32 0 0 32 32 0 1226 200 5 MP
DP
0 -32 -32 0 0 32 32 0 1770 169 5 MP
DP
0 -32 -32 0 0 32 32 0 2156 169 5 MP
DP
gs 312 135 1861 1469 rc
/c11 { 0.000000 1.000000 1.000000 sr} bdef
c11
386 4 544 -24 930 32 312 180 4 MP stroke
gr

c11
1228  198 mt 1256  226 L
1256  198 mt 1228  226 L
1772  174 mt 1800  202 L
1800  174 mt 1772  202 L
2158  178 mt 2186  206 L
2186  178 mt 2158  206 L
gs 312 135 1861 1469 rc
/c12 { 1.000000 0.000000 1.000000 sr} bdef
c12
386 3 544 -13 930 31 312 179 4 MP stroke
gr

c12
  20   20 1242  210 FO
  20   20 1786  197 FO
  20   20 2172  200 FO
gs 312 135 1861 1469 rc
/c13 { 1.000000 1.000000 0.000000 sr} bdef
c13
386 11 544 -21 930 44 312 183 4 MP stroke
gr

c13
20 26 -20 26 -20 -26 20 -26 1242 253 5 MP
DP
20 26 -20 26 -20 -26 20 -26 1786 232 5 MP
DP
20 26 -20 26 -20 -26 20 -26 2172 243 5 MP
DP
gs 312 135 1861 1469 rc
0 sg
386 40 544 -21 930 45 312 207 4 MP stroke
gr

0 sg
-23 39 -23 -39 46 0 1219 265 4 MP
DP
-23 39 -23 -39 46 0 1763 244 4 MP
DP
-23 39 -23 -39 46 0 2149 284 4 MP
DP
gs 312 135 1861 1469 rc
c10
386 55 544 7 930 32 312 251 4 MP stroke
gr

c10
0 46 -39 -23 39 -23 1229 306 4 MP
DP
0 46 -39 -23 39 -23 1773 313 4 MP
DP
0 46 -39 -23 39 -23 2159 368 4 MP
DP
gs 312 135 1861 1469 rc
c8
386 103 544 17 930 17 312 369 4 MP stroke
gr

c8
-39 23 0 -46 39 23 1216 386 4 MP
DP
-39 23 0 -46 39 23 1760 403 4 MP
DP
-39 23 0 -46 39 23 2146 506 4 MP
DP
gs 312 135 1861 1469 rc
c9
386 145 544 56 930 -21 312 512 4 MP stroke
gr

c9
-7 -10 7 -10 -12 0 -5 -10 -5 10 -12 0 7 10 -7 10 
12 0 5 10 5 -10 12 0 1225 481 13 MP
DP
-7 -10 7 -10 -12 0 -5 -10 -5 10 -12 0 7 10 -7 10 
12 0 5 10 5 -10 12 0 1769 537 13 MP
DP
-7 -10 7 -10 -12 0 -5 -10 -5 10 -12 0 7 10 -7 10 
12 0 5 10 5 -10 12 0 2155 682 13 MP
DP
gs 312 135 1861 1469 rc
gr

0 sg
%%IncludeResource: font Helvetica-Bold
/Helvetica-Bold /ISOLatin1Encoding 66.6667 FMSR

1032 1744 mt 
(Problem Size) s
 179 1233 mt  -90 rotate
(Efficiency \(SpeedUp/p\)) s
90 rotate
%%IncludeResource: font Helvetica-Bold
/Helvetica-Bold /ISOLatin1Encoding 75 FMSR

 732   82 mt 
(Efficiency - Weak Scalability) s
%%IncludeResource: font Helvetica
/Helvetica /ISOLatin1Encoding 41.6667 FMSR

 306 1619 mt 
( ) s
2167  150 mt 
( ) s
2.08333 w
1 sg
0 1036 512 0 0 -1036 456 1561 4 MP
PP
-512 0 0 1036 512 0 0 -1036 456 1561 5 MP stroke
1.38889 w
DO
SO
2.08333 w
0 sg
 456 1561 mt  968 1561 L
 456  525 mt  968  525 L
 456 1561 mt  456  525 L
 968 1561 mt  968  525 L
 456 1561 mt  968 1561 L
 456 1561 mt  456  525 L
 456 1561 mt  968 1561 L
 456  525 mt  968  525 L
 456 1561 mt  456  525 L
 968 1561 mt  968  525 L
%%IncludeResource: font Helvetica-Bold
/Helvetica-Bold /ISOLatin1Encoding 62.5 FMSR

 619  606 mt 
(2 Procs) s
gs 456 525 513 1037 rc
8.33333 w
c8
125 0 481 583 2 MP stroke
gr

8.33333 w
c8
gs 449 489 189 189 rc
26 W
543 583 PD
gr

gs 456 525 513 1037 rc
gr

0 sg
 619  709 mt 
(4 Procs) s
gs 456 525 513 1037 rc
c9
125 0 481 685 2 MP stroke
gs 491 633 105 105 rc
 523  685 mt  563  685 L
 543  665 mt  543  705 L
gr

gr

c9
0 sg
 619  811 mt 
(8 Procs) s
gs 456 525 513 1037 rc
c10
125 0 481 787 2 MP stroke
gs 491 735 105 105 rc
0 -32 -32 0 0 32 32 0 527 771 5 MP
DP
gr

gr

c10
0 sg
 619  913 mt 
(16 Procs) s
gs 456 525 513 1037 rc
c11
125 0 481 889 2 MP stroke
gs 491 837 105 105 rc
 529  875 mt  557  903 L
 557  875 mt  529  903 L
gr

gr

c11
0 sg
 619 1015 mt 
(32 Procs) s
gs 456 525 513 1037 rc
c12
125 0 481 991 2 MP stroke
gs 491 939 105 105 rc
  20   20  543  991 FO
gr

gr

c12
0 sg
 619 1118 mt 
(64 Procs) s
gs 456 525 513 1037 rc
c13
125 0 481 1094 2 MP stroke
gs 491 1042 105 105 rc
20 26 -20 26 -20 -26 20 -26 543 1120 5 MP
DP
gr

gr

c13
0 sg
 619 1220 mt 
(128 Procs) s
gs 456 525 513 1037 rc
125 0 481 1196 2 MP stroke
gs 491 1144 105 105 rc
-23 39 -23 -39 46 0 520 1209 4 MP
DP
gr

gr

 619 1322 mt 
(256 Procs) s
gs 456 525 513 1037 rc
c10
125 0 481 1298 2 MP stroke
gs 491 1246 105 105 rc
0 46 -39 -23 39 -23 530 1321 4 MP
DP
gr

gr

c10
0 sg
 619 1424 mt 
(512 Procs) s
gs 456 525 513 1037 rc
c8
125 0 481 1400 2 MP stroke
gs 491 1348 105 105 rc
-39 23 0 -46 39 23 517 1400 4 MP
DP
gr

gr

c8
0 sg
 619 1527 mt 
(1024 Procs) s
gs 456 525 513 1037 rc
c9
125 0 481 1502 2 MP stroke
gs 491 1450 105 105 rc
-7 -10 7 -10 -12 0 -5 -10 -5 10 -12 0 7 10 -7 10 
12 0 5 10 5 -10 12 0 526 1492 13 MP
DP
gr

2.08333 w
gr

2.08333 w
c9

end %%Color Dict

eplot
%%EndObject

epage
end

showpage

%%Trailer
%%EOF
