%!PS-Adobe-3.0 EPSF-3.0
%%Title: /home/doc/Work/Doutorado/thesis/thesis/eps/cap6/ClockCounterWise_Vs_NotSequential_Efficiency_ProjectionSolver_Square10000.eps
%%Creator: matplotlib version 3.0.3, http://matplotlib.org/
%%CreationDate: Thu Jul 25 21:41:35 2019
%%Orientation: portrait
%%BoundingBox: 18 108 594 684
%%EndComments
%%BeginProlog
/mpldict 9 dict def
mpldict begin
/m { moveto } bind def
/l { lineto } bind def
/r { rlineto } bind def
/c { curveto } bind def
/cl { closepath } bind def
/box {
m
1 index 0 r
0 exch r
neg 0 r
cl
} bind def
/clipbox {
box
clip
newpath
} bind def
%!PS-Adobe-3.0 Resource-Font
%%Title: DejaVu Sans
%%Copyright: Copyright (c) 2003 by Bitstream, Inc. All Rights Reserved. Copyright (c) 2006 by Tavmjong Bah. All Rights Reserved. DejaVu changes are in public domain 
%%Creator: Converted from TrueType to type 3 by PPR
25 dict begin
/_d{bind def}bind def
/_m{moveto}_d
/_l{lineto}_d
/_cl{closepath eofill}_d
/_c{curveto}_d
/_sc{7 -1 roll{setcachedevice}{pop pop pop pop pop pop}ifelse}_d
/_e{exec}_d
/FontName /DejaVuSans def
/PaintType 0 def
/FontMatrix[.001 0 0 .001 0 0]def
/FontBBox[-1021 -463 1793 1232]def
/FontType 3 def
/Encoding [ /space /hyphen /period /zero /one /two /three /four /five /six /seven /eight /nine /A /C /E /N /P /S /V /W /a /c /e /f /g /h /i /k /l /m /n /o /q /r /s /t /u /y ] def
/FontInfo 10 dict dup begin
/FamilyName (DejaVu Sans) def
/FullName (DejaVu Sans) def
/Notice (Copyright (c) 2003 by Bitstream, Inc. All Rights Reserved. Copyright (c) 2006 by Tavmjong Bah. All Rights Reserved. DejaVu changes are in public domain ) def
/Weight (Book) def
/Version (Version 2.35) def
/ItalicAngle 0.0 def
/isFixedPitch false def
/UnderlinePosition -130 def
/UnderlineThickness 90 def
end readonly def
/CharStrings 40 dict dup begin
/.notdef 0 def
/space{318 0 0 0 0 0 _sc
}_d
/hyphen{361 0 49 234 312 314 _sc
49 314 _m
312 314 _l
312 234 _l
49 234 _l
49 314 _l
_cl}_d
/period{318 0 107 0 210 124 _sc
107 124 _m
210 124 _l
210 0 _l
107 0 _l
107 124 _l
_cl}_d
/zero{636 0 66 -13 570 742 _sc
318 664 _m
267 664 229 639 203 589 _c
177 539 165 464 165 364 _c
165 264 177 189 203 139 _c
229 89 267 64 318 64 _c
369 64 407 89 433 139 _c
458 189 471 264 471 364 _c
471 464 458 539 433 589 _c
407 639 369 664 318 664 _c
318 742 _m
399 742 461 709 505 645 _c
548 580 570 486 570 364 _c
570 241 548 147 505 83 _c
461 19 399 -13 318 -13 _c
236 -13 173 19 130 83 _c
87 147 66 241 66 364 _c
66 486 87 580 130 645 _c
173 709 236 742 318 742 _c
_cl}_d
/one{636 0 110 0 544 729 _sc
124 83 _m
285 83 _l
285 639 _l
110 604 _l
110 694 _l
284 729 _l
383 729 _l
383 83 _l
544 83 _l
544 0 _l
124 0 _l
124 83 _l
_cl}_d
/two{{636 0 73 0 536 742 _sc
192 83 _m
536 83 _l
536 0 _l
73 0 _l
73 83 _l
110 121 161 173 226 239 _c
290 304 331 346 348 365 _c
380 400 402 430 414 455 _c
426 479 433 504 433 528 _c
433 566 419 598 392 622 _c
365 646 330 659 286 659 _c
255 659 222 653 188 643 _c
154 632 117 616 78 594 _c
78 694 _l
118 710 155 722 189 730 _c
223 738 255 742 284 742 _c
}_e{359 742 419 723 464 685 _c
509 647 532 597 532 534 _c
532 504 526 475 515 449 _c
504 422 484 390 454 354 _c
446 344 420 317 376 272 _c
332 227 271 164 192 83 _c
_cl}_e}_d
/three{{636 0 76 -13 556 742 _sc
406 393 _m
453 383 490 362 516 330 _c
542 298 556 258 556 212 _c
556 140 531 84 482 45 _c
432 6 362 -13 271 -13 _c
240 -13 208 -10 176 -4 _c
144 1 110 10 76 22 _c
76 117 _l
103 101 133 89 166 81 _c
198 73 232 69 268 69 _c
330 69 377 81 409 105 _c
441 129 458 165 458 212 _c
458 254 443 288 413 312 _c
383 336 341 349 287 349 _c
}_e{202 349 _l
202 430 _l
291 430 _l
339 430 376 439 402 459 _c
428 478 441 506 441 543 _c
441 580 427 609 401 629 _c
374 649 336 659 287 659 _c
260 659 231 656 200 650 _c
169 644 135 635 98 623 _c
98 711 _l
135 721 170 729 203 734 _c
235 739 266 742 296 742 _c
370 742 429 725 473 691 _c
517 657 539 611 539 553 _c
539 513 527 479 504 451 _c
481 423 448 403 406 393 _c
_cl}_e}_d
/four{636 0 49 0 580 729 _sc
378 643 _m
129 254 _l
378 254 _l
378 643 _l
352 729 _m
476 729 _l
476 254 _l
580 254 _l
580 172 _l
476 172 _l
476 0 _l
378 0 _l
378 172 _l
49 172 _l
49 267 _l
352 729 _l
_cl}_d
/five{{636 0 77 -13 549 729 _sc
108 729 _m
495 729 _l
495 646 _l
198 646 _l
198 467 _l
212 472 227 476 241 478 _c
255 480 270 482 284 482 _c
365 482 429 459 477 415 _c
525 370 549 310 549 234 _c
549 155 524 94 475 51 _c
426 8 357 -13 269 -13 _c
238 -13 207 -10 175 -6 _c
143 -1 111 6 77 17 _c
77 116 _l
106 100 136 88 168 80 _c
199 72 232 69 267 69 _c
}_e{323 69 368 83 401 113 _c
433 143 450 183 450 234 _c
450 284 433 324 401 354 _c
368 384 323 399 267 399 _c
241 399 214 396 188 390 _c
162 384 135 375 108 363 _c
108 729 _l
_cl}_e}_d
/six{{636 0 70 -13 573 742 _sc
330 404 _m
286 404 251 388 225 358 _c
199 328 186 286 186 234 _c
186 181 199 139 225 109 _c
251 79 286 64 330 64 _c
374 64 409 79 435 109 _c
461 139 474 181 474 234 _c
474 286 461 328 435 358 _c
409 388 374 404 330 404 _c
526 713 _m
526 623 _l
501 635 476 644 451 650 _c
425 656 400 659 376 659 _c
310 659 260 637 226 593 _c
}_e{192 549 172 482 168 394 _c
187 422 211 444 240 459 _c
269 474 301 482 336 482 _c
409 482 467 459 509 415 _c
551 371 573 310 573 234 _c
573 159 550 99 506 54 _c
462 9 403 -13 330 -13 _c
246 -13 181 19 137 83 _c
92 147 70 241 70 364 _c
70 479 97 571 152 639 _c
206 707 280 742 372 742 _c
396 742 421 739 447 735 _c
472 730 498 723 526 713 _c
_cl}_e}_d
/seven{636 0 82 0 551 729 _sc
82 729 _m
551 729 _l
551 687 _l
286 0 _l
183 0 _l
432 646 _l
82 646 _l
82 729 _l
_cl}_d
/eight{{636 0 68 -13 568 742 _sc
318 346 _m
271 346 234 333 207 308 _c
180 283 167 249 167 205 _c
167 161 180 126 207 101 _c
234 76 271 64 318 64 _c
364 64 401 76 428 102 _c
455 127 469 161 469 205 _c
469 249 455 283 429 308 _c
402 333 365 346 318 346 _c
219 388 _m
177 398 144 418 120 447 _c
96 476 85 511 85 553 _c
85 611 105 657 147 691 _c
188 725 245 742 318 742 _c
}_e{390 742 447 725 489 691 _c
530 657 551 611 551 553 _c
551 511 539 476 515 447 _c
491 418 459 398 417 388 _c
464 377 501 355 528 323 _c
554 291 568 251 568 205 _c
568 134 546 80 503 43 _c
459 5 398 -13 318 -13 _c
237 -13 175 5 132 43 _c
89 80 68 134 68 205 _c
68 251 81 291 108 323 _c
134 355 171 377 219 388 _c
183 544 _m
183 506 194 476 218 455 _c
}_e{242 434 275 424 318 424 _c
360 424 393 434 417 455 _c
441 476 453 506 453 544 _c
453 582 441 611 417 632 _c
393 653 360 664 318 664 _c
275 664 242 653 218 632 _c
194 611 183 582 183 544 _c
_cl}_e}_d
/nine{{636 0 63 -13 566 742 _sc
110 15 _m
110 105 _l
134 93 159 84 185 78 _c
210 72 235 69 260 69 _c
324 69 374 90 408 134 _c
442 178 462 244 468 334 _c
448 306 424 284 396 269 _c
367 254 335 247 300 247 _c
226 247 168 269 126 313 _c
84 357 63 417 63 494 _c
63 568 85 628 129 674 _c
173 719 232 742 306 742 _c
390 742 455 709 499 645 _c
543 580 566 486 566 364 _c
}_e{566 248 538 157 484 89 _c
429 21 356 -13 264 -13 _c
239 -13 214 -10 189 -6 _c
163 -2 137 5 110 15 _c
306 324 _m
350 324 385 339 411 369 _c
437 399 450 441 450 494 _c
450 546 437 588 411 618 _c
385 648 350 664 306 664 _c
262 664 227 648 201 618 _c
175 588 162 546 162 494 _c
162 441 175 399 201 369 _c
227 339 262 324 306 324 _c
_cl}_e}_d
/A{684 0 8 0 676 729 _sc
342 632 _m
208 269 _l
476 269 _l
342 632 _l
286 729 _m
398 729 _l
676 0 _l
573 0 _l
507 187 _l
178 187 _l
112 0 _l
8 0 _l
286 729 _l
_cl}_d
/C{{698 0 56 -13 644 742 _sc
644 673 _m
644 569 _l
610 599 575 622 537 638 _c
499 653 460 661 418 661 _c
334 661 270 635 226 584 _c
182 533 160 460 160 364 _c
160 268 182 194 226 143 _c
270 92 334 67 418 67 _c
460 67 499 74 537 90 _c
575 105 610 128 644 159 _c
644 56 _l
609 32 572 15 534 4 _c
496 -7 455 -13 412 -13 _c
302 -13 215 20 151 87 _c
}_e{87 154 56 246 56 364 _c
56 481 87 573 151 641 _c
215 708 302 742 412 742 _c
456 742 497 736 535 725 _c
573 713 610 696 644 673 _c
_cl}_e}_d
/E{632 0 98 0 568 729 _sc
98 729 _m
559 729 _l
559 646 _l
197 646 _l
197 430 _l
544 430 _l
544 347 _l
197 347 _l
197 83 _l
568 83 _l
568 0 _l
98 0 _l
98 729 _l
_cl}_d
/N{748 0 98 0 650 729 _sc
98 729 _m
231 729 _l
554 119 _l
554 729 _l
650 729 _l
650 0 _l
517 0 _l
194 610 _l
194 0 _l
98 0 _l
98 729 _l
_cl}_d
/P{603 0 98 0 569 729 _sc
197 648 _m
197 374 _l
321 374 _l
367 374 402 385 427 409 _c
452 433 465 467 465 511 _c
465 555 452 588 427 612 _c
402 636 367 648 321 648 _c
197 648 _l
98 729 _m
321 729 _l
402 729 464 710 506 673 _c
548 636 569 582 569 511 _c
569 439 548 384 506 348 _c
464 311 402 293 321 293 _c
197 293 _l
197 0 _l
98 0 _l
98 729 _l
_cl}_d
/S{{635 0 66 -13 579 742 _sc
535 705 _m
535 609 _l
497 627 462 640 429 649 _c
395 657 363 662 333 662 _c
279 662 237 651 208 631 _c
179 610 165 580 165 542 _c
165 510 174 485 194 469 _c
213 452 250 439 304 429 _c
364 417 _l
437 403 491 378 526 343 _c
561 307 579 260 579 201 _c
579 130 555 77 508 41 _c
460 5 391 -13 300 -13 _c
265 -13 228 -9 189 -2 _c
}_e{150 5 110 16 69 32 _c
69 134 _l
109 111 148 94 186 83 _c
224 71 262 66 300 66 _c
356 66 399 77 430 99 _c
460 121 476 152 476 194 _c
476 230 465 258 443 278 _c
421 298 385 313 335 323 _c
275 335 _l
201 349 148 372 115 404 _c
82 435 66 478 66 534 _c
66 598 88 649 134 686 _c
179 723 242 742 322 742 _c
356 742 390 739 426 733 _c
461 727 497 717 535 705 _c
}_e{_cl}_e}_d
/V{684 0 8 0 676 729 _sc
286 0 _m
8 729 _l
111 729 _l
342 115 _l
573 729 _l
676 729 _l
398 0 _l
286 0 _l
_cl}_d
/W{989 0 33 0 956 729 _sc
33 729 _m
133 729 _l
286 113 _l
439 729 _l
550 729 _l
703 113 _l
856 729 _l
956 729 _l
773 0 _l
649 0 _l
495 633 _l
340 0 _l
216 0 _l
33 729 _l
_cl}_d
/a{{613 0 60 -13 522 560 _sc
343 275 _m
270 275 220 266 192 250 _c
164 233 150 205 150 165 _c
150 133 160 107 181 89 _c
202 70 231 61 267 61 _c
317 61 357 78 387 114 _c
417 149 432 196 432 255 _c
432 275 _l
343 275 _l
522 312 _m
522 0 _l
432 0 _l
432 83 _l
411 49 385 25 355 10 _c
325 -5 287 -13 243 -13 _c
187 -13 142 2 109 33 _c
76 64 60 106 60 159 _c
}_e{60 220 80 266 122 298 _c
163 329 224 345 306 345 _c
432 345 _l
432 354 _l
432 395 418 427 391 450 _c
364 472 326 484 277 484 _c
245 484 215 480 185 472 _c
155 464 127 453 100 439 _c
100 522 _l
132 534 164 544 195 550 _c
226 556 256 560 286 560 _c
365 560 424 539 463 498 _c
502 457 522 395 522 312 _c
_cl}_e}_d
/c{{550 0 55 -13 488 560 _sc
488 526 _m
488 442 _l
462 456 437 466 411 473 _c
385 480 360 484 334 484 _c
276 484 230 465 198 428 _c
166 391 150 339 150 273 _c
150 206 166 154 198 117 _c
230 80 276 62 334 62 _c
360 62 385 65 411 72 _c
437 79 462 90 488 104 _c
488 21 _l
462 9 436 0 410 -5 _c
383 -10 354 -13 324 -13 _c
242 -13 176 12 128 64 _c
}_e{79 115 55 185 55 273 _c
55 362 79 432 128 483 _c
177 534 244 560 330 560 _c
358 560 385 557 411 551 _c
437 545 463 537 488 526 _c
_cl}_e}_d
/e{{615 0 55 -13 562 560 _sc
562 296 _m
562 252 _l
149 252 _l
153 190 171 142 205 110 _c
238 78 284 62 344 62 _c
378 62 412 66 444 74 _c
476 82 509 95 541 113 _c
541 28 _l
509 14 476 3 442 -3 _c
408 -9 373 -13 339 -13 _c
251 -13 182 12 131 62 _c
80 112 55 181 55 268 _c
55 357 79 428 127 481 _c
175 533 241 560 323 560 _c
397 560 455 536 498 489 _c
}_e{540 441 562 377 562 296 _c
472 322 _m
471 371 457 410 431 440 _c
404 469 368 484 324 484 _c
274 484 234 469 204 441 _c
174 413 156 373 152 322 _c
472 322 _l
_cl}_e}_d
/f{352 0 23 0 371 760 _sc
371 760 _m
371 685 _l
285 685 _l
253 685 230 678 218 665 _c
205 652 199 629 199 595 _c
199 547 _l
347 547 _l
347 477 _l
199 477 _l
199 0 _l
109 0 _l
109 477 _l
23 477 _l
23 547 _l
109 547 _l
109 585 _l
109 645 123 690 151 718 _c
179 746 224 760 286 760 _c
371 760 _l
_cl}_d
/g{{635 0 55 -207 544 560 _sc
454 280 _m
454 344 440 395 414 431 _c
387 467 349 485 301 485 _c
253 485 215 467 188 431 _c
161 395 148 344 148 280 _c
148 215 161 165 188 129 _c
215 93 253 75 301 75 _c
349 75 387 93 414 129 _c
440 165 454 215 454 280 _c
544 68 _m
544 -24 523 -93 482 -139 _c
440 -184 377 -207 292 -207 _c
260 -207 231 -204 203 -200 _c
175 -195 147 -188 121 -178 _c
}_e{121 -91 _l
147 -105 173 -115 199 -122 _c
225 -129 251 -133 278 -133 _c
336 -133 380 -117 410 -87 _c
439 -56 454 -10 454 52 _c
454 96 _l
435 64 411 40 382 24 _c
353 8 319 0 279 0 _c
211 0 157 25 116 76 _c
75 127 55 195 55 280 _c
55 364 75 432 116 483 _c
157 534 211 560 279 560 _c
319 560 353 552 382 536 _c
411 520 435 496 454 464 _c
454 547 _l
544 547 _l
}_e{544 68 _l
_cl}_e}_d
/h{634 0 91 0 549 760 _sc
549 330 _m
549 0 _l
459 0 _l
459 327 _l
459 379 448 417 428 443 _c
408 469 378 482 338 482 _c
289 482 251 466 223 435 _c
195 404 181 362 181 309 _c
181 0 _l
91 0 _l
91 760 _l
181 760 _l
181 462 _l
202 494 227 519 257 535 _c
286 551 320 560 358 560 _c
420 560 468 540 500 501 _c
532 462 549 405 549 330 _c
_cl}_d
/i{278 0 94 0 184 760 _sc
94 547 _m
184 547 _l
184 0 _l
94 0 _l
94 547 _l
94 760 _m
184 760 _l
184 646 _l
94 646 _l
94 760 _l
_cl}_d
/k{579 0 91 0 576 760 _sc
91 760 _m
181 760 _l
181 311 _l
449 547 _l
564 547 _l
274 291 _l
576 0 _l
459 0 _l
181 267 _l
181 0 _l
91 0 _l
91 760 _l
_cl}_d
/l{278 0 94 0 184 760 _sc
94 760 _m
184 760 _l
184 0 _l
94 0 _l
94 760 _l
_cl}_d
/m{{974 0 91 0 889 560 _sc
520 442 _m
542 482 569 511 600 531 _c
631 550 668 560 711 560 _c
767 560 811 540 842 500 _c
873 460 889 403 889 330 _c
889 0 _l
799 0 _l
799 327 _l
799 379 789 418 771 444 _c
752 469 724 482 686 482 _c
639 482 602 466 575 435 _c
548 404 535 362 535 309 _c
535 0 _l
445 0 _l
445 327 _l
445 379 435 418 417 444 _c
398 469 369 482 331 482 _c
}_e{285 482 248 466 221 435 _c
194 404 181 362 181 309 _c
181 0 _l
91 0 _l
91 547 _l
181 547 _l
181 462 _l
201 495 226 520 255 536 _c
283 552 317 560 357 560 _c
397 560 430 550 458 530 _c
486 510 506 480 520 442 _c
_cl}_e}_d
/n{634 0 91 0 549 560 _sc
549 330 _m
549 0 _l
459 0 _l
459 327 _l
459 379 448 417 428 443 _c
408 469 378 482 338 482 _c
289 482 251 466 223 435 _c
195 404 181 362 181 309 _c
181 0 _l
91 0 _l
91 547 _l
181 547 _l
181 462 _l
202 494 227 519 257 535 _c
286 551 320 560 358 560 _c
420 560 468 540 500 501 _c
532 462 549 405 549 330 _c
_cl}_d
/o{612 0 55 -13 557 560 _sc
306 484 _m
258 484 220 465 192 427 _c
164 389 150 338 150 273 _c
150 207 163 156 191 118 _c
219 80 257 62 306 62 _c
354 62 392 80 420 118 _c
448 156 462 207 462 273 _c
462 337 448 389 420 427 _c
392 465 354 484 306 484 _c
306 560 _m
384 560 445 534 490 484 _c
534 433 557 363 557 273 _c
557 183 534 113 490 63 _c
445 12 384 -13 306 -13 _c
227 -13 165 12 121 63 _c
77 113 55 183 55 273 _c
55 363 77 433 121 484 _c
165 534 227 560 306 560 _c
_cl}_d
/q{{635 0 55 -207 544 560 _sc
148 273 _m
148 207 161 155 188 117 _c
215 79 253 61 301 61 _c
348 61 385 79 413 117 _c
440 155 454 207 454 273 _c
454 339 440 390 413 428 _c
385 466 348 485 301 485 _c
253 485 215 466 188 428 _c
161 390 148 339 148 273 _c
454 82 _m
435 49 411 25 382 10 _c
353 -5 319 -13 279 -13 _c
213 -13 159 13 117 65 _c
75 117 55 187 55 273 _c
}_e{55 359 75 428 117 481 _c
159 533 213 560 279 560 _c
319 560 353 552 382 536 _c
411 520 435 496 454 464 _c
454 547 _l
544 547 _l
544 -207 _l
454 -207 _l
454 82 _l
_cl}_e}_d
/r{411 0 91 0 411 560 _sc
411 463 _m
401 469 390 473 378 476 _c
366 478 353 480 339 480 _c
288 480 249 463 222 430 _c
194 397 181 350 181 288 _c
181 0 _l
91 0 _l
91 547 _l
181 547 _l
181 462 _l
199 495 224 520 254 536 _c
284 552 321 560 365 560 _c
371 560 378 559 386 559 _c
393 558 401 557 411 555 _c
411 463 _l
_cl}_d
/s{{521 0 54 -13 472 560 _sc
443 531 _m
443 446 _l
417 458 391 468 364 475 _c
336 481 308 485 279 485 _c
234 485 200 478 178 464 _c
156 450 145 430 145 403 _c
145 382 153 366 169 354 _c
185 342 217 330 265 320 _c
296 313 _l
360 299 405 279 432 255 _c
458 230 472 195 472 151 _c
472 100 452 60 412 31 _c
372 1 316 -13 246 -13 _c
216 -13 186 -10 154 -5 _c
}_e{122 0 89 8 54 20 _c
54 113 _l
87 95 120 82 152 74 _c
184 65 216 61 248 61 _c
290 61 323 68 346 82 _c
368 96 380 117 380 144 _c
380 168 371 187 355 200 _c
339 213 303 226 247 238 _c
216 245 _l
160 257 119 275 95 299 _c
70 323 58 356 58 399 _c
58 450 76 490 112 518 _c
148 546 200 560 268 560 _c
301 560 332 557 362 552 _c
391 547 418 540 443 531 _c
}_e{_cl}_e}_d
/t{392 0 27 0 368 702 _sc
183 702 _m
183 547 _l
368 547 _l
368 477 _l
183 477 _l
183 180 _l
183 135 189 106 201 94 _c
213 81 238 75 276 75 _c
368 75 _l
368 0 _l
276 0 _l
206 0 158 13 132 39 _c
106 65 93 112 93 180 _c
93 477 _l
27 477 _l
27 547 _l
93 547 _l
93 702 _l
183 702 _l
_cl}_d
/u{634 0 85 -13 543 560 _sc
85 216 _m
85 547 _l
175 547 _l
175 219 _l
175 167 185 129 205 103 _c
225 77 255 64 296 64 _c
344 64 383 79 411 110 _c
439 141 453 183 453 237 _c
453 547 _l
543 547 _l
543 0 _l
453 0 _l
453 84 _l
431 50 405 26 377 10 _c
348 -5 315 -13 277 -13 _c
214 -13 166 6 134 45 _c
101 83 85 140 85 216 _c
311 560 _m
311 560 _l
_cl}_d
/y{592 0 30 -207 562 547 _sc
322 -50 _m
296 -114 271 -157 247 -177 _c
223 -197 191 -207 151 -207 _c
79 -207 _l
79 -132 _l
132 -132 _l
156 -132 175 -126 189 -114 _c
203 -102 218 -75 235 -31 _c
251 9 _l
30 547 _l
125 547 _l
296 119 _l
467 547 _l
562 547 _l
322 -50 _l
_cl}_d
end readonly def

/BuildGlyph
 {exch begin
 CharStrings exch
 2 copy known not{pop /.notdef}if
 true 3 1 roll get exec
 end}_d

/BuildChar {
 1 index /Encoding get exch get
 1 index /BuildGlyph get exec
}_d

FontName currentdict end definefont pop
%!PS-Adobe-3.0 Resource-Font
%%Title: DejaVu Sans Bold
%%Copyright: Copyright (c) 2003 by Bitstream, Inc. All Rights Reserved. Copyright (c) 2006 by Tavmjong Bah. All Rights Reserved. DejaVu changes are in public domain 
%%Creator: Converted from TrueType to type 3 by PPR
25 dict begin
/_d{bind def}bind def
/_m{moveto}_d
/_l{lineto}_d
/_cl{closepath eofill}_d
/_c{curveto}_d
/_sc{7 -1 roll{setcachedevice}{pop pop pop pop pop pop}ifelse}_d
/_e{exec}_d
/FontName /DejaVuSans-Bold def
/PaintType 0 def
/FontMatrix[.001 0 0 .001 0 0]def
/FontBBox[-1069 -415 1975 1174]def
/FontType 3 def
/Encoding [ /space /parenleft /parenright /comma /hyphen /zero /one /four /six /nine /E /I /M /N /P /S /a /b /c /e /f /i /j /l /m /n /o /q /r /s /t /u /v /y ] def
/FontInfo 10 dict dup begin
/FamilyName (DejaVu Sans) def
/FullName (DejaVu Sans Bold) def
/Notice (Copyright (c) 2003 by Bitstream, Inc. All Rights Reserved. Copyright (c) 2006 by Tavmjong Bah. All Rights Reserved. DejaVu changes are in public domain ) def
/Weight (Bold) def
/Version (Version 2.35) def
/ItalicAngle 0.0 def
/isFixedPitch false def
/UnderlinePosition -130 def
/UnderlineThickness 90 def
end readonly def
/CharStrings 35 dict dup begin
/.notdef 0 def
/space{348 0 0 0 0 0 _sc
}_d
/parenleft{457 0 86 -131 377 759 _sc
377 -131 _m
232 -131 _l
182 -50 145 26 121 98 _c
97 170 86 241 86 313 _c
86 384 98 456 122 529 _c
146 602 182 679 232 759 _c
377 759 _l
335 681 303 606 283 532 _c
262 458 252 386 252 314 _c
252 242 262 169 283 95 _c
303 21 335 -53 377 -131 _c
_cl}_d
/parenright{457 0 80 -131 371 759 _sc
80 -131 _m
122 -53 153 21 174 95 _c
194 169 205 242 205 314 _c
205 386 194 458 174 532 _c
153 606 122 681 80 759 _c
225 759 _l
274 679 311 602 335 529 _c
359 456 371 384 371 313 _c
371 241 359 170 335 98 _c
311 26 275 -50 225 -131 _c
80 -131 _l
_cl}_d
/comma{380 0 53 -141 278 189 _sc
102 189 _m
278 189 _l
278 40 _l
157 -141 _l
53 -141 _l
102 40 _l
102 189 _l
_cl}_d
/hyphen{415 0 54 217 361 359 _sc
54 359 _m
361 359 _l
361 217 _l
54 217 _l
54 359 _l
_cl}_d
/zero{696 0 48 -13 648 742 _sc
460 365 _m
460 456 451 520 434 558 _c
417 595 388 614 348 614 _c
308 614 279 595 262 558 _c
244 520 236 456 236 365 _c
236 273 244 208 262 170 _c
279 132 308 114 348 114 _c
388 114 416 132 434 170 _c
451 208 460 273 460 365 _c
648 364 _m
648 243 622 150 570 85 _c
518 19 444 -13 348 -13 _c
252 -13 178 19 126 85 _c
74 150 48 243 48 364 _c
48 484 74 577 126 643 _c
178 709 252 742 348 742 _c
444 742 518 709 570 643 _c
622 577 648 484 648 364 _c
_cl}_d
/one{696 0 113 0 627 729 _sc
117 130 _m
283 130 _l
283 601 _l
113 566 _l
113 694 _l
282 729 _l
461 729 _l
461 130 _l
627 130 _l
627 0 _l
117 0 _l
117 130 _l
_cl}_d
/four{696 0 45 0 650 729 _sc
368 574 _m
162 269 _l
368 269 _l
368 574 _l
337 729 _m
546 729 _l
546 269 _l
650 269 _l
650 133 _l
546 133 _l
546 0 _l
368 0 _l
368 133 _l
45 133 _l
45 294 _l
337 729 _l
_cl}_d
/six{{696 0 62 -13 642 741 _sc
362 360 _m
329 360 304 349 288 328 _c
271 306 263 274 263 232 _c
263 189 271 157 288 136 _c
304 114 329 104 362 104 _c
395 104 420 114 436 136 _c
452 157 461 189 461 232 _c
461 274 452 306 436 328 _c
420 349 395 360 362 360 _c
594 710 _m
594 575 _l
563 589 534 600 507 607 _c
479 614 453 618 427 618 _c
371 618 327 602 296 571 _c
}_e{264 540 246 494 241 433 _c
262 449 285 461 311 469 _c
336 477 363 481 393 481 _c
467 481 527 459 573 415 _c
619 371 642 314 642 244 _c
642 166 616 103 565 57 _c
514 10 446 -13 360 -13 _c
265 -13 192 18 140 82 _c
88 146 62 236 62 354 _c
62 474 92 569 153 638 _c
213 706 297 741 403 741 _c
436 741 468 738 500 733 _c
532 728 563 720 594 710 _c
_cl}_e}_d
/nine{{696 0 52 -13 632 741 _sc
100 16 _m
100 151 _l
130 137 158 126 186 119 _c
213 112 240 109 267 109 _c
323 109 366 124 398 155 _c
429 186 447 232 453 294 _c
431 278 407 265 382 257 _c
357 249 330 245 301 245 _c
226 245 166 266 120 310 _c
74 353 52 410 52 482 _c
52 560 77 623 128 670 _c
179 717 247 741 333 741 _c
428 741 502 709 554 645 _c
606 581 632 490 632 373 _c
}_e{632 252 601 157 540 89 _c
479 21 396 -13 290 -13 _c
256 -13 223 -10 192 -6 _c
160 -1 130 6 100 16 _c
332 367 _m
364 367 389 377 406 399 _c
422 420 431 452 431 495 _c
431 537 422 569 406 591 _c
389 612 364 623 332 623 _c
299 623 274 612 258 591 _c
241 569 233 537 233 495 _c
233 452 241 420 258 399 _c
274 377 299 367 332 367 _c
_cl}_e}_d
/E{683 0 92 0 610 729 _sc
92 729 _m
599 729 _l
599 587 _l
280 587 _l
280 451 _l
580 451 _l
580 309 _l
280 309 _l
280 142 _l
610 142 _l
610 0 _l
92 0 _l
92 729 _l
_cl}_d
/I{372 0 92 0 280 729 _sc
92 729 _m
280 729 _l
280 0 _l
92 0 _l
92 729 _l
_cl}_d
/M{995 0 92 0 903 729 _sc
92 729 _m
331 729 _l
497 339 _l
664 729 _l
903 729 _l
903 0 _l
725 0 _l
725 533 _l
557 140 _l
438 140 _l
270 533 _l
270 0 _l
92 0 _l
92 729 _l
_cl}_d
/N{837 0 92 0 745 729 _sc
92 729 _m
302 729 _l
567 229 _l
567 729 _l
745 729 _l
745 0 _l
535 0 _l
270 500 _l
270 0 _l
92 0 _l
92 729 _l
_cl}_d
/P{733 0 92 0 692 729 _sc
92 729 _m
404 729 _l
496 729 567 708 617 667 _c
667 625 692 567 692 491 _c
692 414 667 355 617 314 _c
567 273 496 253 404 253 _c
280 253 _l
280 0 _l
92 0 _l
92 729 _l
280 593 _m
280 389 _l
384 389 _l
420 389 448 397 468 415 _c
488 433 498 458 498 491 _c
498 523 488 548 468 566 _c
448 584 420 593 384 593 _c
280 593 _l
_cl}_d
/S{{720 0 72 -13 647 742 _sc
599 706 _m
599 552 _l
559 570 520 583 482 592 _c
444 601 408 606 374 606 _c
329 606 296 599 274 587 _c
252 575 242 556 242 530 _c
242 510 249 494 264 484 _c
278 473 305 464 343 456 _c
423 440 _l
503 424 561 399 595 366 _c
629 332 647 285 647 224 _c
647 144 623 84 575 45 _c
527 6 455 -13 357 -13 _c
311 -13 264 -8 218 0 _c
}_e{171 8 124 20 78 38 _c
78 197 _l
124 172 169 153 213 141 _c
256 128 298 122 339 122 _c
379 122 411 128 433 142 _c
455 156 466 175 466 201 _c
466 223 458 241 443 253 _c
428 265 399 277 355 287 _c
282 303 _l
209 319 156 344 122 378 _c
88 412 72 458 72 516 _c
72 588 95 644 142 683 _c
188 722 256 742 344 742 _c
384 742 425 739 467 733 _c
509 727 553 718 599 706 _c
}_e{_cl}_e}_d
/a{{675 0 43 -13 596 560 _sc
329 246 _m
292 246 264 239 246 227 _c
228 215 219 197 219 173 _c
219 151 226 133 241 121 _c
256 108 277 102 303 102 _c
336 102 364 113 386 137 _c
408 161 420 190 420 226 _c
420 246 _l
329 246 _l
596 312 _m
596 0 _l
420 0 _l
420 81 _l
396 47 370 23 341 9 _c
311 -5 276 -13 234 -13 _c
177 -13 131 3 96 36 _c
60 68 43 111 43 164 _c
}_e{43 228 65 275 109 305 _c
153 335 222 350 317 350 _c
420 350 _l
420 364 _l
420 391 409 411 387 424 _c
365 437 331 444 285 444 _c
247 444 212 440 180 432 _c
148 424 118 413 91 399 _c
91 532 _l
128 541 165 548 203 553 _c
241 557 279 560 317 560 _c
415 560 486 540 530 501 _c
574 462 596 399 596 312 _c
_cl}_e}_d
/b{{716 0 84 -13 671 760 _sc
375 113 _m
412 113 440 126 460 154 _c
480 181 490 221 490 273 _c
490 325 480 364 460 392 _c
440 419 412 433 375 433 _c
337 433 309 419 289 392 _c
269 364 259 325 259 273 _c
259 221 269 181 289 154 _c
309 126 337 113 375 113 _c
259 467 _m
283 499 309 522 339 537 _c
368 552 402 560 440 560 _c
507 560 562 533 606 479 _c
649 425 671 357 671 273 _c
}_e{671 188 649 119 606 66 _c
562 13 507 -13 440 -13 _c
402 -13 368 -5 339 9 _c
309 23 283 47 259 79 _c
259 0 _l
84 0 _l
84 760 _l
259 760 _l
259 467 _l
_cl}_e}_d
/c{{593 0 43 -13 526 560 _sc
526 530 _m
526 387 _l
502 403 478 415 454 423 _c
430 431 405 435 380 435 _c
331 435 293 420 266 392 _c
238 364 225 324 225 273 _c
225 221 238 181 266 153 _c
293 125 331 111 380 111 _c
407 111 433 115 458 123 _c
482 131 505 143 526 159 _c
526 16 _l
498 6 470 -1 442 -6 _c
414 -10 386 -13 358 -13 _c
259 -13 182 12 126 62 _c
}_e{70 112 43 183 43 273 _c
43 363 70 433 126 484 _c
182 534 259 560 358 560 _c
386 560 414 557 442 552 _c
470 547 498 540 526 530 _c
_cl}_e}_d
/e{{678 0 43 -13 630 560 _sc
630 275 _m
630 225 _l
221 225 _l
225 184 240 153 266 133 _c
291 112 326 102 372 102 _c
408 102 446 107 485 118 _c
523 129 563 146 604 168 _c
604 33 _l
562 17 521 6 480 -1 _c
438 -9 397 -13 356 -13 _c
257 -13 180 12 125 62 _c
70 112 43 182 43 273 _c
43 362 70 432 124 483 _c
178 534 252 560 346 560 _c
432 560 500 534 552 482 _c
}_e{604 430 630 361 630 275 _c
450 333 _m
450 366 440 393 421 413 _c
401 433 376 444 345 444 _c
311 444 283 434 262 415 _c
241 396 228 369 223 333 _c
450 333 _l
_cl}_e}_d
/f{435 0 19 0 444 760 _sc
444 760 _m
444 645 _l
347 645 _l
322 645 305 640 295 631 _c
285 622 281 607 281 585 _c
281 547 _l
430 547 _l
430 422 _l
281 422 _l
281 0 _l
106 0 _l
106 422 _l
19 422 _l
19 547 _l
106 547 _l
106 585 _l
106 644 122 688 156 717 _c
189 745 240 760 310 760 _c
444 760 _l
_cl}_d
/i{343 0 84 0 259 760 _sc
84 547 _m
259 547 _l
259 0 _l
84 0 _l
84 547 _l
84 760 _m
259 760 _l
259 617 _l
84 617 _l
84 760 _l
_cl}_d
/j{343 0 -32 -215 259 760 _sc
84 547 _m
259 547 _l
259 10 _l
259 -62 241 -118 206 -157 _c
170 -195 119 -215 53 -215 _c
-32 -215 _l
-32 -100 _l
-2 -100 _l
30 -100 53 -92 65 -77 _c
77 -62 84 -33 84 10 _c
84 547 _l
84 760 _m
259 760 _l
259 617 _l
84 617 _l
84 760 _l
_cl}_d
/l{343 0 84 0 259 760 _sc
84 760 _m
259 760 _l
259 0 _l
84 0 _l
84 760 _l
_cl}_d
/m{{1042 0 83 0 963 560 _sc
591 456 _m
613 490 639 515 669 533 _c
699 551 733 560 770 560 _c
832 560 880 540 913 502 _c
946 463 963 407 963 333 _c
963 0 _l
787 0 _l
787 285 _l
787 289 788 294 788 298 _c
788 302 788 309 788 318 _c
788 356 782 384 771 402 _c
759 419 741 428 716 428 _c
682 428 657 414 639 387 _c
621 359 611 320 611 269 _c
611 0 _l
435 0 _l
435 285 _l
}_e{435 345 429 384 419 402 _c
409 419 390 428 364 428 _c
330 428 304 414 286 387 _c
268 359 259 320 259 269 _c
259 0 _l
83 0 _l
83 547 _l
259 547 _l
259 467 _l
280 497 305 520 333 536 _c
361 552 391 560 425 560 _c
462 560 495 550 524 532 _c
553 514 575 488 591 456 _c
_cl}_e}_d
/n{712 0 84 0 634 560 _sc
634 333 _m
634 0 _l
458 0 _l
458 54 _l
458 255 _l
458 302 457 334 455 352 _c
453 370 449 383 444 392 _c
437 403 428 412 416 418 _c
404 424 390 428 376 428 _c
339 428 310 414 290 386 _c
269 358 259 319 259 269 _c
259 0 _l
84 0 _l
84 547 _l
259 547 _l
259 467 _l
285 499 312 522 342 537 _c
372 552 405 560 441 560 _c
504 560 552 540 585 502 _c
617 463 634 407 634 333 _c
_cl}_d
/o{687 0 43 -13 644 560 _sc
344 435 _m
305 435 275 421 255 393 _c
235 365 225 325 225 273 _c
225 220 235 180 255 152 _c
275 124 305 111 344 111 _c
382 111 411 124 431 152 _c
451 180 462 220 462 273 _c
462 325 451 365 431 393 _c
411 421 382 435 344 435 _c
344 560 _m
438 560 511 534 564 484 _c
617 433 644 363 644 273 _c
644 183 617 112 564 62 _c
511 12 438 -13 344 -13 _c
250 -13 176 12 123 62 _c
69 112 43 183 43 273 _c
43 363 69 433 123 484 _c
176 534 250 560 344 560 _c
_cl}_d
/q{{716 0 45 -207 632 559 _sc
341 433 _m
303 433 275 419 255 392 _c
235 364 226 325 226 273 _c
226 221 235 181 255 154 _c
275 126 303 113 341 113 _c
378 113 406 126 426 154 _c
446 181 456 221 456 273 _c
456 325 446 364 426 392 _c
406 419 378 433 341 433 _c
456 79 _m
432 47 405 23 376 9 _c
347 -5 314 -13 276 -13 _c
208 -13 153 13 110 66 _c
66 119 45 188 45 273 _c
}_e{45 357 66 425 110 479 _c
153 532 208 559 276 559 _c
314 559 347 551 376 536 _c
405 521 432 498 456 466 _c
456 547 _l
632 547 _l
632 -207 _l
456 -207 _l
456 79 _l
_cl}_e}_d
/r{493 0 84 0 490 560 _sc
490 398 _m
474 405 459 410 444 414 _c
429 417 414 419 399 419 _c
354 419 319 404 295 376 _c
271 347 259 306 259 252 _c
259 0 _l
84 0 _l
84 547 _l
259 547 _l
259 457 _l
281 493 306 519 336 535 _c
365 551 400 560 441 560 _c
447 560 453 559 460 559 _c
466 559 476 558 490 556 _c
490 398 _l
_cl}_d
/s{{595 0 52 -13 548 560 _sc
511 530 _m
511 397 _l
473 412 437 424 403 432 _c
368 440 335 444 304 444 _c
270 444 246 439 230 431 _c
214 423 206 410 206 393 _c
206 379 212 368 224 361 _c
236 353 258 348 290 344 _c
321 340 _l
410 328 470 310 501 284 _c
532 258 548 217 548 161 _c
548 103 526 59 483 30 _c
440 1 376 -13 291 -13 _c
255 -13 217 -10 179 -5 _c
}_e{140 0 100 8 60 20 _c
60 153 _l
94 135 130 122 167 114 _c
203 106 241 102 279 102 _c
313 102 338 106 356 116 _c
373 125 382 139 382 158 _c
382 174 376 185 364 193 _c
352 201 328 207 293 211 _c
262 215 _l
184 224 130 242 99 269 _c
67 295 52 335 52 389 _c
52 447 71 490 111 518 _c
151 546 212 560 294 560 _c
326 560 359 557 395 552 _c
431 547 469 540 511 530 _c
}_e{_cl}_e}_d
/t{478 0 13 0 455 702 _sc
275 702 _m
275 547 _l
455 547 _l
455 422 _l
275 422 _l
275 190 _l
275 164 280 147 290 138 _c
300 129 320 125 350 125 _c
440 125 _l
440 0 _l
290 0 _l
221 0 172 14 143 43 _c
114 71 100 120 100 190 _c
100 422 _l
13 422 _l
13 547 _l
100 547 _l
100 702 _l
275 702 _l
_cl}_d
/u{{712 0 78 -13 628 547 _sc
78 213 _m
78 547 _l
254 547 _l
254 492 _l
254 462 253 425 253 380 _c
253 335 253 305 253 291 _c
253 247 254 215 256 196 _c
258 176 262 162 268 154 _c
275 142 284 133 296 127 _c
307 121 320 118 336 118 _c
372 118 401 132 422 160 _c
442 188 453 227 453 277 _c
453 547 _l
628 547 _l
628 0 _l
453 0 _l
453 79 _l
427 47 399 23 369 9 _c
}_e{339 -5 307 -13 272 -13 _c
208 -13 160 6 127 44 _c
94 82 78 139 78 213 _c
_cl}_e}_d
/v{652 0 15 0 637 547 _sc
15 547 _m
190 547 _l
326 169 _l
462 547 _l
637 547 _l
422 0 _l
230 0 _l
15 547 _l
_cl}_d
/y{652 0 12 -215 634 547 _sc
12 547 _m
187 547 _l
334 176 _l
459 547 _l
634 547 _l
404 -51 _l
380 -111 353 -154 323 -178 _c
292 -202 251 -215 201 -215 _c
100 -215 _l
100 -100 _l
155 -100 _l
184 -100 205 -95 219 -86 _c
233 -76 243 -59 251 -35 _c
256 -20 _l
12 547 _l
_cl}_d
end readonly def

/BuildGlyph
 {exch begin
 CharStrings exch
 2 copy known not{pop /.notdef}if
 true 3 1 roll get exec
 end}_d

/BuildChar {
 1 index /Encoding get exch get
 1 index /BuildGlyph get exec
}_d

FontName currentdict end definefont pop
end
%%EndProlog
mpldict begin
18 108 translate
576 576 0 0 clipbox
gsave
0 0 m
576 0 l
576 576 l
0 576 l
cl
1.000 setgray
fill
grestore
gsave
55.15 63.032776 m
554.04 63.032776 l
554.04 518.4 l
55.15 518.4 l
cl
1.000 setgray
fill
grestore
0.800 setlinewidth
1 setlinejoin
2 setlinecap
[] 0 setdash
0.690 setgray
gsave
498.9 455.4 55.15 63.03 clipbox
77.826818 63.032776 m
77.826818 518.4 l
stroke
grestore
0 setlinecap
0.000 setgray
gsave
/o {
gsave
newpath
translate
0.8 setlinewidth
1 setlinejoin
0 setlinecap
0 0 m
0 -3.5 l

gsave
0.000 setgray
fill
grestore
stroke
grestore
} bind def
77.8268 63.0328 o
grestore
/DejaVuSans findfont
18.000 scalefont
setfont
gsave
77.285440 38.266718 translate
45.000000 rotate
0.000000 0.000000 m /one glyphshow
grestore
2 setlinecap
0.690 setgray
gsave
498.9 455.4 55.15 63.03 clipbox
128.219747 63.032776 m
128.219747 518.4 l
stroke
grestore
0 setlinecap
0.000 setgray
gsave
/o {
gsave
newpath
translate
0.8 setlinewidth
1 setlinejoin
0 setlinecap
0 0 m
0 -3.5 l

gsave
0.000 setgray
fill
grestore
stroke
grestore
} bind def
128.22 63.0328 o
grestore
gsave
127.678369 38.266718 translate
45.000000 rotate
0.000000 0.000000 m /two glyphshow
grestore
2 setlinecap
0.690 setgray
gsave
498.9 455.4 55.15 63.03 clipbox
178.612677 63.032776 m
178.612677 518.4 l
stroke
grestore
0 setlinecap
0.000 setgray
gsave
/o {
gsave
newpath
translate
0.8 setlinewidth
1 setlinejoin
0 setlinecap
0 0 m
0 -3.5 l

gsave
0.000 setgray
fill
grestore
stroke
grestore
} bind def
178.613 63.0328 o
grestore
gsave
178.071298 38.266718 translate
45.000000 rotate
0.000000 0.000000 m /four glyphshow
grestore
2 setlinecap
0.690 setgray
gsave
498.9 455.4 55.15 63.03 clipbox
229.005606 63.032776 m
229.005606 518.4 l
stroke
grestore
0 setlinecap
0.000 setgray
gsave
/o {
gsave
newpath
translate
0.8 setlinewidth
1 setlinejoin
0 setlinecap
0 0 m
0 -3.5 l

gsave
0.000 setgray
fill
grestore
stroke
grestore
} bind def
229.006 63.0328 o
grestore
gsave
228.464227 38.266718 translate
45.000000 rotate
0.000000 0.000000 m /eight glyphshow
grestore
2 setlinecap
0.690 setgray
gsave
498.9 455.4 55.15 63.03 clipbox
279.398535 63.032776 m
279.398535 518.4 l
stroke
grestore
0 setlinecap
0.000 setgray
gsave
/o {
gsave
newpath
translate
0.8 setlinewidth
1 setlinejoin
0 setlinecap
0 0 m
0 -3.5 l

gsave
0.000 setgray
fill
grestore
stroke
grestore
} bind def
279.399 63.0328 o
grestore
gsave
274.807866 30.168136 translate
45.000000 rotate
0.000000 0.000000 m /one glyphshow
11.452148 0.000000 m /six glyphshow
grestore
2 setlinecap
0.690 setgray
gsave
498.9 455.4 55.15 63.03 clipbox
329.791465 63.032776 m
329.791465 518.4 l
stroke
grestore
0 setlinecap
0.000 setgray
gsave
/o {
gsave
newpath
translate
0.8 setlinewidth
1 setlinejoin
0 setlinecap
0 0 m
0 -3.5 l

gsave
0.000 setgray
fill
grestore
stroke
grestore
} bind def
329.791 63.0328 o
grestore
gsave
325.200795 30.168136 translate
45.000000 rotate
0.000000 0.000000 m /three glyphshow
11.452148 0.000000 m /two glyphshow
grestore
2 setlinecap
0.690 setgray
gsave
498.9 455.4 55.15 63.03 clipbox
380.184394 63.032776 m
380.184394 518.4 l
stroke
grestore
0 setlinecap
0.000 setgray
gsave
/o {
gsave
newpath
translate
0.8 setlinewidth
1 setlinejoin
0 setlinecap
0 0 m
0 -3.5 l

gsave
0.000 setgray
fill
grestore
stroke
grestore
} bind def
380.184 63.0328 o
grestore
gsave
375.593724 30.168136 translate
45.000000 rotate
0.000000 0.000000 m /six glyphshow
11.452148 0.000000 m /four glyphshow
grestore
2 setlinecap
0.690 setgray
gsave
498.9 455.4 55.15 63.03 clipbox
430.577323 63.032776 m
430.577323 518.4 l
stroke
grestore
0 setlinecap
0.000 setgray
gsave
/o {
gsave
newpath
translate
0.8 setlinewidth
1 setlinejoin
0 setlinecap
0 0 m
0 -3.5 l

gsave
0.000 setgray
fill
grestore
stroke
grestore
} bind def
430.577 63.0328 o
grestore
gsave
421.937362 22.069553 translate
45.000000 rotate
0.000000 0.000000 m /one glyphshow
11.452148 0.000000 m /two glyphshow
22.904297 0.000000 m /eight glyphshow
grestore
2 setlinecap
0.690 setgray
gsave
498.9 455.4 55.15 63.03 clipbox
480.970253 63.032776 m
480.970253 518.4 l
stroke
grestore
0 setlinecap
0.000 setgray
gsave
/o {
gsave
newpath
translate
0.8 setlinewidth
1 setlinejoin
0 setlinecap
0 0 m
0 -3.5 l

gsave
0.000 setgray
fill
grestore
stroke
grestore
} bind def
480.97 63.0328 o
grestore
gsave
472.330292 22.069553 translate
45.000000 rotate
0.000000 0.000000 m /two glyphshow
11.452148 0.000000 m /five glyphshow
22.904297 0.000000 m /six glyphshow
grestore
2 setlinecap
0.690 setgray
gsave
498.9 455.4 55.15 63.03 clipbox
531.363182 63.032776 m
531.363182 518.4 l
stroke
grestore
0 setlinecap
0.000 setgray
gsave
/o {
gsave
newpath
translate
0.8 setlinewidth
1 setlinejoin
0 setlinecap
0 0 m
0 -3.5 l

gsave
0.000 setgray
fill
grestore
stroke
grestore
} bind def
531.363 63.0328 o
grestore
gsave
522.723221 22.069553 translate
45.000000 rotate
0.000000 0.000000 m /five glyphshow
11.452148 0.000000 m /one glyphshow
22.904297 0.000000 m /two glyphshow
grestore
/DejaVuSans-Bold findfont
18.000 scalefont
setfont
gsave
191.118438 1.746028 translate
0.000000 rotate
0.000000 0.000000 m /N glyphshow
15.064453 0.000000 m /u glyphshow
27.878906 0.000000 m /m glyphshow
46.634766 0.000000 m /b glyphshow
59.519531 0.000000 m /e glyphshow
71.727539 0.000000 m /r glyphshow
80.604492 0.000000 m /space glyphshow
86.871094 0.000000 m /o glyphshow
99.237305 0.000000 m /f glyphshow
107.068359 0.000000 m /space glyphshow
113.334961 0.000000 m /P glyphshow
126.527344 0.000000 m /r glyphshow
135.404297 0.000000 m /o glyphshow
147.770508 0.000000 m /c glyphshow
158.440430 0.000000 m /s glyphshow
169.154297 0.000000 m /space glyphshow
175.420898 0.000000 m /hyphen glyphshow
182.891602 0.000000 m /space glyphshow
189.158203 0.000000 m /M glyphshow
207.070312 0.000000 m /P glyphshow
220.262695 0.000000 m /I glyphshow
grestore
2 setlinecap
0.690 setgray
gsave
498.9 455.4 55.15 63.03 clipbox
55.15 63.032776 m
554.04 63.032776 l
stroke
grestore
0 setlinecap
0.000 setgray
gsave
/o {
gsave
newpath
translate
0.8 setlinewidth
1 setlinejoin
0 setlinecap
0 0 m
-3.5 0 l

gsave
0.000 setgray
fill
grestore
stroke
grestore
} bind def
55.15 63.0328 o
grestore
/DejaVuSans findfont
18.000 scalefont
setfont
gsave
19.525000 56.196838 translate
0.000000 rotate
0.000000 0.000000 m /zero glyphshow
11.452148 0.000000 m /period glyphshow
17.173828 0.000000 m /one glyphshow
grestore
2 setlinecap
0.690 setgray
gsave
498.9 455.4 55.15 63.03 clipbox
55.15 112.613286 m
554.04 112.613286 l
stroke
grestore
0 setlinecap
0.000 setgray
gsave
/o {
gsave
newpath
translate
0.8 setlinewidth
1 setlinejoin
0 setlinecap
0 0 m
-3.5 0 l

gsave
0.000 setgray
fill
grestore
stroke
grestore
} bind def
55.15 112.613 o
grestore
gsave
19.525000 105.777349 translate
0.000000 rotate
0.000000 0.000000 m /zero glyphshow
11.452148 0.000000 m /period glyphshow
17.173828 0.000000 m /two glyphshow
grestore
2 setlinecap
0.690 setgray
gsave
498.9 455.4 55.15 63.03 clipbox
55.15 162.193796 m
554.04 162.193796 l
stroke
grestore
0 setlinecap
0.000 setgray
gsave
/o {
gsave
newpath
translate
0.8 setlinewidth
1 setlinejoin
0 setlinecap
0 0 m
-3.5 0 l

gsave
0.000 setgray
fill
grestore
stroke
grestore
} bind def
55.15 162.194 o
grestore
gsave
19.525000 155.357859 translate
0.000000 rotate
0.000000 0.000000 m /zero glyphshow
11.452148 0.000000 m /period glyphshow
17.173828 0.000000 m /three glyphshow
grestore
2 setlinecap
0.690 setgray
gsave
498.9 455.4 55.15 63.03 clipbox
55.15 211.774307 m
554.04 211.774307 l
stroke
grestore
0 setlinecap
0.000 setgray
gsave
/o {
gsave
newpath
translate
0.8 setlinewidth
1 setlinejoin
0 setlinecap
0 0 m
-3.5 0 l

gsave
0.000 setgray
fill
grestore
stroke
grestore
} bind def
55.15 211.774 o
grestore
gsave
19.525000 204.938369 translate
0.000000 rotate
0.000000 0.000000 m /zero glyphshow
11.452148 0.000000 m /period glyphshow
17.173828 0.000000 m /four glyphshow
grestore
2 setlinecap
0.690 setgray
gsave
498.9 455.4 55.15 63.03 clipbox
55.15 261.354817 m
554.04 261.354817 l
stroke
grestore
0 setlinecap
0.000 setgray
gsave
/o {
gsave
newpath
translate
0.8 setlinewidth
1 setlinejoin
0 setlinecap
0 0 m
-3.5 0 l

gsave
0.000 setgray
fill
grestore
stroke
grestore
} bind def
55.15 261.355 o
grestore
gsave
19.525000 254.518879 translate
0.000000 rotate
0.000000 0.000000 m /zero glyphshow
11.452148 0.000000 m /period glyphshow
17.173828 0.000000 m /five glyphshow
grestore
2 setlinecap
0.690 setgray
gsave
498.9 455.4 55.15 63.03 clipbox
55.15 310.935327 m
554.04 310.935327 l
stroke
grestore
0 setlinecap
0.000 setgray
gsave
/o {
gsave
newpath
translate
0.8 setlinewidth
1 setlinejoin
0 setlinecap
0 0 m
-3.5 0 l

gsave
0.000 setgray
fill
grestore
stroke
grestore
} bind def
55.15 310.935 o
grestore
gsave
19.525000 304.099390 translate
0.000000 rotate
0.000000 0.000000 m /zero glyphshow
11.452148 0.000000 m /period glyphshow
17.173828 0.000000 m /six glyphshow
grestore
2 setlinecap
0.690 setgray
gsave
498.9 455.4 55.15 63.03 clipbox
55.15 360.515837 m
554.04 360.515837 l
stroke
grestore
0 setlinecap
0.000 setgray
gsave
/o {
gsave
newpath
translate
0.8 setlinewidth
1 setlinejoin
0 setlinecap
0 0 m
-3.5 0 l

gsave
0.000 setgray
fill
grestore
stroke
grestore
} bind def
55.15 360.516 o
grestore
gsave
19.525000 353.679900 translate
0.000000 rotate
0.000000 0.000000 m /zero glyphshow
11.452148 0.000000 m /period glyphshow
17.173828 0.000000 m /seven glyphshow
grestore
2 setlinecap
0.690 setgray
gsave
498.9 455.4 55.15 63.03 clipbox
55.15 410.096348 m
554.04 410.096348 l
stroke
grestore
0 setlinecap
0.000 setgray
gsave
/o {
gsave
newpath
translate
0.8 setlinewidth
1 setlinejoin
0 setlinecap
0 0 m
-3.5 0 l

gsave
0.000 setgray
fill
grestore
stroke
grestore
} bind def
55.15 410.096 o
grestore
gsave
19.525000 403.260410 translate
0.000000 rotate
0.000000 0.000000 m /zero glyphshow
11.452148 0.000000 m /period glyphshow
17.173828 0.000000 m /eight glyphshow
grestore
2 setlinecap
0.690 setgray
gsave
498.9 455.4 55.15 63.03 clipbox
55.15 459.676858 m
554.04 459.676858 l
stroke
grestore
0 setlinecap
0.000 setgray
gsave
/o {
gsave
newpath
translate
0.8 setlinewidth
1 setlinejoin
0 setlinecap
0 0 m
-3.5 0 l

gsave
0.000 setgray
fill
grestore
stroke
grestore
} bind def
55.15 459.677 o
grestore
gsave
19.525000 452.840920 translate
0.000000 rotate
0.000000 0.000000 m /zero glyphshow
11.452148 0.000000 m /period glyphshow
17.173828 0.000000 m /nine glyphshow
grestore
2 setlinecap
0.690 setgray
gsave
498.9 455.4 55.15 63.03 clipbox
55.15 509.257368 m
554.04 509.257368 l
stroke
grestore
0 setlinecap
0.000 setgray
gsave
/o {
gsave
newpath
translate
0.8 setlinewidth
1 setlinejoin
0 setlinecap
0 0 m
-3.5 0 l

gsave
0.000 setgray
fill
grestore
stroke
grestore
} bind def
55.15 509.257 o
grestore
gsave
36.696875 502.421431 translate
0.000000 rotate
0.000000 0.000000 m /one glyphshow
grestore
0.122 0.467 0.706 setrgbcolor
/DejaVuSans-Bold findfont
18.000 scalefont
setfont
gsave
11.634375 241.521075 translate
90.000000 rotate
0.000000 0.000000 m /E glyphshow
12.295898 0.000000 m /f glyphshow
20.126953 0.000000 m /f glyphshow
27.958008 0.000000 m /i glyphshow
34.127930 0.000000 m /c glyphshow
44.797852 0.000000 m /i glyphshow
50.967773 0.000000 m /e glyphshow
63.175781 0.000000 m /n glyphshow
75.990234 0.000000 m /c glyphshow
86.660156 0.000000 m /y glyphshow
grestore
4.000 setlinewidth
2 setlinecap
0.133 0.545 0.133 setrgbcolor
gsave
498.9 455.4 55.15 63.03 clipbox
77.826818 509.257368 m
128.219747 470.83088 l
178.612677 462.210269 l
229.005606 463.966166 l
279.398535 466.564442 l
329.791465 461.292943 l
380.184394 460.468007 l
430.577323 454.23663 l
480.970253 438.24732 l
531.363182 399.908181 l
stroke
grestore
1.000 setlinewidth
0 setlinejoin
0 setlinecap
gsave
498.9 455.4 55.15 63.03 clipbox
/o {
gsave
newpath
translate
1.0 setlinewidth
0 setlinejoin
0 setlinecap
-3.5 6.062178 m
-7 0 l
-3.5 -6.062178 l
3.5 -6.062178 l
7 -0 l
3.5 6.062178 l
cl

gsave
0.133 0.545 0.133 setrgbcolor
fill
grestore
stroke
grestore
} bind def
77.8268 509.257 o
128.22 470.831 o
178.613 462.21 o
229.006 463.966 o
279.399 466.564 o
329.791 461.293 o
380.184 460.468 o
430.577 454.237 o
480.97 438.247 o
531.363 399.908 o
grestore
4.000 setlinewidth
1 setlinejoin
2 setlinecap
0.000 1.000 1.000 setrgbcolor
gsave
498.9 455.4 55.15 63.03 clipbox
77.826818 509.257368 m
128.219747 481.967721 l
178.612677 478.944355 l
229.005606 475.560006 l
279.398535 475.473826 l
329.791465 468.786702 l
380.184394 471.02936 l
430.577323 470.20101 l
480.970253 458.00243 l
531.363182 423.432389 l
stroke
grestore
1.000 setlinewidth
0 setlinejoin
0 setlinecap
gsave
498.9 455.4 55.15 63.03 clipbox
/o {
gsave
newpath
translate
1.0 setlinewidth
0 setlinejoin
0 setlinecap
-3.5 6.062178 m
-7 0 l
-3.5 -6.062178 l
3.5 -6.062178 l
7 -0 l
3.5 6.062178 l
cl

gsave
0.000 1.000 1.000 setrgbcolor
fill
grestore
stroke
grestore
} bind def
77.8268 509.257 o
128.22 481.968 o
178.613 478.944 o
229.006 475.56 o
279.399 475.474 o
329.791 468.787 o
380.184 471.029 o
430.577 470.201 o
480.97 458.002 o
531.363 423.432 o
grestore
4.000 setlinewidth
1 setlinejoin
2 setlinecap
1.000 0.843 0.000 setrgbcolor
gsave
498.9 455.4 55.15 63.03 clipbox
77.826818 509.257368 m
128.219747 455.057631 l
178.612677 455.097032 l
229.005606 454.424953 l
279.398535 449.481267 l
329.791465 443.667751 l
380.184394 442.98399 l
430.577323 433.20598 l
480.970253 425.501323 l
531.363182 394.191694 l
stroke
grestore
1.000 setlinewidth
0 setlinejoin
0 setlinecap
gsave
498.9 455.4 55.15 63.03 clipbox
/o {
gsave
newpath
translate
1.0 setlinewidth
0 setlinejoin
0 setlinecap
-3.5 6.062178 m
-7 0 l
-3.5 -6.062178 l
3.5 -6.062178 l
7 -0 l
3.5 6.062178 l
cl

gsave
1.000 0.843 0.000 setrgbcolor
fill
grestore
stroke
grestore
} bind def
77.8268 509.257 o
128.22 455.058 o
178.613 455.097 o
229.006 454.425 o
279.399 449.481 o
329.791 443.668 o
380.184 442.984 o
430.577 433.206 o
480.97 425.501 o
531.363 394.192 o
grestore
4.000 setlinewidth
1 setlinejoin
2 setlinecap
1.000 0.549 0.000 setrgbcolor
gsave
498.9 455.4 55.15 63.03 clipbox
77.826818 509.257368 m
128.219747 372.729231 l
178.612677 370.584217 l
229.005606 368.310586 l
279.398535 368.737452 l
329.791465 367.152572 l
380.184394 366.772232 l
430.577323 363.025888 l
480.970253 353.794099 l
531.363182 327.574905 l
stroke
grestore
1.000 setlinewidth
0 setlinejoin
0 setlinecap
gsave
498.9 455.4 55.15 63.03 clipbox
/o {
gsave
newpath
translate
1.0 setlinewidth
0 setlinejoin
0 setlinecap
-3.5 6.062178 m
-7 0 l
-3.5 -6.062178 l
3.5 -6.062178 l
7 -0 l
3.5 6.062178 l
cl

gsave
1.000 0.549 0.000 setrgbcolor
fill
grestore
stroke
grestore
} bind def
77.8268 509.257 o
128.22 372.729 o
178.613 370.584 o
229.006 368.311 o
279.399 368.737 o
329.791 367.153 o
380.184 366.772 o
430.577 363.026 o
480.97 353.794 o
531.363 327.575 o
grestore
2.000 setlinewidth
1 setlinejoin
2 setlinecap
1.000 0.647 0.000 setrgbcolor
gsave
498.9 455.4 55.15 63.03 clipbox
77.826818 509.257368 m
128.219747 466.763638 l
178.612677 462.717728 l
229.005606 464.944722 l
279.398535 460.487104 l
329.791465 455.950498 l
380.184394 452.446945 l
430.577323 452.240558 l
480.970253 438.721218 l
531.363182 401.474824 l
stroke
grestore
1.000 setlinewidth
0 setlinecap
gsave
498.9 455.4 55.15 63.03 clipbox
/o {
gsave
newpath
translate
1.0 setlinewidth
1 setlinejoin
0 setlinecap
0 -3.5 m
0.928211 -3.5 1.81853 -3.131218 2.474874 -2.474874 c
3.131218 -1.81853 3.5 -0.928211 3.5 0 c
3.5 0.928211 3.131218 1.81853 2.474874 2.474874 c
1.81853 3.131218 0.928211 3.5 0 3.5 c
-0.928211 3.5 -1.81853 3.131218 -2.474874 2.474874 c
-3.131218 1.81853 -3.5 0.928211 -3.5 0 c
-3.5 -0.928211 -3.131218 -1.81853 -2.474874 -2.474874 c
-1.81853 -3.131218 -0.928211 -3.5 0 -3.5 c
cl

gsave
1.000 0.647 0.000 setrgbcolor
fill
grestore
stroke
grestore
} bind def
77.8268 509.257 o
128.22 466.764 o
178.613 462.718 o
229.006 464.945 o
279.399 460.487 o
329.791 455.95 o
380.184 452.447 o
430.577 452.241 o
480.97 438.721 o
531.363 401.475 o
grestore
2.000 setlinewidth
2 setlinecap
0.000 0.000 0.545 setrgbcolor
gsave
498.9 455.4 55.15 63.03 clipbox
77.826818 509.257368 m
128.219747 480.216652 l
178.612677 478.533232 l
229.005606 477.376518 l
279.398535 474.542531 l
329.791465 467.750677 l
380.184394 466.379234 l
430.577323 458.939163 l
480.970253 456.285635 l
531.363182 423.365753 l
stroke
grestore
1.000 setlinewidth
0 setlinecap
gsave
498.9 455.4 55.15 63.03 clipbox
/o {
gsave
newpath
translate
1.0 setlinewidth
1 setlinejoin
0 setlinecap
0 -3.5 m
0.928211 -3.5 1.81853 -3.131218 2.474874 -2.474874 c
3.131218 -1.81853 3.5 -0.928211 3.5 0 c
3.5 0.928211 3.131218 1.81853 2.474874 2.474874 c
1.81853 3.131218 0.928211 3.5 0 3.5 c
-0.928211 3.5 -1.81853 3.131218 -2.474874 2.474874 c
-3.131218 1.81853 -3.5 0.928211 -3.5 0 c
-3.5 -0.928211 -3.131218 -1.81853 -2.474874 -2.474874 c
-1.81853 -3.131218 -0.928211 -3.5 0 -3.5 c
cl

gsave
0.000 0.000 0.545 setrgbcolor
fill
grestore
stroke
grestore
} bind def
77.8268 509.257 o
128.22 480.217 o
178.613 478.533 o
229.006 477.377 o
279.399 474.543 o
329.791 467.751 o
380.184 466.379 o
430.577 458.939 o
480.97 456.286 o
531.363 423.366 o
grestore
2.000 setlinewidth
2 setlinecap
0.502 0.502 0.000 setrgbcolor
gsave
498.9 455.4 55.15 63.03 clipbox
77.826818 509.257368 m
128.219747 453.586799 l
178.612677 455.266822 l
229.005606 452.131189 l
279.398535 448.020924 l
329.791465 444.43013 l
380.184394 442.576036 l
430.577323 433.133186 l
480.970253 426.112631 l
531.363182 392.302475 l
stroke
grestore
1.000 setlinewidth
0 setlinecap
gsave
498.9 455.4 55.15 63.03 clipbox
/o {
gsave
newpath
translate
1.0 setlinewidth
1 setlinejoin
0 setlinecap
0 -3.5 m
0.928211 -3.5 1.81853 -3.131218 2.474874 -2.474874 c
3.131218 -1.81853 3.5 -0.928211 3.5 0 c
3.5 0.928211 3.131218 1.81853 2.474874 2.474874 c
1.81853 3.131218 0.928211 3.5 0 3.5 c
-0.928211 3.5 -1.81853 3.131218 -2.474874 2.474874 c
-3.131218 1.81853 -3.5 0.928211 -3.5 0 c
-3.5 -0.928211 -3.131218 -1.81853 -2.474874 -2.474874 c
-1.81853 -3.131218 -0.928211 -3.5 0 -3.5 c
cl

gsave
0.502 0.502 0.000 setrgbcolor
fill
grestore
stroke
grestore
} bind def
77.8268 509.257 o
128.22 453.587 o
178.613 455.267 o
229.006 452.131 o
279.399 448.021 o
329.791 444.43 o
380.184 442.576 o
430.577 433.133 o
480.97 426.113 o
531.363 392.302 o
grestore
2.000 setlinewidth
2 setlinecap
0.294 0.000 0.510 setrgbcolor
gsave
498.9 455.4 55.15 63.03 clipbox
77.826818 509.257368 m
128.219747 370.670239 l
178.612677 370.916505 l
229.005606 367.727342 l
279.398535 367.545801 l
329.791465 363.334914 l
380.184394 363.430282 l
430.577323 361.091948 l
480.970253 353.081665 l
531.363182 326.404732 l
stroke
grestore
1.000 setlinewidth
0 setlinecap
gsave
498.9 455.4 55.15 63.03 clipbox
/o {
gsave
newpath
translate
1.0 setlinewidth
1 setlinejoin
0 setlinecap
0 -3.5 m
0.928211 -3.5 1.81853 -3.131218 2.474874 -2.474874 c
3.131218 -1.81853 3.5 -0.928211 3.5 0 c
3.5 0.928211 3.131218 1.81853 2.474874 2.474874 c
1.81853 3.131218 0.928211 3.5 0 3.5 c
-0.928211 3.5 -1.81853 3.131218 -2.474874 2.474874 c
-3.131218 1.81853 -3.5 0.928211 -3.5 0 c
-3.5 -0.928211 -3.131218 -1.81853 -2.474874 -2.474874 c
-1.81853 -3.131218 -0.928211 -3.5 0 -3.5 c
cl

gsave
0.294 0.000 0.510 setrgbcolor
fill
grestore
stroke
grestore
} bind def
77.8268 509.257 o
128.22 370.67 o
178.613 370.917 o
229.006 367.727 o
279.399 367.546 o
329.791 363.335 o
380.184 363.43 o
430.577 361.092 o
480.97 353.082 o
531.363 326.405 o
grestore
1.200 setlinewidth
[4.44 1.92] 0 setdash
0.000 0.000 0.545 setrgbcolor
gsave
498.9 455.4 55.15 63.03 clipbox
55.15 261.354817 m
554.04 261.354817 l
stroke
grestore
gsave
498.9 455.4 55.15 63.03 clipbox
55.15 310.935327 m
554.04 310.935327 l
stroke
grestore
gsave
498.9 455.4 55.15 63.03 clipbox
55.15 360.515837 m
554.04 360.515837 l
stroke
grestore
gsave
498.9 455.4 55.15 63.03 clipbox
55.15 410.096348 m
554.04 410.096348 l
stroke
grestore
gsave
498.9 455.4 55.15 63.03 clipbox
55.15 459.676858 m
554.04 459.676858 l
stroke
grestore
gsave
498.9 455.4 55.15 63.03 clipbox
55.15 509.257368 m
554.04 509.257368 l
stroke
grestore
2.000 setlinewidth
0 setlinejoin
2 setlinecap
[] 0 setdash
0.000 setgray
gsave
55.15 63.032776 m
55.15 518.4 l
stroke
grestore
gsave
554.04 63.032776 m
554.04 518.4 l
stroke
grestore
gsave
55.15 63.032776 m
554.04 63.032776 l
stroke
grestore
gsave
55.15 518.4 m
554.04 518.4 l
stroke
grestore
/DejaVuSans findfont
16.000 scalefont
setfont
gsave
57.679700 528.943750 translate
0.000000 rotate
0.000000 0.000000 m /C glyphshow
11.171875 0.000000 m /l glyphshow
15.617188 0.000000 m /o glyphshow
25.406250 0.000000 m /c glyphshow
34.203125 0.000000 m /k glyphshow
43.468750 0.000000 m /C glyphshow
54.640625 0.000000 m /o glyphshow
64.429688 0.000000 m /u glyphshow
74.570312 0.000000 m /n glyphshow
84.710938 0.000000 m /t glyphshow
90.984375 0.000000 m /e glyphshow
100.828125 0.000000 m /r glyphshow
107.406250 0.000000 m /W glyphshow
123.226562 0.000000 m /i glyphshow
127.671875 0.000000 m /s glyphshow
136.007812 0.000000 m /e glyphshow
145.851562 0.000000 m /space glyphshow
150.937500 0.000000 m /V glyphshow
161.882812 0.000000 m /s glyphshow
170.218750 0.000000 m /space glyphshow
175.304688 0.000000 m /N glyphshow
187.273438 0.000000 m /o glyphshow
197.062500 0.000000 m /t glyphshow
203.335938 0.000000 m /S glyphshow
213.492188 0.000000 m /e glyphshow
223.335938 0.000000 m /q glyphshow
233.492188 0.000000 m /u glyphshow
243.632812 0.000000 m /e glyphshow
253.476562 0.000000 m /n glyphshow
263.617188 0.000000 m /t glyphshow
269.890625 0.000000 m /i glyphshow
274.335938 0.000000 m /a glyphshow
284.140625 0.000000 m /l glyphshow
288.585938 0.000000 m /space glyphshow
293.671875 0.000000 m /A glyphshow
304.617188 0.000000 m /l glyphshow
309.062500 0.000000 m /g glyphshow
319.218750 0.000000 m /o glyphshow
329.007812 0.000000 m /r glyphshow
335.585938 0.000000 m /i glyphshow
340.031250 0.000000 m /t glyphshow
346.304688 0.000000 m /h glyphshow
356.445312 0.000000 m /m glyphshow
372.031250 0.000000 m /s glyphshow
380.367188 0.000000 m /space glyphshow
385.453125 0.000000 m /hyphen glyphshow
391.226562 0.000000 m /space glyphshow
396.312500 0.000000 m /E glyphshow
406.421875 0.000000 m /f glyphshow
412.054688 0.000000 m /f glyphshow
417.687500 0.000000 m /i glyphshow
422.132812 0.000000 m /c glyphshow
430.929688 0.000000 m /i glyphshow
435.375000 0.000000 m /e glyphshow
445.218750 0.000000 m /n glyphshow
455.359375 0.000000 m /c glyphshow
464.156250 0.000000 m /y glyphshow
grestore
gsave
294.617200 511.028125 translate
0.000000 rotate

grestore
1.000 setlinewidth
0 setlinecap
0.800 setgray
gsave
183.4725 67.586448 m
538.10375 67.586448 l
540.50375 67.586448 541.70375 68.786448 541.70375 71.186448 c
541.70375 280.761448 l
541.70375 283.161448 540.50375 284.361448 538.10375 284.361448 c
183.4725 284.361448 l
181.0725 284.361448 179.8725 283.161448 179.8725 280.761448 c
179.8725 71.186448 l
179.8725 68.786448 181.0725 67.586448 183.4725 67.586448 c
cl
gsave
1.000 setgray
fill
grestore
stroke
grestore
4.000 setlinewidth
1 setlinejoin
2 setlinecap
[] 0 setdash
0.133 0.545 0.133 setrgbcolor
gsave
187.0725 269.789573 m
223.0725 269.789573 l
stroke
grestore
1.000 setlinewidth
0 setlinejoin
0 setlinecap
gsave
/o {
gsave
newpath
translate
1.0 setlinewidth
0 setlinejoin
0 setlinecap
-3.5 6.062178 m
-7 0 l
-3.5 -6.062178 l
3.5 -6.062178 l
7 -0 l
3.5 6.062178 l
cl

gsave
0.133 0.545 0.133 setrgbcolor
fill
grestore
stroke
grestore
} bind def
205.072 269.79 o
grestore
0.000 setgray
/DejaVuSans findfont
18.000 scalefont
setfont
gsave
237.472500 263.489573 translate
0.000000 rotate
0.000000 0.000000 m /E glyphshow
11.373047 0.000000 m /f glyphshow
17.709961 0.000000 m /f glyphshow
24.046875 0.000000 m /i glyphshow
29.047852 0.000000 m /c glyphshow
38.944336 0.000000 m /i glyphshow
43.945312 0.000000 m /e glyphshow
55.019531 0.000000 m /n glyphshow
66.427734 0.000000 m /c glyphshow
76.324219 0.000000 m /y glyphshow
86.976562 0.000000 m /space glyphshow
92.698242 0.000000 m /P glyphshow
103.552734 0.000000 m /one glyphshow
115.004883 0.000000 m /space glyphshow
120.726562 0.000000 m /hyphen glyphshow
127.221680 0.000000 m /space glyphshow
132.943359 0.000000 m /C glyphshow
145.511719 0.000000 m /l glyphshow
150.512695 0.000000 m /o glyphshow
161.525391 0.000000 m /c glyphshow
171.421875 0.000000 m /k glyphshow
181.845703 0.000000 m /C glyphshow
194.414062 0.000000 m /o glyphshow
205.426758 0.000000 m /u glyphshow
216.834961 0.000000 m /n glyphshow
228.243164 0.000000 m /t glyphshow
235.300781 0.000000 m /e glyphshow
246.375000 0.000000 m /r glyphshow
253.775391 0.000000 m /W glyphshow
271.573242 0.000000 m /i glyphshow
276.574219 0.000000 m /s glyphshow
285.952148 0.000000 m /e glyphshow
grestore
4.000 setlinewidth
1 setlinejoin
2 setlinecap
0.000 1.000 1.000 setrgbcolor
gsave
187.0725 243.367698 m
223.0725 243.367698 l
stroke
grestore
1.000 setlinewidth
0 setlinejoin
0 setlinecap
gsave
/o {
gsave
newpath
translate
1.0 setlinewidth
0 setlinejoin
0 setlinecap
-3.5 6.062178 m
-7 0 l
-3.5 -6.062178 l
3.5 -6.062178 l
7 -0 l
3.5 6.062178 l
cl

gsave
0.000 1.000 1.000 setrgbcolor
fill
grestore
stroke
grestore
} bind def
205.072 243.368 o
grestore
0.000 setgray
gsave
237.472500 237.067698 translate
0.000000 rotate
0.000000 0.000000 m /E glyphshow
11.373047 0.000000 m /f glyphshow
17.709961 0.000000 m /f glyphshow
24.046875 0.000000 m /i glyphshow
29.047852 0.000000 m /c glyphshow
38.944336 0.000000 m /i glyphshow
43.945312 0.000000 m /e glyphshow
55.019531 0.000000 m /n glyphshow
66.427734 0.000000 m /c glyphshow
76.324219 0.000000 m /y glyphshow
86.976562 0.000000 m /space glyphshow
92.698242 0.000000 m /P glyphshow
103.552734 0.000000 m /four glyphshow
115.004883 0.000000 m /space glyphshow
120.726562 0.000000 m /hyphen glyphshow
127.221680 0.000000 m /space glyphshow
132.943359 0.000000 m /C glyphshow
145.511719 0.000000 m /l glyphshow
150.512695 0.000000 m /o glyphshow
161.525391 0.000000 m /c glyphshow
171.421875 0.000000 m /k glyphshow
181.845703 0.000000 m /C glyphshow
194.414062 0.000000 m /o glyphshow
205.426758 0.000000 m /u glyphshow
216.834961 0.000000 m /n glyphshow
228.243164 0.000000 m /t glyphshow
235.300781 0.000000 m /e glyphshow
246.375000 0.000000 m /r glyphshow
253.775391 0.000000 m /W glyphshow
271.573242 0.000000 m /i glyphshow
276.574219 0.000000 m /s glyphshow
285.952148 0.000000 m /e glyphshow
grestore
4.000 setlinewidth
1 setlinejoin
2 setlinecap
1.000 0.843 0.000 setrgbcolor
gsave
187.0725 216.945823 m
223.0725 216.945823 l
stroke
grestore
1.000 setlinewidth
0 setlinejoin
0 setlinecap
gsave
/o {
gsave
newpath
translate
1.0 setlinewidth
0 setlinejoin
0 setlinecap
-3.5 6.062178 m
-7 0 l
-3.5 -6.062178 l
3.5 -6.062178 l
7 -0 l
3.5 6.062178 l
cl

gsave
1.000 0.843 0.000 setrgbcolor
fill
grestore
stroke
grestore
} bind def
205.072 216.946 o
grestore
0.000 setgray
gsave
237.472500 210.645823 translate
0.000000 rotate
0.000000 0.000000 m /E glyphshow
11.373047 0.000000 m /f glyphshow
17.709961 0.000000 m /f glyphshow
24.046875 0.000000 m /i glyphshow
29.047852 0.000000 m /c glyphshow
38.944336 0.000000 m /i glyphshow
43.945312 0.000000 m /e glyphshow
55.019531 0.000000 m /n glyphshow
66.427734 0.000000 m /c glyphshow
76.324219 0.000000 m /y glyphshow
86.976562 0.000000 m /space glyphshow
92.698242 0.000000 m /P glyphshow
103.552734 0.000000 m /six glyphshow
115.004883 0.000000 m /space glyphshow
120.726562 0.000000 m /hyphen glyphshow
127.221680 0.000000 m /space glyphshow
132.943359 0.000000 m /C glyphshow
145.511719 0.000000 m /l glyphshow
150.512695 0.000000 m /o glyphshow
161.525391 0.000000 m /c glyphshow
171.421875 0.000000 m /k glyphshow
181.845703 0.000000 m /C glyphshow
194.414062 0.000000 m /o glyphshow
205.426758 0.000000 m /u glyphshow
216.834961 0.000000 m /n glyphshow
228.243164 0.000000 m /t glyphshow
235.300781 0.000000 m /e glyphshow
246.375000 0.000000 m /r glyphshow
253.775391 0.000000 m /W glyphshow
271.573242 0.000000 m /i glyphshow
276.574219 0.000000 m /s glyphshow
285.952148 0.000000 m /e glyphshow
grestore
4.000 setlinewidth
1 setlinejoin
2 setlinecap
1.000 0.549 0.000 setrgbcolor
gsave
187.0725 190.523948 m
223.0725 190.523948 l
stroke
grestore
1.000 setlinewidth
0 setlinejoin
0 setlinecap
gsave
/o {
gsave
newpath
translate
1.0 setlinewidth
0 setlinejoin
0 setlinecap
-3.5 6.062178 m
-7 0 l
-3.5 -6.062178 l
3.5 -6.062178 l
7 -0 l
3.5 6.062178 l
cl

gsave
1.000 0.549 0.000 setrgbcolor
fill
grestore
stroke
grestore
} bind def
205.072 190.524 o
grestore
0.000 setgray
gsave
237.472500 184.223948 translate
0.000000 rotate
0.000000 0.000000 m /E glyphshow
11.373047 0.000000 m /f glyphshow
17.709961 0.000000 m /f glyphshow
24.046875 0.000000 m /i glyphshow
29.047852 0.000000 m /c glyphshow
38.944336 0.000000 m /i glyphshow
43.945312 0.000000 m /e glyphshow
55.019531 0.000000 m /n glyphshow
66.427734 0.000000 m /c glyphshow
76.324219 0.000000 m /y glyphshow
86.976562 0.000000 m /space glyphshow
92.698242 0.000000 m /P glyphshow
103.552734 0.000000 m /nine glyphshow
115.004883 0.000000 m /space glyphshow
120.726562 0.000000 m /hyphen glyphshow
127.221680 0.000000 m /space glyphshow
132.943359 0.000000 m /C glyphshow
145.511719 0.000000 m /l glyphshow
150.512695 0.000000 m /o glyphshow
161.525391 0.000000 m /c glyphshow
171.421875 0.000000 m /k glyphshow
181.845703 0.000000 m /C glyphshow
194.414062 0.000000 m /o glyphshow
205.426758 0.000000 m /u glyphshow
216.834961 0.000000 m /n glyphshow
228.243164 0.000000 m /t glyphshow
235.300781 0.000000 m /e glyphshow
246.375000 0.000000 m /r glyphshow
253.775391 0.000000 m /W glyphshow
271.573242 0.000000 m /i glyphshow
276.574219 0.000000 m /s glyphshow
285.952148 0.000000 m /e glyphshow
grestore
2.000 setlinewidth
1 setlinejoin
2 setlinecap
1.000 0.647 0.000 setrgbcolor
gsave
187.0725 164.102073 m
223.0725 164.102073 l
stroke
grestore
1.000 setlinewidth
0 setlinecap
gsave
/o {
gsave
newpath
translate
1.0 setlinewidth
1 setlinejoin
0 setlinecap
0 -3.5 m
0.928211 -3.5 1.81853 -3.131218 2.474874 -2.474874 c
3.131218 -1.81853 3.5 -0.928211 3.5 0 c
3.5 0.928211 3.131218 1.81853 2.474874 2.474874 c
1.81853 3.131218 0.928211 3.5 0 3.5 c
-0.928211 3.5 -1.81853 3.131218 -2.474874 2.474874 c
-3.131218 1.81853 -3.5 0.928211 -3.5 0 c
-3.5 -0.928211 -3.131218 -1.81853 -2.474874 -2.474874 c
-1.81853 -3.131218 -0.928211 -3.5 0 -3.5 c
cl

gsave
1.000 0.647 0.000 setrgbcolor
fill
grestore
stroke
grestore
} bind def
205.072 164.102 o
grestore
0.000 setgray
gsave
237.472500 157.802073 translate
0.000000 rotate
0.000000 0.000000 m /E glyphshow
11.373047 0.000000 m /f glyphshow
17.709961 0.000000 m /f glyphshow
24.046875 0.000000 m /i glyphshow
29.047852 0.000000 m /c glyphshow
38.944336 0.000000 m /i glyphshow
43.945312 0.000000 m /e glyphshow
55.019531 0.000000 m /n glyphshow
66.427734 0.000000 m /c glyphshow
76.324219 0.000000 m /y glyphshow
86.976562 0.000000 m /space glyphshow
92.698242 0.000000 m /P glyphshow
103.552734 0.000000 m /one glyphshow
115.004883 0.000000 m /space glyphshow
120.726562 0.000000 m /hyphen glyphshow
127.221680 0.000000 m /space glyphshow
132.943359 0.000000 m /N glyphshow
146.408203 0.000000 m /o glyphshow
157.420898 0.000000 m /t glyphshow
164.478516 0.000000 m /S glyphshow
175.904297 0.000000 m /e glyphshow
186.978516 0.000000 m /q glyphshow
198.404297 0.000000 m /u glyphshow
209.812500 0.000000 m /e glyphshow
220.886719 0.000000 m /n glyphshow
232.294922 0.000000 m /t glyphshow
239.352539 0.000000 m /i glyphshow
244.353516 0.000000 m /a glyphshow
255.383789 0.000000 m /l glyphshow
grestore
2.000 setlinewidth
2 setlinecap
0.000 0.000 0.545 setrgbcolor
gsave
187.0725 137.680198 m
223.0725 137.680198 l
stroke
grestore
1.000 setlinewidth
0 setlinecap
gsave
/o {
gsave
newpath
translate
1.0 setlinewidth
1 setlinejoin
0 setlinecap
0 -3.5 m
0.928211 -3.5 1.81853 -3.131218 2.474874 -2.474874 c
3.131218 -1.81853 3.5 -0.928211 3.5 0 c
3.5 0.928211 3.131218 1.81853 2.474874 2.474874 c
1.81853 3.131218 0.928211 3.5 0 3.5 c
-0.928211 3.5 -1.81853 3.131218 -2.474874 2.474874 c
-3.131218 1.81853 -3.5 0.928211 -3.5 0 c
-3.5 -0.928211 -3.131218 -1.81853 -2.474874 -2.474874 c
-1.81853 -3.131218 -0.928211 -3.5 0 -3.5 c
cl

gsave
0.000 0.000 0.545 setrgbcolor
fill
grestore
stroke
grestore
} bind def
205.072 137.68 o
grestore
0.000 setgray
gsave
237.472500 131.380198 translate
0.000000 rotate
0.000000 0.000000 m /E glyphshow
11.373047 0.000000 m /f glyphshow
17.709961 0.000000 m /f glyphshow
24.046875 0.000000 m /i glyphshow
29.047852 0.000000 m /c glyphshow
38.944336 0.000000 m /i glyphshow
43.945312 0.000000 m /e glyphshow
55.019531 0.000000 m /n glyphshow
66.427734 0.000000 m /c glyphshow
76.324219 0.000000 m /y glyphshow
86.976562 0.000000 m /space glyphshow
92.698242 0.000000 m /P glyphshow
103.552734 0.000000 m /four glyphshow
115.004883 0.000000 m /space glyphshow
120.726562 0.000000 m /hyphen glyphshow
127.221680 0.000000 m /space glyphshow
132.943359 0.000000 m /N glyphshow
146.408203 0.000000 m /o glyphshow
157.420898 0.000000 m /t glyphshow
164.478516 0.000000 m /S glyphshow
175.904297 0.000000 m /e glyphshow
186.978516 0.000000 m /q glyphshow
198.404297 0.000000 m /u glyphshow
209.812500 0.000000 m /e glyphshow
220.886719 0.000000 m /n glyphshow
232.294922 0.000000 m /t glyphshow
239.352539 0.000000 m /i glyphshow
244.353516 0.000000 m /a glyphshow
255.383789 0.000000 m /l glyphshow
grestore
2.000 setlinewidth
2 setlinecap
0.502 0.502 0.000 setrgbcolor
gsave
187.0725 111.258323 m
223.0725 111.258323 l
stroke
grestore
1.000 setlinewidth
0 setlinecap
gsave
/o {
gsave
newpath
translate
1.0 setlinewidth
1 setlinejoin
0 setlinecap
0 -3.5 m
0.928211 -3.5 1.81853 -3.131218 2.474874 -2.474874 c
3.131218 -1.81853 3.5 -0.928211 3.5 0 c
3.5 0.928211 3.131218 1.81853 2.474874 2.474874 c
1.81853 3.131218 0.928211 3.5 0 3.5 c
-0.928211 3.5 -1.81853 3.131218 -2.474874 2.474874 c
-3.131218 1.81853 -3.5 0.928211 -3.5 0 c
-3.5 -0.928211 -3.131218 -1.81853 -2.474874 -2.474874 c
-1.81853 -3.131218 -0.928211 -3.5 0 -3.5 c
cl

gsave
0.502 0.502 0.000 setrgbcolor
fill
grestore
stroke
grestore
} bind def
205.072 111.258 o
grestore
0.000 setgray
gsave
237.472500 104.958323 translate
0.000000 rotate
0.000000 0.000000 m /E glyphshow
11.373047 0.000000 m /f glyphshow
17.709961 0.000000 m /f glyphshow
24.046875 0.000000 m /i glyphshow
29.047852 0.000000 m /c glyphshow
38.944336 0.000000 m /i glyphshow
43.945312 0.000000 m /e glyphshow
55.019531 0.000000 m /n glyphshow
66.427734 0.000000 m /c glyphshow
76.324219 0.000000 m /y glyphshow
86.976562 0.000000 m /space glyphshow
92.698242 0.000000 m /P glyphshow
103.552734 0.000000 m /six glyphshow
115.004883 0.000000 m /space glyphshow
120.726562 0.000000 m /hyphen glyphshow
127.221680 0.000000 m /space glyphshow
132.943359 0.000000 m /N glyphshow
146.408203 0.000000 m /o glyphshow
157.420898 0.000000 m /t glyphshow
164.478516 0.000000 m /S glyphshow
175.904297 0.000000 m /e glyphshow
186.978516 0.000000 m /q glyphshow
198.404297 0.000000 m /u glyphshow
209.812500 0.000000 m /e glyphshow
220.886719 0.000000 m /n glyphshow
232.294922 0.000000 m /t glyphshow
239.352539 0.000000 m /i glyphshow
244.353516 0.000000 m /a glyphshow
255.383789 0.000000 m /l glyphshow
grestore
2.000 setlinewidth
2 setlinecap
0.294 0.000 0.510 setrgbcolor
gsave
187.0725 84.836448 m
223.0725 84.836448 l
stroke
grestore
1.000 setlinewidth
0 setlinecap
gsave
/o {
gsave
newpath
translate
1.0 setlinewidth
1 setlinejoin
0 setlinecap
0 -3.5 m
0.928211 -3.5 1.81853 -3.131218 2.474874 -2.474874 c
3.131218 -1.81853 3.5 -0.928211 3.5 0 c
3.5 0.928211 3.131218 1.81853 2.474874 2.474874 c
1.81853 3.131218 0.928211 3.5 0 3.5 c
-0.928211 3.5 -1.81853 3.131218 -2.474874 2.474874 c
-3.131218 1.81853 -3.5 0.928211 -3.5 0 c
-3.5 -0.928211 -3.131218 -1.81853 -2.474874 -2.474874 c
-1.81853 -3.131218 -0.928211 -3.5 0 -3.5 c
cl

gsave
0.294 0.000 0.510 setrgbcolor
fill
grestore
stroke
grestore
} bind def
205.072 84.8364 o
grestore
0.000 setgray
gsave
237.472500 78.536448 translate
0.000000 rotate
0.000000 0.000000 m /E glyphshow
11.373047 0.000000 m /f glyphshow
17.709961 0.000000 m /f glyphshow
24.046875 0.000000 m /i glyphshow
29.047852 0.000000 m /c glyphshow
38.944336 0.000000 m /i glyphshow
43.945312 0.000000 m /e glyphshow
55.019531 0.000000 m /n glyphshow
66.427734 0.000000 m /c glyphshow
76.324219 0.000000 m /y glyphshow
86.976562 0.000000 m /space glyphshow
92.698242 0.000000 m /P glyphshow
103.552734 0.000000 m /nine glyphshow
115.004883 0.000000 m /space glyphshow
120.726562 0.000000 m /hyphen glyphshow
127.221680 0.000000 m /space glyphshow
132.943359 0.000000 m /N glyphshow
146.408203 0.000000 m /o glyphshow
157.420898 0.000000 m /t glyphshow
164.478516 0.000000 m /S glyphshow
175.904297 0.000000 m /e glyphshow
186.978516 0.000000 m /q glyphshow
198.404297 0.000000 m /u glyphshow
209.812500 0.000000 m /e glyphshow
220.886719 0.000000 m /n glyphshow
232.294922 0.000000 m /t glyphshow
239.352539 0.000000 m /i glyphshow
244.353516 0.000000 m /a glyphshow
255.383789 0.000000 m /l glyphshow
grestore
/DejaVuSans-Bold findfont
20.000 scalefont
setfont
gsave
10.359375 553.274688 translate
0.000000 rotate
0.000000 0.000000 m /P glyphshow
14.658203 0.000000 m /r glyphshow
24.521484 0.000000 m /o glyphshow
38.261719 0.000000 m /j glyphshow
45.117188 0.000000 m /e glyphshow
58.681641 0.000000 m /c glyphshow
70.537109 0.000000 m /t glyphshow
80.097656 0.000000 m /i glyphshow
86.953125 0.000000 m /o glyphshow
100.693359 0.000000 m /n glyphshow
114.931641 0.000000 m /space glyphshow
121.894531 0.000000 m /S glyphshow
136.298828 0.000000 m /o glyphshow
150.039062 0.000000 m /l glyphshow
156.894531 0.000000 m /v glyphshow
169.931641 0.000000 m /e glyphshow
183.496094 0.000000 m /r glyphshow
193.359375 0.000000 m /space glyphshow
200.322266 0.000000 m /hyphen glyphshow
208.623047 0.000000 m /space glyphshow
215.585938 0.000000 m /one glyphshow
229.501953 0.000000 m /zero glyphshow
243.417969 0.000000 m /zero glyphshow
257.333984 0.000000 m /zero glyphshow
271.250000 0.000000 m /zero glyphshow
285.166016 0.000000 m /space glyphshow
292.128906 0.000000 m /S glyphshow
306.533203 0.000000 m /q glyphshow
320.849609 0.000000 m /u glyphshow
335.087891 0.000000 m /a glyphshow
348.583984 0.000000 m /r glyphshow
358.447266 0.000000 m /e glyphshow
372.011719 0.000000 m /space glyphshow
378.974609 0.000000 m /parenleft glyphshow
388.115234 0.000000 m /P glyphshow
402.773438 0.000000 m /one glyphshow
416.689453 0.000000 m /comma glyphshow
424.287109 0.000000 m /space glyphshow
431.250000 0.000000 m /P glyphshow
445.908203 0.000000 m /four glyphshow
459.824219 0.000000 m /comma glyphshow
467.421875 0.000000 m /space glyphshow
474.384766 0.000000 m /P glyphshow
489.042969 0.000000 m /six glyphshow
502.958984 0.000000 m /comma glyphshow
510.556641 0.000000 m /space glyphshow
517.519531 0.000000 m /P glyphshow
532.177734 0.000000 m /nine glyphshow
546.093750 0.000000 m /parenright glyphshow
grestore

end
showpage
