%!PS-Adobe-3.0 EPSF-3.0
%%Title: /home/doc/Work/Doutorado/thesis/thesis/eps/cap6/ClockCounterWise_Vs_NotSequential_SpeedUp_ProjectionSolver_Square10000_P6-P9.eps
%%Creator: matplotlib version 3.0.3, http://matplotlib.org/
%%CreationDate: Thu Jul 25 21:37:14 2019
%%Orientation: portrait
%%BoundingBox: 18 108 594 684
%%EndComments
%%BeginProlog
/mpldict 9 dict def
mpldict begin
/m { moveto } bind def
/l { lineto } bind def
/r { rlineto } bind def
/c { curveto } bind def
/cl { closepath } bind def
/box {
m
1 index 0 r
0 exch r
neg 0 r
cl
} bind def
/clipbox {
box
clip
newpath
} bind def
%!PS-Adobe-3.0 Resource-Font
%%Title: DejaVu Sans
%%Copyright: Copyright (c) 2003 by Bitstream, Inc. All Rights Reserved. Copyright (c) 2006 by Tavmjong Bah. All Rights Reserved. DejaVu changes are in public domain 
%%Creator: Converted from TrueType to type 3 by PPR
25 dict begin
/_d{bind def}bind def
/_m{moveto}_d
/_l{lineto}_d
/_cl{closepath eofill}_d
/_c{curveto}_d
/_sc{7 -1 roll{setcachedevice}{pop pop pop pop pop pop}ifelse}_d
/_e{exec}_d
/FontName /DejaVuSans def
/PaintType 0 def
/FontMatrix[.001 0 0 .001 0 0]def
/FontBBox[-1021 -463 1793 1232]def
/FontType 3 def
/Encoding [ /space /hyphen /zero /one /two /three /four /five /six /eight /nine /A /C /I /N /P /S /U /V /W /a /c /d /e /g /h /i /k /l /m /n /o /p /q /r /s /t /u ] def
/FontInfo 10 dict dup begin
/FamilyName (DejaVu Sans) def
/FullName (DejaVu Sans) def
/Notice (Copyright (c) 2003 by Bitstream, Inc. All Rights Reserved. Copyright (c) 2006 by Tavmjong Bah. All Rights Reserved. DejaVu changes are in public domain ) def
/Weight (Book) def
/Version (Version 2.35) def
/ItalicAngle 0.0 def
/isFixedPitch false def
/UnderlinePosition -130 def
/UnderlineThickness 90 def
end readonly def
/CharStrings 39 dict dup begin
/.notdef 0 def
/space{318 0 0 0 0 0 _sc
}_d
/hyphen{361 0 49 234 312 314 _sc
49 314 _m
312 314 _l
312 234 _l
49 234 _l
49 314 _l
_cl}_d
/zero{636 0 66 -13 570 742 _sc
318 664 _m
267 664 229 639 203 589 _c
177 539 165 464 165 364 _c
165 264 177 189 203 139 _c
229 89 267 64 318 64 _c
369 64 407 89 433 139 _c
458 189 471 264 471 364 _c
471 464 458 539 433 589 _c
407 639 369 664 318 664 _c
318 742 _m
399 742 461 709 505 645 _c
548 580 570 486 570 364 _c
570 241 548 147 505 83 _c
461 19 399 -13 318 -13 _c
236 -13 173 19 130 83 _c
87 147 66 241 66 364 _c
66 486 87 580 130 645 _c
173 709 236 742 318 742 _c
_cl}_d
/one{636 0 110 0 544 729 _sc
124 83 _m
285 83 _l
285 639 _l
110 604 _l
110 694 _l
284 729 _l
383 729 _l
383 83 _l
544 83 _l
544 0 _l
124 0 _l
124 83 _l
_cl}_d
/two{{636 0 73 0 536 742 _sc
192 83 _m
536 83 _l
536 0 _l
73 0 _l
73 83 _l
110 121 161 173 226 239 _c
290 304 331 346 348 365 _c
380 400 402 430 414 455 _c
426 479 433 504 433 528 _c
433 566 419 598 392 622 _c
365 646 330 659 286 659 _c
255 659 222 653 188 643 _c
154 632 117 616 78 594 _c
78 694 _l
118 710 155 722 189 730 _c
223 738 255 742 284 742 _c
}_e{359 742 419 723 464 685 _c
509 647 532 597 532 534 _c
532 504 526 475 515 449 _c
504 422 484 390 454 354 _c
446 344 420 317 376 272 _c
332 227 271 164 192 83 _c
_cl}_e}_d
/three{{636 0 76 -13 556 742 _sc
406 393 _m
453 383 490 362 516 330 _c
542 298 556 258 556 212 _c
556 140 531 84 482 45 _c
432 6 362 -13 271 -13 _c
240 -13 208 -10 176 -4 _c
144 1 110 10 76 22 _c
76 117 _l
103 101 133 89 166 81 _c
198 73 232 69 268 69 _c
330 69 377 81 409 105 _c
441 129 458 165 458 212 _c
458 254 443 288 413 312 _c
383 336 341 349 287 349 _c
}_e{202 349 _l
202 430 _l
291 430 _l
339 430 376 439 402 459 _c
428 478 441 506 441 543 _c
441 580 427 609 401 629 _c
374 649 336 659 287 659 _c
260 659 231 656 200 650 _c
169 644 135 635 98 623 _c
98 711 _l
135 721 170 729 203 734 _c
235 739 266 742 296 742 _c
370 742 429 725 473 691 _c
517 657 539 611 539 553 _c
539 513 527 479 504 451 _c
481 423 448 403 406 393 _c
_cl}_e}_d
/four{636 0 49 0 580 729 _sc
378 643 _m
129 254 _l
378 254 _l
378 643 _l
352 729 _m
476 729 _l
476 254 _l
580 254 _l
580 172 _l
476 172 _l
476 0 _l
378 0 _l
378 172 _l
49 172 _l
49 267 _l
352 729 _l
_cl}_d
/five{{636 0 77 -13 549 729 _sc
108 729 _m
495 729 _l
495 646 _l
198 646 _l
198 467 _l
212 472 227 476 241 478 _c
255 480 270 482 284 482 _c
365 482 429 459 477 415 _c
525 370 549 310 549 234 _c
549 155 524 94 475 51 _c
426 8 357 -13 269 -13 _c
238 -13 207 -10 175 -6 _c
143 -1 111 6 77 17 _c
77 116 _l
106 100 136 88 168 80 _c
199 72 232 69 267 69 _c
}_e{323 69 368 83 401 113 _c
433 143 450 183 450 234 _c
450 284 433 324 401 354 _c
368 384 323 399 267 399 _c
241 399 214 396 188 390 _c
162 384 135 375 108 363 _c
108 729 _l
_cl}_e}_d
/six{{636 0 70 -13 573 742 _sc
330 404 _m
286 404 251 388 225 358 _c
199 328 186 286 186 234 _c
186 181 199 139 225 109 _c
251 79 286 64 330 64 _c
374 64 409 79 435 109 _c
461 139 474 181 474 234 _c
474 286 461 328 435 358 _c
409 388 374 404 330 404 _c
526 713 _m
526 623 _l
501 635 476 644 451 650 _c
425 656 400 659 376 659 _c
310 659 260 637 226 593 _c
}_e{192 549 172 482 168 394 _c
187 422 211 444 240 459 _c
269 474 301 482 336 482 _c
409 482 467 459 509 415 _c
551 371 573 310 573 234 _c
573 159 550 99 506 54 _c
462 9 403 -13 330 -13 _c
246 -13 181 19 137 83 _c
92 147 70 241 70 364 _c
70 479 97 571 152 639 _c
206 707 280 742 372 742 _c
396 742 421 739 447 735 _c
472 730 498 723 526 713 _c
_cl}_e}_d
/eight{{636 0 68 -13 568 742 _sc
318 346 _m
271 346 234 333 207 308 _c
180 283 167 249 167 205 _c
167 161 180 126 207 101 _c
234 76 271 64 318 64 _c
364 64 401 76 428 102 _c
455 127 469 161 469 205 _c
469 249 455 283 429 308 _c
402 333 365 346 318 346 _c
219 388 _m
177 398 144 418 120 447 _c
96 476 85 511 85 553 _c
85 611 105 657 147 691 _c
188 725 245 742 318 742 _c
}_e{390 742 447 725 489 691 _c
530 657 551 611 551 553 _c
551 511 539 476 515 447 _c
491 418 459 398 417 388 _c
464 377 501 355 528 323 _c
554 291 568 251 568 205 _c
568 134 546 80 503 43 _c
459 5 398 -13 318 -13 _c
237 -13 175 5 132 43 _c
89 80 68 134 68 205 _c
68 251 81 291 108 323 _c
134 355 171 377 219 388 _c
183 544 _m
183 506 194 476 218 455 _c
}_e{242 434 275 424 318 424 _c
360 424 393 434 417 455 _c
441 476 453 506 453 544 _c
453 582 441 611 417 632 _c
393 653 360 664 318 664 _c
275 664 242 653 218 632 _c
194 611 183 582 183 544 _c
_cl}_e}_d
/nine{{636 0 63 -13 566 742 _sc
110 15 _m
110 105 _l
134 93 159 84 185 78 _c
210 72 235 69 260 69 _c
324 69 374 90 408 134 _c
442 178 462 244 468 334 _c
448 306 424 284 396 269 _c
367 254 335 247 300 247 _c
226 247 168 269 126 313 _c
84 357 63 417 63 494 _c
63 568 85 628 129 674 _c
173 719 232 742 306 742 _c
390 742 455 709 499 645 _c
543 580 566 486 566 364 _c
}_e{566 248 538 157 484 89 _c
429 21 356 -13 264 -13 _c
239 -13 214 -10 189 -6 _c
163 -2 137 5 110 15 _c
306 324 _m
350 324 385 339 411 369 _c
437 399 450 441 450 494 _c
450 546 437 588 411 618 _c
385 648 350 664 306 664 _c
262 664 227 648 201 618 _c
175 588 162 546 162 494 _c
162 441 175 399 201 369 _c
227 339 262 324 306 324 _c
_cl}_e}_d
/A{684 0 8 0 676 729 _sc
342 632 _m
208 269 _l
476 269 _l
342 632 _l
286 729 _m
398 729 _l
676 0 _l
573 0 _l
507 187 _l
178 187 _l
112 0 _l
8 0 _l
286 729 _l
_cl}_d
/C{{698 0 56 -13 644 742 _sc
644 673 _m
644 569 _l
610 599 575 622 537 638 _c
499 653 460 661 418 661 _c
334 661 270 635 226 584 _c
182 533 160 460 160 364 _c
160 268 182 194 226 143 _c
270 92 334 67 418 67 _c
460 67 499 74 537 90 _c
575 105 610 128 644 159 _c
644 56 _l
609 32 572 15 534 4 _c
496 -7 455 -13 412 -13 _c
302 -13 215 20 151 87 _c
}_e{87 154 56 246 56 364 _c
56 481 87 573 151 641 _c
215 708 302 742 412 742 _c
456 742 497 736 535 725 _c
573 713 610 696 644 673 _c
_cl}_e}_d
/I{295 0 98 0 197 729 _sc
98 729 _m
197 729 _l
197 0 _l
98 0 _l
98 729 _l
_cl}_d
/N{748 0 98 0 650 729 _sc
98 729 _m
231 729 _l
554 119 _l
554 729 _l
650 729 _l
650 0 _l
517 0 _l
194 610 _l
194 0 _l
98 0 _l
98 729 _l
_cl}_d
/P{603 0 98 0 569 729 _sc
197 648 _m
197 374 _l
321 374 _l
367 374 402 385 427 409 _c
452 433 465 467 465 511 _c
465 555 452 588 427 612 _c
402 636 367 648 321 648 _c
197 648 _l
98 729 _m
321 729 _l
402 729 464 710 506 673 _c
548 636 569 582 569 511 _c
569 439 548 384 506 348 _c
464 311 402 293 321 293 _c
197 293 _l
197 0 _l
98 0 _l
98 729 _l
_cl}_d
/S{{635 0 66 -13 579 742 _sc
535 705 _m
535 609 _l
497 627 462 640 429 649 _c
395 657 363 662 333 662 _c
279 662 237 651 208 631 _c
179 610 165 580 165 542 _c
165 510 174 485 194 469 _c
213 452 250 439 304 429 _c
364 417 _l
437 403 491 378 526 343 _c
561 307 579 260 579 201 _c
579 130 555 77 508 41 _c
460 5 391 -13 300 -13 _c
265 -13 228 -9 189 -2 _c
}_e{150 5 110 16 69 32 _c
69 134 _l
109 111 148 94 186 83 _c
224 71 262 66 300 66 _c
356 66 399 77 430 99 _c
460 121 476 152 476 194 _c
476 230 465 258 443 278 _c
421 298 385 313 335 323 _c
275 335 _l
201 349 148 372 115 404 _c
82 435 66 478 66 534 _c
66 598 88 649 134 686 _c
179 723 242 742 322 742 _c
356 742 390 739 426 733 _c
461 727 497 717 535 705 _c
}_e{_cl}_e}_d
/U{732 0 87 -13 645 729 _sc
87 729 _m
186 729 _l
186 286 _l
186 208 200 151 228 117 _c
256 83 302 66 366 66 _c
429 66 475 83 503 117 _c
531 151 546 208 546 286 _c
546 729 _l
645 729 _l
645 274 _l
645 178 621 107 574 59 _c
527 11 458 -13 366 -13 _c
274 -13 204 11 157 59 _c
110 107 87 178 87 274 _c
87 729 _l
_cl}_d
/V{684 0 8 0 676 729 _sc
286 0 _m
8 729 _l
111 729 _l
342 115 _l
573 729 _l
676 729 _l
398 0 _l
286 0 _l
_cl}_d
/W{989 0 33 0 956 729 _sc
33 729 _m
133 729 _l
286 113 _l
439 729 _l
550 729 _l
703 113 _l
856 729 _l
956 729 _l
773 0 _l
649 0 _l
495 633 _l
340 0 _l
216 0 _l
33 729 _l
_cl}_d
/a{{613 0 60 -13 522 560 _sc
343 275 _m
270 275 220 266 192 250 _c
164 233 150 205 150 165 _c
150 133 160 107 181 89 _c
202 70 231 61 267 61 _c
317 61 357 78 387 114 _c
417 149 432 196 432 255 _c
432 275 _l
343 275 _l
522 312 _m
522 0 _l
432 0 _l
432 83 _l
411 49 385 25 355 10 _c
325 -5 287 -13 243 -13 _c
187 -13 142 2 109 33 _c
76 64 60 106 60 159 _c
}_e{60 220 80 266 122 298 _c
163 329 224 345 306 345 _c
432 345 _l
432 354 _l
432 395 418 427 391 450 _c
364 472 326 484 277 484 _c
245 484 215 480 185 472 _c
155 464 127 453 100 439 _c
100 522 _l
132 534 164 544 195 550 _c
226 556 256 560 286 560 _c
365 560 424 539 463 498 _c
502 457 522 395 522 312 _c
_cl}_e}_d
/c{{550 0 55 -13 488 560 _sc
488 526 _m
488 442 _l
462 456 437 466 411 473 _c
385 480 360 484 334 484 _c
276 484 230 465 198 428 _c
166 391 150 339 150 273 _c
150 206 166 154 198 117 _c
230 80 276 62 334 62 _c
360 62 385 65 411 72 _c
437 79 462 90 488 104 _c
488 21 _l
462 9 436 0 410 -5 _c
383 -10 354 -13 324 -13 _c
242 -13 176 12 128 64 _c
}_e{79 115 55 185 55 273 _c
55 362 79 432 128 483 _c
177 534 244 560 330 560 _c
358 560 385 557 411 551 _c
437 545 463 537 488 526 _c
_cl}_e}_d
/d{{635 0 55 -13 544 760 _sc
454 464 _m
454 760 _l
544 760 _l
544 0 _l
454 0 _l
454 82 _l
435 49 411 25 382 10 _c
353 -5 319 -13 279 -13 _c
213 -13 159 13 117 65 _c
75 117 55 187 55 273 _c
55 359 75 428 117 481 _c
159 533 213 560 279 560 _c
319 560 353 552 382 536 _c
411 520 435 496 454 464 _c
148 273 _m
148 207 161 155 188 117 _c
215 79 253 61 301 61 _c
}_e{348 61 385 79 413 117 _c
440 155 454 207 454 273 _c
454 339 440 390 413 428 _c
385 466 348 485 301 485 _c
253 485 215 466 188 428 _c
161 390 148 339 148 273 _c
_cl}_e}_d
/e{{615 0 55 -13 562 560 _sc
562 296 _m
562 252 _l
149 252 _l
153 190 171 142 205 110 _c
238 78 284 62 344 62 _c
378 62 412 66 444 74 _c
476 82 509 95 541 113 _c
541 28 _l
509 14 476 3 442 -3 _c
408 -9 373 -13 339 -13 _c
251 -13 182 12 131 62 _c
80 112 55 181 55 268 _c
55 357 79 428 127 481 _c
175 533 241 560 323 560 _c
397 560 455 536 498 489 _c
}_e{540 441 562 377 562 296 _c
472 322 _m
471 371 457 410 431 440 _c
404 469 368 484 324 484 _c
274 484 234 469 204 441 _c
174 413 156 373 152 322 _c
472 322 _l
_cl}_e}_d
/g{{635 0 55 -207 544 560 _sc
454 280 _m
454 344 440 395 414 431 _c
387 467 349 485 301 485 _c
253 485 215 467 188 431 _c
161 395 148 344 148 280 _c
148 215 161 165 188 129 _c
215 93 253 75 301 75 _c
349 75 387 93 414 129 _c
440 165 454 215 454 280 _c
544 68 _m
544 -24 523 -93 482 -139 _c
440 -184 377 -207 292 -207 _c
260 -207 231 -204 203 -200 _c
175 -195 147 -188 121 -178 _c
}_e{121 -91 _l
147 -105 173 -115 199 -122 _c
225 -129 251 -133 278 -133 _c
336 -133 380 -117 410 -87 _c
439 -56 454 -10 454 52 _c
454 96 _l
435 64 411 40 382 24 _c
353 8 319 0 279 0 _c
211 0 157 25 116 76 _c
75 127 55 195 55 280 _c
55 364 75 432 116 483 _c
157 534 211 560 279 560 _c
319 560 353 552 382 536 _c
411 520 435 496 454 464 _c
454 547 _l
544 547 _l
}_e{544 68 _l
_cl}_e}_d
/h{634 0 91 0 549 760 _sc
549 330 _m
549 0 _l
459 0 _l
459 327 _l
459 379 448 417 428 443 _c
408 469 378 482 338 482 _c
289 482 251 466 223 435 _c
195 404 181 362 181 309 _c
181 0 _l
91 0 _l
91 760 _l
181 760 _l
181 462 _l
202 494 227 519 257 535 _c
286 551 320 560 358 560 _c
420 560 468 540 500 501 _c
532 462 549 405 549 330 _c
_cl}_d
/i{278 0 94 0 184 760 _sc
94 547 _m
184 547 _l
184 0 _l
94 0 _l
94 547 _l
94 760 _m
184 760 _l
184 646 _l
94 646 _l
94 760 _l
_cl}_d
/k{579 0 91 0 576 760 _sc
91 760 _m
181 760 _l
181 311 _l
449 547 _l
564 547 _l
274 291 _l
576 0 _l
459 0 _l
181 267 _l
181 0 _l
91 0 _l
91 760 _l
_cl}_d
/l{278 0 94 0 184 760 _sc
94 760 _m
184 760 _l
184 0 _l
94 0 _l
94 760 _l
_cl}_d
/m{{974 0 91 0 889 560 _sc
520 442 _m
542 482 569 511 600 531 _c
631 550 668 560 711 560 _c
767 560 811 540 842 500 _c
873 460 889 403 889 330 _c
889 0 _l
799 0 _l
799 327 _l
799 379 789 418 771 444 _c
752 469 724 482 686 482 _c
639 482 602 466 575 435 _c
548 404 535 362 535 309 _c
535 0 _l
445 0 _l
445 327 _l
445 379 435 418 417 444 _c
398 469 369 482 331 482 _c
}_e{285 482 248 466 221 435 _c
194 404 181 362 181 309 _c
181 0 _l
91 0 _l
91 547 _l
181 547 _l
181 462 _l
201 495 226 520 255 536 _c
283 552 317 560 357 560 _c
397 560 430 550 458 530 _c
486 510 506 480 520 442 _c
_cl}_e}_d
/n{634 0 91 0 549 560 _sc
549 330 _m
549 0 _l
459 0 _l
459 327 _l
459 379 448 417 428 443 _c
408 469 378 482 338 482 _c
289 482 251 466 223 435 _c
195 404 181 362 181 309 _c
181 0 _l
91 0 _l
91 547 _l
181 547 _l
181 462 _l
202 494 227 519 257 535 _c
286 551 320 560 358 560 _c
420 560 468 540 500 501 _c
532 462 549 405 549 330 _c
_cl}_d
/o{612 0 55 -13 557 560 _sc
306 484 _m
258 484 220 465 192 427 _c
164 389 150 338 150 273 _c
150 207 163 156 191 118 _c
219 80 257 62 306 62 _c
354 62 392 80 420 118 _c
448 156 462 207 462 273 _c
462 337 448 389 420 427 _c
392 465 354 484 306 484 _c
306 560 _m
384 560 445 534 490 484 _c
534 433 557 363 557 273 _c
557 183 534 113 490 63 _c
445 12 384 -13 306 -13 _c
227 -13 165 12 121 63 _c
77 113 55 183 55 273 _c
55 363 77 433 121 484 _c
165 534 227 560 306 560 _c
_cl}_d
/p{{635 0 91 -207 580 560 _sc
181 82 _m
181 -207 _l
91 -207 _l
91 547 _l
181 547 _l
181 464 _l
199 496 223 520 252 536 _c
281 552 316 560 356 560 _c
422 560 476 533 518 481 _c
559 428 580 359 580 273 _c
580 187 559 117 518 65 _c
476 13 422 -13 356 -13 _c
316 -13 281 -5 252 10 _c
223 25 199 49 181 82 _c
487 273 _m
487 339 473 390 446 428 _c
418 466 381 485 334 485 _c
}_e{286 485 249 466 222 428 _c
194 390 181 339 181 273 _c
181 207 194 155 222 117 _c
249 79 286 61 334 61 _c
381 61 418 79 446 117 _c
473 155 487 207 487 273 _c
_cl}_e}_d
/q{{635 0 55 -207 544 560 _sc
148 273 _m
148 207 161 155 188 117 _c
215 79 253 61 301 61 _c
348 61 385 79 413 117 _c
440 155 454 207 454 273 _c
454 339 440 390 413 428 _c
385 466 348 485 301 485 _c
253 485 215 466 188 428 _c
161 390 148 339 148 273 _c
454 82 _m
435 49 411 25 382 10 _c
353 -5 319 -13 279 -13 _c
213 -13 159 13 117 65 _c
75 117 55 187 55 273 _c
}_e{55 359 75 428 117 481 _c
159 533 213 560 279 560 _c
319 560 353 552 382 536 _c
411 520 435 496 454 464 _c
454 547 _l
544 547 _l
544 -207 _l
454 -207 _l
454 82 _l
_cl}_e}_d
/r{411 0 91 0 411 560 _sc
411 463 _m
401 469 390 473 378 476 _c
366 478 353 480 339 480 _c
288 480 249 463 222 430 _c
194 397 181 350 181 288 _c
181 0 _l
91 0 _l
91 547 _l
181 547 _l
181 462 _l
199 495 224 520 254 536 _c
284 552 321 560 365 560 _c
371 560 378 559 386 559 _c
393 558 401 557 411 555 _c
411 463 _l
_cl}_d
/s{{521 0 54 -13 472 560 _sc
443 531 _m
443 446 _l
417 458 391 468 364 475 _c
336 481 308 485 279 485 _c
234 485 200 478 178 464 _c
156 450 145 430 145 403 _c
145 382 153 366 169 354 _c
185 342 217 330 265 320 _c
296 313 _l
360 299 405 279 432 255 _c
458 230 472 195 472 151 _c
472 100 452 60 412 31 _c
372 1 316 -13 246 -13 _c
216 -13 186 -10 154 -5 _c
}_e{122 0 89 8 54 20 _c
54 113 _l
87 95 120 82 152 74 _c
184 65 216 61 248 61 _c
290 61 323 68 346 82 _c
368 96 380 117 380 144 _c
380 168 371 187 355 200 _c
339 213 303 226 247 238 _c
216 245 _l
160 257 119 275 95 299 _c
70 323 58 356 58 399 _c
58 450 76 490 112 518 _c
148 546 200 560 268 560 _c
301 560 332 557 362 552 _c
391 547 418 540 443 531 _c
}_e{_cl}_e}_d
/t{392 0 27 0 368 702 _sc
183 702 _m
183 547 _l
368 547 _l
368 477 _l
183 477 _l
183 180 _l
183 135 189 106 201 94 _c
213 81 238 75 276 75 _c
368 75 _l
368 0 _l
276 0 _l
206 0 158 13 132 39 _c
106 65 93 112 93 180 _c
93 477 _l
27 477 _l
27 547 _l
93 547 _l
93 702 _l
183 702 _l
_cl}_d
/u{634 0 85 -13 543 560 _sc
85 216 _m
85 547 _l
175 547 _l
175 219 _l
175 167 185 129 205 103 _c
225 77 255 64 296 64 _c
344 64 383 79 411 110 _c
439 141 453 183 453 237 _c
453 547 _l
543 547 _l
543 0 _l
453 0 _l
453 84 _l
431 50 405 26 377 10 _c
348 -5 315 -13 277 -13 _c
214 -13 166 6 134 45 _c
101 83 85 140 85 216 _c
311 560 _m
311 560 _l
_cl}_d
end readonly def

/BuildGlyph
 {exch begin
 CharStrings exch
 2 copy known not{pop /.notdef}if
 true 3 1 roll get exec
 end}_d

/BuildChar {
 1 index /Encoding get exch get
 1 index /BuildGlyph get exec
}_d

FontName currentdict end definefont pop
%!PS-Adobe-3.0 Resource-Font
%%Title: DejaVu Sans Bold
%%Copyright: Copyright (c) 2003 by Bitstream, Inc. All Rights Reserved. Copyright (c) 2006 by Tavmjong Bah. All Rights Reserved. DejaVu changes are in public domain 
%%Creator: Converted from TrueType to type 3 by PPR
25 dict begin
/_d{bind def}bind def
/_m{moveto}_d
/_l{lineto}_d
/_cl{closepath eofill}_d
/_c{curveto}_d
/_sc{7 -1 roll{setcachedevice}{pop pop pop pop pop pop}ifelse}_d
/_e{exec}_d
/FontName /DejaVuSans-Bold def
/PaintType 0 def
/FontMatrix[.001 0 0 .001 0 0]def
/FontBBox[-1069 -415 1975 1174]def
/FontType 3 def
/Encoding [ /space /parenleft /parenright /comma /hyphen /zero /one /six /nine /I /M /N /P /S /a /b /c /d /e /f /i /j /l /m /n /o /p /q /r /s /t /u /v ] def
/FontInfo 10 dict dup begin
/FamilyName (DejaVu Sans) def
/FullName (DejaVu Sans Bold) def
/Notice (Copyright (c) 2003 by Bitstream, Inc. All Rights Reserved. Copyright (c) 2006 by Tavmjong Bah. All Rights Reserved. DejaVu changes are in public domain ) def
/Weight (Bold) def
/Version (Version 2.35) def
/ItalicAngle 0.0 def
/isFixedPitch false def
/UnderlinePosition -130 def
/UnderlineThickness 90 def
end readonly def
/CharStrings 34 dict dup begin
/.notdef 0 def
/space{348 0 0 0 0 0 _sc
}_d
/parenleft{457 0 86 -131 377 759 _sc
377 -131 _m
232 -131 _l
182 -50 145 26 121 98 _c
97 170 86 241 86 313 _c
86 384 98 456 122 529 _c
146 602 182 679 232 759 _c
377 759 _l
335 681 303 606 283 532 _c
262 458 252 386 252 314 _c
252 242 262 169 283 95 _c
303 21 335 -53 377 -131 _c
_cl}_d
/parenright{457 0 80 -131 371 759 _sc
80 -131 _m
122 -53 153 21 174 95 _c
194 169 205 242 205 314 _c
205 386 194 458 174 532 _c
153 606 122 681 80 759 _c
225 759 _l
274 679 311 602 335 529 _c
359 456 371 384 371 313 _c
371 241 359 170 335 98 _c
311 26 275 -50 225 -131 _c
80 -131 _l
_cl}_d
/comma{380 0 53 -141 278 189 _sc
102 189 _m
278 189 _l
278 40 _l
157 -141 _l
53 -141 _l
102 40 _l
102 189 _l
_cl}_d
/hyphen{415 0 54 217 361 359 _sc
54 359 _m
361 359 _l
361 217 _l
54 217 _l
54 359 _l
_cl}_d
/zero{696 0 48 -13 648 742 _sc
460 365 _m
460 456 451 520 434 558 _c
417 595 388 614 348 614 _c
308 614 279 595 262 558 _c
244 520 236 456 236 365 _c
236 273 244 208 262 170 _c
279 132 308 114 348 114 _c
388 114 416 132 434 170 _c
451 208 460 273 460 365 _c
648 364 _m
648 243 622 150 570 85 _c
518 19 444 -13 348 -13 _c
252 -13 178 19 126 85 _c
74 150 48 243 48 364 _c
48 484 74 577 126 643 _c
178 709 252 742 348 742 _c
444 742 518 709 570 643 _c
622 577 648 484 648 364 _c
_cl}_d
/one{696 0 113 0 627 729 _sc
117 130 _m
283 130 _l
283 601 _l
113 566 _l
113 694 _l
282 729 _l
461 729 _l
461 130 _l
627 130 _l
627 0 _l
117 0 _l
117 130 _l
_cl}_d
/six{{696 0 62 -13 642 741 _sc
362 360 _m
329 360 304 349 288 328 _c
271 306 263 274 263 232 _c
263 189 271 157 288 136 _c
304 114 329 104 362 104 _c
395 104 420 114 436 136 _c
452 157 461 189 461 232 _c
461 274 452 306 436 328 _c
420 349 395 360 362 360 _c
594 710 _m
594 575 _l
563 589 534 600 507 607 _c
479 614 453 618 427 618 _c
371 618 327 602 296 571 _c
}_e{264 540 246 494 241 433 _c
262 449 285 461 311 469 _c
336 477 363 481 393 481 _c
467 481 527 459 573 415 _c
619 371 642 314 642 244 _c
642 166 616 103 565 57 _c
514 10 446 -13 360 -13 _c
265 -13 192 18 140 82 _c
88 146 62 236 62 354 _c
62 474 92 569 153 638 _c
213 706 297 741 403 741 _c
436 741 468 738 500 733 _c
532 728 563 720 594 710 _c
_cl}_e}_d
/nine{{696 0 52 -13 632 741 _sc
100 16 _m
100 151 _l
130 137 158 126 186 119 _c
213 112 240 109 267 109 _c
323 109 366 124 398 155 _c
429 186 447 232 453 294 _c
431 278 407 265 382 257 _c
357 249 330 245 301 245 _c
226 245 166 266 120 310 _c
74 353 52 410 52 482 _c
52 560 77 623 128 670 _c
179 717 247 741 333 741 _c
428 741 502 709 554 645 _c
606 581 632 490 632 373 _c
}_e{632 252 601 157 540 89 _c
479 21 396 -13 290 -13 _c
256 -13 223 -10 192 -6 _c
160 -1 130 6 100 16 _c
332 367 _m
364 367 389 377 406 399 _c
422 420 431 452 431 495 _c
431 537 422 569 406 591 _c
389 612 364 623 332 623 _c
299 623 274 612 258 591 _c
241 569 233 537 233 495 _c
233 452 241 420 258 399 _c
274 377 299 367 332 367 _c
_cl}_e}_d
/I{372 0 92 0 280 729 _sc
92 729 _m
280 729 _l
280 0 _l
92 0 _l
92 729 _l
_cl}_d
/M{995 0 92 0 903 729 _sc
92 729 _m
331 729 _l
497 339 _l
664 729 _l
903 729 _l
903 0 _l
725 0 _l
725 533 _l
557 140 _l
438 140 _l
270 533 _l
270 0 _l
92 0 _l
92 729 _l
_cl}_d
/N{837 0 92 0 745 729 _sc
92 729 _m
302 729 _l
567 229 _l
567 729 _l
745 729 _l
745 0 _l
535 0 _l
270 500 _l
270 0 _l
92 0 _l
92 729 _l
_cl}_d
/P{733 0 92 0 692 729 _sc
92 729 _m
404 729 _l
496 729 567 708 617 667 _c
667 625 692 567 692 491 _c
692 414 667 355 617 314 _c
567 273 496 253 404 253 _c
280 253 _l
280 0 _l
92 0 _l
92 729 _l
280 593 _m
280 389 _l
384 389 _l
420 389 448 397 468 415 _c
488 433 498 458 498 491 _c
498 523 488 548 468 566 _c
448 584 420 593 384 593 _c
280 593 _l
_cl}_d
/S{{720 0 72 -13 647 742 _sc
599 706 _m
599 552 _l
559 570 520 583 482 592 _c
444 601 408 606 374 606 _c
329 606 296 599 274 587 _c
252 575 242 556 242 530 _c
242 510 249 494 264 484 _c
278 473 305 464 343 456 _c
423 440 _l
503 424 561 399 595 366 _c
629 332 647 285 647 224 _c
647 144 623 84 575 45 _c
527 6 455 -13 357 -13 _c
311 -13 264 -8 218 0 _c
}_e{171 8 124 20 78 38 _c
78 197 _l
124 172 169 153 213 141 _c
256 128 298 122 339 122 _c
379 122 411 128 433 142 _c
455 156 466 175 466 201 _c
466 223 458 241 443 253 _c
428 265 399 277 355 287 _c
282 303 _l
209 319 156 344 122 378 _c
88 412 72 458 72 516 _c
72 588 95 644 142 683 _c
188 722 256 742 344 742 _c
384 742 425 739 467 733 _c
509 727 553 718 599 706 _c
}_e{_cl}_e}_d
/a{{675 0 43 -13 596 560 _sc
329 246 _m
292 246 264 239 246 227 _c
228 215 219 197 219 173 _c
219 151 226 133 241 121 _c
256 108 277 102 303 102 _c
336 102 364 113 386 137 _c
408 161 420 190 420 226 _c
420 246 _l
329 246 _l
596 312 _m
596 0 _l
420 0 _l
420 81 _l
396 47 370 23 341 9 _c
311 -5 276 -13 234 -13 _c
177 -13 131 3 96 36 _c
60 68 43 111 43 164 _c
}_e{43 228 65 275 109 305 _c
153 335 222 350 317 350 _c
420 350 _l
420 364 _l
420 391 409 411 387 424 _c
365 437 331 444 285 444 _c
247 444 212 440 180 432 _c
148 424 118 413 91 399 _c
91 532 _l
128 541 165 548 203 553 _c
241 557 279 560 317 560 _c
415 560 486 540 530 501 _c
574 462 596 399 596 312 _c
_cl}_e}_d
/b{{716 0 84 -13 671 760 _sc
375 113 _m
412 113 440 126 460 154 _c
480 181 490 221 490 273 _c
490 325 480 364 460 392 _c
440 419 412 433 375 433 _c
337 433 309 419 289 392 _c
269 364 259 325 259 273 _c
259 221 269 181 289 154 _c
309 126 337 113 375 113 _c
259 467 _m
283 499 309 522 339 537 _c
368 552 402 560 440 560 _c
507 560 562 533 606 479 _c
649 425 671 357 671 273 _c
}_e{671 188 649 119 606 66 _c
562 13 507 -13 440 -13 _c
402 -13 368 -5 339 9 _c
309 23 283 47 259 79 _c
259 0 _l
84 0 _l
84 760 _l
259 760 _l
259 467 _l
_cl}_e}_d
/c{{593 0 43 -13 526 560 _sc
526 530 _m
526 387 _l
502 403 478 415 454 423 _c
430 431 405 435 380 435 _c
331 435 293 420 266 392 _c
238 364 225 324 225 273 _c
225 221 238 181 266 153 _c
293 125 331 111 380 111 _c
407 111 433 115 458 123 _c
482 131 505 143 526 159 _c
526 16 _l
498 6 470 -1 442 -6 _c
414 -10 386 -13 358 -13 _c
259 -13 182 12 126 62 _c
}_e{70 112 43 183 43 273 _c
43 363 70 433 126 484 _c
182 534 259 560 358 560 _c
386 560 414 557 442 552 _c
470 547 498 540 526 530 _c
_cl}_e}_d
/d{{716 0 45 -13 632 760 _sc
456 467 _m
456 760 _l
632 760 _l
632 0 _l
456 0 _l
456 79 _l
432 47 405 23 376 9 _c
347 -5 314 -13 276 -13 _c
208 -13 153 13 110 66 _c
66 119 45 188 45 273 _c
45 357 66 425 110 479 _c
153 533 208 560 276 560 _c
314 560 347 552 376 537 _c
405 522 432 499 456 467 _c
341 113 _m
378 113 406 126 426 154 _c
446 181 456 221 456 273 _c
}_e{456 325 446 364 426 392 _c
406 419 378 433 341 433 _c
303 433 275 419 255 392 _c
235 364 226 325 226 273 _c
226 221 235 181 255 154 _c
275 126 303 113 341 113 _c
_cl}_e}_d
/e{{678 0 43 -13 630 560 _sc
630 275 _m
630 225 _l
221 225 _l
225 184 240 153 266 133 _c
291 112 326 102 372 102 _c
408 102 446 107 485 118 _c
523 129 563 146 604 168 _c
604 33 _l
562 17 521 6 480 -1 _c
438 -9 397 -13 356 -13 _c
257 -13 180 12 125 62 _c
70 112 43 182 43 273 _c
43 362 70 432 124 483 _c
178 534 252 560 346 560 _c
432 560 500 534 552 482 _c
}_e{604 430 630 361 630 275 _c
450 333 _m
450 366 440 393 421 413 _c
401 433 376 444 345 444 _c
311 444 283 434 262 415 _c
241 396 228 369 223 333 _c
450 333 _l
_cl}_e}_d
/f{435 0 19 0 444 760 _sc
444 760 _m
444 645 _l
347 645 _l
322 645 305 640 295 631 _c
285 622 281 607 281 585 _c
281 547 _l
430 547 _l
430 422 _l
281 422 _l
281 0 _l
106 0 _l
106 422 _l
19 422 _l
19 547 _l
106 547 _l
106 585 _l
106 644 122 688 156 717 _c
189 745 240 760 310 760 _c
444 760 _l
_cl}_d
/i{343 0 84 0 259 760 _sc
84 547 _m
259 547 _l
259 0 _l
84 0 _l
84 547 _l
84 760 _m
259 760 _l
259 617 _l
84 617 _l
84 760 _l
_cl}_d
/j{343 0 -32 -215 259 760 _sc
84 547 _m
259 547 _l
259 10 _l
259 -62 241 -118 206 -157 _c
170 -195 119 -215 53 -215 _c
-32 -215 _l
-32 -100 _l
-2 -100 _l
30 -100 53 -92 65 -77 _c
77 -62 84 -33 84 10 _c
84 547 _l
84 760 _m
259 760 _l
259 617 _l
84 617 _l
84 760 _l
_cl}_d
/l{343 0 84 0 259 760 _sc
84 760 _m
259 760 _l
259 0 _l
84 0 _l
84 760 _l
_cl}_d
/m{{1042 0 83 0 963 560 _sc
591 456 _m
613 490 639 515 669 533 _c
699 551 733 560 770 560 _c
832 560 880 540 913 502 _c
946 463 963 407 963 333 _c
963 0 _l
787 0 _l
787 285 _l
787 289 788 294 788 298 _c
788 302 788 309 788 318 _c
788 356 782 384 771 402 _c
759 419 741 428 716 428 _c
682 428 657 414 639 387 _c
621 359 611 320 611 269 _c
611 0 _l
435 0 _l
435 285 _l
}_e{435 345 429 384 419 402 _c
409 419 390 428 364 428 _c
330 428 304 414 286 387 _c
268 359 259 320 259 269 _c
259 0 _l
83 0 _l
83 547 _l
259 547 _l
259 467 _l
280 497 305 520 333 536 _c
361 552 391 560 425 560 _c
462 560 495 550 524 532 _c
553 514 575 488 591 456 _c
_cl}_e}_d
/n{712 0 84 0 634 560 _sc
634 333 _m
634 0 _l
458 0 _l
458 54 _l
458 255 _l
458 302 457 334 455 352 _c
453 370 449 383 444 392 _c
437 403 428 412 416 418 _c
404 424 390 428 376 428 _c
339 428 310 414 290 386 _c
269 358 259 319 259 269 _c
259 0 _l
84 0 _l
84 547 _l
259 547 _l
259 467 _l
285 499 312 522 342 537 _c
372 552 405 560 441 560 _c
504 560 552 540 585 502 _c
617 463 634 407 634 333 _c
_cl}_d
/o{687 0 43 -13 644 560 _sc
344 435 _m
305 435 275 421 255 393 _c
235 365 225 325 225 273 _c
225 220 235 180 255 152 _c
275 124 305 111 344 111 _c
382 111 411 124 431 152 _c
451 180 462 220 462 273 _c
462 325 451 365 431 393 _c
411 421 382 435 344 435 _c
344 560 _m
438 560 511 534 564 484 _c
617 433 644 363 644 273 _c
644 183 617 112 564 62 _c
511 12 438 -13 344 -13 _c
250 -13 176 12 123 62 _c
69 112 43 183 43 273 _c
43 363 69 433 123 484 _c
176 534 250 560 344 560 _c
_cl}_d
/p{{716 0 84 -207 671 560 _sc
259 79 _m
259 -207 _l
84 -207 _l
84 547 _l
259 547 _l
259 467 _l
283 499 309 522 339 537 _c
368 552 402 560 440 560 _c
507 560 562 533 606 479 _c
649 425 671 357 671 273 _c
671 188 649 119 606 66 _c
562 13 507 -13 440 -13 _c
402 -13 368 -5 339 9 _c
309 23 283 47 259 79 _c
375 433 _m
337 433 309 419 289 392 _c
269 364 259 325 259 273 _c
}_e{259 221 269 181 289 154 _c
309 126 337 113 375 113 _c
412 113 440 126 460 154 _c
480 181 490 221 490 273 _c
490 325 480 364 460 392 _c
440 419 412 433 375 433 _c
_cl}_e}_d
/q{{716 0 45 -207 632 559 _sc
341 433 _m
303 433 275 419 255 392 _c
235 364 226 325 226 273 _c
226 221 235 181 255 154 _c
275 126 303 113 341 113 _c
378 113 406 126 426 154 _c
446 181 456 221 456 273 _c
456 325 446 364 426 392 _c
406 419 378 433 341 433 _c
456 79 _m
432 47 405 23 376 9 _c
347 -5 314 -13 276 -13 _c
208 -13 153 13 110 66 _c
66 119 45 188 45 273 _c
}_e{45 357 66 425 110 479 _c
153 532 208 559 276 559 _c
314 559 347 551 376 536 _c
405 521 432 498 456 466 _c
456 547 _l
632 547 _l
632 -207 _l
456 -207 _l
456 79 _l
_cl}_e}_d
/r{493 0 84 0 490 560 _sc
490 398 _m
474 405 459 410 444 414 _c
429 417 414 419 399 419 _c
354 419 319 404 295 376 _c
271 347 259 306 259 252 _c
259 0 _l
84 0 _l
84 547 _l
259 547 _l
259 457 _l
281 493 306 519 336 535 _c
365 551 400 560 441 560 _c
447 560 453 559 460 559 _c
466 559 476 558 490 556 _c
490 398 _l
_cl}_d
/s{{595 0 52 -13 548 560 _sc
511 530 _m
511 397 _l
473 412 437 424 403 432 _c
368 440 335 444 304 444 _c
270 444 246 439 230 431 _c
214 423 206 410 206 393 _c
206 379 212 368 224 361 _c
236 353 258 348 290 344 _c
321 340 _l
410 328 470 310 501 284 _c
532 258 548 217 548 161 _c
548 103 526 59 483 30 _c
440 1 376 -13 291 -13 _c
255 -13 217 -10 179 -5 _c
}_e{140 0 100 8 60 20 _c
60 153 _l
94 135 130 122 167 114 _c
203 106 241 102 279 102 _c
313 102 338 106 356 116 _c
373 125 382 139 382 158 _c
382 174 376 185 364 193 _c
352 201 328 207 293 211 _c
262 215 _l
184 224 130 242 99 269 _c
67 295 52 335 52 389 _c
52 447 71 490 111 518 _c
151 546 212 560 294 560 _c
326 560 359 557 395 552 _c
431 547 469 540 511 530 _c
}_e{_cl}_e}_d
/t{478 0 13 0 455 702 _sc
275 702 _m
275 547 _l
455 547 _l
455 422 _l
275 422 _l
275 190 _l
275 164 280 147 290 138 _c
300 129 320 125 350 125 _c
440 125 _l
440 0 _l
290 0 _l
221 0 172 14 143 43 _c
114 71 100 120 100 190 _c
100 422 _l
13 422 _l
13 547 _l
100 547 _l
100 702 _l
275 702 _l
_cl}_d
/u{{712 0 78 -13 628 547 _sc
78 213 _m
78 547 _l
254 547 _l
254 492 _l
254 462 253 425 253 380 _c
253 335 253 305 253 291 _c
253 247 254 215 256 196 _c
258 176 262 162 268 154 _c
275 142 284 133 296 127 _c
307 121 320 118 336 118 _c
372 118 401 132 422 160 _c
442 188 453 227 453 277 _c
453 547 _l
628 547 _l
628 0 _l
453 0 _l
453 79 _l
427 47 399 23 369 9 _c
}_e{339 -5 307 -13 272 -13 _c
208 -13 160 6 127 44 _c
94 82 78 139 78 213 _c
_cl}_e}_d
/v{652 0 15 0 637 547 _sc
15 547 _m
190 547 _l
326 169 _l
462 547 _l
637 547 _l
422 0 _l
230 0 _l
15 547 _l
_cl}_d
end readonly def

/BuildGlyph
 {exch begin
 CharStrings exch
 2 copy known not{pop /.notdef}if
 true 3 1 roll get exec
 end}_d

/BuildChar {
 1 index /Encoding get exch get
 1 index /BuildGlyph get exec
}_d

FontName currentdict end definefont pop
end
%%EndProlog
mpldict begin
18 108 translate
576 576 0 0 clipbox
gsave
0 0 m
576 0 l
576 576 l
0 576 l
cl
1.000 setgray
fill
grestore
gsave
60.91 60.91 m
554.04 60.91 l
554.04 518.4 l
60.91 518.4 l
cl
1.000 setgray
fill
grestore
0.800 setlinewidth
1 setlinejoin
2 setlinecap
[] 0 setdash
0.690 setgray
gsave
493.1 457.5 60.91 60.91 clipbox
83.325 60.91 m
83.325 518.4 l
stroke
grestore
0 setlinecap
0.000 setgray
gsave
/o {
gsave
newpath
translate
0.8 setlinewidth
1 setlinejoin
0 setlinecap
0 0 m
0 -3.5 l

gsave
0.000 setgray
fill
grestore
stroke
grestore
} bind def
83.325 60.91 o
grestore
/DejaVuSans findfont
18.000 scalefont
setfont
gsave
88.285938 42.456875 translate
90.000000 rotate
0.000000 0.000000 m /one glyphshow
grestore
2 setlinecap
0.690 setgray
gsave
493.1 457.5 60.91 60.91 clipbox
96.484491 60.91 m
96.484491 518.4 l
stroke
grestore
0 setlinecap
0.000 setgray
gsave
/o {
gsave
newpath
translate
0.8 setlinewidth
1 setlinejoin
0 setlinecap
0 0 m
0 -3.5 l

gsave
0.000 setgray
fill
grestore
stroke
grestore
} bind def
96.4845 60.91 o
grestore
gsave
101.445429 31.003750 translate
90.000000 rotate
0.000000 0.000000 m /one glyphshow
11.452148 0.000000 m /six glyphshow
grestore
2 setlinecap
0.690 setgray
gsave
493.1 457.5 60.91 60.91 clipbox
110.521282 60.91 m
110.521282 518.4 l
stroke
grestore
0 setlinecap
0.000 setgray
gsave
/o {
gsave
newpath
translate
0.8 setlinewidth
1 setlinejoin
0 setlinecap
0 0 m
0 -3.5 l

gsave
0.000 setgray
fill
grestore
stroke
grestore
} bind def
110.521 60.91 o
grestore
gsave
115.482219 31.003750 translate
90.000000 rotate
0.000000 0.000000 m /three glyphshow
11.452148 0.000000 m /two glyphshow
grestore
2 setlinecap
0.690 setgray
gsave
493.1 457.5 60.91 60.91 clipbox
138.594863 60.91 m
138.594863 518.4 l
stroke
grestore
0 setlinecap
0.000 setgray
gsave
/o {
gsave
newpath
translate
0.8 setlinewidth
1 setlinejoin
0 setlinecap
0 0 m
0 -3.5 l

gsave
0.000 setgray
fill
grestore
stroke
grestore
} bind def
138.595 60.91 o
grestore
gsave
143.555801 31.003750 translate
90.000000 rotate
0.000000 0.000000 m /six glyphshow
11.452148 0.000000 m /four glyphshow
grestore
2 setlinecap
0.690 setgray
gsave
493.1 457.5 60.91 60.91 clipbox
194.742025 60.91 m
194.742025 518.4 l
stroke
grestore
0 setlinecap
0.000 setgray
gsave
/o {
gsave
newpath
translate
0.8 setlinewidth
1 setlinejoin
0 setlinecap
0 0 m
0 -3.5 l

gsave
0.000 setgray
fill
grestore
stroke
grestore
} bind def
194.742 60.91 o
grestore
gsave
199.702963 19.550625 translate
90.000000 rotate
0.000000 0.000000 m /one glyphshow
11.452148 0.000000 m /two glyphshow
22.904297 0.000000 m /eight glyphshow
grestore
2 setlinecap
0.690 setgray
gsave
493.1 457.5 60.91 60.91 clipbox
307.03635 60.91 m
307.03635 518.4 l
stroke
grestore
0 setlinecap
0.000 setgray
gsave
/o {
gsave
newpath
translate
0.8 setlinewidth
1 setlinejoin
0 setlinecap
0 0 m
0 -3.5 l

gsave
0.000 setgray
fill
grestore
stroke
grestore
} bind def
307.036 60.91 o
grestore
gsave
311.997288 19.550625 translate
90.000000 rotate
0.000000 0.000000 m /two glyphshow
11.452148 0.000000 m /five glyphshow
22.904297 0.000000 m /six glyphshow
grestore
2 setlinecap
0.690 setgray
gsave
493.1 457.5 60.91 60.91 clipbox
531.625 60.91 m
531.625 518.4 l
stroke
grestore
0 setlinecap
0.000 setgray
gsave
/o {
gsave
newpath
translate
0.8 setlinewidth
1 setlinejoin
0 setlinecap
0 0 m
0 -3.5 l

gsave
0.000 setgray
fill
grestore
stroke
grestore
} bind def
531.625 60.91 o
grestore
gsave
536.585938 19.550625 translate
90.000000 rotate
0.000000 0.000000 m /five glyphshow
11.452148 0.000000 m /one glyphshow
22.904297 0.000000 m /two glyphshow
grestore
/DejaVuSans-Bold findfont
18.000 scalefont
setfont
gsave
193.998437 1.878750 translate
0.000000 rotate
0.000000 0.000000 m /N glyphshow
15.064453 0.000000 m /u glyphshow
27.878906 0.000000 m /m glyphshow
46.634766 0.000000 m /b glyphshow
59.519531 0.000000 m /e glyphshow
71.727539 0.000000 m /r glyphshow
80.604492 0.000000 m /space glyphshow
86.871094 0.000000 m /o glyphshow
99.237305 0.000000 m /f glyphshow
107.068359 0.000000 m /space glyphshow
113.334961 0.000000 m /P glyphshow
126.527344 0.000000 m /r glyphshow
135.404297 0.000000 m /o glyphshow
147.770508 0.000000 m /c glyphshow
158.440430 0.000000 m /s glyphshow
169.154297 0.000000 m /space glyphshow
175.420898 0.000000 m /hyphen glyphshow
182.891602 0.000000 m /space glyphshow
189.158203 0.000000 m /M glyphshow
207.070312 0.000000 m /P glyphshow
220.262695 0.000000 m /I glyphshow
grestore
2 setlinecap
0.690 setgray
gsave
493.1 457.5 60.91 60.91 clipbox
60.91 81.705 m
554.04 81.705 l
stroke
grestore
0 setlinecap
0.000 setgray
gsave
/o {
gsave
newpath
translate
0.8 setlinewidth
1 setlinejoin
0 setlinecap
0 0 m
-3.5 0 l

gsave
0.000 setgray
fill
grestore
stroke
grestore
} bind def
60.91 81.705 o
grestore
/DejaVuSans findfont
18.000 scalefont
setfont
gsave
42.456875 74.869063 translate
0.000000 rotate
0.000000 0.000000 m /one glyphshow
grestore
2 setlinecap
0.690 setgray
gsave
493.1 457.5 60.91 60.91 clipbox
60.91 93.913415 m
554.04 93.913415 l
stroke
grestore
0 setlinecap
0.000 setgray
gsave
/o {
gsave
newpath
translate
0.8 setlinewidth
1 setlinejoin
0 setlinecap
0 0 m
-3.5 0 l

gsave
0.000 setgray
fill
grestore
stroke
grestore
} bind def
60.91 93.9134 o
grestore
gsave
31.003750 87.077477 translate
0.000000 rotate
0.000000 0.000000 m /one glyphshow
11.452148 0.000000 m /six glyphshow
grestore
2 setlinecap
0.690 setgray
gsave
493.1 457.5 60.91 60.91 clipbox
60.91 106.935724 m
554.04 106.935724 l
stroke
grestore
0 setlinecap
0.000 setgray
gsave
/o {
gsave
newpath
translate
0.8 setlinewidth
1 setlinejoin
0 setlinecap
0 0 m
-3.5 0 l

gsave
0.000 setgray
fill
grestore
stroke
grestore
} bind def
60.91 106.936 o
grestore
gsave
31.003750 100.099787 translate
0.000000 rotate
0.000000 0.000000 m /three glyphshow
11.452148 0.000000 m /two glyphshow
grestore
2 setlinecap
0.690 setgray
gsave
493.1 457.5 60.91 60.91 clipbox
60.91 132.980342 m
554.04 132.980342 l
stroke
grestore
0 setlinecap
0.000 setgray
gsave
/o {
gsave
newpath
translate
0.8 setlinewidth
1 setlinejoin
0 setlinecap
0 0 m
-3.5 0 l

gsave
0.000 setgray
fill
grestore
stroke
grestore
} bind def
60.91 132.98 o
grestore
gsave
31.003750 126.144405 translate
0.000000 rotate
0.000000 0.000000 m /six glyphshow
11.452148 0.000000 m /four glyphshow
grestore
2 setlinecap
0.690 setgray
gsave
493.1 457.5 60.91 60.91 clipbox
60.91 162.280538 m
554.04 162.280538 l
stroke
grestore
0 setlinecap
0.000 setgray
gsave
/o {
gsave
newpath
translate
0.8 setlinewidth
1 setlinejoin
0 setlinecap
0 0 m
-3.5 0 l

gsave
0.000 setgray
fill
grestore
stroke
grestore
} bind def
60.91 162.281 o
grestore
gsave
19.550625 155.444601 translate
0.000000 rotate
0.000000 0.000000 m /one glyphshow
11.452148 0.000000 m /zero glyphshow
22.904297 0.000000 m /zero glyphshow
grestore
2 setlinecap
0.690 setgray
gsave
493.1 457.5 60.91 60.91 clipbox
60.91 185.069579 m
554.04 185.069579 l
stroke
grestore
0 setlinecap
0.000 setgray
gsave
/o {
gsave
newpath
translate
0.8 setlinewidth
1 setlinejoin
0 setlinecap
0 0 m
-3.5 0 l

gsave
0.000 setgray
fill
grestore
stroke
grestore
} bind def
60.91 185.07 o
grestore
gsave
19.550625 178.233642 translate
0.000000 rotate
0.000000 0.000000 m /one glyphshow
11.452148 0.000000 m /two glyphshow
22.904297 0.000000 m /eight glyphshow
grestore
2 setlinecap
0.690 setgray
gsave
493.1 457.5 60.91 60.91 clipbox
60.91 202.975254 m
554.04 202.975254 l
stroke
grestore
0 setlinecap
0.000 setgray
gsave
/o {
gsave
newpath
translate
0.8 setlinewidth
1 setlinejoin
0 setlinecap
0 0 m
-3.5 0 l

gsave
0.000 setgray
fill
grestore
stroke
grestore
} bind def
60.91 202.975 o
grestore
gsave
19.550625 196.139317 translate
0.000000 rotate
0.000000 0.000000 m /one glyphshow
11.452148 0.000000 m /five glyphshow
22.904297 0.000000 m /zero glyphshow
grestore
2 setlinecap
0.690 setgray
gsave
493.1 457.5 60.91 60.91 clipbox
60.91 243.669971 m
554.04 243.669971 l
stroke
grestore
0 setlinecap
0.000 setgray
gsave
/o {
gsave
newpath
translate
0.8 setlinewidth
1 setlinejoin
0 setlinecap
0 0 m
-3.5 0 l

gsave
0.000 setgray
fill
grestore
stroke
grestore
} bind def
60.91 243.67 o
grestore
gsave
19.550625 236.834033 translate
0.000000 rotate
0.000000 0.000000 m /two glyphshow
11.452148 0.000000 m /zero glyphshow
22.904297 0.000000 m /zero glyphshow
grestore
2 setlinecap
0.690 setgray
gsave
493.1 457.5 60.91 60.91 clipbox
60.91 289.248053 m
554.04 289.248053 l
stroke
grestore
0 setlinecap
0.000 setgray
gsave
/o {
gsave
newpath
translate
0.8 setlinewidth
1 setlinejoin
0 setlinecap
0 0 m
-3.5 0 l

gsave
0.000 setgray
fill
grestore
stroke
grestore
} bind def
60.91 289.248 o
grestore
gsave
19.550625 282.412115 translate
0.000000 rotate
0.000000 0.000000 m /two glyphshow
11.452148 0.000000 m /five glyphshow
22.904297 0.000000 m /six glyphshow
grestore
2 setlinecap
0.690 setgray
gsave
493.1 457.5 60.91 60.91 clipbox
60.91 325.059403 m
554.04 325.059403 l
stroke
grestore
0 setlinecap
0.000 setgray
gsave
/o {
gsave
newpath
translate
0.8 setlinewidth
1 setlinejoin
0 setlinecap
0 0 m
-3.5 0 l

gsave
0.000 setgray
fill
grestore
stroke
grestore
} bind def
60.91 325.059 o
grestore
gsave
19.550625 318.223466 translate
0.000000 rotate
0.000000 0.000000 m /three glyphshow
11.452148 0.000000 m /zero glyphshow
22.904297 0.000000 m /zero glyphshow
grestore
2 setlinecap
0.690 setgray
gsave
493.1 457.5 60.91 60.91 clipbox
60.91 365.754119 m
554.04 365.754119 l
stroke
grestore
0 setlinecap
0.000 setgray
gsave
/o {
gsave
newpath
translate
0.8 setlinewidth
1 setlinejoin
0 setlinecap
0 0 m
-3.5 0 l

gsave
0.000 setgray
fill
grestore
stroke
grestore
} bind def
60.91 365.754 o
grestore
gsave
19.550625 358.918182 translate
0.000000 rotate
0.000000 0.000000 m /three glyphshow
11.452148 0.000000 m /five glyphshow
22.904297 0.000000 m /zero glyphshow
grestore
2 setlinecap
0.690 setgray
gsave
493.1 457.5 60.91 60.91 clipbox
60.91 406.448836 m
554.04 406.448836 l
stroke
grestore
0 setlinecap
0.000 setgray
gsave
/o {
gsave
newpath
translate
0.8 setlinewidth
1 setlinejoin
0 setlinecap
0 0 m
-3.5 0 l

gsave
0.000 setgray
fill
grestore
stroke
grestore
} bind def
60.91 406.449 o
grestore
gsave
19.550625 399.612898 translate
0.000000 rotate
0.000000 0.000000 m /four glyphshow
11.452148 0.000000 m /zero glyphshow
22.904297 0.000000 m /zero glyphshow
grestore
2 setlinecap
0.690 setgray
gsave
493.1 457.5 60.91 60.91 clipbox
60.91 447.143552 m
554.04 447.143552 l
stroke
grestore
0 setlinecap
0.000 setgray
gsave
/o {
gsave
newpath
translate
0.8 setlinewidth
1 setlinejoin
0 setlinecap
0 0 m
-3.5 0 l

gsave
0.000 setgray
fill
grestore
stroke
grestore
} bind def
60.91 447.144 o
grestore
gsave
19.550625 440.307614 translate
0.000000 rotate
0.000000 0.000000 m /four glyphshow
11.452148 0.000000 m /five glyphshow
22.904297 0.000000 m /zero glyphshow
grestore
2 setlinecap
0.690 setgray
gsave
493.1 457.5 60.91 60.91 clipbox
60.91 497.605 m
554.04 497.605 l
stroke
grestore
0 setlinecap
0.000 setgray
gsave
/o {
gsave
newpath
translate
0.8 setlinewidth
1 setlinejoin
0 setlinecap
0 0 m
-3.5 0 l

gsave
0.000 setgray
fill
grestore
stroke
grestore
} bind def
60.91 497.605 o
grestore
gsave
19.550625 490.769063 translate
0.000000 rotate
0.000000 0.000000 m /five glyphshow
11.452148 0.000000 m /one glyphshow
22.904297 0.000000 m /two glyphshow
grestore
0.122 0.467 0.706 setrgbcolor
/DejaVuSans-Bold findfont
18.000 scalefont
setfont
gsave
11.800625 245.225312 translate
90.000000 rotate
0.000000 0.000000 m /S glyphshow
12.963867 0.000000 m /p glyphshow
25.848633 0.000000 m /e glyphshow
38.056641 0.000000 m /e glyphshow
50.264648 0.000000 m /d glyphshow
63.149414 0.000000 m /u glyphshow
75.963867 0.000000 m /p glyphshow
grestore
5.000 setlinewidth
2 setlinecap
1.000 0.843 0.000 setrgbcolor
gsave
493.1 457.5 60.91 60.91 clipbox
83.325 81.705 m
84.202299 82.34095 l
85.956898 83.791053 l
89.466096 86.682174 l
96.484491 92.343397 l
110.521282 103.490305 l
138.594863 126.017668 l
194.742025 169.089676 l
307.03635 254.050444 l
531.625 400.89469 l
stroke
grestore
1.000 setlinewidth
0 setlinejoin
0 setlinecap
gsave
493.1 457.5 60.91 60.91 clipbox
/o {
gsave
newpath
translate
1.0 setlinewidth
0 setlinejoin
0 setlinecap
-7 -7 m
7 -7 l
7 7 l
-7 7 l
cl

gsave
1.000 0.843 0.000 setrgbcolor
fill
grestore
stroke
grestore
} bind def
83.325 81.705 o
84.2023 82.3409 o
85.9569 83.7911 o
89.4661 86.6822 o
96.4845 92.3434 o
110.521 103.49 o
138.595 126.018 o
194.742 169.09 o
307.036 254.05 o
531.625 400.895 o
grestore
5.000 setlinewidth
1 setlinejoin
2 setlinecap
1.000 0.549 0.000 setrgbcolor
gsave
493.1 457.5 60.91 60.91 clipbox
83.325 81.705 m
84.202299 82.070656 l
85.956898 83.236121 l
89.466096 85.551278 l
96.484491 90.222663 l
110.521282 99.470966 l
138.594863 118.010868 l
194.742025 154.343449 l
307.03635 223.916228 l
531.625 344.904662 l
stroke
grestore
1.000 setlinewidth
0 setlinejoin
0 setlinecap
gsave
493.1 457.5 60.91 60.91 clipbox
/o {
gsave
newpath
translate
1.0 setlinewidth
0 setlinejoin
0 setlinecap
-7 -7 m
7 -7 l
7 7 l
-7 7 l
cl

gsave
1.000 0.549 0.000 setrgbcolor
fill
grestore
stroke
grestore
} bind def
83.325 81.705 o
84.2023 82.0707 o
85.9569 83.2361 o
89.4661 85.5513 o
96.4845 90.2227 o
110.521 99.471 o
138.595 118.011 o
194.742 154.343 o
307.036 223.916 o
531.625 344.905 o
grestore
2.000 setlinewidth
1 setlinejoin
2 setlinecap
0.502 0.502 0.000 setrgbcolor
gsave
493.1 457.5 60.91 60.91 clipbox
83.325 81.705 m
84.202299 82.336121 l
85.956898 83.792168 l
89.466096 86.652051 l
96.484491 92.305041 l
110.521282 103.530352 l
138.594863 125.974808 l
194.742025 169.074381 l
307.03635 254.30734 l
531.625 399.306841 l
stroke
grestore
1.000 setlinewidth
0 setlinecap
gsave
493.1 457.5 60.91 60.91 clipbox
/o {
gsave
newpath
translate
1.0 setlinewidth
1 setlinejoin
0 setlinecap
0 -3.5 m
0.928211 -3.5 1.81853 -3.131218 2.474874 -2.474874 c
3.131218 -1.81853 3.5 -0.928211 3.5 0 c
3.5 0.928211 3.131218 1.81853 2.474874 2.474874 c
1.81853 3.131218 0.928211 3.5 0 3.5 c
-0.928211 3.5 -1.81853 3.131218 -2.474874 2.474874 c
-3.131218 1.81853 -3.5 0.928211 -3.5 0 c
-3.5 -0.928211 -3.131218 -1.81853 -2.474874 -2.474874 c
-1.81853 -3.131218 -0.928211 -3.5 0 -3.5 c
cl

gsave
0.502 0.502 0.000 setrgbcolor
fill
grestore
stroke
grestore
} bind def
83.325 81.705 o
84.2023 82.3361 o
85.9569 83.7922 o
89.4661 86.6521 o
96.4845 92.305 o
110.521 103.53 o
138.595 125.975 o
194.742 169.074 o
307.036 254.307 o
531.625 399.307 o
grestore
2.000 setlinewidth
2 setlinecap
0.294 0.000 0.510 setrgbcolor
gsave
493.1 457.5 60.91 60.91 clipbox
83.325 81.705 m
84.202299 82.063896 l
85.956898 83.238303 l
89.466096 85.543619 l
96.484491 90.191364 l
110.521282 99.270425 l
138.594863 117.659763 l
194.742025 153.937089 l
307.03635 223.616835 l
531.625 343.921156 l
stroke
grestore
1.000 setlinewidth
0 setlinecap
gsave
493.1 457.5 60.91 60.91 clipbox
/o {
gsave
newpath
translate
1.0 setlinewidth
1 setlinejoin
0 setlinecap
0 -3.5 m
0.928211 -3.5 1.81853 -3.131218 2.474874 -2.474874 c
3.131218 -1.81853 3.5 -0.928211 3.5 0 c
3.5 0.928211 3.131218 1.81853 2.474874 2.474874 c
1.81853 3.131218 0.928211 3.5 0 3.5 c
-0.928211 3.5 -1.81853 3.131218 -2.474874 2.474874 c
-3.131218 1.81853 -3.5 0.928211 -3.5 0 c
-3.5 -0.928211 -3.131218 -1.81853 -2.474874 -2.474874 c
-1.81853 -3.131218 -0.928211 -3.5 0 -3.5 c
cl

gsave
0.294 0.000 0.510 setrgbcolor
fill
grestore
stroke
grestore
} bind def
83.325 81.705 o
84.2023 82.0639 o
85.9569 83.2383 o
89.4661 85.5436 o
96.4845 90.1914 o
110.521 99.2704 o
138.595 117.66 o
194.742 153.937 o
307.036 223.617 o
531.625 343.921 o
grestore
2.000 setlinewidth
2 setlinecap
0.412 setgray
gsave
493.1 457.5 60.91 60.91 clipbox
83.325 81.705 m
84.202299 82.518894 l
85.956898 84.146683 l
89.466096 87.40226 l
96.484491 93.913415 l
110.521282 106.935724 l
138.594863 132.980342 l
194.742025 185.069579 l
307.03635 289.248053 l
531.625 497.605 l
stroke
grestore
1.000 setlinewidth
0 setlinecap
gsave
493.1 457.5 60.91 60.91 clipbox
/o {
gsave
newpath
translate
1.0 setlinewidth
1 setlinejoin
0 setlinecap
7 -0 m
-7 0 l

gsave
0.412 setgray
fill
grestore
stroke
grestore
} bind def
83.325 81.705 o
84.2023 82.5189 o
85.9569 84.1467 o
89.4661 87.4023 o
96.4845 93.9134 o
110.521 106.936 o
138.595 132.98 o
194.742 185.07 o
307.036 289.248 o
531.625 497.605 o
grestore
1.200 setlinewidth
[4.44 1.92] 0 setdash
0.000 0.000 0.545 setrgbcolor
gsave
493.1 457.5 60.91 60.91 clipbox
60.91 81.705 m
554.04 81.705 l
stroke
grestore
gsave
493.1 457.5 60.91 60.91 clipbox
60.91 93.913415 m
554.04 93.913415 l
stroke
grestore
gsave
493.1 457.5 60.91 60.91 clipbox
60.91 106.935724 m
554.04 106.935724 l
stroke
grestore
gsave
493.1 457.5 60.91 60.91 clipbox
60.91 132.980342 m
554.04 132.980342 l
stroke
grestore
gsave
493.1 457.5 60.91 60.91 clipbox
60.91 162.280538 m
554.04 162.280538 l
stroke
grestore
gsave
493.1 457.5 60.91 60.91 clipbox
60.91 185.069579 m
554.04 185.069579 l
stroke
grestore
gsave
493.1 457.5 60.91 60.91 clipbox
60.91 202.975254 m
554.04 202.975254 l
stroke
grestore
gsave
493.1 457.5 60.91 60.91 clipbox
60.91 243.669971 m
554.04 243.669971 l
stroke
grestore
gsave
493.1 457.5 60.91 60.91 clipbox
60.91 289.248053 m
554.04 289.248053 l
stroke
grestore
gsave
493.1 457.5 60.91 60.91 clipbox
60.91 325.059403 m
554.04 325.059403 l
stroke
grestore
gsave
493.1 457.5 60.91 60.91 clipbox
60.91 365.754119 m
554.04 365.754119 l
stroke
grestore
gsave
493.1 457.5 60.91 60.91 clipbox
60.91 406.448836 m
554.04 406.448836 l
stroke
grestore
gsave
493.1 457.5 60.91 60.91 clipbox
60.91 447.143552 m
554.04 447.143552 l
stroke
grestore
gsave
493.1 457.5 60.91 60.91 clipbox
60.91 497.605 m
554.04 497.605 l
stroke
grestore
2.000 setlinewidth
0 setlinejoin
2 setlinecap
[] 0 setdash
0.000 setgray
gsave
60.91 60.91 m
60.91 518.4 l
stroke
grestore
gsave
554.04 60.91 m
554.04 518.4 l
stroke
grestore
gsave
60.91 60.91 m
554.04 60.91 l
stroke
grestore
gsave
60.91 518.4 m
554.04 518.4 l
stroke
grestore
/DejaVuSans findfont
16.000 scalefont
setfont
gsave
64.120212 528.943750 translate
0.000000 rotate
0.000000 0.000000 m /C glyphshow
11.171875 0.000000 m /l glyphshow
15.617188 0.000000 m /o glyphshow
25.406250 0.000000 m /c glyphshow
34.203125 0.000000 m /k glyphshow
43.468750 0.000000 m /C glyphshow
54.640625 0.000000 m /o glyphshow
64.429688 0.000000 m /u glyphshow
74.570312 0.000000 m /n glyphshow
84.710938 0.000000 m /t glyphshow
90.984375 0.000000 m /e glyphshow
100.828125 0.000000 m /r glyphshow
107.406250 0.000000 m /W glyphshow
123.226562 0.000000 m /i glyphshow
127.671875 0.000000 m /s glyphshow
136.007812 0.000000 m /e glyphshow
145.851562 0.000000 m /space glyphshow
150.937500 0.000000 m /V glyphshow
161.882812 0.000000 m /s glyphshow
170.218750 0.000000 m /space glyphshow
175.304688 0.000000 m /N glyphshow
187.273438 0.000000 m /o glyphshow
197.062500 0.000000 m /t glyphshow
203.335938 0.000000 m /S glyphshow
213.492188 0.000000 m /e glyphshow
223.335938 0.000000 m /q glyphshow
233.492188 0.000000 m /u glyphshow
243.632812 0.000000 m /e glyphshow
253.476562 0.000000 m /n glyphshow
263.617188 0.000000 m /t glyphshow
269.890625 0.000000 m /i glyphshow
274.335938 0.000000 m /a glyphshow
284.140625 0.000000 m /l glyphshow
288.585938 0.000000 m /space glyphshow
293.671875 0.000000 m /A glyphshow
304.617188 0.000000 m /l glyphshow
309.062500 0.000000 m /g glyphshow
319.218750 0.000000 m /o glyphshow
329.007812 0.000000 m /r glyphshow
335.585938 0.000000 m /i glyphshow
340.031250 0.000000 m /t glyphshow
346.304688 0.000000 m /h glyphshow
356.445312 0.000000 m /m glyphshow
372.031250 0.000000 m /s glyphshow
380.367188 0.000000 m /space glyphshow
385.453125 0.000000 m /hyphen glyphshow
391.226562 0.000000 m /space glyphshow
396.312500 0.000000 m /S glyphshow
406.468750 0.000000 m /p glyphshow
416.625000 0.000000 m /e glyphshow
426.468750 0.000000 m /e glyphshow
436.312500 0.000000 m /d glyphshow
446.468750 0.000000 m /u glyphshow
456.609375 0.000000 m /p glyphshow
grestore
gsave
297.612400 511.028125 translate
0.000000 rotate

grestore
1.000 setlinewidth
0 setlinecap
0.800 setgray
gsave
74.3726 376.5781 m
423.0351 376.5781 l
425.4351 376.5781 426.6351 377.7781 426.6351 380.1781 c
426.6351 510.487475 l
426.6351 512.887475 425.4351 514.087475 423.0351 514.087475 c
74.3726 514.087475 l
71.9726 514.087475 70.7726 512.887475 70.7726 510.487475 c
70.7726 380.1781 l
70.7726 377.7781 71.9726 376.5781 74.3726 376.5781 c
cl
gsave
1.000 setgray
fill
grestore
stroke
grestore
5.000 setlinewidth
1 setlinejoin
2 setlinecap
[] 0 setdash
1.000 0.843 0.000 setrgbcolor
gsave
77.9726 499.5156 m
113.9726 499.5156 l
stroke
grestore
1.000 setlinewidth
0 setlinejoin
0 setlinecap
gsave
/o {
gsave
newpath
translate
1.0 setlinewidth
0 setlinejoin
0 setlinecap
-7 -7 m
7 -7 l
7 7 l
-7 7 l
cl

gsave
1.000 0.843 0.000 setrgbcolor
fill
grestore
stroke
grestore
} bind def
95.9726 499.516 o
grestore
0.000 setgray
/DejaVuSans findfont
18.000 scalefont
setfont
gsave
128.372600 493.215600 translate
0.000000 rotate
0.000000 0.000000 m /S glyphshow
11.425781 0.000000 m /p glyphshow
22.851562 0.000000 m /e glyphshow
33.925781 0.000000 m /e glyphshow
45.000000 0.000000 m /d glyphshow
56.425781 0.000000 m /U glyphshow
69.600586 0.000000 m /p glyphshow
81.026367 0.000000 m /space glyphshow
86.748047 0.000000 m /P glyphshow
97.602539 0.000000 m /six glyphshow
109.054688 0.000000 m /space glyphshow
114.776367 0.000000 m /hyphen glyphshow
121.271484 0.000000 m /space glyphshow
126.993164 0.000000 m /C glyphshow
139.561523 0.000000 m /l glyphshow
144.562500 0.000000 m /o glyphshow
155.575195 0.000000 m /c glyphshow
165.471680 0.000000 m /k glyphshow
175.895508 0.000000 m /C glyphshow
188.463867 0.000000 m /o glyphshow
199.476562 0.000000 m /u glyphshow
210.884766 0.000000 m /n glyphshow
222.292969 0.000000 m /t glyphshow
229.350586 0.000000 m /e glyphshow
240.424805 0.000000 m /r glyphshow
247.825195 0.000000 m /W glyphshow
265.623047 0.000000 m /i glyphshow
270.624023 0.000000 m /s glyphshow
280.001953 0.000000 m /e glyphshow
grestore
5.000 setlinewidth
1 setlinejoin
2 setlinecap
1.000 0.549 0.000 setrgbcolor
gsave
77.9726 473.093725 m
113.9726 473.093725 l
stroke
grestore
1.000 setlinewidth
0 setlinejoin
0 setlinecap
gsave
/o {
gsave
newpath
translate
1.0 setlinewidth
0 setlinejoin
0 setlinecap
-7 -7 m
7 -7 l
7 7 l
-7 7 l
cl

gsave
1.000 0.549 0.000 setrgbcolor
fill
grestore
stroke
grestore
} bind def
95.9726 473.094 o
grestore
0.000 setgray
gsave
128.372600 466.793725 translate
0.000000 rotate
0.000000 0.000000 m /S glyphshow
11.425781 0.000000 m /p glyphshow
22.851562 0.000000 m /e glyphshow
33.925781 0.000000 m /e glyphshow
45.000000 0.000000 m /d glyphshow
56.425781 0.000000 m /U glyphshow
69.600586 0.000000 m /p glyphshow
81.026367 0.000000 m /space glyphshow
86.748047 0.000000 m /P glyphshow
97.602539 0.000000 m /nine glyphshow
109.054688 0.000000 m /space glyphshow
114.776367 0.000000 m /hyphen glyphshow
121.271484 0.000000 m /space glyphshow
126.993164 0.000000 m /C glyphshow
139.561523 0.000000 m /l glyphshow
144.562500 0.000000 m /o glyphshow
155.575195 0.000000 m /c glyphshow
165.471680 0.000000 m /k glyphshow
175.895508 0.000000 m /C glyphshow
188.463867 0.000000 m /o glyphshow
199.476562 0.000000 m /u glyphshow
210.884766 0.000000 m /n glyphshow
222.292969 0.000000 m /t glyphshow
229.350586 0.000000 m /e glyphshow
240.424805 0.000000 m /r glyphshow
247.825195 0.000000 m /W glyphshow
265.623047 0.000000 m /i glyphshow
270.624023 0.000000 m /s glyphshow
280.001953 0.000000 m /e glyphshow
grestore
2.000 setlinewidth
1 setlinejoin
2 setlinecap
0.502 0.502 0.000 setrgbcolor
gsave
77.9726 446.67185 m
113.9726 446.67185 l
stroke
grestore
1.000 setlinewidth
0 setlinecap
gsave
/o {
gsave
newpath
translate
1.0 setlinewidth
1 setlinejoin
0 setlinecap
0 -3.5 m
0.928211 -3.5 1.81853 -3.131218 2.474874 -2.474874 c
3.131218 -1.81853 3.5 -0.928211 3.5 0 c
3.5 0.928211 3.131218 1.81853 2.474874 2.474874 c
1.81853 3.131218 0.928211 3.5 0 3.5 c
-0.928211 3.5 -1.81853 3.131218 -2.474874 2.474874 c
-3.131218 1.81853 -3.5 0.928211 -3.5 0 c
-3.5 -0.928211 -3.131218 -1.81853 -2.474874 -2.474874 c
-1.81853 -3.131218 -0.928211 -3.5 0 -3.5 c
cl

gsave
0.502 0.502 0.000 setrgbcolor
fill
grestore
stroke
grestore
} bind def
95.9726 446.672 o
grestore
0.000 setgray
gsave
128.372600 440.371850 translate
0.000000 rotate
0.000000 0.000000 m /S glyphshow
11.425781 0.000000 m /p glyphshow
22.851562 0.000000 m /e glyphshow
33.925781 0.000000 m /e glyphshow
45.000000 0.000000 m /d glyphshow
56.425781 0.000000 m /U glyphshow
69.600586 0.000000 m /p glyphshow
81.026367 0.000000 m /space glyphshow
86.748047 0.000000 m /P glyphshow
97.602539 0.000000 m /six glyphshow
109.054688 0.000000 m /space glyphshow
114.776367 0.000000 m /hyphen glyphshow
121.271484 0.000000 m /space glyphshow
126.993164 0.000000 m /N glyphshow
140.458008 0.000000 m /o glyphshow
151.470703 0.000000 m /t glyphshow
158.528320 0.000000 m /S glyphshow
169.954102 0.000000 m /e glyphshow
181.028320 0.000000 m /q glyphshow
192.454102 0.000000 m /u glyphshow
203.862305 0.000000 m /e glyphshow
214.936523 0.000000 m /n glyphshow
226.344727 0.000000 m /t glyphshow
233.402344 0.000000 m /i glyphshow
238.403320 0.000000 m /a glyphshow
249.433594 0.000000 m /l glyphshow
grestore
2.000 setlinewidth
2 setlinecap
0.294 0.000 0.510 setrgbcolor
gsave
77.9726 420.249975 m
113.9726 420.249975 l
stroke
grestore
1.000 setlinewidth
0 setlinecap
gsave
/o {
gsave
newpath
translate
1.0 setlinewidth
1 setlinejoin
0 setlinecap
0 -3.5 m
0.928211 -3.5 1.81853 -3.131218 2.474874 -2.474874 c
3.131218 -1.81853 3.5 -0.928211 3.5 0 c
3.5 0.928211 3.131218 1.81853 2.474874 2.474874 c
1.81853 3.131218 0.928211 3.5 0 3.5 c
-0.928211 3.5 -1.81853 3.131218 -2.474874 2.474874 c
-3.131218 1.81853 -3.5 0.928211 -3.5 0 c
-3.5 -0.928211 -3.131218 -1.81853 -2.474874 -2.474874 c
-1.81853 -3.131218 -0.928211 -3.5 0 -3.5 c
cl

gsave
0.294 0.000 0.510 setrgbcolor
fill
grestore
stroke
grestore
} bind def
95.9726 420.25 o
grestore
0.000 setgray
gsave
128.372600 413.949975 translate
0.000000 rotate
0.000000 0.000000 m /S glyphshow
11.425781 0.000000 m /p glyphshow
22.851562 0.000000 m /e glyphshow
33.925781 0.000000 m /e glyphshow
45.000000 0.000000 m /d glyphshow
56.425781 0.000000 m /U glyphshow
69.600586 0.000000 m /p glyphshow
81.026367 0.000000 m /space glyphshow
86.748047 0.000000 m /P glyphshow
97.602539 0.000000 m /nine glyphshow
109.054688 0.000000 m /space glyphshow
114.776367 0.000000 m /hyphen glyphshow
121.271484 0.000000 m /space glyphshow
126.993164 0.000000 m /N glyphshow
140.458008 0.000000 m /o glyphshow
151.470703 0.000000 m /t glyphshow
158.528320 0.000000 m /S glyphshow
169.954102 0.000000 m /e glyphshow
181.028320 0.000000 m /q glyphshow
192.454102 0.000000 m /u glyphshow
203.862305 0.000000 m /e glyphshow
214.936523 0.000000 m /n glyphshow
226.344727 0.000000 m /t glyphshow
233.402344 0.000000 m /i glyphshow
238.403320 0.000000 m /a glyphshow
249.433594 0.000000 m /l glyphshow
grestore
2.000 setlinewidth
2 setlinecap
0.412 setgray
gsave
77.9726 393.8281 m
113.9726 393.8281 l
stroke
grestore
1.000 setlinewidth
0 setlinecap
gsave
/o {
gsave
newpath
translate
1.0 setlinewidth
1 setlinejoin
0 setlinecap
7 -0 m
-7 0 l

gsave
0.412 setgray
fill
grestore
stroke
grestore
} bind def
95.9726 393.828 o
grestore
0.000 setgray
gsave
128.372600 387.528100 translate
0.000000 rotate
0.000000 0.000000 m /I glyphshow
5.308594 0.000000 m /d glyphshow
16.734375 0.000000 m /e glyphshow
27.808594 0.000000 m /a glyphshow
38.838867 0.000000 m /l glyphshow
43.839844 0.000000 m /space glyphshow
49.561523 0.000000 m /S glyphshow
60.987305 0.000000 m /p glyphshow
72.413086 0.000000 m /e glyphshow
83.487305 0.000000 m /e glyphshow
94.561523 0.000000 m /d glyphshow
105.987305 0.000000 m /u glyphshow
117.395508 0.000000 m /p glyphshow
grestore
/DejaVuSans-Bold findfont
20.000 scalefont
setfont
gsave
45.867188 553.274688 translate
0.000000 rotate
0.000000 0.000000 m /P glyphshow
14.658203 0.000000 m /r glyphshow
24.521484 0.000000 m /o glyphshow
38.261719 0.000000 m /j glyphshow
45.117188 0.000000 m /e glyphshow
58.681641 0.000000 m /c glyphshow
70.537109 0.000000 m /t glyphshow
80.097656 0.000000 m /i glyphshow
86.953125 0.000000 m /o glyphshow
100.693359 0.000000 m /n glyphshow
114.931641 0.000000 m /space glyphshow
121.894531 0.000000 m /S glyphshow
136.298828 0.000000 m /o glyphshow
150.039062 0.000000 m /l glyphshow
156.894531 0.000000 m /v glyphshow
169.931641 0.000000 m /e glyphshow
183.496094 0.000000 m /r glyphshow
193.359375 0.000000 m /space glyphshow
200.322266 0.000000 m /hyphen glyphshow
208.623047 0.000000 m /space glyphshow
215.585938 0.000000 m /one glyphshow
229.501953 0.000000 m /zero glyphshow
243.417969 0.000000 m /zero glyphshow
257.333984 0.000000 m /zero glyphshow
271.250000 0.000000 m /zero glyphshow
285.166016 0.000000 m /space glyphshow
292.128906 0.000000 m /S glyphshow
306.533203 0.000000 m /q glyphshow
320.849609 0.000000 m /u glyphshow
335.087891 0.000000 m /a glyphshow
348.583984 0.000000 m /r glyphshow
358.447266 0.000000 m /e glyphshow
372.011719 0.000000 m /space glyphshow
378.974609 0.000000 m /hyphen glyphshow
387.275391 0.000000 m /space glyphshow
394.238281 0.000000 m /parenleft glyphshow
403.378906 0.000000 m /P glyphshow
418.037109 0.000000 m /six glyphshow
431.953125 0.000000 m /comma glyphshow
439.550781 0.000000 m /space glyphshow
446.513672 0.000000 m /P glyphshow
461.171875 0.000000 m /nine glyphshow
475.087891 0.000000 m /parenright glyphshow
grestore

end
showpage
