%!PS-Adobe-3.0 EPSF-3.0
%%Creator: MATLAB, The MathWorks, Inc. Version 8.3.0.532 (R2014a). Operating System: Linux 4.15.0-109-generic #110-Ubuntu SMP Tue Jun 23 02:39:32 UTC 2020 x86_64.
%%Title: /home/doc/Work/Doutorado/thesis/thesis/eps/cap6/clockcounterwise/MemoryAllocated_ClockCounterWise_Vs_NotSequential.eps
%%CreationDate: 07/15/2020  10:48:01
%%DocumentNeededFonts: Helvetica
%%+ Helvetica-Bold
%%DocumentProcessColors: Cyan Magenta Yellow Black
%%LanguageLevel: 2
%%Pages: 1
%%BoundingBox:   -72   142   684   650
%%EndComments

%%BeginProlog
% MathWorks dictionary
/MathWorks 160 dict begin
% definition operators
/bdef {bind def} bind def
/ldef {load def} bind def
/xdef {exch def} bdef
/xstore {exch store} bdef
% operator abbreviations
/c  /clip ldef
/cc /concat ldef
/cp /closepath ldef
/gr /grestore ldef
/gs /gsave ldef
/mt /moveto ldef
/np /newpath ldef
/cm /currentmatrix ldef
/sm /setmatrix ldef
/rm /rmoveto ldef
/rl /rlineto ldef
/s {show newpath} bdef
/sc {setcmykcolor} bdef
/sr /setrgbcolor ldef
/sg /setgray ldef
/w /setlinewidth ldef
/j /setlinejoin ldef
/cap /setlinecap ldef
/rc {rectclip} bdef
/rf {rectfill} bdef
% page state control
/pgsv () def
/bpage {/pgsv save def} bdef
/epage {pgsv restore} bdef
/bplot /gsave ldef
/eplot {stroke grestore} bdef
% orientation switch
/portraitMode 0 def /landscapeMode 1 def /rotateMode 2 def
% coordinate system mappings
/dpi2point 0 def
% font control
/FontSize 0 def
/FMS {/FontSize xstore findfont [FontSize 0 0 FontSize neg 0 0]
  makefont setfont} bdef
/reencode {exch dup where {pop load} {pop StandardEncoding} ifelse
  exch dup 3 1 roll findfont dup length dict begin
  { 1 index /FID ne {def}{pop pop} ifelse } forall
  /Encoding exch def currentdict end definefont pop} bdef
/isroman {findfont /CharStrings get /Agrave known} bdef
/FMSR {3 1 roll 1 index dup isroman {reencode} {pop pop} ifelse
  exch FMS} bdef
/csm {1 dpi2point div -1 dpi2point div scale neg translate
 dup landscapeMode eq {pop -90 rotate}
  {rotateMode eq {90 rotate} if} ifelse} bdef
% line types: solid, dotted, dashed, dotdash
/SO { [] 0 setdash } bdef
/DO { [.5 dpi2point mul 4 dpi2point mul] 0 setdash } bdef
/DA { [6 dpi2point mul] 0 setdash } bdef
/DD { [.5 dpi2point mul 4 dpi2point mul 6 dpi2point mul 4
  dpi2point mul] 0 setdash } bdef
% macros for lines and objects
/L {lineto stroke} bdef
/MP {3 1 roll moveto 1 sub {rlineto} repeat} bdef
/AP {{rlineto} repeat} bdef
/PDlw -1 def
/W {/PDlw currentlinewidth def setlinewidth} def
/PP {closepath eofill} bdef
/DP {closepath stroke} bdef
/MR {4 -2 roll moveto dup  0 exch rlineto exch 0 rlineto
  neg 0 exch rlineto closepath} bdef
/FR {MR stroke} bdef
/PR {MR fill} bdef
/L1i {{currentfile picstr readhexstring pop} image} bdef
/tMatrix matrix def
/MakeOval {newpath tMatrix currentmatrix pop translate scale
0 0 1 0 360 arc tMatrix setmatrix} bdef
/FO {MakeOval stroke} bdef
/PO {MakeOval fill} bdef
/PD {currentlinewidth 2 div 0 360 arc fill
   PDlw -1 eq not {PDlw w /PDlw -1 def} if} def
/FA {newpath tMatrix currentmatrix pop translate scale
  0 0 1 5 -2 roll arc tMatrix setmatrix stroke} bdef
/PA {newpath tMatrix currentmatrix pop	translate 0 0 moveto scale
  0 0 1 5 -2 roll arc closepath tMatrix setmatrix fill} bdef
/FAn {newpath tMatrix currentmatrix pop translate scale
  0 0 1 5 -2 roll arcn tMatrix setmatrix stroke} bdef
/PAn {newpath tMatrix currentmatrix pop translate 0 0 moveto scale
  0 0 1 5 -2 roll arcn closepath tMatrix setmatrix fill} bdef
/vradius 0 def /hradius 0 def /lry 0 def
/lrx 0 def /uly 0 def /ulx 0 def /rad 0 def
/MRR {/vradius xdef /hradius xdef /lry xdef /lrx xdef /uly xdef
  /ulx xdef newpath tMatrix currentmatrix pop ulx hradius add uly
  vradius add translate hradius vradius scale 0 0 1 180 270 arc 
  tMatrix setmatrix lrx hradius sub uly vradius add translate
  hradius vradius scale 0 0 1 270 360 arc tMatrix setmatrix
  lrx hradius sub lry vradius sub translate hradius vradius scale
  0 0 1 0 90 arc tMatrix setmatrix ulx hradius add lry vradius sub
  translate hradius vradius scale 0 0 1 90 180 arc tMatrix setmatrix
  closepath} bdef
/FRR {MRR stroke } bdef
/PRR {MRR fill } bdef
/MlrRR {/lry xdef /lrx xdef /uly xdef /ulx xdef /rad lry uly sub 2 div def
  newpath tMatrix currentmatrix pop ulx rad add uly rad add translate
  rad rad scale 0 0 1 90 270 arc tMatrix setmatrix lrx rad sub lry rad
  sub translate rad rad scale 0 0 1 270 90 arc tMatrix setmatrix
  closepath} bdef
/FlrRR {MlrRR stroke } bdef
/PlrRR {MlrRR fill } bdef
/MtbRR {/lry xdef /lrx xdef /uly xdef /ulx xdef /rad lrx ulx sub 2 div def
  newpath tMatrix currentmatrix pop ulx rad add uly rad add translate
  rad rad scale 0 0 1 180 360 arc tMatrix setmatrix lrx rad sub lry rad
  sub translate rad rad scale 0 0 1 0 180 arc tMatrix setmatrix
  closepath} bdef
/FtbRR {MtbRR stroke } bdef
/PtbRR {MtbRR fill } bdef
/stri 6 array def /dtri 6 array def
/smat 6 array def /dmat 6 array def
/tmat1 6 array def /tmat2 6 array def /dif 3 array def
/asub {/ind2 exch def /ind1 exch def dup dup
  ind1 get exch ind2 get sub exch } bdef
/tri_to_matrix {
  2 0 asub 3 1 asub 4 0 asub 5 1 asub
  dup 0 get exch 1 get 7 -1 roll astore } bdef
/compute_transform {
  dmat dtri tri_to_matrix tmat1 invertmatrix 
  smat stri tri_to_matrix tmat2 concatmatrix } bdef
/ds {stri astore pop} bdef
/dt {dtri astore pop} bdef
/db {2 copy /cols xdef /rows xdef mul dup 3 mul string
  currentfile 
  3 index 0 eq {/ASCIIHexDecode filter}
  {/ASCII85Decode filter 3 index 2 eq {/RunLengthDecode filter} if }
  ifelse exch readstring pop
  dup 0 3 index getinterval /rbmap xdef
  dup 2 index dup getinterval /gbmap xdef
  1 index dup 2 mul exch getinterval /bbmap xdef pop pop}bdef
/it {gs np dtri aload pop moveto lineto lineto cp c
  cols rows 8 compute_transform 
  rbmap gbmap bbmap true 3 colorimage gr}bdef
/il {newpath moveto lineto stroke}bdef
currentdict end def
%%EndProlog

%%BeginSetup
MathWorks begin

0 cap

end
%%EndSetup

%%Page: 1 1
%%BeginPageSetup
%%PageBoundingBox:   -72   142   684   650
MathWorks begin
bpage
%%EndPageSetup

%%BeginObject: obj1
bplot

/dpi2point 12 def
portraitMode -0864 7800 csm

    0     0  9081  6096 rc
87 dict begin %Colortable dictionary
/c0 { 0.000000 0.000000 0.000000 sr} bdef
/c1 { 1.000000 1.000000 1.000000 sr} bdef
/c2 { 0.900000 0.000000 0.000000 sr} bdef
/c3 { 0.000000 0.820000 0.000000 sr} bdef
/c4 { 0.000000 0.000000 0.800000 sr} bdef
/c5 { 0.910000 0.820000 0.320000 sr} bdef
/c6 { 1.000000 0.260000 0.820000 sr} bdef
/c7 { 0.000000 0.820000 0.820000 sr} bdef
c0
1 j
1 sg
   0    0 9082 6097 rf
6 w
0 4968 7037 0 0 -4968 1181 5425 4 MP
PP
-7037 0 0 4968 7037 0 0 -4968 1181 5425 5 MP stroke
4 w
DO
0 sg
1985 5425 mt 1985  457 L
1985  457 mt 1985  457 L
2789 5425 mt 2789  457 L
2789  457 mt 2789  457 L
4397 5425 mt 4397  457 L
4397  457 mt 4397  457 L
7614 5425 mt 7614  457 L
7614  457 mt 7614  457 L
1181 5425 mt 8218 5425 L
8218 5425 mt 8218 5425 L
1181 5011 mt 8218 5011 L
8218 5011 mt 8218 5011 L
1181 4597 mt 8218 4597 L
8218 4597 mt 8218 4597 L
1181 4183 mt 8218 4183 L
8218 4183 mt 8218 4183 L
1181 3769 mt 8218 3769 L
8218 3769 mt 8218 3769 L
1181 3355 mt 8218 3355 L
8218 3355 mt 8218 3355 L
1181 2941 mt 8218 2941 L
8218 2941 mt 8218 2941 L
1181 2527 mt 8218 2527 L
8218 2527 mt 8218 2527 L
1181 2113 mt 8218 2113 L
8218 2113 mt 8218 2113 L
1181 1699 mt 8218 1699 L
8218 1699 mt 8218 1699 L
1181 1285 mt 8218 1285 L
8218 1285 mt 8218 1285 L
1181  871 mt 8218  871 L
8218  871 mt 8218  871 L
1181  457 mt 8218  457 L
8218  457 mt 8218  457 L
SO
6 w
1181 5425 mt 8218 5425 L
1181  457 mt 8218  457 L
1181 5425 mt 1181  457 L
8218 5425 mt 8218  457 L
1181 5425 mt 8218 5425 L
1181 5425 mt 1181  457 L
1985 5425 mt 1985 5354 L
1985  457 mt 1985  527 L
%%IncludeResource: font Helvetica
/Helvetica /ISOLatin1Encoding 216 FMSR

1865 5660 mt 
(16) s
2789 5425 mt 2789 5354 L
2789  457 mt 2789  527 L
2669 5660 mt 
(32) s
4397 5425 mt 4397 5354 L
4397  457 mt 4397  527 L
4277 5660 mt 
(64) s
7614 5425 mt 7614 5354 L
7614  457 mt 7614  527 L
7434 5660 mt 
(128) s
1181 5425 mt 1251 5425 L
8218 5425 mt 8147 5425 L
1026 5505 mt 
(0) s
1181 5011 mt 1251 5011 L
8218 5011 mt 8147 5011 L
 786 5091 mt 
(500) s
1181 4597 mt 1251 4597 L
8218 4597 mt 8147 4597 L
 666 4677 mt 
(1000) s
1181 4183 mt 1251 4183 L
8218 4183 mt 8147 4183 L
 666 4263 mt 
(1500) s
1181 3769 mt 1251 3769 L
8218 3769 mt 8147 3769 L
 666 3849 mt 
(2000) s
1181 3355 mt 1251 3355 L
8218 3355 mt 8147 3355 L
 666 3435 mt 
(2500) s
1181 2941 mt 1251 2941 L
8218 2941 mt 8147 2941 L
 666 3021 mt 
(3000) s
1181 2527 mt 1251 2527 L
8218 2527 mt 8147 2527 L
 666 2607 mt 
(3500) s
1181 2113 mt 1251 2113 L
8218 2113 mt 8147 2113 L
 666 2193 mt 
(4000) s
1181 1699 mt 1251 1699 L
8218 1699 mt 8147 1699 L
 666 1779 mt 
(4500) s
1181 1285 mt 1251 1285 L
8218 1285 mt 8147 1285 L
 666 1365 mt 
(5000) s
1181  871 mt 1251  871 L
8218  871 mt 8147  871 L
 666  951 mt 
(5500) s
1181  457 mt 1251  457 L
8218  457 mt 8147  457 L
 666  537 mt 
(6000) s
1181 5425 mt 8218 5425 L
1181  457 mt 8218  457 L
1181 5425 mt 1181  457 L
8218 5425 mt 8218  457 L
gs 1181 457 7038 4969 rc
/c8 { 0.000000 0.749020 0.749020 sr} bdef
c8
0 179 804 0 0 -179 1583 5425 4 MP
PP
0 sg
-804 0 0 179 804 0 0 -179 1583 5425 5 MP stroke
c8
0 1292 804 0 0 -1292 2387 5425 4 MP
PP
0 sg
-804 0 0 1292 804 0 0 -1292 2387 5425 5 MP stroke
c8
0 3524 805 0 0 -3524 3995 5425 4 MP
PP
0 sg
-805 0 0 3524 805 0 0 -3524 3995 5425 5 MP stroke
c8
0 4641 804 0 0 -4641 7212 5425 4 MP
PP
0 sg
-804 0 0 4641 804 0 0 -4641 7212 5425 5 MP stroke
120 w
/c9 { 1.000000 0.000000 0.000000 sr} bdef
c9
3217 0 1608 0 804 0 1985 5425 4 MP stroke
gr

120 w
c9
0 j
0 -58 -58 0 0 58 58 0 1956 5396 5 MP
DP
0 -58 -58 0 0 58 58 0 2760 5396 5 MP
DP
0 -58 -58 0 0 58 58 0 4368 5396 5 MP
DP
0 -58 -58 0 0 58 58 0 7585 5396 5 MP
DP
gs 1181 457 7038 4969 rc
gr

/c10 { 0.078431 0.168627 0.549020 sr} bdef
c10
%%IncludeResource: font Helvetica-Bold
/Helvetica-Bold /ISOLatin1Encoding 240 FMSR

3089 5945 mt 
(Number of Processors \(MPI\)) s
 557 4955 mt  -90 rotate
(Heap Memory Allocated \(Kilobytes\)) s
90 rotate
0 sg
%%IncludeResource: font Helvetica
/Helvetica /ISOLatin1Encoding 120 FMSR

1164 5468 mt 
( ) s
8202  499 mt 
( ) s
6 w
1 sg
0 592 3280 0 0 -592 1264 1175 4 MP
PP
-3280 0 0 592 3280 0 0 -592 1264 1175 5 MP stroke
4 w
DO
SO
6 w
0 sg
1264 1175 mt 4544 1175 L
1264  583 mt 4544  583 L
1264 1175 mt 1264  583 L
4544 1175 mt 4544  583 L
1264 1175 mt 4544 1175 L
1264 1175 mt 1264  583 L
1264 1175 mt 4544 1175 L
1264  583 mt 4544  583 L
1264 1175 mt 1264  583 L
4544 1175 mt 4544  583 L
%%IncludeResource: font Helvetica
/Helvetica /ISOLatin1Encoding 216 FMSR

1744  819 mt 
(Not Sequential Renumbering) s
gs 1264 583 3281 593 rc
c8
-369 0 0 210 369 0 0 -210 1337 846 5 MP
PP
0 sg
0 0 -369 0 0 210 369 0 0 -210 1337 846 6 MP stroke
gr

1744 1094 mt 
( ClockCounterWise) s
gs 1264 583 3281 593 rc
120 w
c9
369 0 1337 1016 2 MP stroke
gr

120 w
c9
gs 1328 822 389 389 rc
0 -58 -58 0 0 58 58 0 1493 987 5 MP
DP
gr

gs 1264 583 3281 593 rc
6 w
gr

6 w

end %%Color Dict

eplot
%%EndObject

epage
end

showpage

%%Trailer
%%EOF
