%!PS-Adobe-3.0 EPSF-3.0
%%Title: /home/doc/Work/Doutorado/thesis/thesis/eps/cap6/overlapping/Overlapping_Projection_Hexa10000_Efficiency.eps
%%Creator: matplotlib version 3.0.3, http://matplotlib.org/
%%CreationDate: Thu Jul 25 10:05:35 2019
%%Orientation: portrait
%%BoundingBox: 18 108 594 684
%%EndComments
%%BeginProlog
/mpldict 9 dict def
mpldict begin
/m { moveto } bind def
/l { lineto } bind def
/r { rlineto } bind def
/c { curveto } bind def
/cl { closepath } bind def
/box {
m
1 index 0 r
0 exch r
neg 0 r
cl
} bind def
/clipbox {
box
clip
newpath
} bind def
%!PS-Adobe-3.0 Resource-Font
%%Title: DejaVu Sans
%%Copyright: Copyright (c) 2003 by Bitstream, Inc. All Rights Reserved. Copyright (c) 2006 by Tavmjong Bah. All Rights Reserved. DejaVu changes are in public domain 
%%Creator: Converted from TrueType to type 3 by PPR
25 dict begin
/_d{bind def}bind def
/_m{moveto}_d
/_l{lineto}_d
/_cl{closepath eofill}_d
/_c{curveto}_d
/_sc{7 -1 roll{setcachedevice}{pop pop pop pop pop pop}ifelse}_d
/_e{exec}_d
/FontName /DejaVuSans def
/PaintType 0 def
/FontMatrix[.001 0 0 .001 0 0]def
/FontBBox[-1021 -463 1793 1232]def
/FontType 3 def
/Encoding [ /space /hyphen /period /zero /one /two /three /four /five /six /seven /eight /nine /A /E /O /P /a /c /e /f /g /h /i /l /m /n /o /p /r /t /v /y ] def
/FontInfo 10 dict dup begin
/FamilyName (DejaVu Sans) def
/FullName (DejaVu Sans) def
/Notice (Copyright (c) 2003 by Bitstream, Inc. All Rights Reserved. Copyright (c) 2006 by Tavmjong Bah. All Rights Reserved. DejaVu changes are in public domain ) def
/Weight (Book) def
/Version (Version 2.35) def
/ItalicAngle 0.0 def
/isFixedPitch false def
/UnderlinePosition -130 def
/UnderlineThickness 90 def
end readonly def
/CharStrings 34 dict dup begin
/.notdef 0 def
/space{318 0 0 0 0 0 _sc
}_d
/hyphen{361 0 49 234 312 314 _sc
49 314 _m
312 314 _l
312 234 _l
49 234 _l
49 314 _l
_cl}_d
/period{318 0 107 0 210 124 _sc
107 124 _m
210 124 _l
210 0 _l
107 0 _l
107 124 _l
_cl}_d
/zero{636 0 66 -13 570 742 _sc
318 664 _m
267 664 229 639 203 589 _c
177 539 165 464 165 364 _c
165 264 177 189 203 139 _c
229 89 267 64 318 64 _c
369 64 407 89 433 139 _c
458 189 471 264 471 364 _c
471 464 458 539 433 589 _c
407 639 369 664 318 664 _c
318 742 _m
399 742 461 709 505 645 _c
548 580 570 486 570 364 _c
570 241 548 147 505 83 _c
461 19 399 -13 318 -13 _c
236 -13 173 19 130 83 _c
87 147 66 241 66 364 _c
66 486 87 580 130 645 _c
173 709 236 742 318 742 _c
_cl}_d
/one{636 0 110 0 544 729 _sc
124 83 _m
285 83 _l
285 639 _l
110 604 _l
110 694 _l
284 729 _l
383 729 _l
383 83 _l
544 83 _l
544 0 _l
124 0 _l
124 83 _l
_cl}_d
/two{{636 0 73 0 536 742 _sc
192 83 _m
536 83 _l
536 0 _l
73 0 _l
73 83 _l
110 121 161 173 226 239 _c
290 304 331 346 348 365 _c
380 400 402 430 414 455 _c
426 479 433 504 433 528 _c
433 566 419 598 392 622 _c
365 646 330 659 286 659 _c
255 659 222 653 188 643 _c
154 632 117 616 78 594 _c
78 694 _l
118 710 155 722 189 730 _c
223 738 255 742 284 742 _c
}_e{359 742 419 723 464 685 _c
509 647 532 597 532 534 _c
532 504 526 475 515 449 _c
504 422 484 390 454 354 _c
446 344 420 317 376 272 _c
332 227 271 164 192 83 _c
_cl}_e}_d
/three{{636 0 76 -13 556 742 _sc
406 393 _m
453 383 490 362 516 330 _c
542 298 556 258 556 212 _c
556 140 531 84 482 45 _c
432 6 362 -13 271 -13 _c
240 -13 208 -10 176 -4 _c
144 1 110 10 76 22 _c
76 117 _l
103 101 133 89 166 81 _c
198 73 232 69 268 69 _c
330 69 377 81 409 105 _c
441 129 458 165 458 212 _c
458 254 443 288 413 312 _c
383 336 341 349 287 349 _c
}_e{202 349 _l
202 430 _l
291 430 _l
339 430 376 439 402 459 _c
428 478 441 506 441 543 _c
441 580 427 609 401 629 _c
374 649 336 659 287 659 _c
260 659 231 656 200 650 _c
169 644 135 635 98 623 _c
98 711 _l
135 721 170 729 203 734 _c
235 739 266 742 296 742 _c
370 742 429 725 473 691 _c
517 657 539 611 539 553 _c
539 513 527 479 504 451 _c
481 423 448 403 406 393 _c
_cl}_e}_d
/four{636 0 49 0 580 729 _sc
378 643 _m
129 254 _l
378 254 _l
378 643 _l
352 729 _m
476 729 _l
476 254 _l
580 254 _l
580 172 _l
476 172 _l
476 0 _l
378 0 _l
378 172 _l
49 172 _l
49 267 _l
352 729 _l
_cl}_d
/five{{636 0 77 -13 549 729 _sc
108 729 _m
495 729 _l
495 646 _l
198 646 _l
198 467 _l
212 472 227 476 241 478 _c
255 480 270 482 284 482 _c
365 482 429 459 477 415 _c
525 370 549 310 549 234 _c
549 155 524 94 475 51 _c
426 8 357 -13 269 -13 _c
238 -13 207 -10 175 -6 _c
143 -1 111 6 77 17 _c
77 116 _l
106 100 136 88 168 80 _c
199 72 232 69 267 69 _c
}_e{323 69 368 83 401 113 _c
433 143 450 183 450 234 _c
450 284 433 324 401 354 _c
368 384 323 399 267 399 _c
241 399 214 396 188 390 _c
162 384 135 375 108 363 _c
108 729 _l
_cl}_e}_d
/six{{636 0 70 -13 573 742 _sc
330 404 _m
286 404 251 388 225 358 _c
199 328 186 286 186 234 _c
186 181 199 139 225 109 _c
251 79 286 64 330 64 _c
374 64 409 79 435 109 _c
461 139 474 181 474 234 _c
474 286 461 328 435 358 _c
409 388 374 404 330 404 _c
526 713 _m
526 623 _l
501 635 476 644 451 650 _c
425 656 400 659 376 659 _c
310 659 260 637 226 593 _c
}_e{192 549 172 482 168 394 _c
187 422 211 444 240 459 _c
269 474 301 482 336 482 _c
409 482 467 459 509 415 _c
551 371 573 310 573 234 _c
573 159 550 99 506 54 _c
462 9 403 -13 330 -13 _c
246 -13 181 19 137 83 _c
92 147 70 241 70 364 _c
70 479 97 571 152 639 _c
206 707 280 742 372 742 _c
396 742 421 739 447 735 _c
472 730 498 723 526 713 _c
_cl}_e}_d
/seven{636 0 82 0 551 729 _sc
82 729 _m
551 729 _l
551 687 _l
286 0 _l
183 0 _l
432 646 _l
82 646 _l
82 729 _l
_cl}_d
/eight{{636 0 68 -13 568 742 _sc
318 346 _m
271 346 234 333 207 308 _c
180 283 167 249 167 205 _c
167 161 180 126 207 101 _c
234 76 271 64 318 64 _c
364 64 401 76 428 102 _c
455 127 469 161 469 205 _c
469 249 455 283 429 308 _c
402 333 365 346 318 346 _c
219 388 _m
177 398 144 418 120 447 _c
96 476 85 511 85 553 _c
85 611 105 657 147 691 _c
188 725 245 742 318 742 _c
}_e{390 742 447 725 489 691 _c
530 657 551 611 551 553 _c
551 511 539 476 515 447 _c
491 418 459 398 417 388 _c
464 377 501 355 528 323 _c
554 291 568 251 568 205 _c
568 134 546 80 503 43 _c
459 5 398 -13 318 -13 _c
237 -13 175 5 132 43 _c
89 80 68 134 68 205 _c
68 251 81 291 108 323 _c
134 355 171 377 219 388 _c
183 544 _m
183 506 194 476 218 455 _c
}_e{242 434 275 424 318 424 _c
360 424 393 434 417 455 _c
441 476 453 506 453 544 _c
453 582 441 611 417 632 _c
393 653 360 664 318 664 _c
275 664 242 653 218 632 _c
194 611 183 582 183 544 _c
_cl}_e}_d
/nine{{636 0 63 -13 566 742 _sc
110 15 _m
110 105 _l
134 93 159 84 185 78 _c
210 72 235 69 260 69 _c
324 69 374 90 408 134 _c
442 178 462 244 468 334 _c
448 306 424 284 396 269 _c
367 254 335 247 300 247 _c
226 247 168 269 126 313 _c
84 357 63 417 63 494 _c
63 568 85 628 129 674 _c
173 719 232 742 306 742 _c
390 742 455 709 499 645 _c
543 580 566 486 566 364 _c
}_e{566 248 538 157 484 89 _c
429 21 356 -13 264 -13 _c
239 -13 214 -10 189 -6 _c
163 -2 137 5 110 15 _c
306 324 _m
350 324 385 339 411 369 _c
437 399 450 441 450 494 _c
450 546 437 588 411 618 _c
385 648 350 664 306 664 _c
262 664 227 648 201 618 _c
175 588 162 546 162 494 _c
162 441 175 399 201 369 _c
227 339 262 324 306 324 _c
_cl}_e}_d
/A{684 0 8 0 676 729 _sc
342 632 _m
208 269 _l
476 269 _l
342 632 _l
286 729 _m
398 729 _l
676 0 _l
573 0 _l
507 187 _l
178 187 _l
112 0 _l
8 0 _l
286 729 _l
_cl}_d
/E{632 0 98 0 568 729 _sc
98 729 _m
559 729 _l
559 646 _l
197 646 _l
197 430 _l
544 430 _l
544 347 _l
197 347 _l
197 83 _l
568 83 _l
568 0 _l
98 0 _l
98 729 _l
_cl}_d
/O{787 0 56 -13 731 742 _sc
394 662 _m
322 662 265 635 223 582 _c
181 528 160 456 160 364 _c
160 272 181 199 223 146 _c
265 92 322 66 394 66 _c
465 66 522 92 564 146 _c
606 199 627 272 627 364 _c
627 456 606 528 564 582 _c
522 635 465 662 394 662 _c
394 742 _m
496 742 577 707 639 639 _c
700 571 731 479 731 364 _c
731 248 700 157 639 89 _c
577 21 496 -13 394 -13 _c
291 -13 209 21 148 89 _c
86 157 56 248 56 364 _c
56 479 86 571 148 639 _c
209 707 291 742 394 742 _c
_cl}_d
/P{603 0 98 0 569 729 _sc
197 648 _m
197 374 _l
321 374 _l
367 374 402 385 427 409 _c
452 433 465 467 465 511 _c
465 555 452 588 427 612 _c
402 636 367 648 321 648 _c
197 648 _l
98 729 _m
321 729 _l
402 729 464 710 506 673 _c
548 636 569 582 569 511 _c
569 439 548 384 506 348 _c
464 311 402 293 321 293 _c
197 293 _l
197 0 _l
98 0 _l
98 729 _l
_cl}_d
/a{{613 0 60 -13 522 560 _sc
343 275 _m
270 275 220 266 192 250 _c
164 233 150 205 150 165 _c
150 133 160 107 181 89 _c
202 70 231 61 267 61 _c
317 61 357 78 387 114 _c
417 149 432 196 432 255 _c
432 275 _l
343 275 _l
522 312 _m
522 0 _l
432 0 _l
432 83 _l
411 49 385 25 355 10 _c
325 -5 287 -13 243 -13 _c
187 -13 142 2 109 33 _c
76 64 60 106 60 159 _c
}_e{60 220 80 266 122 298 _c
163 329 224 345 306 345 _c
432 345 _l
432 354 _l
432 395 418 427 391 450 _c
364 472 326 484 277 484 _c
245 484 215 480 185 472 _c
155 464 127 453 100 439 _c
100 522 _l
132 534 164 544 195 550 _c
226 556 256 560 286 560 _c
365 560 424 539 463 498 _c
502 457 522 395 522 312 _c
_cl}_e}_d
/c{{550 0 55 -13 488 560 _sc
488 526 _m
488 442 _l
462 456 437 466 411 473 _c
385 480 360 484 334 484 _c
276 484 230 465 198 428 _c
166 391 150 339 150 273 _c
150 206 166 154 198 117 _c
230 80 276 62 334 62 _c
360 62 385 65 411 72 _c
437 79 462 90 488 104 _c
488 21 _l
462 9 436 0 410 -5 _c
383 -10 354 -13 324 -13 _c
242 -13 176 12 128 64 _c
}_e{79 115 55 185 55 273 _c
55 362 79 432 128 483 _c
177 534 244 560 330 560 _c
358 560 385 557 411 551 _c
437 545 463 537 488 526 _c
_cl}_e}_d
/e{{615 0 55 -13 562 560 _sc
562 296 _m
562 252 _l
149 252 _l
153 190 171 142 205 110 _c
238 78 284 62 344 62 _c
378 62 412 66 444 74 _c
476 82 509 95 541 113 _c
541 28 _l
509 14 476 3 442 -3 _c
408 -9 373 -13 339 -13 _c
251 -13 182 12 131 62 _c
80 112 55 181 55 268 _c
55 357 79 428 127 481 _c
175 533 241 560 323 560 _c
397 560 455 536 498 489 _c
}_e{540 441 562 377 562 296 _c
472 322 _m
471 371 457 410 431 440 _c
404 469 368 484 324 484 _c
274 484 234 469 204 441 _c
174 413 156 373 152 322 _c
472 322 _l
_cl}_e}_d
/f{352 0 23 0 371 760 _sc
371 760 _m
371 685 _l
285 685 _l
253 685 230 678 218 665 _c
205 652 199 629 199 595 _c
199 547 _l
347 547 _l
347 477 _l
199 477 _l
199 0 _l
109 0 _l
109 477 _l
23 477 _l
23 547 _l
109 547 _l
109 585 _l
109 645 123 690 151 718 _c
179 746 224 760 286 760 _c
371 760 _l
_cl}_d
/g{{635 0 55 -207 544 560 _sc
454 280 _m
454 344 440 395 414 431 _c
387 467 349 485 301 485 _c
253 485 215 467 188 431 _c
161 395 148 344 148 280 _c
148 215 161 165 188 129 _c
215 93 253 75 301 75 _c
349 75 387 93 414 129 _c
440 165 454 215 454 280 _c
544 68 _m
544 -24 523 -93 482 -139 _c
440 -184 377 -207 292 -207 _c
260 -207 231 -204 203 -200 _c
175 -195 147 -188 121 -178 _c
}_e{121 -91 _l
147 -105 173 -115 199 -122 _c
225 -129 251 -133 278 -133 _c
336 -133 380 -117 410 -87 _c
439 -56 454 -10 454 52 _c
454 96 _l
435 64 411 40 382 24 _c
353 8 319 0 279 0 _c
211 0 157 25 116 76 _c
75 127 55 195 55 280 _c
55 364 75 432 116 483 _c
157 534 211 560 279 560 _c
319 560 353 552 382 536 _c
411 520 435 496 454 464 _c
454 547 _l
544 547 _l
}_e{544 68 _l
_cl}_e}_d
/h{634 0 91 0 549 760 _sc
549 330 _m
549 0 _l
459 0 _l
459 327 _l
459 379 448 417 428 443 _c
408 469 378 482 338 482 _c
289 482 251 466 223 435 _c
195 404 181 362 181 309 _c
181 0 _l
91 0 _l
91 760 _l
181 760 _l
181 462 _l
202 494 227 519 257 535 _c
286 551 320 560 358 560 _c
420 560 468 540 500 501 _c
532 462 549 405 549 330 _c
_cl}_d
/i{278 0 94 0 184 760 _sc
94 547 _m
184 547 _l
184 0 _l
94 0 _l
94 547 _l
94 760 _m
184 760 _l
184 646 _l
94 646 _l
94 760 _l
_cl}_d
/l{278 0 94 0 184 760 _sc
94 760 _m
184 760 _l
184 0 _l
94 0 _l
94 760 _l
_cl}_d
/m{{974 0 91 0 889 560 _sc
520 442 _m
542 482 569 511 600 531 _c
631 550 668 560 711 560 _c
767 560 811 540 842 500 _c
873 460 889 403 889 330 _c
889 0 _l
799 0 _l
799 327 _l
799 379 789 418 771 444 _c
752 469 724 482 686 482 _c
639 482 602 466 575 435 _c
548 404 535 362 535 309 _c
535 0 _l
445 0 _l
445 327 _l
445 379 435 418 417 444 _c
398 469 369 482 331 482 _c
}_e{285 482 248 466 221 435 _c
194 404 181 362 181 309 _c
181 0 _l
91 0 _l
91 547 _l
181 547 _l
181 462 _l
201 495 226 520 255 536 _c
283 552 317 560 357 560 _c
397 560 430 550 458 530 _c
486 510 506 480 520 442 _c
_cl}_e}_d
/n{634 0 91 0 549 560 _sc
549 330 _m
549 0 _l
459 0 _l
459 327 _l
459 379 448 417 428 443 _c
408 469 378 482 338 482 _c
289 482 251 466 223 435 _c
195 404 181 362 181 309 _c
181 0 _l
91 0 _l
91 547 _l
181 547 _l
181 462 _l
202 494 227 519 257 535 _c
286 551 320 560 358 560 _c
420 560 468 540 500 501 _c
532 462 549 405 549 330 _c
_cl}_d
/o{612 0 55 -13 557 560 _sc
306 484 _m
258 484 220 465 192 427 _c
164 389 150 338 150 273 _c
150 207 163 156 191 118 _c
219 80 257 62 306 62 _c
354 62 392 80 420 118 _c
448 156 462 207 462 273 _c
462 337 448 389 420 427 _c
392 465 354 484 306 484 _c
306 560 _m
384 560 445 534 490 484 _c
534 433 557 363 557 273 _c
557 183 534 113 490 63 _c
445 12 384 -13 306 -13 _c
227 -13 165 12 121 63 _c
77 113 55 183 55 273 _c
55 363 77 433 121 484 _c
165 534 227 560 306 560 _c
_cl}_d
/p{{635 0 91 -207 580 560 _sc
181 82 _m
181 -207 _l
91 -207 _l
91 547 _l
181 547 _l
181 464 _l
199 496 223 520 252 536 _c
281 552 316 560 356 560 _c
422 560 476 533 518 481 _c
559 428 580 359 580 273 _c
580 187 559 117 518 65 _c
476 13 422 -13 356 -13 _c
316 -13 281 -5 252 10 _c
223 25 199 49 181 82 _c
487 273 _m
487 339 473 390 446 428 _c
418 466 381 485 334 485 _c
}_e{286 485 249 466 222 428 _c
194 390 181 339 181 273 _c
181 207 194 155 222 117 _c
249 79 286 61 334 61 _c
381 61 418 79 446 117 _c
473 155 487 207 487 273 _c
_cl}_e}_d
/r{411 0 91 0 411 560 _sc
411 463 _m
401 469 390 473 378 476 _c
366 478 353 480 339 480 _c
288 480 249 463 222 430 _c
194 397 181 350 181 288 _c
181 0 _l
91 0 _l
91 547 _l
181 547 _l
181 462 _l
199 495 224 520 254 536 _c
284 552 321 560 365 560 _c
371 560 378 559 386 559 _c
393 558 401 557 411 555 _c
411 463 _l
_cl}_d
/t{392 0 27 0 368 702 _sc
183 702 _m
183 547 _l
368 547 _l
368 477 _l
183 477 _l
183 180 _l
183 135 189 106 201 94 _c
213 81 238 75 276 75 _c
368 75 _l
368 0 _l
276 0 _l
206 0 158 13 132 39 _c
106 65 93 112 93 180 _c
93 477 _l
27 477 _l
27 547 _l
93 547 _l
93 702 _l
183 702 _l
_cl}_d
/v{592 0 30 0 562 547 _sc
30 547 _m
125 547 _l
296 88 _l
467 547 _l
562 547 _l
357 0 _l
235 0 _l
30 547 _l
_cl}_d
/y{592 0 30 -207 562 547 _sc
322 -50 _m
296 -114 271 -157 247 -177 _c
223 -197 191 -207 151 -207 _c
79 -207 _l
79 -132 _l
132 -132 _l
156 -132 175 -126 189 -114 _c
203 -102 218 -75 235 -31 _c
251 9 _l
30 547 _l
125 547 _l
296 119 _l
467 547 _l
562 547 _l
322 -50 _l
_cl}_d
end readonly def

/BuildGlyph
 {exch begin
 CharStrings exch
 2 copy known not{pop /.notdef}if
 true 3 1 roll get exec
 end}_d

/BuildChar {
 1 index /Encoding get exch get
 1 index /BuildGlyph get exec
}_d

FontName currentdict end definefont pop
%!PS-Adobe-3.0 Resource-Font
%%Title: DejaVu Sans Bold
%%Copyright: Copyright (c) 2003 by Bitstream, Inc. All Rights Reserved. Copyright (c) 2006 by Tavmjong Bah. All Rights Reserved. DejaVu changes are in public domain 
%%Creator: Converted from TrueType to type 3 by PPR
25 dict begin
/_d{bind def}bind def
/_m{moveto}_d
/_l{lineto}_d
/_cl{closepath eofill}_d
/_c{curveto}_d
/_sc{7 -1 roll{setcachedevice}{pop pop pop pop pop pop}ifelse}_d
/_e{exec}_d
/FontName /DejaVuSans-Bold def
/PaintType 0 def
/FontMatrix[.001 0 0 .001 0 0]def
/FontBBox[-1069 -415 1975 1174]def
/FontType 3 def
/Encoding [ /space /hyphen /zero /one /H /I /M /N /P /S /a /b /c /d /e /f /h /i /j /l /m /n /o /p /r /s /t /u /v /x ] def
/FontInfo 10 dict dup begin
/FamilyName (DejaVu Sans) def
/FullName (DejaVu Sans Bold) def
/Notice (Copyright (c) 2003 by Bitstream, Inc. All Rights Reserved. Copyright (c) 2006 by Tavmjong Bah. All Rights Reserved. DejaVu changes are in public domain ) def
/Weight (Bold) def
/Version (Version 2.35) def
/ItalicAngle 0.0 def
/isFixedPitch false def
/UnderlinePosition -130 def
/UnderlineThickness 90 def
end readonly def
/CharStrings 31 dict dup begin
/.notdef 0 def
/space{348 0 0 0 0 0 _sc
}_d
/hyphen{415 0 54 217 361 359 _sc
54 359 _m
361 359 _l
361 217 _l
54 217 _l
54 359 _l
_cl}_d
/zero{696 0 48 -13 648 742 _sc
460 365 _m
460 456 451 520 434 558 _c
417 595 388 614 348 614 _c
308 614 279 595 262 558 _c
244 520 236 456 236 365 _c
236 273 244 208 262 170 _c
279 132 308 114 348 114 _c
388 114 416 132 434 170 _c
451 208 460 273 460 365 _c
648 364 _m
648 243 622 150 570 85 _c
518 19 444 -13 348 -13 _c
252 -13 178 19 126 85 _c
74 150 48 243 48 364 _c
48 484 74 577 126 643 _c
178 709 252 742 348 742 _c
444 742 518 709 570 643 _c
622 577 648 484 648 364 _c
_cl}_d
/one{696 0 113 0 627 729 _sc
117 130 _m
283 130 _l
283 601 _l
113 566 _l
113 694 _l
282 729 _l
461 729 _l
461 130 _l
627 130 _l
627 0 _l
117 0 _l
117 130 _l
_cl}_d
/H{837 0 92 0 745 729 _sc
92 729 _m
280 729 _l
280 451 _l
557 451 _l
557 729 _l
745 729 _l
745 0 _l
557 0 _l
557 309 _l
280 309 _l
280 0 _l
92 0 _l
92 729 _l
_cl}_d
/I{372 0 92 0 280 729 _sc
92 729 _m
280 729 _l
280 0 _l
92 0 _l
92 729 _l
_cl}_d
/M{995 0 92 0 903 729 _sc
92 729 _m
331 729 _l
497 339 _l
664 729 _l
903 729 _l
903 0 _l
725 0 _l
725 533 _l
557 140 _l
438 140 _l
270 533 _l
270 0 _l
92 0 _l
92 729 _l
_cl}_d
/N{837 0 92 0 745 729 _sc
92 729 _m
302 729 _l
567 229 _l
567 729 _l
745 729 _l
745 0 _l
535 0 _l
270 500 _l
270 0 _l
92 0 _l
92 729 _l
_cl}_d
/P{733 0 92 0 692 729 _sc
92 729 _m
404 729 _l
496 729 567 708 617 667 _c
667 625 692 567 692 491 _c
692 414 667 355 617 314 _c
567 273 496 253 404 253 _c
280 253 _l
280 0 _l
92 0 _l
92 729 _l
280 593 _m
280 389 _l
384 389 _l
420 389 448 397 468 415 _c
488 433 498 458 498 491 _c
498 523 488 548 468 566 _c
448 584 420 593 384 593 _c
280 593 _l
_cl}_d
/S{{720 0 72 -13 647 742 _sc
599 706 _m
599 552 _l
559 570 520 583 482 592 _c
444 601 408 606 374 606 _c
329 606 296 599 274 587 _c
252 575 242 556 242 530 _c
242 510 249 494 264 484 _c
278 473 305 464 343 456 _c
423 440 _l
503 424 561 399 595 366 _c
629 332 647 285 647 224 _c
647 144 623 84 575 45 _c
527 6 455 -13 357 -13 _c
311 -13 264 -8 218 0 _c
}_e{171 8 124 20 78 38 _c
78 197 _l
124 172 169 153 213 141 _c
256 128 298 122 339 122 _c
379 122 411 128 433 142 _c
455 156 466 175 466 201 _c
466 223 458 241 443 253 _c
428 265 399 277 355 287 _c
282 303 _l
209 319 156 344 122 378 _c
88 412 72 458 72 516 _c
72 588 95 644 142 683 _c
188 722 256 742 344 742 _c
384 742 425 739 467 733 _c
509 727 553 718 599 706 _c
}_e{_cl}_e}_d
/a{{675 0 43 -13 596 560 _sc
329 246 _m
292 246 264 239 246 227 _c
228 215 219 197 219 173 _c
219 151 226 133 241 121 _c
256 108 277 102 303 102 _c
336 102 364 113 386 137 _c
408 161 420 190 420 226 _c
420 246 _l
329 246 _l
596 312 _m
596 0 _l
420 0 _l
420 81 _l
396 47 370 23 341 9 _c
311 -5 276 -13 234 -13 _c
177 -13 131 3 96 36 _c
60 68 43 111 43 164 _c
}_e{43 228 65 275 109 305 _c
153 335 222 350 317 350 _c
420 350 _l
420 364 _l
420 391 409 411 387 424 _c
365 437 331 444 285 444 _c
247 444 212 440 180 432 _c
148 424 118 413 91 399 _c
91 532 _l
128 541 165 548 203 553 _c
241 557 279 560 317 560 _c
415 560 486 540 530 501 _c
574 462 596 399 596 312 _c
_cl}_e}_d
/b{{716 0 84 -13 671 760 _sc
375 113 _m
412 113 440 126 460 154 _c
480 181 490 221 490 273 _c
490 325 480 364 460 392 _c
440 419 412 433 375 433 _c
337 433 309 419 289 392 _c
269 364 259 325 259 273 _c
259 221 269 181 289 154 _c
309 126 337 113 375 113 _c
259 467 _m
283 499 309 522 339 537 _c
368 552 402 560 440 560 _c
507 560 562 533 606 479 _c
649 425 671 357 671 273 _c
}_e{671 188 649 119 606 66 _c
562 13 507 -13 440 -13 _c
402 -13 368 -5 339 9 _c
309 23 283 47 259 79 _c
259 0 _l
84 0 _l
84 760 _l
259 760 _l
259 467 _l
_cl}_e}_d
/c{{593 0 43 -13 526 560 _sc
526 530 _m
526 387 _l
502 403 478 415 454 423 _c
430 431 405 435 380 435 _c
331 435 293 420 266 392 _c
238 364 225 324 225 273 _c
225 221 238 181 266 153 _c
293 125 331 111 380 111 _c
407 111 433 115 458 123 _c
482 131 505 143 526 159 _c
526 16 _l
498 6 470 -1 442 -6 _c
414 -10 386 -13 358 -13 _c
259 -13 182 12 126 62 _c
}_e{70 112 43 183 43 273 _c
43 363 70 433 126 484 _c
182 534 259 560 358 560 _c
386 560 414 557 442 552 _c
470 547 498 540 526 530 _c
_cl}_e}_d
/d{{716 0 45 -13 632 760 _sc
456 467 _m
456 760 _l
632 760 _l
632 0 _l
456 0 _l
456 79 _l
432 47 405 23 376 9 _c
347 -5 314 -13 276 -13 _c
208 -13 153 13 110 66 _c
66 119 45 188 45 273 _c
45 357 66 425 110 479 _c
153 533 208 560 276 560 _c
314 560 347 552 376 537 _c
405 522 432 499 456 467 _c
341 113 _m
378 113 406 126 426 154 _c
446 181 456 221 456 273 _c
}_e{456 325 446 364 426 392 _c
406 419 378 433 341 433 _c
303 433 275 419 255 392 _c
235 364 226 325 226 273 _c
226 221 235 181 255 154 _c
275 126 303 113 341 113 _c
_cl}_e}_d
/e{{678 0 43 -13 630 560 _sc
630 275 _m
630 225 _l
221 225 _l
225 184 240 153 266 133 _c
291 112 326 102 372 102 _c
408 102 446 107 485 118 _c
523 129 563 146 604 168 _c
604 33 _l
562 17 521 6 480 -1 _c
438 -9 397 -13 356 -13 _c
257 -13 180 12 125 62 _c
70 112 43 182 43 273 _c
43 362 70 432 124 483 _c
178 534 252 560 346 560 _c
432 560 500 534 552 482 _c
}_e{604 430 630 361 630 275 _c
450 333 _m
450 366 440 393 421 413 _c
401 433 376 444 345 444 _c
311 444 283 434 262 415 _c
241 396 228 369 223 333 _c
450 333 _l
_cl}_e}_d
/f{435 0 19 0 444 760 _sc
444 760 _m
444 645 _l
347 645 _l
322 645 305 640 295 631 _c
285 622 281 607 281 585 _c
281 547 _l
430 547 _l
430 422 _l
281 422 _l
281 0 _l
106 0 _l
106 422 _l
19 422 _l
19 547 _l
106 547 _l
106 585 _l
106 644 122 688 156 717 _c
189 745 240 760 310 760 _c
444 760 _l
_cl}_d
/h{712 0 84 0 634 760 _sc
634 333 _m
634 0 _l
458 0 _l
458 54 _l
458 254 _l
458 302 457 334 455 352 _c
453 370 449 383 444 392 _c
437 403 428 412 416 418 _c
404 424 390 428 376 428 _c
339 428 310 414 290 386 _c
269 358 259 319 259 269 _c
259 0 _l
84 0 _l
84 760 _l
259 760 _l
259 467 _l
285 499 312 522 342 537 _c
372 552 405 560 441 560 _c
504 560 552 540 585 502 _c
617 463 634 407 634 333 _c
_cl}_d
/i{343 0 84 0 259 760 _sc
84 547 _m
259 547 _l
259 0 _l
84 0 _l
84 547 _l
84 760 _m
259 760 _l
259 617 _l
84 617 _l
84 760 _l
_cl}_d
/j{343 0 -32 -215 259 760 _sc
84 547 _m
259 547 _l
259 10 _l
259 -62 241 -118 206 -157 _c
170 -195 119 -215 53 -215 _c
-32 -215 _l
-32 -100 _l
-2 -100 _l
30 -100 53 -92 65 -77 _c
77 -62 84 -33 84 10 _c
84 547 _l
84 760 _m
259 760 _l
259 617 _l
84 617 _l
84 760 _l
_cl}_d
/l{343 0 84 0 259 760 _sc
84 760 _m
259 760 _l
259 0 _l
84 0 _l
84 760 _l
_cl}_d
/m{{1042 0 83 0 963 560 _sc
591 456 _m
613 490 639 515 669 533 _c
699 551 733 560 770 560 _c
832 560 880 540 913 502 _c
946 463 963 407 963 333 _c
963 0 _l
787 0 _l
787 285 _l
787 289 788 294 788 298 _c
788 302 788 309 788 318 _c
788 356 782 384 771 402 _c
759 419 741 428 716 428 _c
682 428 657 414 639 387 _c
621 359 611 320 611 269 _c
611 0 _l
435 0 _l
435 285 _l
}_e{435 345 429 384 419 402 _c
409 419 390 428 364 428 _c
330 428 304 414 286 387 _c
268 359 259 320 259 269 _c
259 0 _l
83 0 _l
83 547 _l
259 547 _l
259 467 _l
280 497 305 520 333 536 _c
361 552 391 560 425 560 _c
462 560 495 550 524 532 _c
553 514 575 488 591 456 _c
_cl}_e}_d
/n{712 0 84 0 634 560 _sc
634 333 _m
634 0 _l
458 0 _l
458 54 _l
458 255 _l
458 302 457 334 455 352 _c
453 370 449 383 444 392 _c
437 403 428 412 416 418 _c
404 424 390 428 376 428 _c
339 428 310 414 290 386 _c
269 358 259 319 259 269 _c
259 0 _l
84 0 _l
84 547 _l
259 547 _l
259 467 _l
285 499 312 522 342 537 _c
372 552 405 560 441 560 _c
504 560 552 540 585 502 _c
617 463 634 407 634 333 _c
_cl}_d
/o{687 0 43 -13 644 560 _sc
344 435 _m
305 435 275 421 255 393 _c
235 365 225 325 225 273 _c
225 220 235 180 255 152 _c
275 124 305 111 344 111 _c
382 111 411 124 431 152 _c
451 180 462 220 462 273 _c
462 325 451 365 431 393 _c
411 421 382 435 344 435 _c
344 560 _m
438 560 511 534 564 484 _c
617 433 644 363 644 273 _c
644 183 617 112 564 62 _c
511 12 438 -13 344 -13 _c
250 -13 176 12 123 62 _c
69 112 43 183 43 273 _c
43 363 69 433 123 484 _c
176 534 250 560 344 560 _c
_cl}_d
/p{{716 0 84 -207 671 560 _sc
259 79 _m
259 -207 _l
84 -207 _l
84 547 _l
259 547 _l
259 467 _l
283 499 309 522 339 537 _c
368 552 402 560 440 560 _c
507 560 562 533 606 479 _c
649 425 671 357 671 273 _c
671 188 649 119 606 66 _c
562 13 507 -13 440 -13 _c
402 -13 368 -5 339 9 _c
309 23 283 47 259 79 _c
375 433 _m
337 433 309 419 289 392 _c
269 364 259 325 259 273 _c
}_e{259 221 269 181 289 154 _c
309 126 337 113 375 113 _c
412 113 440 126 460 154 _c
480 181 490 221 490 273 _c
490 325 480 364 460 392 _c
440 419 412 433 375 433 _c
_cl}_e}_d
/r{493 0 84 0 490 560 _sc
490 398 _m
474 405 459 410 444 414 _c
429 417 414 419 399 419 _c
354 419 319 404 295 376 _c
271 347 259 306 259 252 _c
259 0 _l
84 0 _l
84 547 _l
259 547 _l
259 457 _l
281 493 306 519 336 535 _c
365 551 400 560 441 560 _c
447 560 453 559 460 559 _c
466 559 476 558 490 556 _c
490 398 _l
_cl}_d
/s{{595 0 52 -13 548 560 _sc
511 530 _m
511 397 _l
473 412 437 424 403 432 _c
368 440 335 444 304 444 _c
270 444 246 439 230 431 _c
214 423 206 410 206 393 _c
206 379 212 368 224 361 _c
236 353 258 348 290 344 _c
321 340 _l
410 328 470 310 501 284 _c
532 258 548 217 548 161 _c
548 103 526 59 483 30 _c
440 1 376 -13 291 -13 _c
255 -13 217 -10 179 -5 _c
}_e{140 0 100 8 60 20 _c
60 153 _l
94 135 130 122 167 114 _c
203 106 241 102 279 102 _c
313 102 338 106 356 116 _c
373 125 382 139 382 158 _c
382 174 376 185 364 193 _c
352 201 328 207 293 211 _c
262 215 _l
184 224 130 242 99 269 _c
67 295 52 335 52 389 _c
52 447 71 490 111 518 _c
151 546 212 560 294 560 _c
326 560 359 557 395 552 _c
431 547 469 540 511 530 _c
}_e{_cl}_e}_d
/t{478 0 13 0 455 702 _sc
275 702 _m
275 547 _l
455 547 _l
455 422 _l
275 422 _l
275 190 _l
275 164 280 147 290 138 _c
300 129 320 125 350 125 _c
440 125 _l
440 0 _l
290 0 _l
221 0 172 14 143 43 _c
114 71 100 120 100 190 _c
100 422 _l
13 422 _l
13 547 _l
100 547 _l
100 702 _l
275 702 _l
_cl}_d
/u{{712 0 78 -13 628 547 _sc
78 213 _m
78 547 _l
254 547 _l
254 492 _l
254 462 253 425 253 380 _c
253 335 253 305 253 291 _c
253 247 254 215 256 196 _c
258 176 262 162 268 154 _c
275 142 284 133 296 127 _c
307 121 320 118 336 118 _c
372 118 401 132 422 160 _c
442 188 453 227 453 277 _c
453 547 _l
628 547 _l
628 0 _l
453 0 _l
453 79 _l
427 47 399 23 369 9 _c
}_e{339 -5 307 -13 272 -13 _c
208 -13 160 6 127 44 _c
94 82 78 139 78 213 _c
_cl}_e}_d
/v{652 0 15 0 637 547 _sc
15 547 _m
190 547 _l
326 169 _l
462 547 _l
637 547 _l
422 0 _l
230 0 _l
15 547 _l
_cl}_d
/x{645 0 15 0 630 547 _sc
222 280 _m
25 547 _l
210 547 _l
322 385 _l
435 547 _l
620 547 _l
423 281 _l
630 0 _l
445 0 _l
322 173 _l
200 0 _l
15 0 _l
222 280 _l
_cl}_d
end readonly def

/BuildGlyph
 {exch begin
 CharStrings exch
 2 copy known not{pop /.notdef}if
 true 3 1 roll get exec
 end}_d

/BuildChar {
 1 index /Encoding get exch get
 1 index /BuildGlyph get exec
}_d

FontName currentdict end definefont pop
end
%%EndProlog
mpldict begin
18 108 translate
576 576 0 0 clipbox
gsave
0 0 m
576 0 l
576 576 l
0 576 l
cl
1.000 setgray
fill
grestore
gsave
55.15 71.115006 m
554.04 71.115006 l
554.04 518.4 l
55.15 518.4 l
cl
1.000 setgray
fill
grestore
0.800 setlinewidth
1 setlinejoin
2 setlinecap
[] 0 setdash
0.690 setgray
gsave
498.9 447.3 55.15 71.12 clipbox
77.826818 71.115006 m
77.826818 518.4 l
stroke
grestore
0 setlinecap
0.000 setgray
gsave
/o {
gsave
newpath
translate
0.8 setlinewidth
1 setlinejoin
0 setlinecap
0 0 m
0 -3.5 l

gsave
0.000 setgray
fill
grestore
stroke
grestore
} bind def
77.8268 71.115 o
grestore
/DejaVuSans findfont
18.000 scalefont
setfont
gsave
77.285440 46.348949 translate
45.000000 rotate
0.000000 0.000000 m /one glyphshow
grestore
2 setlinecap
0.690 setgray
gsave
498.9 447.3 55.15 71.12 clipbox
123.180455 71.115006 m
123.180455 518.4 l
stroke
grestore
0 setlinecap
0.000 setgray
gsave
/o {
gsave
newpath
translate
0.8 setlinewidth
1 setlinejoin
0 setlinecap
0 0 m
0 -3.5 l

gsave
0.000 setgray
fill
grestore
stroke
grestore
} bind def
123.18 71.115 o
grestore
gsave
122.639076 46.348949 translate
45.000000 rotate
0.000000 0.000000 m /two glyphshow
grestore
2 setlinecap
0.690 setgray
gsave
498.9 447.3 55.15 71.12 clipbox
168.534091 71.115006 m
168.534091 518.4 l
stroke
grestore
0 setlinecap
0.000 setgray
gsave
/o {
gsave
newpath
translate
0.8 setlinewidth
1 setlinejoin
0 setlinecap
0 0 m
0 -3.5 l

gsave
0.000 setgray
fill
grestore
stroke
grestore
} bind def
168.534 71.115 o
grestore
gsave
167.992712 46.348949 translate
45.000000 rotate
0.000000 0.000000 m /four glyphshow
grestore
2 setlinecap
0.690 setgray
gsave
498.9 447.3 55.15 71.12 clipbox
213.887727 71.115006 m
213.887727 518.4 l
stroke
grestore
0 setlinecap
0.000 setgray
gsave
/o {
gsave
newpath
translate
0.8 setlinewidth
1 setlinejoin
0 setlinecap
0 0 m
0 -3.5 l

gsave
0.000 setgray
fill
grestore
stroke
grestore
} bind def
213.888 71.115 o
grestore
gsave
213.346349 46.348949 translate
45.000000 rotate
0.000000 0.000000 m /eight glyphshow
grestore
2 setlinecap
0.690 setgray
gsave
498.9 447.3 55.15 71.12 clipbox
259.241364 71.115006 m
259.241364 518.4 l
stroke
grestore
0 setlinecap
0.000 setgray
gsave
/o {
gsave
newpath
translate
0.8 setlinewidth
1 setlinejoin
0 setlinecap
0 0 m
0 -3.5 l

gsave
0.000 setgray
fill
grestore
stroke
grestore
} bind def
259.241 71.115 o
grestore
gsave
254.650694 38.250366 translate
45.000000 rotate
0.000000 0.000000 m /one glyphshow
11.452148 0.000000 m /six glyphshow
grestore
2 setlinecap
0.690 setgray
gsave
498.9 447.3 55.15 71.12 clipbox
304.595 71.115006 m
304.595 518.4 l
stroke
grestore
0 setlinecap
0.000 setgray
gsave
/o {
gsave
newpath
translate
0.8 setlinewidth
1 setlinejoin
0 setlinecap
0 0 m
0 -3.5 l

gsave
0.000 setgray
fill
grestore
stroke
grestore
} bind def
304.595 71.115 o
grestore
gsave
300.004330 38.250366 translate
45.000000 rotate
0.000000 0.000000 m /three glyphshow
11.452148 0.000000 m /two glyphshow
grestore
2 setlinecap
0.690 setgray
gsave
498.9 447.3 55.15 71.12 clipbox
349.948636 71.115006 m
349.948636 518.4 l
stroke
grestore
0 setlinecap
0.000 setgray
gsave
/o {
gsave
newpath
translate
0.8 setlinewidth
1 setlinejoin
0 setlinecap
0 0 m
0 -3.5 l

gsave
0.000 setgray
fill
grestore
stroke
grestore
} bind def
349.949 71.115 o
grestore
gsave
345.357967 38.250366 translate
45.000000 rotate
0.000000 0.000000 m /six glyphshow
11.452148 0.000000 m /four glyphshow
grestore
2 setlinecap
0.690 setgray
gsave
498.9 447.3 55.15 71.12 clipbox
395.302273 71.115006 m
395.302273 518.4 l
stroke
grestore
0 setlinecap
0.000 setgray
gsave
/o {
gsave
newpath
translate
0.8 setlinewidth
1 setlinejoin
0 setlinecap
0 0 m
0 -3.5 l

gsave
0.000 setgray
fill
grestore
stroke
grestore
} bind def
395.302 71.115 o
grestore
gsave
386.662312 30.151784 translate
45.000000 rotate
0.000000 0.000000 m /one glyphshow
11.452148 0.000000 m /two glyphshow
22.904297 0.000000 m /eight glyphshow
grestore
2 setlinecap
0.690 setgray
gsave
498.9 447.3 55.15 71.12 clipbox
440.655909 71.115006 m
440.655909 518.4 l
stroke
grestore
0 setlinecap
0.000 setgray
gsave
/o {
gsave
newpath
translate
0.8 setlinewidth
1 setlinejoin
0 setlinecap
0 0 m
0 -3.5 l

gsave
0.000 setgray
fill
grestore
stroke
grestore
} bind def
440.656 71.115 o
grestore
gsave
432.015948 30.151784 translate
45.000000 rotate
0.000000 0.000000 m /two glyphshow
11.452148 0.000000 m /five glyphshow
22.904297 0.000000 m /six glyphshow
grestore
2 setlinecap
0.690 setgray
gsave
498.9 447.3 55.15 71.12 clipbox
486.009545 71.115006 m
486.009545 518.4 l
stroke
grestore
0 setlinecap
0.000 setgray
gsave
/o {
gsave
newpath
translate
0.8 setlinewidth
1 setlinejoin
0 setlinecap
0 0 m
0 -3.5 l

gsave
0.000 setgray
fill
grestore
stroke
grestore
} bind def
486.01 71.115 o
grestore
gsave
477.369584 30.151784 translate
45.000000 rotate
0.000000 0.000000 m /five glyphshow
11.452148 0.000000 m /one glyphshow
22.904297 0.000000 m /two glyphshow
grestore
2 setlinecap
0.690 setgray
gsave
498.9 447.3 55.15 71.12 clipbox
531.363182 71.115006 m
531.363182 518.4 l
stroke
grestore
0 setlinecap
0.000 setgray
gsave
/o {
gsave
newpath
translate
0.8 setlinewidth
1 setlinejoin
0 setlinecap
0 0 m
0 -3.5 l

gsave
0.000 setgray
fill
grestore
stroke
grestore
} bind def
531.363 71.115 o
grestore
gsave
518.673930 22.053201 translate
45.000000 rotate
0.000000 0.000000 m /one glyphshow
11.452148 0.000000 m /zero glyphshow
22.904297 0.000000 m /two glyphshow
34.356445 0.000000 m /four glyphshow
grestore
/DejaVuSans-Bold findfont
18.000 scalefont
setfont
gsave
191.118438 1.729676 translate
0.000000 rotate
0.000000 0.000000 m /N glyphshow
15.064453 0.000000 m /u glyphshow
27.878906 0.000000 m /m glyphshow
46.634766 0.000000 m /b glyphshow
59.519531 0.000000 m /e glyphshow
71.727539 0.000000 m /r glyphshow
80.604492 0.000000 m /space glyphshow
86.871094 0.000000 m /o glyphshow
99.237305 0.000000 m /f glyphshow
107.068359 0.000000 m /space glyphshow
113.334961 0.000000 m /P glyphshow
126.527344 0.000000 m /r glyphshow
135.404297 0.000000 m /o glyphshow
147.770508 0.000000 m /c glyphshow
158.440430 0.000000 m /s glyphshow
169.154297 0.000000 m /space glyphshow
175.420898 0.000000 m /hyphen glyphshow
182.891602 0.000000 m /space glyphshow
189.158203 0.000000 m /M glyphshow
207.070312 0.000000 m /P glyphshow
220.262695 0.000000 m /I glyphshow
grestore
2 setlinecap
0.690 setgray
gsave
498.9 447.3 55.15 71.12 clipbox
55.15 100.171238 m
554.04 100.171238 l
stroke
grestore
0 setlinecap
0.000 setgray
gsave
/o {
gsave
newpath
translate
0.8 setlinewidth
1 setlinejoin
0 setlinecap
0 0 m
-3.5 0 l

gsave
0.000 setgray
fill
grestore
stroke
grestore
} bind def
55.15 100.171 o
grestore
/DejaVuSans findfont
18.000 scalefont
setfont
gsave
19.525000 93.335300 translate
0.000000 rotate
0.000000 0.000000 m /zero glyphshow
11.452148 0.000000 m /period glyphshow
17.173828 0.000000 m /one glyphshow
grestore
2 setlinecap
0.690 setgray
gsave
498.9 447.3 55.15 71.12 clipbox
55.15 144.382085 m
554.04 144.382085 l
stroke
grestore
0 setlinecap
0.000 setgray
gsave
/o {
gsave
newpath
translate
0.8 setlinewidth
1 setlinejoin
0 setlinecap
0 0 m
-3.5 0 l

gsave
0.000 setgray
fill
grestore
stroke
grestore
} bind def
55.15 144.382 o
grestore
gsave
19.525000 137.546148 translate
0.000000 rotate
0.000000 0.000000 m /zero glyphshow
11.452148 0.000000 m /period glyphshow
17.173828 0.000000 m /two glyphshow
grestore
2 setlinecap
0.690 setgray
gsave
498.9 447.3 55.15 71.12 clipbox
55.15 188.592933 m
554.04 188.592933 l
stroke
grestore
0 setlinecap
0.000 setgray
gsave
/o {
gsave
newpath
translate
0.8 setlinewidth
1 setlinejoin
0 setlinecap
0 0 m
-3.5 0 l

gsave
0.000 setgray
fill
grestore
stroke
grestore
} bind def
55.15 188.593 o
grestore
gsave
19.525000 181.756995 translate
0.000000 rotate
0.000000 0.000000 m /zero glyphshow
11.452148 0.000000 m /period glyphshow
17.173828 0.000000 m /three glyphshow
grestore
2 setlinecap
0.690 setgray
gsave
498.9 447.3 55.15 71.12 clipbox
55.15 232.80378 m
554.04 232.80378 l
stroke
grestore
0 setlinecap
0.000 setgray
gsave
/o {
gsave
newpath
translate
0.8 setlinewidth
1 setlinejoin
0 setlinecap
0 0 m
-3.5 0 l

gsave
0.000 setgray
fill
grestore
stroke
grestore
} bind def
55.15 232.804 o
grestore
gsave
19.525000 225.967842 translate
0.000000 rotate
0.000000 0.000000 m /zero glyphshow
11.452148 0.000000 m /period glyphshow
17.173828 0.000000 m /four glyphshow
grestore
2 setlinecap
0.690 setgray
gsave
498.9 447.3 55.15 71.12 clipbox
55.15 277.014627 m
554.04 277.014627 l
stroke
grestore
0 setlinecap
0.000 setgray
gsave
/o {
gsave
newpath
translate
0.8 setlinewidth
1 setlinejoin
0 setlinecap
0 0 m
-3.5 0 l

gsave
0.000 setgray
fill
grestore
stroke
grestore
} bind def
55.15 277.015 o
grestore
gsave
19.525000 270.178690 translate
0.000000 rotate
0.000000 0.000000 m /zero glyphshow
11.452148 0.000000 m /period glyphshow
17.173828 0.000000 m /five glyphshow
grestore
2 setlinecap
0.690 setgray
gsave
498.9 447.3 55.15 71.12 clipbox
55.15 321.225475 m
554.04 321.225475 l
stroke
grestore
0 setlinecap
0.000 setgray
gsave
/o {
gsave
newpath
translate
0.8 setlinewidth
1 setlinejoin
0 setlinecap
0 0 m
-3.5 0 l

gsave
0.000 setgray
fill
grestore
stroke
grestore
} bind def
55.15 321.225 o
grestore
gsave
19.525000 314.389537 translate
0.000000 rotate
0.000000 0.000000 m /zero glyphshow
11.452148 0.000000 m /period glyphshow
17.173828 0.000000 m /six glyphshow
grestore
2 setlinecap
0.690 setgray
gsave
498.9 447.3 55.15 71.12 clipbox
55.15 365.436322 m
554.04 365.436322 l
stroke
grestore
0 setlinecap
0.000 setgray
gsave
/o {
gsave
newpath
translate
0.8 setlinewidth
1 setlinejoin
0 setlinecap
0 0 m
-3.5 0 l

gsave
0.000 setgray
fill
grestore
stroke
grestore
} bind def
55.15 365.436 o
grestore
gsave
19.525000 358.600384 translate
0.000000 rotate
0.000000 0.000000 m /zero glyphshow
11.452148 0.000000 m /period glyphshow
17.173828 0.000000 m /seven glyphshow
grestore
2 setlinecap
0.690 setgray
gsave
498.9 447.3 55.15 71.12 clipbox
55.15 409.647169 m
554.04 409.647169 l
stroke
grestore
0 setlinecap
0.000 setgray
gsave
/o {
gsave
newpath
translate
0.8 setlinewidth
1 setlinejoin
0 setlinecap
0 0 m
-3.5 0 l

gsave
0.000 setgray
fill
grestore
stroke
grestore
} bind def
55.15 409.647 o
grestore
gsave
19.525000 402.811232 translate
0.000000 rotate
0.000000 0.000000 m /zero glyphshow
11.452148 0.000000 m /period glyphshow
17.173828 0.000000 m /eight glyphshow
grestore
2 setlinecap
0.690 setgray
gsave
498.9 447.3 55.15 71.12 clipbox
55.15 453.858017 m
554.04 453.858017 l
stroke
grestore
0 setlinecap
0.000 setgray
gsave
/o {
gsave
newpath
translate
0.8 setlinewidth
1 setlinejoin
0 setlinecap
0 0 m
-3.5 0 l

gsave
0.000 setgray
fill
grestore
stroke
grestore
} bind def
55.15 453.858 o
grestore
gsave
19.525000 447.022079 translate
0.000000 rotate
0.000000 0.000000 m /zero glyphshow
11.452148 0.000000 m /period glyphshow
17.173828 0.000000 m /nine glyphshow
grestore
2 setlinecap
0.690 setgray
gsave
498.9 447.3 55.15 71.12 clipbox
55.15 498.068864 m
554.04 498.068864 l
stroke
grestore
0 setlinecap
0.000 setgray
gsave
/o {
gsave
newpath
translate
0.8 setlinewidth
1 setlinejoin
0 setlinecap
0 0 m
-3.5 0 l

gsave
0.000 setgray
fill
grestore
stroke
grestore
} bind def
55.15 498.069 o
grestore
gsave
36.696875 491.232926 translate
0.000000 rotate
0.000000 0.000000 m /one glyphshow
grestore
0.122 0.467 0.706 setrgbcolor
/DejaVuSans-Bold findfont
18.000 scalefont
setfont
gsave
11.775000 250.327816 translate
90.000000 rotate
0.000000 0.000000 m /S glyphshow
12.963867 0.000000 m /p glyphshow
25.848633 0.000000 m /e glyphshow
38.056641 0.000000 m /e glyphshow
50.264648 0.000000 m /d glyphshow
63.149414 0.000000 m /u glyphshow
75.963867 0.000000 m /p glyphshow
grestore
2.000 setlinewidth
2 setlinecap
0.750 0.750 0.000 setrgbcolor
gsave
498.9 447.3 55.15 71.12 clipbox
77.826818 498.068864 m
123.180455 472.119415 l
168.534091 425.847551 l
213.887727 387.340204 l
259.241364 330.282332 l
304.595 270.308862 l
349.948636 220.251697 l
395.302273 184.96959 l
440.655909 148.957139 l
486.009545 122.168793 l
531.363182 98.134166 l
stroke
grestore
1.000 setlinewidth
0 setlinejoin
0 setlinecap
gsave
498.9 447.3 55.15 71.12 clipbox
/o {
gsave
newpath
translate
1.0 setlinewidth
0 setlinejoin
0 setlinecap
-7 -7 m
7 -7 l
7 7 l
-7 7 l
cl

gsave
0.750 0.750 0.000 setrgbcolor
fill
grestore
stroke
grestore
} bind def
77.8268 498.069 o
123.18 472.119 o
168.534 425.848 o
213.888 387.34 o
259.241 330.282 o
304.595 270.309 o
349.949 220.252 o
395.302 184.97 o
440.656 148.957 o
486.01 122.169 o
531.363 98.1342 o
grestore
2.000 setlinewidth
1 setlinejoin
2 setlinecap
0.000 0.750 0.750 setrgbcolor
gsave
498.9 447.3 55.15 71.12 clipbox
77.826818 498.068864 m
123.180455 465.121321 l
168.534091 422.77082 l
213.887727 382.996445 l
259.241364 324.926859 l
304.595 264.933783 l
349.948636 214.047656 l
395.302273 181.274829 l
440.655909 148.306003 l
486.009545 121.092337 l
531.363182 97.488906 l
stroke
grestore
1.000 setlinewidth
0 setlinecap
gsave
498.9 447.3 55.15 71.12 clipbox
/o {
gsave
newpath
translate
1.0 setlinewidth
1 setlinejoin
0 setlinecap
0 -3.5 m
0.928211 -3.5 1.81853 -3.131218 2.474874 -2.474874 c
3.131218 -1.81853 3.5 -0.928211 3.5 0 c
3.5 0.928211 3.131218 1.81853 2.474874 2.474874 c
1.81853 3.131218 0.928211 3.5 0 3.5 c
-0.928211 3.5 -1.81853 3.131218 -2.474874 2.474874 c
-3.131218 1.81853 -3.5 0.928211 -3.5 0 c
-3.5 -0.928211 -3.131218 -1.81853 -2.474874 -2.474874 c
-1.81853 -3.131218 -0.928211 -3.5 0 -3.5 c
cl

gsave
0.000 0.750 0.750 setrgbcolor
fill
grestore
stroke
grestore
} bind def
77.8268 498.069 o
123.18 465.121 o
168.534 422.771 o
213.888 382.996 o
259.241 324.927 o
304.595 264.934 o
349.949 214.048 o
395.302 181.275 o
440.656 148.306 o
486.01 121.092 o
531.363 97.4889 o
grestore
2.000 setlinewidth
2 setlinecap
0.000 0.000 1.000 setrgbcolor
gsave
498.9 447.3 55.15 71.12 clipbox
77.826818 498.068864 m
123.180455 459.049746 l
168.534091 423.956394 l
213.887727 387.247989 l
259.241364 325.684927 l
304.595 266.638087 l
349.948636 215.982921 l
395.302273 181.3904 l
440.655909 146.231365 l
486.009545 119.695931 l
531.363182 96.347154 l
stroke
grestore
1.000 setlinewidth
0 setlinecap
gsave
498.9 447.3 55.15 71.12 clipbox
/o {
gsave
newpath
translate
1.0 setlinewidth
1 setlinejoin
0 setlinecap
-7 -7 m
7 7 l
-7 7 m
7 -7 l

gsave
0.000 0.000 1.000 setrgbcolor
fill
grestore
stroke
grestore
} bind def
77.8268 498.069 o
123.18 459.05 o
168.534 423.956 o
213.888 387.248 o
259.241 325.685 o
304.595 266.638 o
349.949 215.983 o
395.302 181.39 o
440.656 146.231 o
486.01 119.696 o
531.363 96.3472 o
grestore
2.000 setlinewidth
2 setlinecap
0.000 0.500 0.000 setrgbcolor
gsave
498.9 447.3 55.15 71.12 clipbox
77.826818 498.068864 m
123.180455 463.703872 l
168.534091 421.505889 l
213.887727 382.834484 l
259.241364 319.694667 l
304.595 261.228515 l
349.948636 210.242737 l
395.302273 175.106056 l
440.655909 139.497398 l
486.009545 113.399303 l
531.363182 91.446143 l
stroke
grestore
1.000 setlinewidth
0 setlinecap
gsave
498.9 447.3 55.15 71.12 clipbox
/o {
gsave
newpath
translate
1.0 setlinewidth
1 setlinejoin
0 setlinecap
0 -7 m
1.856422 -7 3.637059 -6.262436 4.949747 -4.949747 c
6.262436 -3.637059 7 -1.856422 7 0 c
7 1.856422 6.262436 3.637059 4.949747 4.949747 c
3.637059 6.262436 1.856422 7 0 7 c
-1.856422 7 -3.637059 6.262436 -4.949747 4.949747 c
-6.262436 3.637059 -7 1.856422 -7 0 c
-7 -1.856422 -6.262436 -3.637059 -4.949747 -4.949747 c
-3.637059 -6.262436 -1.856422 -7 0 -7 c
cl

gsave
0.000 0.500 0.000 setrgbcolor
fill
grestore
stroke
grestore
} bind def
77.8268 498.069 o
123.18 463.704 o
168.534 421.506 o
213.888 382.834 o
259.241 319.695 o
304.595 261.229 o
349.949 210.243 o
395.302 175.106 o
440.656 139.497 o
486.01 113.399 o
531.363 91.4461 o
grestore
1.200 setlinewidth
2 setlinecap
0.000 0.000 0.545 setrgbcolor
gsave
498.9 447.3 55.15 71.12 clipbox
55.15 100.171238 m
554.04 100.171238 l
stroke
grestore
gsave
498.9 447.3 55.15 71.12 clipbox
55.15 144.382085 m
554.04 144.382085 l
stroke
grestore
gsave
498.9 447.3 55.15 71.12 clipbox
55.15 188.592933 m
554.04 188.592933 l
stroke
grestore
gsave
498.9 447.3 55.15 71.12 clipbox
55.15 232.80378 m
554.04 232.80378 l
stroke
grestore
gsave
498.9 447.3 55.15 71.12 clipbox
55.15 277.014627 m
554.04 277.014627 l
stroke
grestore
gsave
498.9 447.3 55.15 71.12 clipbox
55.15 321.225475 m
554.04 321.225475 l
stroke
grestore
gsave
498.9 447.3 55.15 71.12 clipbox
55.15 365.436322 m
554.04 365.436322 l
stroke
grestore
gsave
498.9 447.3 55.15 71.12 clipbox
55.15 409.647169 m
554.04 409.647169 l
stroke
grestore
gsave
498.9 447.3 55.15 71.12 clipbox
55.15 453.858017 m
554.04 453.858017 l
stroke
grestore
gsave
498.9 447.3 55.15 71.12 clipbox
55.15 498.068864 m
554.04 498.068864 l
stroke
grestore
2.000 setlinewidth
0 setlinejoin
[] 0 setdash
0.000 setgray
gsave
55.15 71.115006 m
55.15 518.4 l
stroke
grestore
gsave
554.04 71.115006 m
554.04 518.4 l
stroke
grestore
gsave
55.15 71.115006 m
554.04 71.115006 l
stroke
grestore
gsave
55.15 518.4 m
554.04 518.4 l
stroke
grestore
/DejaVuSans findfont
16.000 scalefont
setfont
gsave
157.304700 528.943750 translate
0.000000 rotate
0.000000 0.000000 m /O glyphshow
12.593750 0.000000 m /v glyphshow
22.062500 0.000000 m /e glyphshow
31.906250 0.000000 m /r glyphshow
38.484375 0.000000 m /l glyphshow
42.929688 0.000000 m /a glyphshow
52.734375 0.000000 m /p glyphshow
62.890625 0.000000 m /p glyphshow
73.046875 0.000000 m /i glyphshow
77.492188 0.000000 m /n glyphshow
87.632812 0.000000 m /g glyphshow
97.789062 0.000000 m /space glyphshow
102.875000 0.000000 m /A glyphshow
113.820312 0.000000 m /l glyphshow
118.265625 0.000000 m /g glyphshow
128.421875 0.000000 m /o glyphshow
138.210938 0.000000 m /r glyphshow
144.789062 0.000000 m /i glyphshow
149.234375 0.000000 m /t glyphshow
155.507812 0.000000 m /h glyphshow
165.648438 0.000000 m /m glyphshow
181.234375 0.000000 m /space glyphshow
186.320312 0.000000 m /hyphen glyphshow
192.093750 0.000000 m /space glyphshow
197.179688 0.000000 m /E glyphshow
207.289062 0.000000 m /f glyphshow
212.921875 0.000000 m /f glyphshow
218.554688 0.000000 m /i glyphshow
223.000000 0.000000 m /c glyphshow
231.796875 0.000000 m /i glyphshow
236.242188 0.000000 m /e glyphshow
246.085938 0.000000 m /n glyphshow
256.226562 0.000000 m /c glyphshow
265.023438 0.000000 m /y glyphshow
grestore
gsave
294.617200 511.028125 translate
0.000000 rotate

grestore
1.000 setlinewidth
0 setlinecap
0.800 setgray
gsave
243.3393 397.633052 m
543.90805 397.633052 l
546.30805 397.633052 547.50805 398.833052 547.50805 401.233052 c
547.50805 505.120552 l
547.50805 507.520552 546.30805 508.720552 543.90805 508.720552 c
243.3393 508.720552 l
240.9393 508.720552 239.7393 507.520552 239.7393 505.120552 c
239.7393 401.233052 l
239.7393 398.833052 240.9393 397.633052 243.3393 397.633052 c
cl
gsave
1.000 setgray
fill
grestore
stroke
grestore
2.000 setlinewidth
1 setlinejoin
2 setlinecap
[] 0 setdash
0.750 0.750 0.000 setrgbcolor
gsave
246.9393 494.148677 m
282.9393 494.148677 l
stroke
grestore
1.000 setlinewidth
0 setlinejoin
0 setlinecap
gsave
/o {
gsave
newpath
translate
1.0 setlinewidth
0 setlinejoin
0 setlinecap
-7 -7 m
7 -7 l
7 7 l
-7 7 l
cl

gsave
0.750 0.750 0.000 setrgbcolor
fill
grestore
stroke
grestore
} bind def
264.939 494.149 o
grestore
0.000 setgray
/DejaVuSans findfont
18.000 scalefont
setfont
gsave
297.339300 487.848677 translate
0.000000 rotate
0.000000 0.000000 m /E glyphshow
11.373047 0.000000 m /f glyphshow
17.709961 0.000000 m /f glyphshow
24.046875 0.000000 m /i glyphshow
29.047852 0.000000 m /c glyphshow
38.944336 0.000000 m /i glyphshow
43.945312 0.000000 m /e glyphshow
55.019531 0.000000 m /n glyphshow
66.427734 0.000000 m /c glyphshow
76.324219 0.000000 m /y glyphshow
86.976562 0.000000 m /space glyphshow
92.698242 0.000000 m /P glyphshow
103.552734 0.000000 m /one glyphshow
115.004883 0.000000 m /space glyphshow
120.726562 0.000000 m /hyphen glyphshow
127.221680 0.000000 m /space glyphshow
132.943359 0.000000 m /O glyphshow
147.111328 0.000000 m /v glyphshow
157.763672 0.000000 m /e glyphshow
168.837891 0.000000 m /r glyphshow
176.238281 0.000000 m /l glyphshow
181.239258 0.000000 m /a glyphshow
192.269531 0.000000 m /p glyphshow
203.695312 0.000000 m /p glyphshow
215.121094 0.000000 m /i glyphshow
220.122070 0.000000 m /n glyphshow
231.530273 0.000000 m /g glyphshow
grestore
2.000 setlinewidth
1 setlinejoin
2 setlinecap
0.000 0.750 0.750 setrgbcolor
gsave
246.9393 467.726802 m
282.9393 467.726802 l
stroke
grestore
1.000 setlinewidth
0 setlinecap
gsave
/o {
gsave
newpath
translate
1.0 setlinewidth
1 setlinejoin
0 setlinecap
0 -3.5 m
0.928211 -3.5 1.81853 -3.131218 2.474874 -2.474874 c
3.131218 -1.81853 3.5 -0.928211 3.5 0 c
3.5 0.928211 3.131218 1.81853 2.474874 2.474874 c
1.81853 3.131218 0.928211 3.5 0 3.5 c
-0.928211 3.5 -1.81853 3.131218 -2.474874 2.474874 c
-3.131218 1.81853 -3.5 0.928211 -3.5 0 c
-3.5 -0.928211 -3.131218 -1.81853 -2.474874 -2.474874 c
-1.81853 -3.131218 -0.928211 -3.5 0 -3.5 c
cl

gsave
0.000 0.750 0.750 setrgbcolor
fill
grestore
stroke
grestore
} bind def
264.939 467.727 o
grestore
0.000 setgray
gsave
297.339300 461.426802 translate
0.000000 rotate
0.000000 0.000000 m /E glyphshow
11.373047 0.000000 m /f glyphshow
17.709961 0.000000 m /f glyphshow
24.046875 0.000000 m /i glyphshow
29.047852 0.000000 m /c glyphshow
38.944336 0.000000 m /i glyphshow
43.945312 0.000000 m /e glyphshow
55.019531 0.000000 m /n glyphshow
66.427734 0.000000 m /c glyphshow
76.324219 0.000000 m /y glyphshow
86.976562 0.000000 m /space glyphshow
92.698242 0.000000 m /P glyphshow
103.552734 0.000000 m /three glyphshow
115.004883 0.000000 m /space glyphshow
120.726562 0.000000 m /hyphen glyphshow
127.221680 0.000000 m /space glyphshow
132.943359 0.000000 m /O glyphshow
147.111328 0.000000 m /v glyphshow
157.763672 0.000000 m /e glyphshow
168.837891 0.000000 m /r glyphshow
176.238281 0.000000 m /l glyphshow
181.239258 0.000000 m /a glyphshow
192.269531 0.000000 m /p glyphshow
203.695312 0.000000 m /p glyphshow
215.121094 0.000000 m /i glyphshow
220.122070 0.000000 m /n glyphshow
231.530273 0.000000 m /g glyphshow
grestore
2.000 setlinewidth
2 setlinecap
0.000 0.000 1.000 setrgbcolor
gsave
246.9393 441.304927 m
282.9393 441.304927 l
stroke
grestore
1.000 setlinewidth
0 setlinecap
gsave
/o {
gsave
newpath
translate
1.0 setlinewidth
1 setlinejoin
0 setlinecap
-7 -7 m
7 7 l
-7 7 m
7 -7 l

gsave
0.000 0.000 1.000 setrgbcolor
fill
grestore
stroke
grestore
} bind def
264.939 441.305 o
grestore
0.000 setgray
gsave
297.339300 435.004927 translate
0.000000 rotate
0.000000 0.000000 m /E glyphshow
11.373047 0.000000 m /f glyphshow
17.709961 0.000000 m /f glyphshow
24.046875 0.000000 m /i glyphshow
29.047852 0.000000 m /c glyphshow
38.944336 0.000000 m /i glyphshow
43.945312 0.000000 m /e glyphshow
55.019531 0.000000 m /n glyphshow
66.427734 0.000000 m /c glyphshow
76.324219 0.000000 m /y glyphshow
86.976562 0.000000 m /space glyphshow
92.698242 0.000000 m /P glyphshow
103.552734 0.000000 m /six glyphshow
115.004883 0.000000 m /space glyphshow
120.726562 0.000000 m /hyphen glyphshow
127.221680 0.000000 m /space glyphshow
132.943359 0.000000 m /O glyphshow
147.111328 0.000000 m /v glyphshow
157.763672 0.000000 m /e glyphshow
168.837891 0.000000 m /r glyphshow
176.238281 0.000000 m /l glyphshow
181.239258 0.000000 m /a glyphshow
192.269531 0.000000 m /p glyphshow
203.695312 0.000000 m /p glyphshow
215.121094 0.000000 m /i glyphshow
220.122070 0.000000 m /n glyphshow
231.530273 0.000000 m /g glyphshow
grestore
2.000 setlinewidth
2 setlinecap
0.000 0.500 0.000 setrgbcolor
gsave
246.9393 414.883052 m
282.9393 414.883052 l
stroke
grestore
1.000 setlinewidth
0 setlinecap
gsave
/o {
gsave
newpath
translate
1.0 setlinewidth
1 setlinejoin
0 setlinecap
0 -7 m
1.856422 -7 3.637059 -6.262436 4.949747 -4.949747 c
6.262436 -3.637059 7 -1.856422 7 0 c
7 1.856422 6.262436 3.637059 4.949747 4.949747 c
3.637059 6.262436 1.856422 7 0 7 c
-1.856422 7 -3.637059 6.262436 -4.949747 4.949747 c
-6.262436 3.637059 -7 1.856422 -7 0 c
-7 -1.856422 -6.262436 -3.637059 -4.949747 -4.949747 c
-3.637059 -6.262436 -1.856422 -7 0 -7 c
cl

gsave
0.000 0.500 0.000 setrgbcolor
fill
grestore
stroke
grestore
} bind def
264.939 414.883 o
grestore
0.000 setgray
gsave
297.339300 408.583052 translate
0.000000 rotate
0.000000 0.000000 m /E glyphshow
11.373047 0.000000 m /f glyphshow
17.709961 0.000000 m /f glyphshow
24.046875 0.000000 m /i glyphshow
29.047852 0.000000 m /c glyphshow
38.944336 0.000000 m /i glyphshow
43.945312 0.000000 m /e glyphshow
55.019531 0.000000 m /n glyphshow
66.427734 0.000000 m /c glyphshow
76.324219 0.000000 m /y glyphshow
86.976562 0.000000 m /space glyphshow
92.698242 0.000000 m /P glyphshow
103.552734 0.000000 m /nine glyphshow
115.004883 0.000000 m /space glyphshow
120.726562 0.000000 m /hyphen glyphshow
127.221680 0.000000 m /space glyphshow
132.943359 0.000000 m /O glyphshow
147.111328 0.000000 m /v glyphshow
157.763672 0.000000 m /e glyphshow
168.837891 0.000000 m /r glyphshow
176.238281 0.000000 m /l glyphshow
181.239258 0.000000 m /a glyphshow
192.269531 0.000000 m /p glyphshow
203.695312 0.000000 m /p glyphshow
215.121094 0.000000 m /i glyphshow
220.122070 0.000000 m /n glyphshow
231.530273 0.000000 m /g glyphshow
grestore
/DejaVuSans-Bold findfont
20.000 scalefont
setfont
gsave
67.648438 553.274688 translate
0.000000 rotate
0.000000 0.000000 m /P glyphshow
14.658203 0.000000 m /r glyphshow
24.521484 0.000000 m /o glyphshow
38.261719 0.000000 m /j glyphshow
45.117188 0.000000 m /e glyphshow
58.681641 0.000000 m /c glyphshow
70.537109 0.000000 m /t glyphshow
80.097656 0.000000 m /i glyphshow
86.953125 0.000000 m /o glyphshow
100.693359 0.000000 m /n glyphshow
114.931641 0.000000 m /space glyphshow
121.894531 0.000000 m /S glyphshow
136.298828 0.000000 m /o glyphshow
150.039062 0.000000 m /l glyphshow
156.894531 0.000000 m /v glyphshow
169.931641 0.000000 m /e glyphshow
183.496094 0.000000 m /r glyphshow
193.359375 0.000000 m /space glyphshow
200.322266 0.000000 m /hyphen glyphshow
208.623047 0.000000 m /space glyphshow
215.585938 0.000000 m /one glyphshow
229.501953 0.000000 m /zero glyphshow
243.417969 0.000000 m /zero glyphshow
257.333984 0.000000 m /zero glyphshow
271.250000 0.000000 m /zero glyphshow
285.166016 0.000000 m /space glyphshow
292.128906 0.000000 m /H glyphshow
308.867188 0.000000 m /e glyphshow
322.431641 0.000000 m /x glyphshow
335.332031 0.000000 m /a glyphshow
348.828125 0.000000 m /h glyphshow
363.066406 0.000000 m /e glyphshow
376.630859 0.000000 m /d glyphshow
390.947266 0.000000 m /r glyphshow
400.810547 0.000000 m /o glyphshow
414.550781 0.000000 m /n glyphshow
428.789062 0.000000 m /s glyphshow
grestore

end
showpage
