<?xml version="1.0" encoding="UTF-8" standalone="no"?>
<!-- Created with Inkscape (http://www.inkscape.org/) -->

<svg
   xmlns:dc="http://purl.org/dc/elements/1.1/"
   xmlns:cc="http://creativecommons.org/ns#"
   xmlns:rdf="http://www.w3.org/1999/02/22-rdf-syntax-ns#"
   xmlns:svg="http://www.w3.org/2000/svg"
   xmlns="http://www.w3.org/2000/svg"
   xmlns:sodipodi="http://sodipodi.sourceforge.net/DTD/sodipodi-0.dtd"
   xmlns:inkscape="http://www.inkscape.org/namespaces/inkscape"
   width="65.193398mm"
   height="44.139286mm"
   viewBox="0 0 65.193397 44.139286"
   version="1.1"
   id="svg8"
   inkscape:version="0.92.3 (2405546, 2018-03-11)"
   sodipodi:docname="SquareElementTopologicalIndices.svg">
  <defs
     id="defs2" />
  <sodipodi:namedview
     id="base"
     pagecolor="#ffffff"
     bordercolor="#666666"
     borderopacity="1.0"
     inkscape:pageopacity="0.0"
     inkscape:pageshadow="2"
     inkscape:zoom="2"
     inkscape:cx="111.18537"
     inkscape:cy="136.33153"
     inkscape:document-units="mm"
     inkscape:current-layer="layer1"
     showgrid="false"
     inkscape:window-width="1920"
     inkscape:window-height="1019"
     inkscape:window-x="0"
     inkscape:window-y="0"
     inkscape:window-maximized="1"
     fit-margin-top="0"
     fit-margin-left="0"
     fit-margin-right="0"
     fit-margin-bottom="0" />
  <metadata
     id="metadata5">
    <rdf:RDF>
      <cc:Work
         rdf:about="">
        <dc:format>image/svg+xml</dc:format>
        <dc:type
           rdf:resource="http://purl.org/dc/dcmitype/StillImage" />
        <dc:title></dc:title>
      </cc:Work>
    </rdf:RDF>
  </metadata>
  <g
     inkscape:label="Layer 1"
     inkscape:groupmode="layer"
     id="layer1"
     transform="translate(-12.721749,-145.70448)">
    <rect
       style="fill:none;fill-opacity:1;stroke:#000000;stroke-width:1;stroke-linejoin:round;stroke-miterlimit:4;stroke-dasharray:none;stroke-opacity:1;paint-order:stroke fill markers"
       id="rect10"
       width="31.372023"
       height="31.372023"
       x="15.119047"
       y="152.04613" />
    <circle
       style="fill:#000000;fill-opacity:1;stroke:#000000;stroke-width:0.91625422;stroke-linejoin:round;stroke-miterlimit:4;stroke-dasharray:none;stroke-opacity:1;paint-order:stroke fill markers"
       id="path825"
       cx="46.424255"
       cy="152.08743"
       r="1.9047726" />
    <circle
       style="fill:#000000;fill-opacity:1;stroke:#000000;stroke-width:0.91625422;stroke-linejoin:round;stroke-miterlimit:4;stroke-dasharray:none;stroke-opacity:1;paint-order:stroke fill markers"
       id="path825-3"
       cx="46.501549"
       cy="183.43135"
       r="1.9047726" />
    <circle
       style="fill:#000000;fill-opacity:1;stroke:#000000;stroke-width:0.91625422;stroke-linejoin:round;stroke-miterlimit:4;stroke-dasharray:none;stroke-opacity:1;paint-order:stroke fill markers"
       id="path825-6"
       cx="15.10857"
       cy="183.42911"
       r="1.9047726" />
    <circle
       style="fill:#000000;fill-opacity:1;stroke:#000000;stroke-width:0.91625422;stroke-linejoin:round;stroke-miterlimit:4;stroke-dasharray:none;stroke-opacity:1;paint-order:stroke fill markers"
       id="path825-7"
       cx="15.084649"
       cy="152.0634"
       r="1.9047726" />
    <text
       xml:space="preserve"
       style="font-style:normal;font-weight:normal;font-size:3.88055563px;line-height:1000;font-family:sans-serif;letter-spacing:0px;word-spacing:0px;fill:#000000;fill-opacity:1;stroke:none;stroke-width:0.26458332"
       x="13.418159"
       y="189.84377"
       id="text856"><tspan
         sodipodi:role="line"
         id="tspan854"
         x="13.418159"
         y="189.84377"
         style="font-style:normal;font-variant:normal;font-weight:normal;font-stretch:normal;font-size:4.93888903px;font-family:sans-serif;-inkscape-font-specification:sans-serif;stroke-width:0.26458332">1</tspan></text>
    <text
       xml:space="preserve"
       style="font-style:normal;font-weight:normal;font-size:3.88055563px;line-height:1000;font-family:sans-serif;letter-spacing:0px;word-spacing:0px;fill:#000000;fill-opacity:1;stroke:none;stroke-width:0.26458332"
       x="44.909935"
       y="189.80942"
       id="text856-5"><tspan
         sodipodi:role="line"
         id="tspan854-3"
         x="44.909935"
         y="189.80942"
         style="font-style:normal;font-variant:normal;font-weight:normal;font-stretch:normal;font-size:4.93888903px;font-family:sans-serif;-inkscape-font-specification:sans-serif;stroke-width:0.26458332">2</tspan></text>
    <text
       xml:space="preserve"
       style="font-style:normal;font-weight:normal;font-size:3.88055563px;line-height:1000;font-family:sans-serif;letter-spacing:0px;word-spacing:0px;fill:#000000;fill-opacity:1;stroke:none;stroke-width:0.26458332"
       x="44.78204"
       y="149.3815"
       id="text856-5-5"><tspan
         sodipodi:role="line"
         id="tspan854-3-6"
         x="44.78204"
         y="149.3815"
         style="font-style:normal;font-variant:normal;font-weight:normal;font-stretch:normal;font-size:4.93888903px;font-family:sans-serif;-inkscape-font-specification:sans-serif;stroke-width:0.26458332">3</tspan></text>
    <text
       xml:space="preserve"
       style="font-style:normal;font-weight:normal;font-size:3.88055563px;line-height:1000;font-family:sans-serif;letter-spacing:0px;word-spacing:0px;fill:#000000;fill-opacity:1;stroke:none;stroke-width:0.26458332"
       x="13.499763"
       y="149.30495"
       id="text856-5-2"><tspan
         sodipodi:role="line"
         id="tspan854-3-9"
         x="13.499763"
         y="149.30495"
         style="font-style:normal;font-variant:normal;font-weight:normal;font-stretch:normal;font-size:4.93888903px;font-family:sans-serif;-inkscape-font-specification:sans-serif;stroke-width:0.26458332">4</tspan></text>
    <text
       xml:space="preserve"
       style="font-style:normal;font-weight:normal;font-size:3.52777767px;line-height:1.5;font-family:sans-serif;letter-spacing:0px;word-spacing:0px;fill:#000000;fill-opacity:1;stroke:none;stroke-width:0.26458332"
       x="51.920177"
       y="161.17612"
       id="text904"><tspan
         sodipodi:role="line"
         id="tspan902"
         x="51.920177"
         y="161.17612"
         style="stroke-width:0.26458332">EDGE 1 - (1, 2)</tspan><tspan
         sodipodi:role="line"
         x="51.920177"
         y="166.46779"
         style="stroke-width:0.26458332"
         id="tspan922">EDGE 2 - (2, 3)</tspan><tspan
         sodipodi:role="line"
         x="51.920177"
         y="171.75945"
         style="stroke-width:0.26458332"
         id="tspan926">EDGE 3 - (3, 4)</tspan><tspan
         sodipodi:role="line"
         x="51.920177"
         y="177.05112"
         style="stroke-width:0.26458332"
         id="tspan928">EDGE 4 - (4, 1)</tspan><tspan
         sodipodi:role="line"
         x="51.920177"
         y="182.34279"
         style="stroke-width:0.26458332"
         id="tspan920" /><tspan
         sodipodi:role="line"
         x="51.920177"
         y="187.63445"
         style="stroke-width:0.26458332"
         id="tspan918" /><tspan
         sodipodi:role="line"
         x="51.920177"
         y="192.92612"
         style="stroke-width:0.26458332"
         id="tspan914" /><tspan
         sodipodi:role="line"
         x="51.920177"
         y="198.21779"
         style="stroke-width:0.26458332"
         id="tspan912" /><tspan
         sodipodi:role="line"
         x="51.920177"
         y="203.50945"
         style="stroke-width:0.26458332"
         id="tspan910" /><tspan
         sodipodi:role="line"
         x="51.920177"
         y="208.80112"
         style="stroke-width:0.26458332"
         id="tspan908" /><tspan
         sodipodi:role="line"
         x="51.920177"
         y="214.09279"
         style="stroke-width:0.26458332"
         id="tspan906" /></text>
  </g>
</svg>
