%!PS-Adobe-3.0 EPSF-3.0
%%Creator: MATLAB, The MathWorks, Inc. Version 8.3.0.532 (R2014a). Operating System: Linux 3.19.0-30-generic #34-Ubuntu SMP Fri Oct 2 22:08:41 UTC 2015 x86_64.
%%Title: /home/betogil/hp2fem-article/matlab/Comparing_BLAS/figures/eps/SpeedUpRelative_Hexa_10000_P3.eps
%%CreationDate: 04/13/2016  10:56:40
%%DocumentNeededFonts: Helvetica-Bold
%%+ Helvetica
%%DocumentProcessColors: Cyan Magenta Yellow Black
%%LanguageLevel: 2
%%Pages: 1
%%BoundingBox:    44   188   570   614
%%EndComments

%%BeginProlog
% MathWorks dictionary
/MathWorks 160 dict begin
% definition operators
/bdef {bind def} bind def
/ldef {load def} bind def
/xdef {exch def} bdef
/xstore {exch store} bdef
% operator abbreviations
/c  /clip ldef
/cc /concat ldef
/cp /closepath ldef
/gr /grestore ldef
/gs /gsave ldef
/mt /moveto ldef
/np /newpath ldef
/cm /currentmatrix ldef
/sm /setmatrix ldef
/rm /rmoveto ldef
/rl /rlineto ldef
/s {show newpath} bdef
/sc {setcmykcolor} bdef
/sr /setrgbcolor ldef
/sg /setgray ldef
/w /setlinewidth ldef
/j /setlinejoin ldef
/cap /setlinecap ldef
/rc {rectclip} bdef
/rf {rectfill} bdef
% page state control
/pgsv () def
/bpage {/pgsv save def} bdef
/epage {pgsv restore} bdef
/bplot /gsave ldef
/eplot {stroke grestore} bdef
% orientation switch
/portraitMode 0 def /landscapeMode 1 def /rotateMode 2 def
% coordinate system mappings
/dpi2point 0 def
% font control
/FontSize 0 def
/FMS {/FontSize xstore findfont [FontSize 0 0 FontSize neg 0 0]
  makefont setfont} bdef
/reencode {exch dup where {pop load} {pop StandardEncoding} ifelse
  exch dup 3 1 roll findfont dup length dict begin
  { 1 index /FID ne {def}{pop pop} ifelse } forall
  /Encoding exch def currentdict end definefont pop} bdef
/isroman {findfont /CharStrings get /Agrave known} bdef
/FMSR {3 1 roll 1 index dup isroman {reencode} {pop pop} ifelse
  exch FMS} bdef
/csm {1 dpi2point div -1 dpi2point div scale neg translate
 dup landscapeMode eq {pop -90 rotate}
  {rotateMode eq {90 rotate} if} ifelse} bdef
% line types: solid, dotted, dashed, dotdash
/SO { [] 0 setdash } bdef
/DO { [.5 dpi2point mul 4 dpi2point mul] 0 setdash } bdef
/DA { [6 dpi2point mul] 0 setdash } bdef
/DD { [.5 dpi2point mul 4 dpi2point mul 6 dpi2point mul 4
  dpi2point mul] 0 setdash } bdef
% macros for lines and objects
/L {lineto stroke} bdef
/MP {3 1 roll moveto 1 sub {rlineto} repeat} bdef
/AP {{rlineto} repeat} bdef
/PDlw -1 def
/W {/PDlw currentlinewidth def setlinewidth} def
/PP {closepath eofill} bdef
/DP {closepath stroke} bdef
/MR {4 -2 roll moveto dup  0 exch rlineto exch 0 rlineto
  neg 0 exch rlineto closepath} bdef
/FR {MR stroke} bdef
/PR {MR fill} bdef
/L1i {{currentfile picstr readhexstring pop} image} bdef
/tMatrix matrix def
/MakeOval {newpath tMatrix currentmatrix pop translate scale
0 0 1 0 360 arc tMatrix setmatrix} bdef
/FO {MakeOval stroke} bdef
/PO {MakeOval fill} bdef
/PD {currentlinewidth 2 div 0 360 arc fill
   PDlw -1 eq not {PDlw w /PDlw -1 def} if} def
/FA {newpath tMatrix currentmatrix pop translate scale
  0 0 1 5 -2 roll arc tMatrix setmatrix stroke} bdef
/PA {newpath tMatrix currentmatrix pop	translate 0 0 moveto scale
  0 0 1 5 -2 roll arc closepath tMatrix setmatrix fill} bdef
/FAn {newpath tMatrix currentmatrix pop translate scale
  0 0 1 5 -2 roll arcn tMatrix setmatrix stroke} bdef
/PAn {newpath tMatrix currentmatrix pop translate 0 0 moveto scale
  0 0 1 5 -2 roll arcn closepath tMatrix setmatrix fill} bdef
/vradius 0 def /hradius 0 def /lry 0 def
/lrx 0 def /uly 0 def /ulx 0 def /rad 0 def
/MRR {/vradius xdef /hradius xdef /lry xdef /lrx xdef /uly xdef
  /ulx xdef newpath tMatrix currentmatrix pop ulx hradius add uly
  vradius add translate hradius vradius scale 0 0 1 180 270 arc 
  tMatrix setmatrix lrx hradius sub uly vradius add translate
  hradius vradius scale 0 0 1 270 360 arc tMatrix setmatrix
  lrx hradius sub lry vradius sub translate hradius vradius scale
  0 0 1 0 90 arc tMatrix setmatrix ulx hradius add lry vradius sub
  translate hradius vradius scale 0 0 1 90 180 arc tMatrix setmatrix
  closepath} bdef
/FRR {MRR stroke } bdef
/PRR {MRR fill } bdef
/MlrRR {/lry xdef /lrx xdef /uly xdef /ulx xdef /rad lry uly sub 2 div def
  newpath tMatrix currentmatrix pop ulx rad add uly rad add translate
  rad rad scale 0 0 1 90 270 arc tMatrix setmatrix lrx rad sub lry rad
  sub translate rad rad scale 0 0 1 270 90 arc tMatrix setmatrix
  closepath} bdef
/FlrRR {MlrRR stroke } bdef
/PlrRR {MlrRR fill } bdef
/MtbRR {/lry xdef /lrx xdef /uly xdef /ulx xdef /rad lrx ulx sub 2 div def
  newpath tMatrix currentmatrix pop ulx rad add uly rad add translate
  rad rad scale 0 0 1 180 360 arc tMatrix setmatrix lrx rad sub lry rad
  sub translate rad rad scale 0 0 1 0 180 arc tMatrix setmatrix
  closepath} bdef
/FtbRR {MtbRR stroke } bdef
/PtbRR {MtbRR fill } bdef
/stri 6 array def /dtri 6 array def
/smat 6 array def /dmat 6 array def
/tmat1 6 array def /tmat2 6 array def /dif 3 array def
/asub {/ind2 exch def /ind1 exch def dup dup
  ind1 get exch ind2 get sub exch } bdef
/tri_to_matrix {
  2 0 asub 3 1 asub 4 0 asub 5 1 asub
  dup 0 get exch 1 get 7 -1 roll astore } bdef
/compute_transform {
  dmat dtri tri_to_matrix tmat1 invertmatrix 
  smat stri tri_to_matrix tmat2 concatmatrix } bdef
/ds {stri astore pop} bdef
/dt {dtri astore pop} bdef
/db {2 copy /cols xdef /rows xdef mul dup 3 mul string
  currentfile 
  3 index 0 eq {/ASCIIHexDecode filter}
  {/ASCII85Decode filter 3 index 2 eq {/RunLengthDecode filter} if }
  ifelse exch readstring pop
  dup 0 3 index getinterval /rbmap xdef
  dup 2 index dup getinterval /gbmap xdef
  1 index dup 2 mul exch getinterval /bbmap xdef pop pop}bdef
/it {gs np dtri aload pop moveto lineto lineto cp c
  cols rows 8 compute_transform 
  rbmap gbmap bbmap true 3 colorimage gr}bdef
/il {newpath moveto lineto stroke}bdef
currentdict end def
%%EndProlog

%%BeginSetup
MathWorks begin

0 cap

end
%%EndSetup

%%Page: 1 1
%%BeginPageSetup
%%PageBoundingBox:    44   188   570   614
MathWorks begin
bpage
%%EndPageSetup

%%BeginObject: obj1
bplot

/dpi2point 4.16667 def
portraitMode 0075 2550 csm

  111   -12  2190  1776 rc
85 dict begin %Colortable dictionary
/c0 { 0.000000 0.000000 0.000000 sr} bdef
/c1 { 1.000000 1.000000 1.000000 sr} bdef
/c2 { 0.900000 0.000000 0.000000 sr} bdef
/c3 { 0.000000 0.820000 0.000000 sr} bdef
/c4 { 0.000000 0.000000 0.800000 sr} bdef
/c5 { 0.910000 0.820000 0.320000 sr} bdef
/c6 { 1.000000 0.260000 0.820000 sr} bdef
/c7 { 0.000000 0.820000 0.820000 sr} bdef
c0
1 j
1 sg
   0    0 2401 1802 rf
2.08333 w
0 1468 1860 0 0 -1468 312 1603 4 MP
PP
-1860 0 0 1468 1860 0 0 -1468 312 1603 5 MP stroke
1.38889 w
DO
0 sg
 312 1603 mt  312  135 L
 312  135 mt  312  135 L
 541 1603 mt  541  135 L
 541  135 mt  541  135 L
 771 1603 mt  771  135 L
 771  135 mt  771  135 L
1000 1603 mt 1000  135 L
1000  135 mt 1000  135 L
1230 1603 mt 1230  135 L
1230  135 mt 1230  135 L
1459 1603 mt 1459  135 L
1459  135 mt 1459  135 L
1689 1603 mt 1689  135 L
1689  135 mt 1689  135 L
1918 1603 mt 1918  135 L
1918  135 mt 1918  135 L
2148 1603 mt 2148  135 L
2148  135 mt 2148  135 L
 312 1603 mt 2172 1603 L
2172 1603 mt 2172 1603 L
 312 1469 mt 2172 1469 L
2172 1469 mt 2172 1469 L
 312 1336 mt 2172 1336 L
2172 1336 mt 2172 1336 L
 312 1069 mt 2172 1069 L
2172 1069 mt 2172 1069 L
 312  802 mt 2172  802 L
2172  802 mt 2172  802 L
 312  535 mt 2172  535 L
2172  535 mt 2172  535 L
 312  268 mt 2172  268 L
2172  268 mt 2172  268 L
 312  135 mt 2172  135 L
2172  135 mt 2172  135 L
SO
2.08333 w
 312 1603 mt 2172 1603 L
 312  135 mt 2172  135 L
 312 1603 mt  312  135 L
2172 1603 mt 2172  135 L
 312 1603 mt 2172 1603 L
 312 1603 mt  312  135 L
 312 1603 mt  312 1584 L
 312  135 mt  312  153 L
%%IncludeResource: font Helvetica-Bold
/Helvetica-Bold /ISOLatin1Encoding 58.3333 FMSR

 296 1671 mt 
(4) s
 541 1603 mt  541 1584 L
 541  135 mt  541  153 L
 525 1671 mt 
(8) s
 541 1603 mt  541 1593 L
 541  135 mt  541  144 L
DO
 541 1603 mt  541  135 L
 541  135 mt  541  135 L
SO
 541 1603 mt  541 1593 L
 541  135 mt  541  144 L
DO
 541 1603 mt  541  135 L
 541  135 mt  541  135 L
SO
 541 1603 mt  541 1593 L
 541  135 mt  541  144 L
DO
 541 1603 mt  541  135 L
 541  135 mt  541  135 L
SO
 541 1603 mt  541 1593 L
 541  135 mt  541  144 L
DO
 541 1603 mt  541  135 L
 541  135 mt  541  135 L
SO
 541 1603 mt  541 1593 L
 541  135 mt  541  144 L
DO
 541 1603 mt  541  135 L
 541  135 mt  541  135 L
SO
 541 1603 mt  541 1593 L
 541  135 mt  541  144 L
DO
 541 1603 mt  541  135 L
 541  135 mt  541  135 L
SO
 541 1603 mt  541 1593 L
 541  135 mt  541  144 L
DO
 541 1603 mt  541  135 L
 541  135 mt  541  135 L
SO
 541 1603 mt  541 1593 L
 541  135 mt  541  144 L
DO
 541 1603 mt  541  135 L
 541  135 mt  541  135 L
SO
 541 1603 mt  541 1593 L
 541  135 mt  541  144 L
DO
 541 1603 mt  541  135 L
 541  135 mt  541  135 L
SO
 771 1603 mt  771 1584 L
 771  135 mt  771  153 L
 739 1671 mt 
(16) s
 771 1603 mt  771 1593 L
 771  135 mt  771  144 L
DO
 771 1603 mt  771  135 L
 771  135 mt  771  135 L
SO
 771 1603 mt  771 1593 L
 771  135 mt  771  144 L
DO
 771 1603 mt  771  135 L
 771  135 mt  771  135 L
SO
 771 1603 mt  771 1593 L
 771  135 mt  771  144 L
DO
 771 1603 mt  771  135 L
 771  135 mt  771  135 L
SO
 771 1603 mt  771 1593 L
 771  135 mt  771  144 L
DO
 771 1603 mt  771  135 L
 771  135 mt  771  135 L
SO
 771 1603 mt  771 1593 L
 771  135 mt  771  144 L
DO
 771 1603 mt  771  135 L
 771  135 mt  771  135 L
SO
 771 1603 mt  771 1593 L
 771  135 mt  771  144 L
DO
 771 1603 mt  771  135 L
 771  135 mt  771  135 L
SO
 771 1603 mt  771 1593 L
 771  135 mt  771  144 L
DO
 771 1603 mt  771  135 L
 771  135 mt  771  135 L
SO
 771 1603 mt  771 1593 L
 771  135 mt  771  144 L
DO
 771 1603 mt  771  135 L
 771  135 mt  771  135 L
SO
 771 1603 mt  771 1593 L
 771  135 mt  771  144 L
DO
 771 1603 mt  771  135 L
 771  135 mt  771  135 L
SO
1000 1603 mt 1000 1584 L
1000  135 mt 1000  153 L
 968 1671 mt 
(32) s
1000 1603 mt 1000 1593 L
1000  135 mt 1000  144 L
DO
1000 1603 mt 1000  135 L
1000  135 mt 1000  135 L
SO
1000 1603 mt 1000 1593 L
1000  135 mt 1000  144 L
DO
1000 1603 mt 1000  135 L
1000  135 mt 1000  135 L
SO
1000 1603 mt 1000 1593 L
1000  135 mt 1000  144 L
DO
1000 1603 mt 1000  135 L
1000  135 mt 1000  135 L
SO
1000 1603 mt 1000 1593 L
1000  135 mt 1000  144 L
DO
1000 1603 mt 1000  135 L
1000  135 mt 1000  135 L
SO
1000 1603 mt 1000 1593 L
1000  135 mt 1000  144 L
DO
1000 1603 mt 1000  135 L
1000  135 mt 1000  135 L
SO
1000 1603 mt 1000 1593 L
1000  135 mt 1000  144 L
DO
1000 1603 mt 1000  135 L
1000  135 mt 1000  135 L
SO
1000 1603 mt 1000 1593 L
1000  135 mt 1000  144 L
DO
1000 1603 mt 1000  135 L
1000  135 mt 1000  135 L
SO
1000 1603 mt 1000 1593 L
1000  135 mt 1000  144 L
DO
1000 1603 mt 1000  135 L
1000  135 mt 1000  135 L
SO
1000 1603 mt 1000 1593 L
1000  135 mt 1000  144 L
DO
1000 1603 mt 1000  135 L
1000  135 mt 1000  135 L
SO
1230 1603 mt 1230 1584 L
1230  135 mt 1230  153 L
1198 1671 mt 
(64) s
1230 1603 mt 1230 1593 L
1230  135 mt 1230  144 L
DO
1230 1603 mt 1230  135 L
1230  135 mt 1230  135 L
SO
1230 1603 mt 1230 1593 L
1230  135 mt 1230  144 L
DO
1230 1603 mt 1230  135 L
1230  135 mt 1230  135 L
SO
1230 1603 mt 1230 1593 L
1230  135 mt 1230  144 L
DO
1230 1603 mt 1230  135 L
1230  135 mt 1230  135 L
SO
1230 1603 mt 1230 1593 L
1230  135 mt 1230  144 L
DO
1230 1603 mt 1230  135 L
1230  135 mt 1230  135 L
SO
1230 1603 mt 1230 1593 L
1230  135 mt 1230  144 L
DO
1230 1603 mt 1230  135 L
1230  135 mt 1230  135 L
SO
1230 1603 mt 1230 1593 L
1230  135 mt 1230  144 L
DO
1230 1603 mt 1230  135 L
1230  135 mt 1230  135 L
SO
1230 1603 mt 1230 1593 L
1230  135 mt 1230  144 L
DO
1230 1603 mt 1230  135 L
1230  135 mt 1230  135 L
SO
1230 1603 mt 1230 1593 L
1230  135 mt 1230  144 L
DO
1230 1603 mt 1230  135 L
1230  135 mt 1230  135 L
SO
1230 1603 mt 1230 1593 L
1230  135 mt 1230  144 L
DO
1230 1603 mt 1230  135 L
1230  135 mt 1230  135 L
SO
1459 1603 mt 1459 1584 L
1459  135 mt 1459  153 L
1411 1671 mt 
(128) s
1459 1603 mt 1459 1593 L
1459  135 mt 1459  144 L
DO
1459 1603 mt 1459  135 L
1459  135 mt 1459  135 L
SO
1459 1603 mt 1459 1593 L
1459  135 mt 1459  144 L
DO
1459 1603 mt 1459  135 L
1459  135 mt 1459  135 L
SO
1459 1603 mt 1459 1593 L
1459  135 mt 1459  144 L
DO
1459 1603 mt 1459  135 L
1459  135 mt 1459  135 L
SO
1459 1603 mt 1459 1593 L
1459  135 mt 1459  144 L
DO
1459 1603 mt 1459  135 L
1459  135 mt 1459  135 L
SO
1459 1603 mt 1459 1593 L
1459  135 mt 1459  144 L
DO
1459 1603 mt 1459  135 L
1459  135 mt 1459  135 L
SO
1459 1603 mt 1459 1593 L
1459  135 mt 1459  144 L
DO
1459 1603 mt 1459  135 L
1459  135 mt 1459  135 L
SO
1459 1603 mt 1459 1593 L
1459  135 mt 1459  144 L
DO
1459 1603 mt 1459  135 L
1459  135 mt 1459  135 L
SO
1459 1603 mt 1459 1593 L
1459  135 mt 1459  144 L
DO
1459 1603 mt 1459  135 L
1459  135 mt 1459  135 L
SO
1459 1603 mt 1459 1593 L
1459  135 mt 1459  144 L
DO
1459 1603 mt 1459  135 L
1459  135 mt 1459  135 L
SO
1689 1603 mt 1689 1584 L
1689  135 mt 1689  153 L
1641 1671 mt 
(256) s
1689 1603 mt 1689 1593 L
1689  135 mt 1689  144 L
DO
1689 1603 mt 1689  135 L
1689  135 mt 1689  135 L
SO
1689 1603 mt 1689 1593 L
1689  135 mt 1689  144 L
DO
1689 1603 mt 1689  135 L
1689  135 mt 1689  135 L
SO
1689 1603 mt 1689 1593 L
1689  135 mt 1689  144 L
DO
1689 1603 mt 1689  135 L
1689  135 mt 1689  135 L
SO
1689 1603 mt 1689 1593 L
1689  135 mt 1689  144 L
DO
1689 1603 mt 1689  135 L
1689  135 mt 1689  135 L
SO
1689 1603 mt 1689 1593 L
1689  135 mt 1689  144 L
DO
1689 1603 mt 1689  135 L
1689  135 mt 1689  135 L
SO
1689 1603 mt 1689 1593 L
1689  135 mt 1689  144 L
DO
1689 1603 mt 1689  135 L
1689  135 mt 1689  135 L
SO
1689 1603 mt 1689 1593 L
1689  135 mt 1689  144 L
DO
1689 1603 mt 1689  135 L
1689  135 mt 1689  135 L
SO
1689 1603 mt 1689 1593 L
1689  135 mt 1689  144 L
DO
1689 1603 mt 1689  135 L
1689  135 mt 1689  135 L
SO
1689 1603 mt 1689 1593 L
1689  135 mt 1689  144 L
DO
1689 1603 mt 1689  135 L
1689  135 mt 1689  135 L
SO
1918 1603 mt 1918 1584 L
1918  135 mt 1918  153 L
1870 1671 mt 
(512) s
1918 1603 mt 1918 1593 L
1918  135 mt 1918  144 L
DO
1918 1603 mt 1918  135 L
1918  135 mt 1918  135 L
SO
1918 1603 mt 1918 1593 L
1918  135 mt 1918  144 L
DO
1918 1603 mt 1918  135 L
1918  135 mt 1918  135 L
SO
1918 1603 mt 1918 1593 L
1918  135 mt 1918  144 L
DO
1918 1603 mt 1918  135 L
1918  135 mt 1918  135 L
SO
1918 1603 mt 1918 1593 L
1918  135 mt 1918  144 L
DO
1918 1603 mt 1918  135 L
1918  135 mt 1918  135 L
SO
1918 1603 mt 1918 1593 L
1918  135 mt 1918  144 L
DO
1918 1603 mt 1918  135 L
1918  135 mt 1918  135 L
SO
1918 1603 mt 1918 1593 L
1918  135 mt 1918  144 L
DO
1918 1603 mt 1918  135 L
1918  135 mt 1918  135 L
SO
1918 1603 mt 1918 1593 L
1918  135 mt 1918  144 L
DO
1918 1603 mt 1918  135 L
1918  135 mt 1918  135 L
SO
1918 1603 mt 1918 1593 L
1918  135 mt 1918  144 L
DO
1918 1603 mt 1918  135 L
1918  135 mt 1918  135 L
SO
1918 1603 mt 1918 1593 L
1918  135 mt 1918  144 L
DO
1918 1603 mt 1918  135 L
1918  135 mt 1918  135 L
SO
2148 1603 mt 2148 1584 L
2148  135 mt 2148  153 L
2084 1671 mt 
(1024) s
2148 1603 mt 2148 1593 L
2148  135 mt 2148  144 L
DO
2148 1603 mt 2148  135 L
2148  135 mt 2148  135 L
SO
 312 1603 mt  330 1603 L
2172 1603 mt 2153 1603 L
 268 1625 mt 
(1) s
 312 1469 mt  330 1469 L
2172 1469 mt 2153 1469 L
 219 1491 mt 
(1.1) s
 312 1336 mt  330 1336 L
2172 1336 mt 2153 1336 L
 219 1358 mt 
(1.2) s
DO
 312 1603 mt 2172 1603 L
2172 1603 mt 2172 1603 L
 312 1603 mt 2172 1603 L
2172 1603 mt 2172 1603 L
 312 1603 mt 2172 1603 L
2172 1603 mt 2172 1603 L
 312 1603 mt 2172 1603 L
2172 1603 mt 2172 1603 L
 312 1603 mt 2172 1603 L
2172 1603 mt 2172 1603 L
SO
 312 1069 mt  330 1069 L
2172 1069 mt 2153 1069 L
 219 1091 mt 
(1.4) s
DO
 312 1536 mt 2172 1536 L
2172 1536 mt 2172 1536 L
 312 1469 mt 2172 1469 L
2172 1469 mt 2172 1469 L
 312 1469 mt 2172 1469 L
2172 1469 mt 2172 1469 L
 312 1469 mt 2172 1469 L
2172 1469 mt 2172 1469 L
 312 1469 mt 2172 1469 L
2172 1469 mt 2172 1469 L
 312 1469 mt 2172 1469 L
2172 1469 mt 2172 1469 L
 312 1469 mt 2172 1469 L
2172 1469 mt 2172 1469 L
 312 1469 mt 2172 1469 L
2172 1469 mt 2172 1469 L
 312 1469 mt 2172 1469 L
2172 1469 mt 2172 1469 L
SO
 312  802 mt  330  802 L
2172  802 mt 2153  802 L
 219  824 mt 
(1.6) s
DO
 312 1402 mt 2172 1402 L
2172 1402 mt 2172 1402 L
 312 1336 mt 2172 1336 L
2172 1336 mt 2172 1336 L
 312 1336 mt 2172 1336 L
2172 1336 mt 2172 1336 L
 312 1336 mt 2172 1336 L
2172 1336 mt 2172 1336 L
 312 1336 mt 2172 1336 L
2172 1336 mt 2172 1336 L
 312 1336 mt 2172 1336 L
2172 1336 mt 2172 1336 L
 312 1336 mt 2172 1336 L
2172 1336 mt 2172 1336 L
 312 1336 mt 2172 1336 L
2172 1336 mt 2172 1336 L
 312 1336 mt 2172 1336 L
2172 1336 mt 2172 1336 L
SO
 312  535 mt  330  535 L
2172  535 mt 2153  535 L
 219  557 mt 
(1.8) s
DO
 312 1282 mt 2172 1282 L
2172 1282 mt 2172 1282 L
 312 1229 mt 2172 1229 L
2172 1229 mt 2172 1229 L
 312 1175 mt 2172 1175 L
2172 1175 mt 2172 1175 L
 312 1122 mt 2172 1122 L
2172 1122 mt 2172 1122 L
 312 1069 mt 2172 1069 L
2172 1069 mt 2172 1069 L
 312 1069 mt 2172 1069 L
2172 1069 mt 2172 1069 L
 312 1069 mt 2172 1069 L
2172 1069 mt 2172 1069 L
 312 1069 mt 2172 1069 L
2172 1069 mt 2172 1069 L
 312 1069 mt 2172 1069 L
2172 1069 mt 2172 1069 L
SO
 312  268 mt  330  268 L
2172  268 mt 2153  268 L
 268  290 mt 
(2) s
DO
 312 1015 mt 2172 1015 L
2172 1015 mt 2172 1015 L
 312  962 mt 2172  962 L
2172  962 mt 2172  962 L
 312  909 mt 2172  909 L
2172  909 mt 2172  909 L
 312  855 mt 2172  855 L
2172  855 mt 2172  855 L
 312  802 mt 2172  802 L
2172  802 mt 2172  802 L
 312  802 mt 2172  802 L
2172  802 mt 2172  802 L
 312  802 mt 2172  802 L
2172  802 mt 2172  802 L
 312  802 mt 2172  802 L
2172  802 mt 2172  802 L
 312  802 mt 2172  802 L
2172  802 mt 2172  802 L
SO
 312  135 mt  330  135 L
2172  135 mt 2153  135 L
 219  157 mt 
(2.1) s
DO
 312  748 mt 2172  748 L
2172  748 mt 2172  748 L
 312  695 mt 2172  695 L
2172  695 mt 2172  695 L
 312  642 mt 2172  642 L
2172  642 mt 2172  642 L
 312  588 mt 2172  588 L
2172  588 mt 2172  588 L
 312  535 mt 2172  535 L
2172  535 mt 2172  535 L
 312  481 mt 2172  481 L
2172  481 mt 2172  481 L
 312  428 mt 2172  428 L
2172  428 mt 2172  428 L
 312  375 mt 2172  375 L
2172  375 mt 2172  375 L
 312  321 mt 2172  321 L
2172  321 mt 2172  321 L
SO
 312 1603 mt 2172 1603 L
 312  135 mt 2172  135 L
 312 1603 mt  312  135 L
2172 1603 mt 2172  135 L
gs 312 135 1861 1469 rc
8.33333 w
/c8 { 0.000000 0.000000 1.000000 sr} bdef
c8
230 24 229 144 230 15 229 16 230 35 229 5 230 -61 541 321 8 MP stroke
gr

8.33333 w
c8
 516  321 mt  566  321 L
 541  296 mt  541  346 L
 746  260 mt  796  260 L
 771  235 mt  771  285 L
 975  265 mt 1025  265 L
1000  240 mt 1000  290 L
1205  300 mt 1255  300 L
1230  275 mt 1230  325 L
1434  316 mt 1484  316 L
1459  291 mt 1459  341 L
1664  331 mt 1714  331 L
1689  306 mt 1689  356 L
1893  475 mt 1943  475 L
1918  450 mt 1918  500 L
2123  499 mt 2173  499 L
2148  474 mt 2148  524 L
 524  304 mt  558  338 L
 558  304 mt  524  338 L
 754  243 mt  788  277 L
 788  243 mt  754  277 L
 983  248 mt 1017  282 L
1017  248 mt  983  282 L
1213  283 mt 1247  317 L
1247  283 mt 1213  317 L
1442  299 mt 1476  333 L
1476  299 mt 1442  333 L
1672  314 mt 1706  348 L
1706  314 mt 1672  348 L
1901  458 mt 1935  492 L
1935  458 mt 1901  492 L
2131  482 mt 2165  516 L
2165  482 mt 2131  516 L
gs 312 135 1861 1469 rc
/c9 { 0.000000 0.500000 0.000000 sr} bdef
c9
230 -4 229 150 230 23 229 16 230 42 229 -24 230 -36 541 316 8 MP stroke
gr

c9
0 j
0 -50 -50 0 0 50 50 0 516 291 5 MP
DP
0 -50 -50 0 0 50 50 0 746 255 5 MP
DP
0 -50 -50 0 0 50 50 0 975 231 5 MP
DP
0 -50 -50 0 0 50 50 0 1205 273 5 MP
DP
0 -50 -50 0 0 50 50 0 1434 289 5 MP
DP
0 -50 -50 0 0 50 50 0 1664 312 5 MP
DP
0 -50 -50 0 0 50 50 0 1893 462 5 MP
DP
0 -50 -50 0 0 50 50 0 2123 458 5 MP
DP
gs 312 135 1861 1469 rc
/c10 { 1.000000 0.000000 0.000000 sr} bdef
c10
230 0 229 0 230 0 229 0 230 0 229 0 230 0 541 268 8 MP stroke
gr

c10
26 W
541 268 PD
26 W
771 268 PD
26 W
1000 268 PD
26 W
1230 268 PD
26 W
1459 268 PD
26 W
1689 268 PD
26 W
1918 268 PD
26 W
2148 268 PD
gs 312 135 1861 1469 rc
gr

0 sg
%%IncludeResource: font Helvetica-Bold
/Helvetica-Bold /ISOLatin1Encoding 66.6667 FMSR

 973 1740 mt 
(Number of Procs) s
 184 1375 mt  -90 rotate
(SpeedUp Relative \(Tp\(i-1\)/Tp\(i\)\)) s
90 rotate
%%IncludeResource: font Helvetica-Bold
/Helvetica-Bold /ISOLatin1Encoding 75 FMSR

 206   85 mt 
(Speed Up Relative - 10000 Hexahedra - P3 \(282796 DOFs\)) s
%%IncludeResource: font Helvetica
/Helvetica /ISOLatin1Encoding 41.6667 FMSR

 306 1619 mt 
( ) s
2167  150 mt 
( ) s
2.08333 w
1 sg
0 281 1061 0 0 -281 390 1257 4 MP
PP
-1061 0 0 281 1061 0 0 -281 390 1257 5 MP stroke
1.38889 w
DO
SO
2.08333 w
0 sg
 390 1257 mt 1451 1257 L
 390  976 mt 1451  976 L
 390 1257 mt  390  976 L
1451 1257 mt 1451  976 L
 390 1257 mt 1451 1257 L
 390 1257 mt  390  976 L
 390 1257 mt 1451 1257 L
 390  976 mt 1451  976 L
 390 1257 mt  390  976 L
1451 1257 mt 1451  976 L
%%IncludeResource: font Helvetica-Bold
/Helvetica-Bold /ISOLatin1Encoding 58.3333 FMSR

 558 1050 mt 
(SpeedUp Relative \(BLAS IBM\)) s
gs 390 976 1062 282 rc
8.33333 w
c8
129 0 415 1027 2 MP stroke
gr

8.33333 w
c8
gs 419 967 122 122 rc
 455 1027 mt  505 1027 L
 480 1002 mt  480 1052 L
 463 1010 mt  497 1044 L
 497 1010 mt  463 1044 L
gr

gs 390 976 1062 282 rc
gr

0 sg
 558 1139 mt 
(SpeedUp Relative \(BLAS Netlib\)) s
gs 390 976 1062 282 rc
c9
129 0 415 1116 2 MP stroke
gs 407 1043 147 147 rc
0 -50 -50 0 0 50 50 0 455 1091 5 MP
DP
gr

gr

c9
0 sg
 558 1228 mt 
(SpeedUp Relative \(Ideal\)) s
gs 390 976 1062 282 rc
c10
129 0 415 1205 2 MP stroke
gr

c10
gs 386 1111 188 188 rc
26 W
480 1205 PD
gr

gs 390 976 1062 282 rc
2.08333 w
gr

2.08333 w

end %%Color Dict

eplot
%%EndObject

epage
end

showpage

%%Trailer
%%EOF
