%!PS-Adobe-3.0 EPSF-3.0
%%Creator: MATLAB, The MathWorks, Inc. Version 8.3.0.532 (R2014a). Operating System: Linux 3.19.0-30-generic #34-Ubuntu SMP Fri Oct 2 22:08:41 UTC 2015 x86_64.
%%Title: /home/betogil/hp2fem-article/Results/matlab/Comparing_BLAS/figures/eps/StrongScalingOnAllMira.eps
%%CreationDate: 05/03/2016  14:26:55
%%DocumentNeededFonts: Helvetica
%%+ Times-Roman
%%DocumentProcessColors: Cyan Magenta Yellow Black
%%LanguageLevel: 2
%%Pages: 1
%%BoundingBox:   -56   157   670   633
%%EndComments

%%BeginProlog
% MathWorks dictionary
/MathWorks 160 dict begin
% definition operators
/bdef {bind def} bind def
/ldef {load def} bind def
/xdef {exch def} bdef
/xstore {exch store} bdef
% operator abbreviations
/c  /clip ldef
/cc /concat ldef
/cp /closepath ldef
/gr /grestore ldef
/gs /gsave ldef
/mt /moveto ldef
/np /newpath ldef
/cm /currentmatrix ldef
/sm /setmatrix ldef
/rm /rmoveto ldef
/rl /rlineto ldef
/s {show newpath} bdef
/sc {setcmykcolor} bdef
/sr /setrgbcolor ldef
/sg /setgray ldef
/w /setlinewidth ldef
/j /setlinejoin ldef
/cap /setlinecap ldef
/rc {rectclip} bdef
/rf {rectfill} bdef
% page state control
/pgsv () def
/bpage {/pgsv save def} bdef
/epage {pgsv restore} bdef
/bplot /gsave ldef
/eplot {stroke grestore} bdef
% orientation switch
/portraitMode 0 def /landscapeMode 1 def /rotateMode 2 def
% coordinate system mappings
/dpi2point 0 def
% font control
/FontSize 0 def
/FMS {/FontSize xstore findfont [FontSize 0 0 FontSize neg 0 0]
  makefont setfont} bdef
/reencode {exch dup where {pop load} {pop StandardEncoding} ifelse
  exch dup 3 1 roll findfont dup length dict begin
  { 1 index /FID ne {def}{pop pop} ifelse } forall
  /Encoding exch def currentdict end definefont pop} bdef
/isroman {findfont /CharStrings get /Agrave known} bdef
/FMSR {3 1 roll 1 index dup isroman {reencode} {pop pop} ifelse
  exch FMS} bdef
/csm {1 dpi2point div -1 dpi2point div scale neg translate
 dup landscapeMode eq {pop -90 rotate}
  {rotateMode eq {90 rotate} if} ifelse} bdef
% line types: solid, dotted, dashed, dotdash
/SO { [] 0 setdash } bdef
/DO { [.5 dpi2point mul 4 dpi2point mul] 0 setdash } bdef
/DA { [6 dpi2point mul] 0 setdash } bdef
/DD { [.5 dpi2point mul 4 dpi2point mul 6 dpi2point mul 4
  dpi2point mul] 0 setdash } bdef
% macros for lines and objects
/L {lineto stroke} bdef
/MP {3 1 roll moveto 1 sub {rlineto} repeat} bdef
/AP {{rlineto} repeat} bdef
/PDlw -1 def
/W {/PDlw currentlinewidth def setlinewidth} def
/PP {closepath eofill} bdef
/DP {closepath stroke} bdef
/MR {4 -2 roll moveto dup  0 exch rlineto exch 0 rlineto
  neg 0 exch rlineto closepath} bdef
/FR {MR stroke} bdef
/PR {MR fill} bdef
/L1i {{currentfile picstr readhexstring pop} image} bdef
/tMatrix matrix def
/MakeOval {newpath tMatrix currentmatrix pop translate scale
0 0 1 0 360 arc tMatrix setmatrix} bdef
/FO {MakeOval stroke} bdef
/PO {MakeOval fill} bdef
/PD {currentlinewidth 2 div 0 360 arc fill
   PDlw -1 eq not {PDlw w /PDlw -1 def} if} def
/FA {newpath tMatrix currentmatrix pop translate scale
  0 0 1 5 -2 roll arc tMatrix setmatrix stroke} bdef
/PA {newpath tMatrix currentmatrix pop	translate 0 0 moveto scale
  0 0 1 5 -2 roll arc closepath tMatrix setmatrix fill} bdef
/FAn {newpath tMatrix currentmatrix pop translate scale
  0 0 1 5 -2 roll arcn tMatrix setmatrix stroke} bdef
/PAn {newpath tMatrix currentmatrix pop translate 0 0 moveto scale
  0 0 1 5 -2 roll arcn closepath tMatrix setmatrix fill} bdef
/vradius 0 def /hradius 0 def /lry 0 def
/lrx 0 def /uly 0 def /ulx 0 def /rad 0 def
/MRR {/vradius xdef /hradius xdef /lry xdef /lrx xdef /uly xdef
  /ulx xdef newpath tMatrix currentmatrix pop ulx hradius add uly
  vradius add translate hradius vradius scale 0 0 1 180 270 arc 
  tMatrix setmatrix lrx hradius sub uly vradius add translate
  hradius vradius scale 0 0 1 270 360 arc tMatrix setmatrix
  lrx hradius sub lry vradius sub translate hradius vradius scale
  0 0 1 0 90 arc tMatrix setmatrix ulx hradius add lry vradius sub
  translate hradius vradius scale 0 0 1 90 180 arc tMatrix setmatrix
  closepath} bdef
/FRR {MRR stroke } bdef
/PRR {MRR fill } bdef
/MlrRR {/lry xdef /lrx xdef /uly xdef /ulx xdef /rad lry uly sub 2 div def
  newpath tMatrix currentmatrix pop ulx rad add uly rad add translate
  rad rad scale 0 0 1 90 270 arc tMatrix setmatrix lrx rad sub lry rad
  sub translate rad rad scale 0 0 1 270 90 arc tMatrix setmatrix
  closepath} bdef
/FlrRR {MlrRR stroke } bdef
/PlrRR {MlrRR fill } bdef
/MtbRR {/lry xdef /lrx xdef /uly xdef /ulx xdef /rad lrx ulx sub 2 div def
  newpath tMatrix currentmatrix pop ulx rad add uly rad add translate
  rad rad scale 0 0 1 180 360 arc tMatrix setmatrix lrx rad sub lry rad
  sub translate rad rad scale 0 0 1 0 180 arc tMatrix setmatrix
  closepath} bdef
/FtbRR {MtbRR stroke } bdef
/PtbRR {MtbRR fill } bdef
/stri 6 array def /dtri 6 array def
/smat 6 array def /dmat 6 array def
/tmat1 6 array def /tmat2 6 array def /dif 3 array def
/asub {/ind2 exch def /ind1 exch def dup dup
  ind1 get exch ind2 get sub exch } bdef
/tri_to_matrix {
  2 0 asub 3 1 asub 4 0 asub 5 1 asub
  dup 0 get exch 1 get 7 -1 roll astore } bdef
/compute_transform {
  dmat dtri tri_to_matrix tmat1 invertmatrix 
  smat stri tri_to_matrix tmat2 concatmatrix } bdef
/ds {stri astore pop} bdef
/dt {dtri astore pop} bdef
/db {2 copy /cols xdef /rows xdef mul dup 3 mul string
  currentfile 
  3 index 0 eq {/ASCIIHexDecode filter}
  {/ASCII85Decode filter 3 index 2 eq {/RunLengthDecode filter} if }
  ifelse exch readstring pop
  dup 0 3 index getinterval /rbmap xdef
  dup 2 index dup getinterval /gbmap xdef
  1 index dup 2 mul exch getinterval /bbmap xdef pop pop}bdef
/it {gs np dtri aload pop moveto lineto lineto cp c
  cols rows 8 compute_transform 
  rbmap gbmap bbmap true 3 colorimage gr}bdef
/il {newpath moveto lineto stroke}bdef
currentdict end def
%%EndProlog

%%BeginSetup
MathWorks begin

0 cap

end
%%EndSetup

%%Page: 1 1
%%BeginPageSetup
%%PageBoundingBox:   -56   157   670   633
MathWorks begin
bpage
%%EndPageSetup

%%BeginObject: obj1
bplot

/dpi2point 12 def
portraitMode -0672 7596 csm

    0     0  8716  5703 rc
88 dict begin %Colortable dictionary
/c0 { 0.000000 0.000000 0.000000 sr} bdef
/c1 { 1.000000 1.000000 1.000000 sr} bdef
/c2 { 0.900000 0.000000 0.000000 sr} bdef
/c3 { 0.000000 0.820000 0.000000 sr} bdef
/c4 { 0.000000 0.000000 0.800000 sr} bdef
/c5 { 0.910000 0.820000 0.320000 sr} bdef
/c6 { 1.000000 0.260000 0.820000 sr} bdef
/c7 { 0.000000 0.820000 0.820000 sr} bdef
c0
1 j
1 sg
   0    0 8717 5704 rf
6 w
0 4648 6754 0 0 -4648 1133 5076 4 MP
PP
-6754 0 0 4648 6754 0 0 -4648 1133 5076 5 MP stroke
4 w
DO
0 sg
1133 5076 mt 1133  428 L
1133  428 mt 1133  428 L
1802 5076 mt 1802  428 L
1802  428 mt 1802  428 L
2471 5076 mt 2471  428 L
2471  428 mt 2471  428 L
3140 5076 mt 3140  428 L
3140  428 mt 3140  428 L
3809 5076 mt 3809  428 L
3809  428 mt 3809  428 L
4478 5076 mt 4478  428 L
4478  428 mt 4478  428 L
5147 5076 mt 5147  428 L
5147  428 mt 5147  428 L
5816 5076 mt 5816  428 L
5816  428 mt 5816  428 L
6486 5076 mt 6486  428 L
6486  428 mt 6486  428 L
7155 5076 mt 7155  428 L
7155  428 mt 7155  428 L
7824 5076 mt 7824  428 L
7824  428 mt 7824  428 L
/c8 { 0.000000 0.000000 1.000000 sr} bdef
c8
1133 5053 mt 7888 5053 L
7888 5053 mt 7888 5053 L
1133 4591 mt 7888 4591 L
7888 4591 mt 7888 4591 L
1133 4129 mt 7888 4129 L
7888 4129 mt 7888 4129 L
1133 3667 mt 7888 3667 L
7888 3667 mt 7888 3667 L
1133 3205 mt 7888 3205 L
7888 3205 mt 7888 3205 L
1133 2743 mt 7888 2743 L
7888 2743 mt 7888 2743 L
1133 2281 mt 7888 2281 L
7888 2281 mt 7888 2281 L
1133 1819 mt 7888 1819 L
7888 1819 mt 7888 1819 L
1133 1356 mt 7888 1356 L
7888 1356 mt 7888 1356 L
1133  894 mt 7888  894 L
7888  894 mt 7888  894 L
1133  432 mt 7888  432 L
7888  432 mt 7888  432 L
SO
6 w
0 sg
1133 5076 mt 7887 5076 L
1133  428 mt 7887  428 L
c8
1133 5076 mt 1133  428 L
7887 5076 mt 7887  428 L
0 sg
1133 5076 mt 7887 5076 L
c8
1133 5076 mt 1133  428 L
0 sg
1133 5076 mt 1133 5008 L
1133  428 mt 1133  495 L
%%IncludeResource: font Times-Roman
/Times-Roman /ISOLatin1Encoding 168 FMSR

1049 5260 mt 
(32) s
1802 5076 mt 1802 5008 L
1802  428 mt 1802  495 L
1718 5260 mt 
(64) s
1802 5076 mt 1802 5042 L
1802  428 mt 1802  461 L
DO
1802 5076 mt 1802  428 L
1802  428 mt 1802  428 L
SO
1802 5076 mt 1802 5042 L
1802  428 mt 1802  461 L
DO
1802 5076 mt 1802  428 L
1802  428 mt 1802  428 L
SO
1802 5076 mt 1802 5042 L
1802  428 mt 1802  461 L
DO
1802 5076 mt 1802  428 L
1802  428 mt 1802  428 L
SO
1802 5076 mt 1802 5042 L
1802  428 mt 1802  461 L
DO
1802 5076 mt 1802  428 L
1802  428 mt 1802  428 L
SO
1802 5076 mt 1802 5042 L
1802  428 mt 1802  461 L
DO
1802 5076 mt 1802  428 L
1802  428 mt 1802  428 L
SO
1802 5076 mt 1802 5042 L
1802  428 mt 1802  461 L
DO
1802 5076 mt 1802  428 L
1802  428 mt 1802  428 L
SO
1802 5076 mt 1802 5042 L
1802  428 mt 1802  461 L
DO
1802 5076 mt 1802  428 L
1802  428 mt 1802  428 L
SO
1802 5076 mt 1802 5042 L
1802  428 mt 1802  461 L
DO
1802 5076 mt 1802  428 L
1802  428 mt 1802  428 L
SO
1802 5076 mt 1802 5042 L
1802  428 mt 1802  461 L
DO
1802 5076 mt 1802  428 L
1802  428 mt 1802  428 L
SO
2471 5076 mt 2471 5008 L
2471  428 mt 2471  495 L
2345 5260 mt 
(128) s
2471 5076 mt 2471 5042 L
2471  428 mt 2471  461 L
DO
2471 5076 mt 2471  428 L
2471  428 mt 2471  428 L
SO
2471 5076 mt 2471 5042 L
2471  428 mt 2471  461 L
DO
2471 5076 mt 2471  428 L
2471  428 mt 2471  428 L
SO
2471 5076 mt 2471 5042 L
2471  428 mt 2471  461 L
DO
2471 5076 mt 2471  428 L
2471  428 mt 2471  428 L
SO
2471 5076 mt 2471 5042 L
2471  428 mt 2471  461 L
DO
2471 5076 mt 2471  428 L
2471  428 mt 2471  428 L
SO
2471 5076 mt 2471 5042 L
2471  428 mt 2471  461 L
DO
2471 5076 mt 2471  428 L
2471  428 mt 2471  428 L
SO
2471 5076 mt 2471 5042 L
2471  428 mt 2471  461 L
DO
2471 5076 mt 2471  428 L
2471  428 mt 2471  428 L
SO
2471 5076 mt 2471 5042 L
2471  428 mt 2471  461 L
DO
2471 5076 mt 2471  428 L
2471  428 mt 2471  428 L
SO
2471 5076 mt 2471 5042 L
2471  428 mt 2471  461 L
DO
2471 5076 mt 2471  428 L
2471  428 mt 2471  428 L
SO
2471 5076 mt 2471 5042 L
2471  428 mt 2471  461 L
DO
2471 5076 mt 2471  428 L
2471  428 mt 2471  428 L
SO
3140 5076 mt 3140 5008 L
3140  428 mt 3140  495 L
3014 5260 mt 
(256) s
3140 5076 mt 3140 5042 L
3140  428 mt 3140  461 L
DO
3140 5076 mt 3140  428 L
3140  428 mt 3140  428 L
SO
3140 5076 mt 3140 5042 L
3140  428 mt 3140  461 L
DO
3140 5076 mt 3140  428 L
3140  428 mt 3140  428 L
SO
3140 5076 mt 3140 5042 L
3140  428 mt 3140  461 L
DO
3140 5076 mt 3140  428 L
3140  428 mt 3140  428 L
SO
3140 5076 mt 3140 5042 L
3140  428 mt 3140  461 L
DO
3140 5076 mt 3140  428 L
3140  428 mt 3140  428 L
SO
3140 5076 mt 3140 5042 L
3140  428 mt 3140  461 L
DO
3140 5076 mt 3140  428 L
3140  428 mt 3140  428 L
SO
3140 5076 mt 3140 5042 L
3140  428 mt 3140  461 L
DO
3140 5076 mt 3140  428 L
3140  428 mt 3140  428 L
SO
3140 5076 mt 3140 5042 L
3140  428 mt 3140  461 L
DO
3140 5076 mt 3140  428 L
3140  428 mt 3140  428 L
SO
3140 5076 mt 3140 5042 L
3140  428 mt 3140  461 L
DO
3140 5076 mt 3140  428 L
3140  428 mt 3140  428 L
SO
3140 5076 mt 3140 5042 L
3140  428 mt 3140  461 L
DO
3140 5076 mt 3140  428 L
3140  428 mt 3140  428 L
SO
3809 5076 mt 3809 5008 L
3809  428 mt 3809  495 L
3683 5260 mt 
(512) s
3809 5076 mt 3809 5042 L
3809  428 mt 3809  461 L
DO
3809 5076 mt 3809  428 L
3809  428 mt 3809  428 L
SO
3809 5076 mt 3809 5042 L
3809  428 mt 3809  461 L
DO
3809 5076 mt 3809  428 L
3809  428 mt 3809  428 L
SO
3809 5076 mt 3809 5042 L
3809  428 mt 3809  461 L
DO
3809 5076 mt 3809  428 L
3809  428 mt 3809  428 L
SO
3809 5076 mt 3809 5042 L
3809  428 mt 3809  461 L
DO
3809 5076 mt 3809  428 L
3809  428 mt 3809  428 L
SO
3809 5076 mt 3809 5042 L
3809  428 mt 3809  461 L
DO
3809 5076 mt 3809  428 L
3809  428 mt 3809  428 L
SO
3809 5076 mt 3809 5042 L
3809  428 mt 3809  461 L
DO
3809 5076 mt 3809  428 L
3809  428 mt 3809  428 L
SO
3809 5076 mt 3809 5042 L
3809  428 mt 3809  461 L
DO
3809 5076 mt 3809  428 L
3809  428 mt 3809  428 L
SO
3809 5076 mt 3809 5042 L
3809  428 mt 3809  461 L
DO
3809 5076 mt 3809  428 L
3809  428 mt 3809  428 L
SO
3809 5076 mt 3809 5042 L
3809  428 mt 3809  461 L
DO
3809 5076 mt 3809  428 L
3809  428 mt 3809  428 L
SO
4478 5076 mt 4478 5008 L
4478  428 mt 4478  495 L
4310 5260 mt 
(1024) s
4478 5076 mt 4478 5042 L
4478  428 mt 4478  461 L
DO
4478 5076 mt 4478  428 L
4478  428 mt 4478  428 L
SO
4478 5076 mt 4478 5042 L
4478  428 mt 4478  461 L
DO
4478 5076 mt 4478  428 L
4478  428 mt 4478  428 L
SO
4478 5076 mt 4478 5042 L
4478  428 mt 4478  461 L
DO
4478 5076 mt 4478  428 L
4478  428 mt 4478  428 L
SO
4478 5076 mt 4478 5042 L
4478  428 mt 4478  461 L
DO
4478 5076 mt 4478  428 L
4478  428 mt 4478  428 L
SO
4478 5076 mt 4478 5042 L
4478  428 mt 4478  461 L
DO
4478 5076 mt 4478  428 L
4478  428 mt 4478  428 L
SO
4478 5076 mt 4478 5042 L
4478  428 mt 4478  461 L
DO
4478 5076 mt 4478  428 L
4478  428 mt 4478  428 L
SO
4478 5076 mt 4478 5042 L
4478  428 mt 4478  461 L
DO
4478 5076 mt 4478  428 L
4478  428 mt 4478  428 L
SO
4478 5076 mt 4478 5042 L
4478  428 mt 4478  461 L
DO
4478 5076 mt 4478  428 L
4478  428 mt 4478  428 L
SO
4478 5076 mt 4478 5042 L
4478  428 mt 4478  461 L
DO
4478 5076 mt 4478  428 L
4478  428 mt 4478  428 L
SO
5147 5076 mt 5147 5008 L
5147  428 mt 5147  495 L
4979 5260 mt 
(2048) s
5147 5076 mt 5147 5042 L
5147  428 mt 5147  461 L
DO
5147 5076 mt 5147  428 L
5147  428 mt 5147  428 L
SO
5147 5076 mt 5147 5042 L
5147  428 mt 5147  461 L
DO
5147 5076 mt 5147  428 L
5147  428 mt 5147  428 L
SO
5147 5076 mt 5147 5042 L
5147  428 mt 5147  461 L
DO
5147 5076 mt 5147  428 L
5147  428 mt 5147  428 L
SO
5147 5076 mt 5147 5042 L
5147  428 mt 5147  461 L
DO
5147 5076 mt 5147  428 L
5147  428 mt 5147  428 L
SO
5147 5076 mt 5147 5042 L
5147  428 mt 5147  461 L
DO
5147 5076 mt 5147  428 L
5147  428 mt 5147  428 L
SO
5147 5076 mt 5147 5042 L
5147  428 mt 5147  461 L
DO
5147 5076 mt 5147  428 L
5147  428 mt 5147  428 L
SO
5147 5076 mt 5147 5042 L
5147  428 mt 5147  461 L
DO
5147 5076 mt 5147  428 L
5147  428 mt 5147  428 L
SO
5147 5076 mt 5147 5042 L
5147  428 mt 5147  461 L
DO
5147 5076 mt 5147  428 L
5147  428 mt 5147  428 L
SO
5147 5076 mt 5147 5042 L
5147  428 mt 5147  461 L
DO
5147 5076 mt 5147  428 L
5147  428 mt 5147  428 L
SO
5816 5076 mt 5816 5008 L
5816  428 mt 5816  495 L
5648 5260 mt 
(4096) s
5816 5076 mt 5816 5042 L
5816  428 mt 5816  461 L
DO
5816 5076 mt 5816  428 L
5816  428 mt 5816  428 L
SO
5816 5076 mt 5816 5042 L
5816  428 mt 5816  461 L
DO
5816 5076 mt 5816  428 L
5816  428 mt 5816  428 L
SO
5816 5076 mt 5816 5042 L
5816  428 mt 5816  461 L
DO
5816 5076 mt 5816  428 L
5816  428 mt 5816  428 L
SO
5816 5076 mt 5816 5042 L
5816  428 mt 5816  461 L
DO
5816 5076 mt 5816  428 L
5816  428 mt 5816  428 L
SO
5816 5076 mt 5816 5042 L
5816  428 mt 5816  461 L
DO
5816 5076 mt 5816  428 L
5816  428 mt 5816  428 L
SO
5816 5076 mt 5816 5042 L
5816  428 mt 5816  461 L
DO
5816 5076 mt 5816  428 L
5816  428 mt 5816  428 L
SO
5816 5076 mt 5816 5042 L
5816  428 mt 5816  461 L
DO
5816 5076 mt 5816  428 L
5816  428 mt 5816  428 L
SO
5816 5076 mt 5816 5042 L
5816  428 mt 5816  461 L
DO
5816 5076 mt 5816  428 L
5816  428 mt 5816  428 L
SO
5816 5076 mt 5816 5042 L
5816  428 mt 5816  461 L
DO
5816 5076 mt 5816  428 L
5816  428 mt 5816  428 L
SO
6486 5076 mt 6486 5008 L
6486  428 mt 6486  495 L
6318 5260 mt 
(8192) s
6486 5076 mt 6486 5042 L
6486  428 mt 6486  461 L
DO
6486 5076 mt 6486  428 L
6486  428 mt 6486  428 L
SO
6486 5076 mt 6486 5042 L
6486  428 mt 6486  461 L
DO
6486 5076 mt 6486  428 L
6486  428 mt 6486  428 L
SO
6486 5076 mt 6486 5042 L
6486  428 mt 6486  461 L
DO
6486 5076 mt 6486  428 L
6486  428 mt 6486  428 L
SO
6486 5076 mt 6486 5042 L
6486  428 mt 6486  461 L
DO
6486 5076 mt 6486  428 L
6486  428 mt 6486  428 L
SO
6486 5076 mt 6486 5042 L
6486  428 mt 6486  461 L
DO
6486 5076 mt 6486  428 L
6486  428 mt 6486  428 L
SO
6486 5076 mt 6486 5042 L
6486  428 mt 6486  461 L
DO
6486 5076 mt 6486  428 L
6486  428 mt 6486  428 L
SO
6486 5076 mt 6486 5042 L
6486  428 mt 6486  461 L
DO
6486 5076 mt 6486  428 L
6486  428 mt 6486  428 L
SO
6486 5076 mt 6486 5042 L
6486  428 mt 6486  461 L
DO
6486 5076 mt 6486  428 L
6486  428 mt 6486  428 L
SO
6486 5076 mt 6486 5042 L
6486  428 mt 6486  461 L
DO
6486 5076 mt 6486  428 L
6486  428 mt 6486  428 L
SO
7155 5076 mt 7155 5008 L
7155  428 mt 7155  495 L
6945 5260 mt 
(16384) s
7155 5076 mt 7155 5042 L
7155  428 mt 7155  461 L
DO
7155 5076 mt 7155  428 L
7155  428 mt 7155  428 L
SO
7155 5076 mt 7155 5042 L
7155  428 mt 7155  461 L
DO
7155 5076 mt 7155  428 L
7155  428 mt 7155  428 L
SO
7155 5076 mt 7155 5042 L
7155  428 mt 7155  461 L
DO
7155 5076 mt 7155  428 L
7155  428 mt 7155  428 L
SO
7155 5076 mt 7155 5042 L
7155  428 mt 7155  461 L
DO
7155 5076 mt 7155  428 L
7155  428 mt 7155  428 L
SO
7155 5076 mt 7155 5042 L
7155  428 mt 7155  461 L
DO
7155 5076 mt 7155  428 L
7155  428 mt 7155  428 L
SO
7155 5076 mt 7155 5042 L
7155  428 mt 7155  461 L
DO
7155 5076 mt 7155  428 L
7155  428 mt 7155  428 L
SO
7155 5076 mt 7155 5042 L
7155  428 mt 7155  461 L
DO
7155 5076 mt 7155  428 L
7155  428 mt 7155  428 L
SO
7155 5076 mt 7155 5042 L
7155  428 mt 7155  461 L
DO
7155 5076 mt 7155  428 L
7155  428 mt 7155  428 L
SO
7155 5076 mt 7155 5042 L
7155  428 mt 7155  461 L
DO
7155 5076 mt 7155  428 L
7155  428 mt 7155  428 L
SO
7824 5076 mt 7824 5008 L
7824  428 mt 7824  495 L
7614 5260 mt 
(32768) s
7824 5076 mt 7824 5042 L
7824  428 mt 7824  461 L
DO
7824 5076 mt 7824  428 L
7824  428 mt 7824  428 L
SO
c8
1133 5053 mt 1200 5053 L
7888 5053 mt 7820 5053 L
 930 5113 mt 
(32) s
1133 4591 mt 1200 4591 L
7888 4591 mt 7820 4591 L
 930 4651 mt 
(64) s
1133 4591 mt 1166 4591 L
7888 4591 mt 7854 4591 L
DO
1133 4591 mt 7888 4591 L
7888 4591 mt 7888 4591 L
SO
1133 4591 mt 1166 4591 L
7888 4591 mt 7854 4591 L
DO
1133 4591 mt 7888 4591 L
7888 4591 mt 7888 4591 L
SO
1133 4591 mt 1166 4591 L
7888 4591 mt 7854 4591 L
DO
1133 4591 mt 7888 4591 L
7888 4591 mt 7888 4591 L
SO
1133 4591 mt 1166 4591 L
7888 4591 mt 7854 4591 L
DO
1133 4591 mt 7888 4591 L
7888 4591 mt 7888 4591 L
SO
1133 4591 mt 1166 4591 L
7888 4591 mt 7854 4591 L
DO
1133 4591 mt 7888 4591 L
7888 4591 mt 7888 4591 L
SO
1133 4591 mt 1166 4591 L
7888 4591 mt 7854 4591 L
DO
1133 4591 mt 7888 4591 L
7888 4591 mt 7888 4591 L
SO
1133 4591 mt 1166 4591 L
7888 4591 mt 7854 4591 L
DO
1133 4591 mt 7888 4591 L
7888 4591 mt 7888 4591 L
SO
1133 4591 mt 1166 4591 L
7888 4591 mt 7854 4591 L
DO
1133 4591 mt 7888 4591 L
7888 4591 mt 7888 4591 L
SO
1133 4591 mt 1166 4591 L
7888 4591 mt 7854 4591 L
DO
1133 4591 mt 7888 4591 L
7888 4591 mt 7888 4591 L
SO
1133 4129 mt 1200 4129 L
7888 4129 mt 7820 4129 L
 846 4189 mt 
(128) s
1133 4129 mt 1166 4129 L
7888 4129 mt 7854 4129 L
DO
1133 4129 mt 7888 4129 L
7888 4129 mt 7888 4129 L
SO
1133 4129 mt 1166 4129 L
7888 4129 mt 7854 4129 L
DO
1133 4129 mt 7888 4129 L
7888 4129 mt 7888 4129 L
SO
1133 4129 mt 1166 4129 L
7888 4129 mt 7854 4129 L
DO
1133 4129 mt 7888 4129 L
7888 4129 mt 7888 4129 L
SO
1133 4129 mt 1166 4129 L
7888 4129 mt 7854 4129 L
DO
1133 4129 mt 7888 4129 L
7888 4129 mt 7888 4129 L
SO
1133 4129 mt 1166 4129 L
7888 4129 mt 7854 4129 L
DO
1133 4129 mt 7888 4129 L
7888 4129 mt 7888 4129 L
SO
1133 4129 mt 1166 4129 L
7888 4129 mt 7854 4129 L
DO
1133 4129 mt 7888 4129 L
7888 4129 mt 7888 4129 L
SO
1133 4129 mt 1166 4129 L
7888 4129 mt 7854 4129 L
DO
1133 4129 mt 7888 4129 L
7888 4129 mt 7888 4129 L
SO
1133 4129 mt 1166 4129 L
7888 4129 mt 7854 4129 L
DO
1133 4129 mt 7888 4129 L
7888 4129 mt 7888 4129 L
SO
1133 4129 mt 1166 4129 L
7888 4129 mt 7854 4129 L
DO
1133 4129 mt 7888 4129 L
7888 4129 mt 7888 4129 L
SO
1133 3667 mt 1200 3667 L
7888 3667 mt 7820 3667 L
 846 3727 mt 
(256) s
1133 3667 mt 1166 3667 L
7888 3667 mt 7854 3667 L
DO
1133 3667 mt 7888 3667 L
7888 3667 mt 7888 3667 L
SO
1133 3667 mt 1166 3667 L
7888 3667 mt 7854 3667 L
DO
1133 3667 mt 7888 3667 L
7888 3667 mt 7888 3667 L
SO
1133 3667 mt 1166 3667 L
7888 3667 mt 7854 3667 L
DO
1133 3667 mt 7888 3667 L
7888 3667 mt 7888 3667 L
SO
1133 3667 mt 1166 3667 L
7888 3667 mt 7854 3667 L
DO
1133 3667 mt 7888 3667 L
7888 3667 mt 7888 3667 L
SO
1133 3667 mt 1166 3667 L
7888 3667 mt 7854 3667 L
DO
1133 3667 mt 7888 3667 L
7888 3667 mt 7888 3667 L
SO
1133 3667 mt 1166 3667 L
7888 3667 mt 7854 3667 L
DO
1133 3667 mt 7888 3667 L
7888 3667 mt 7888 3667 L
SO
1133 3667 mt 1166 3667 L
7888 3667 mt 7854 3667 L
DO
1133 3667 mt 7888 3667 L
7888 3667 mt 7888 3667 L
SO
1133 3667 mt 1166 3667 L
7888 3667 mt 7854 3667 L
DO
1133 3667 mt 7888 3667 L
7888 3667 mt 7888 3667 L
SO
1133 3667 mt 1166 3667 L
7888 3667 mt 7854 3667 L
DO
1133 3667 mt 7888 3667 L
7888 3667 mt 7888 3667 L
SO
1133 3205 mt 1200 3205 L
7888 3205 mt 7820 3205 L
 846 3265 mt 
(512) s
1133 3205 mt 1166 3205 L
7888 3205 mt 7854 3205 L
DO
1133 3205 mt 7888 3205 L
7888 3205 mt 7888 3205 L
SO
1133 3205 mt 1166 3205 L
7888 3205 mt 7854 3205 L
DO
1133 3205 mt 7888 3205 L
7888 3205 mt 7888 3205 L
SO
1133 3205 mt 1166 3205 L
7888 3205 mt 7854 3205 L
DO
1133 3205 mt 7888 3205 L
7888 3205 mt 7888 3205 L
SO
1133 3205 mt 1166 3205 L
7888 3205 mt 7854 3205 L
DO
1133 3205 mt 7888 3205 L
7888 3205 mt 7888 3205 L
SO
1133 3205 mt 1166 3205 L
7888 3205 mt 7854 3205 L
DO
1133 3205 mt 7888 3205 L
7888 3205 mt 7888 3205 L
SO
1133 3205 mt 1166 3205 L
7888 3205 mt 7854 3205 L
DO
1133 3205 mt 7888 3205 L
7888 3205 mt 7888 3205 L
SO
1133 3205 mt 1166 3205 L
7888 3205 mt 7854 3205 L
DO
1133 3205 mt 7888 3205 L
7888 3205 mt 7888 3205 L
SO
1133 3205 mt 1166 3205 L
7888 3205 mt 7854 3205 L
DO
1133 3205 mt 7888 3205 L
7888 3205 mt 7888 3205 L
SO
1133 3205 mt 1166 3205 L
7888 3205 mt 7854 3205 L
DO
1133 3205 mt 7888 3205 L
7888 3205 mt 7888 3205 L
SO
1133 2743 mt 1200 2743 L
7888 2743 mt 7820 2743 L
 762 2803 mt 
(1024) s
1133 2743 mt 1166 2743 L
7888 2743 mt 7854 2743 L
DO
1133 2743 mt 7888 2743 L
7888 2743 mt 7888 2743 L
SO
1133 2743 mt 1166 2743 L
7888 2743 mt 7854 2743 L
DO
1133 2743 mt 7888 2743 L
7888 2743 mt 7888 2743 L
SO
1133 2743 mt 1166 2743 L
7888 2743 mt 7854 2743 L
DO
1133 2743 mt 7888 2743 L
7888 2743 mt 7888 2743 L
SO
1133 2743 mt 1166 2743 L
7888 2743 mt 7854 2743 L
DO
1133 2743 mt 7888 2743 L
7888 2743 mt 7888 2743 L
SO
1133 2743 mt 1166 2743 L
7888 2743 mt 7854 2743 L
DO
1133 2743 mt 7888 2743 L
7888 2743 mt 7888 2743 L
SO
1133 2743 mt 1166 2743 L
7888 2743 mt 7854 2743 L
DO
1133 2743 mt 7888 2743 L
7888 2743 mt 7888 2743 L
SO
1133 2743 mt 1166 2743 L
7888 2743 mt 7854 2743 L
DO
1133 2743 mt 7888 2743 L
7888 2743 mt 7888 2743 L
SO
1133 2743 mt 1166 2743 L
7888 2743 mt 7854 2743 L
DO
1133 2743 mt 7888 2743 L
7888 2743 mt 7888 2743 L
SO
1133 2743 mt 1166 2743 L
7888 2743 mt 7854 2743 L
DO
1133 2743 mt 7888 2743 L
7888 2743 mt 7888 2743 L
SO
1133 2281 mt 1200 2281 L
7888 2281 mt 7820 2281 L
 762 2341 mt 
(2048) s
1133 2281 mt 1166 2281 L
7888 2281 mt 7854 2281 L
DO
1133 2281 mt 7888 2281 L
7888 2281 mt 7888 2281 L
SO
1133 2281 mt 1166 2281 L
7888 2281 mt 7854 2281 L
DO
1133 2281 mt 7888 2281 L
7888 2281 mt 7888 2281 L
SO
1133 2281 mt 1166 2281 L
7888 2281 mt 7854 2281 L
DO
1133 2281 mt 7888 2281 L
7888 2281 mt 7888 2281 L
SO
1133 2281 mt 1166 2281 L
7888 2281 mt 7854 2281 L
DO
1133 2281 mt 7888 2281 L
7888 2281 mt 7888 2281 L
SO
1133 2281 mt 1166 2281 L
7888 2281 mt 7854 2281 L
DO
1133 2281 mt 7888 2281 L
7888 2281 mt 7888 2281 L
SO
1133 2281 mt 1166 2281 L
7888 2281 mt 7854 2281 L
DO
1133 2281 mt 7888 2281 L
7888 2281 mt 7888 2281 L
SO
1133 2281 mt 1166 2281 L
7888 2281 mt 7854 2281 L
DO
1133 2281 mt 7888 2281 L
7888 2281 mt 7888 2281 L
SO
1133 2281 mt 1166 2281 L
7888 2281 mt 7854 2281 L
DO
1133 2281 mt 7888 2281 L
7888 2281 mt 7888 2281 L
SO
1133 2281 mt 1166 2281 L
7888 2281 mt 7854 2281 L
DO
1133 2281 mt 7888 2281 L
7888 2281 mt 7888 2281 L
SO
1133 1819 mt 1200 1819 L
7888 1819 mt 7820 1819 L
 762 1879 mt 
(4096) s
1133 1819 mt 1166 1819 L
7888 1819 mt 7854 1819 L
DO
1133 1819 mt 7888 1819 L
7888 1819 mt 7888 1819 L
SO
1133 1819 mt 1166 1819 L
7888 1819 mt 7854 1819 L
DO
1133 1819 mt 7888 1819 L
7888 1819 mt 7888 1819 L
SO
1133 1819 mt 1166 1819 L
7888 1819 mt 7854 1819 L
DO
1133 1819 mt 7888 1819 L
7888 1819 mt 7888 1819 L
SO
1133 1819 mt 1166 1819 L
7888 1819 mt 7854 1819 L
DO
1133 1819 mt 7888 1819 L
7888 1819 mt 7888 1819 L
SO
1133 1819 mt 1166 1819 L
7888 1819 mt 7854 1819 L
DO
1133 1819 mt 7888 1819 L
7888 1819 mt 7888 1819 L
SO
1133 1819 mt 1166 1819 L
7888 1819 mt 7854 1819 L
DO
1133 1819 mt 7888 1819 L
7888 1819 mt 7888 1819 L
SO
1133 1819 mt 1166 1819 L
7888 1819 mt 7854 1819 L
DO
1133 1819 mt 7888 1819 L
7888 1819 mt 7888 1819 L
SO
1133 1819 mt 1166 1819 L
7888 1819 mt 7854 1819 L
DO
1133 1819 mt 7888 1819 L
7888 1819 mt 7888 1819 L
SO
1133 1819 mt 1166 1819 L
7888 1819 mt 7854 1819 L
DO
1133 1819 mt 7888 1819 L
7888 1819 mt 7888 1819 L
SO
1133 1356 mt 1200 1356 L
7888 1356 mt 7820 1356 L
 762 1416 mt 
(8192) s
1133 1356 mt 1166 1356 L
7888 1356 mt 7854 1356 L
DO
1133 1356 mt 7888 1356 L
7888 1356 mt 7888 1356 L
SO
1133 1356 mt 1166 1356 L
7888 1356 mt 7854 1356 L
DO
1133 1356 mt 7888 1356 L
7888 1356 mt 7888 1356 L
SO
1133 1356 mt 1166 1356 L
7888 1356 mt 7854 1356 L
DO
1133 1356 mt 7888 1356 L
7888 1356 mt 7888 1356 L
SO
1133 1356 mt 1166 1356 L
7888 1356 mt 7854 1356 L
DO
1133 1356 mt 7888 1356 L
7888 1356 mt 7888 1356 L
SO
1133 1356 mt 1166 1356 L
7888 1356 mt 7854 1356 L
DO
1133 1356 mt 7888 1356 L
7888 1356 mt 7888 1356 L
SO
1133 1356 mt 1166 1356 L
7888 1356 mt 7854 1356 L
DO
1133 1356 mt 7888 1356 L
7888 1356 mt 7888 1356 L
SO
1133 1356 mt 1166 1356 L
7888 1356 mt 7854 1356 L
DO
1133 1356 mt 7888 1356 L
7888 1356 mt 7888 1356 L
SO
1133 1356 mt 1166 1356 L
7888 1356 mt 7854 1356 L
DO
1133 1356 mt 7888 1356 L
7888 1356 mt 7888 1356 L
SO
1133 1356 mt 1166 1356 L
7888 1356 mt 7854 1356 L
DO
1133 1356 mt 7888 1356 L
7888 1356 mt 7888 1356 L
SO
1133  894 mt 1200  894 L
7888  894 mt 7820  894 L
 678  954 mt 
(16384) s
1133  894 mt 1166  894 L
7888  894 mt 7854  894 L
DO
1133  894 mt 7888  894 L
7888  894 mt 7888  894 L
SO
1133  894 mt 1166  894 L
7888  894 mt 7854  894 L
DO
1133  894 mt 7888  894 L
7888  894 mt 7888  894 L
SO
1133  894 mt 1166  894 L
7888  894 mt 7854  894 L
DO
1133  894 mt 7888  894 L
7888  894 mt 7888  894 L
SO
1133  894 mt 1166  894 L
7888  894 mt 7854  894 L
DO
1133  894 mt 7888  894 L
7888  894 mt 7888  894 L
SO
1133  894 mt 1166  894 L
7888  894 mt 7854  894 L
DO
1133  894 mt 7888  894 L
7888  894 mt 7888  894 L
SO
1133  894 mt 1166  894 L
7888  894 mt 7854  894 L
DO
1133  894 mt 7888  894 L
7888  894 mt 7888  894 L
SO
1133  894 mt 1166  894 L
7888  894 mt 7854  894 L
DO
1133  894 mt 7888  894 L
7888  894 mt 7888  894 L
SO
1133  894 mt 1166  894 L
7888  894 mt 7854  894 L
DO
1133  894 mt 7888  894 L
7888  894 mt 7888  894 L
SO
1133  894 mt 1166  894 L
7888  894 mt 7854  894 L
DO
1133  894 mt 7888  894 L
7888  894 mt 7888  894 L
SO
1133  432 mt 1200  432 L
7888  432 mt 7820  432 L
 678  492 mt 
(32768) s
1133  432 mt 1166  432 L
7888  432 mt 7854  432 L
DO
1133  432 mt 7888  432 L
7888  432 mt 7888  432 L
SO
0 sg
1133 5076 mt 7887 5076 L
1133  428 mt 7887  428 L
c8
1133 5076 mt 1133  428 L
7887 5076 mt 7887  428 L
gs 1133 428 6756 4649 rc
36 w
/c9 { 0.305882 0.396078 0.580392 sr} bdef
c9
669 -402 669 -431 670 -446 669 -453 669 -457 669 -459 669 -457 669 -461 
669 -462 669 -473 1133 5076 11 MP stroke
gr

36 w
c9
gs 1023 465 6912 4722 rc
0 j
0 -58 -58 0 0 58 58 0 1104 5047 5 MP
/c10 { 0.203922 0.301961 0.494118 sr} bdef
c10
gs
PP
gr
c9
DP
0 -58 -58 0 0 58 58 0 1773 4574 5 MP
c10
gs
PP
gr
c9
DP
0 -58 -58 0 0 58 58 0 2442 4112 5 MP
c10
gs
PP
gr
c9
DP
0 -58 -58 0 0 58 58 0 3111 3651 5 MP
c10
gs
PP
gr
c9
DP
0 -58 -58 0 0 58 58 0 3780 3194 5 MP
c10
gs
PP
gr
c9
DP
0 -58 -58 0 0 58 58 0 4449 2735 5 MP
c10
gs
PP
gr
c9
DP
0 -58 -58 0 0 58 58 0 5118 2278 5 MP
c10
gs
PP
gr
c9
DP
0 -58 -58 0 0 58 58 0 5787 1825 5 MP
c10
gs
PP
gr
c9
DP
0 -58 -58 0 0 58 58 0 6457 1379 5 MP
c10
gs
PP
gr
c9
DP
0 -58 -58 0 0 58 58 0 7126 948 5 MP
c10
gs
PP
gr
c9
DP
0 -58 -58 0 0 58 58 0 7795 546 5 MP
c10
gs
PP
gr
c9
DP
gr

gs 1133 428 6756 4649 rc
gr

0 sg
3720 5568 mt 
(Number of Processors) s
c8
 602 3084 mt  -90 rotate
(SpeedUp) s
90 rotate
6 w
4 w
DO
/c11 { 0.000000 0.500000 0.000000 sr} bdef
c11
7888 5076 mt 7888 5076 L
7888 5076 mt 1133 5076 L
7888 4633 mt 7888 4633 L
7888 4633 mt 1133 4633 L
7888 4190 mt 7888 4190 L
7888 4190 mt 1133 4190 L
7888 3748 mt 7888 3748 L
7888 3748 mt 1133 3748 L
7888 3305 mt 7888 3305 L
7888 3305 mt 1133 3305 L
7888 2862 mt 7888 2862 L
7888 2862 mt 1133 2862 L
7888 2420 mt 7888 2420 L
7888 2420 mt 1133 2420 L
7888 1977 mt 7888 1977 L
7888 1977 mt 1133 1977 L
7888 1534 mt 7888 1534 L
7888 1534 mt 1133 1534 L
7888 1092 mt 7888 1092 L
7888 1092 mt 1133 1092 L
7888  649 mt 7888  649 L
7888  649 mt 1133  649 L
SO
6 w
0 sg
1133 5076 mt 7887 5076 L
c11
7887 5076 mt 7887  428 L
7888 5076 mt 7820 5076 L
7922 5136 mt 
(0) s
7888 4633 mt 7820 4633 L
7922 4693 mt 
(0.1) s
7888 4190 mt 7820 4190 L
7922 4250 mt 
(0.2) s
7888 3748 mt 7820 3748 L
7922 3808 mt 
(0.3) s
7888 3305 mt 7820 3305 L
7922 3365 mt 
(0.4) s
7888 2862 mt 7820 2862 L
7922 2922 mt 
(0.5) s
7888 2420 mt 7820 2420 L
7922 2480 mt 
(0.6) s
7888 1977 mt 7820 1977 L
7922 2037 mt 
(0.7) s
7888 1534 mt 7820 1534 L
7922 1594 mt 
(0.8) s
7888 1092 mt 7820 1092 L
7922 1152 mt 
(0.9) s
7888  649 mt 7820  649 L
7922  709 mt 
(1) s
gs 1133 428 6756 4649 rc
36 w
/c12 { 0.164706 0.384314 0.274510 sr} bdef
c12
669 336 669 190 670 98 669 58 669 32 669 20 669 36 669 6 
669 4 669 -69 1133 793 11 MP stroke
gr

36 w
c12
  48   48 1133  793 PO
  48   48 1802  724 PO
  48   48 2471  728 PO
  48   48 3140  734 PO
  48   48 3809  770 PO
  48   48 4478  790 PO
  48   48 5147  822 PO
  48   48 5816  880 PO
  48   48 6486  978 PO
  48   48 7155 1168 PO
  48   48 7824 1504 PO
  48   48 1133  793 FO
  48   48 1802  724 FO
  48   48 2471  728 FO
  48   48 3140  734 FO
  48   48 3809  770 FO
  48   48 4478  790 FO
  48   48 5147  822 FO
  48   48 5816  880 FO
  48   48 6486  978 FO
  48   48 7155 1168 FO
  48   48 7824 1504 FO
gs 1133 428 6756 4649 rc
gr

c11
8351 3072 mt  -90 rotate
(Efficiency) s
90 rotate
6 w

end %%Color Dict

eplot
%%EndObject

epage
end

showpage

%%Trailer
%%EOF
