%!PS-Adobe-3.0 EPSF-3.0
%%Creator: MATLAB, The MathWorks, Inc. Version 8.3.0.532 (R2014a). Operating System: Linux 3.19.0-30-generic #34-Ubuntu SMP Fri Oct 2 22:08:41 UTC 2015 x86_64.
%%Title: /home/betogil/hp2fem-article/matlab/Comparing_BLAS/figures/eps/WeakScalability_SpeedUpRelative_Hexa_10000_P9.eps
%%CreationDate: 04/13/2016  11:07:01
%%DocumentNeededFonts: Helvetica-Bold
%%+ Helvetica
%%DocumentProcessColors: Cyan Magenta Yellow Black
%%LanguageLevel: 2
%%Pages: 1
%%BoundingBox:    44   188   559   614
%%EndComments

%%BeginProlog
% MathWorks dictionary
/MathWorks 160 dict begin
% definition operators
/bdef {bind def} bind def
/ldef {load def} bind def
/xdef {exch def} bdef
/xstore {exch store} bdef
% operator abbreviations
/c  /clip ldef
/cc /concat ldef
/cp /closepath ldef
/gr /grestore ldef
/gs /gsave ldef
/mt /moveto ldef
/np /newpath ldef
/cm /currentmatrix ldef
/sm /setmatrix ldef
/rm /rmoveto ldef
/rl /rlineto ldef
/s {show newpath} bdef
/sc {setcmykcolor} bdef
/sr /setrgbcolor ldef
/sg /setgray ldef
/w /setlinewidth ldef
/j /setlinejoin ldef
/cap /setlinecap ldef
/rc {rectclip} bdef
/rf {rectfill} bdef
% page state control
/pgsv () def
/bpage {/pgsv save def} bdef
/epage {pgsv restore} bdef
/bplot /gsave ldef
/eplot {stroke grestore} bdef
% orientation switch
/portraitMode 0 def /landscapeMode 1 def /rotateMode 2 def
% coordinate system mappings
/dpi2point 0 def
% font control
/FontSize 0 def
/FMS {/FontSize xstore findfont [FontSize 0 0 FontSize neg 0 0]
  makefont setfont} bdef
/reencode {exch dup where {pop load} {pop StandardEncoding} ifelse
  exch dup 3 1 roll findfont dup length dict begin
  { 1 index /FID ne {def}{pop pop} ifelse } forall
  /Encoding exch def currentdict end definefont pop} bdef
/isroman {findfont /CharStrings get /Agrave known} bdef
/FMSR {3 1 roll 1 index dup isroman {reencode} {pop pop} ifelse
  exch FMS} bdef
/csm {1 dpi2point div -1 dpi2point div scale neg translate
 dup landscapeMode eq {pop -90 rotate}
  {rotateMode eq {90 rotate} if} ifelse} bdef
% line types: solid, dotted, dashed, dotdash
/SO { [] 0 setdash } bdef
/DO { [.5 dpi2point mul 4 dpi2point mul] 0 setdash } bdef
/DA { [6 dpi2point mul] 0 setdash } bdef
/DD { [.5 dpi2point mul 4 dpi2point mul 6 dpi2point mul 4
  dpi2point mul] 0 setdash } bdef
% macros for lines and objects
/L {lineto stroke} bdef
/MP {3 1 roll moveto 1 sub {rlineto} repeat} bdef
/AP {{rlineto} repeat} bdef
/PDlw -1 def
/W {/PDlw currentlinewidth def setlinewidth} def
/PP {closepath eofill} bdef
/DP {closepath stroke} bdef
/MR {4 -2 roll moveto dup  0 exch rlineto exch 0 rlineto
  neg 0 exch rlineto closepath} bdef
/FR {MR stroke} bdef
/PR {MR fill} bdef
/L1i {{currentfile picstr readhexstring pop} image} bdef
/tMatrix matrix def
/MakeOval {newpath tMatrix currentmatrix pop translate scale
0 0 1 0 360 arc tMatrix setmatrix} bdef
/FO {MakeOval stroke} bdef
/PO {MakeOval fill} bdef
/PD {currentlinewidth 2 div 0 360 arc fill
   PDlw -1 eq not {PDlw w /PDlw -1 def} if} def
/FA {newpath tMatrix currentmatrix pop translate scale
  0 0 1 5 -2 roll arc tMatrix setmatrix stroke} bdef
/PA {newpath tMatrix currentmatrix pop	translate 0 0 moveto scale
  0 0 1 5 -2 roll arc closepath tMatrix setmatrix fill} bdef
/FAn {newpath tMatrix currentmatrix pop translate scale
  0 0 1 5 -2 roll arcn tMatrix setmatrix stroke} bdef
/PAn {newpath tMatrix currentmatrix pop translate 0 0 moveto scale
  0 0 1 5 -2 roll arcn closepath tMatrix setmatrix fill} bdef
/vradius 0 def /hradius 0 def /lry 0 def
/lrx 0 def /uly 0 def /ulx 0 def /rad 0 def
/MRR {/vradius xdef /hradius xdef /lry xdef /lrx xdef /uly xdef
  /ulx xdef newpath tMatrix currentmatrix pop ulx hradius add uly
  vradius add translate hradius vradius scale 0 0 1 180 270 arc 
  tMatrix setmatrix lrx hradius sub uly vradius add translate
  hradius vradius scale 0 0 1 270 360 arc tMatrix setmatrix
  lrx hradius sub lry vradius sub translate hradius vradius scale
  0 0 1 0 90 arc tMatrix setmatrix ulx hradius add lry vradius sub
  translate hradius vradius scale 0 0 1 90 180 arc tMatrix setmatrix
  closepath} bdef
/FRR {MRR stroke } bdef
/PRR {MRR fill } bdef
/MlrRR {/lry xdef /lrx xdef /uly xdef /ulx xdef /rad lry uly sub 2 div def
  newpath tMatrix currentmatrix pop ulx rad add uly rad add translate
  rad rad scale 0 0 1 90 270 arc tMatrix setmatrix lrx rad sub lry rad
  sub translate rad rad scale 0 0 1 270 90 arc tMatrix setmatrix
  closepath} bdef
/FlrRR {MlrRR stroke } bdef
/PlrRR {MlrRR fill } bdef
/MtbRR {/lry xdef /lrx xdef /uly xdef /ulx xdef /rad lrx ulx sub 2 div def
  newpath tMatrix currentmatrix pop ulx rad add uly rad add translate
  rad rad scale 0 0 1 180 360 arc tMatrix setmatrix lrx rad sub lry rad
  sub translate rad rad scale 0 0 1 0 180 arc tMatrix setmatrix
  closepath} bdef
/FtbRR {MtbRR stroke } bdef
/PtbRR {MtbRR fill } bdef
/stri 6 array def /dtri 6 array def
/smat 6 array def /dmat 6 array def
/tmat1 6 array def /tmat2 6 array def /dif 3 array def
/asub {/ind2 exch def /ind1 exch def dup dup
  ind1 get exch ind2 get sub exch } bdef
/tri_to_matrix {
  2 0 asub 3 1 asub 4 0 asub 5 1 asub
  dup 0 get exch 1 get 7 -1 roll astore } bdef
/compute_transform {
  dmat dtri tri_to_matrix tmat1 invertmatrix 
  smat stri tri_to_matrix tmat2 concatmatrix } bdef
/ds {stri astore pop} bdef
/dt {dtri astore pop} bdef
/db {2 copy /cols xdef /rows xdef mul dup 3 mul string
  currentfile 
  3 index 0 eq {/ASCIIHexDecode filter}
  {/ASCII85Decode filter 3 index 2 eq {/RunLengthDecode filter} if }
  ifelse exch readstring pop
  dup 0 3 index getinterval /rbmap xdef
  dup 2 index dup getinterval /gbmap xdef
  1 index dup 2 mul exch getinterval /bbmap xdef pop pop}bdef
/it {gs np dtri aload pop moveto lineto lineto cp c
  cols rows 8 compute_transform 
  rbmap gbmap bbmap true 3 colorimage gr}bdef
/il {newpath moveto lineto stroke}bdef
currentdict end def
%%EndProlog

%%BeginSetup
MathWorks begin

0 cap

end
%%EndSetup

%%Page: 1 1
%%BeginPageSetup
%%PageBoundingBox:    44   188   559   614
MathWorks begin
bpage
%%EndPageSetup

%%BeginObject: obj1
bplot

/dpi2point 4.16667 def
portraitMode 0075 2550 csm

  111   -12  2147  1776 rc
85 dict begin %Colortable dictionary
/c0 { 0.000000 0.000000 0.000000 sr} bdef
/c1 { 1.000000 1.000000 1.000000 sr} bdef
/c2 { 0.900000 0.000000 0.000000 sr} bdef
/c3 { 0.000000 0.820000 0.000000 sr} bdef
/c4 { 0.000000 0.000000 0.800000 sr} bdef
/c5 { 0.910000 0.820000 0.320000 sr} bdef
/c6 { 1.000000 0.260000 0.820000 sr} bdef
/c7 { 0.000000 0.820000 0.820000 sr} bdef
c0
1 j
1 sg
   0    0 2401 1802 rf
2.08333 w
0 1468 1860 0 0 -1468 312 1603 4 MP
PP
-1860 0 0 1468 1860 0 0 -1468 312 1603 5 MP stroke
1.38889 w
DO
0 sg
 312 1603 mt  312  135 L
 312  135 mt  312  135 L
 541 1603 mt  541  135 L
 541  135 mt  541  135 L
 771 1603 mt  771  135 L
 771  135 mt  771  135 L
1000 1603 mt 1000  135 L
1000  135 mt 1000  135 L
1230 1603 mt 1230  135 L
1230  135 mt 1230  135 L
1459 1603 mt 1459  135 L
1459  135 mt 1459  135 L
1689 1603 mt 1689  135 L
1689  135 mt 1689  135 L
1918 1603 mt 1918  135 L
1918  135 mt 1918  135 L
2148 1603 mt 2148  135 L
2148  135 mt 2148  135 L
 312 1603 mt 2172 1603 L
2172 1603 mt 2172 1603 L
 312 1469 mt 2172 1469 L
2172 1469 mt 2172 1469 L
 312 1336 mt 2172 1336 L
2172 1336 mt 2172 1336 L
 312 1069 mt 2172 1069 L
2172 1069 mt 2172 1069 L
 312  802 mt 2172  802 L
2172  802 mt 2172  802 L
 312  535 mt 2172  535 L
2172  535 mt 2172  535 L
 312  268 mt 2172  268 L
2172  268 mt 2172  268 L
 312  135 mt 2172  135 L
2172  135 mt 2172  135 L
SO
2.08333 w
 312 1603 mt 2172 1603 L
 312  135 mt 2172  135 L
 312 1603 mt  312  135 L
2172 1603 mt 2172  135 L
 312 1603 mt 2172 1603 L
 312 1603 mt  312  135 L
 312 1603 mt  312 1584 L
 312  135 mt  312  153 L
%%IncludeResource: font Helvetica-Bold
/Helvetica-Bold /ISOLatin1Encoding 58.3333 FMSR

 296 1671 mt 
(4) s
 541 1603 mt  541 1584 L
 541  135 mt  541  153 L
 525 1671 mt 
(8) s
 541 1603 mt  541 1593 L
 541  135 mt  541  144 L
DO
 541 1603 mt  541  135 L
 541  135 mt  541  135 L
SO
 541 1603 mt  541 1593 L
 541  135 mt  541  144 L
DO
 541 1603 mt  541  135 L
 541  135 mt  541  135 L
SO
 541 1603 mt  541 1593 L
 541  135 mt  541  144 L
DO
 541 1603 mt  541  135 L
 541  135 mt  541  135 L
SO
 541 1603 mt  541 1593 L
 541  135 mt  541  144 L
DO
 541 1603 mt  541  135 L
 541  135 mt  541  135 L
SO
 541 1603 mt  541 1593 L
 541  135 mt  541  144 L
DO
 541 1603 mt  541  135 L
 541  135 mt  541  135 L
SO
 541 1603 mt  541 1593 L
 541  135 mt  541  144 L
DO
 541 1603 mt  541  135 L
 541  135 mt  541  135 L
SO
 541 1603 mt  541 1593 L
 541  135 mt  541  144 L
DO
 541 1603 mt  541  135 L
 541  135 mt  541  135 L
SO
 541 1603 mt  541 1593 L
 541  135 mt  541  144 L
DO
 541 1603 mt  541  135 L
 541  135 mt  541  135 L
SO
 541 1603 mt  541 1593 L
 541  135 mt  541  144 L
DO
 541 1603 mt  541  135 L
 541  135 mt  541  135 L
SO
 771 1603 mt  771 1584 L
 771  135 mt  771  153 L
 739 1671 mt 
(16) s
 771 1603 mt  771 1593 L
 771  135 mt  771  144 L
DO
 771 1603 mt  771  135 L
 771  135 mt  771  135 L
SO
 771 1603 mt  771 1593 L
 771  135 mt  771  144 L
DO
 771 1603 mt  771  135 L
 771  135 mt  771  135 L
SO
 771 1603 mt  771 1593 L
 771  135 mt  771  144 L
DO
 771 1603 mt  771  135 L
 771  135 mt  771  135 L
SO
 771 1603 mt  771 1593 L
 771  135 mt  771  144 L
DO
 771 1603 mt  771  135 L
 771  135 mt  771  135 L
SO
 771 1603 mt  771 1593 L
 771  135 mt  771  144 L
DO
 771 1603 mt  771  135 L
 771  135 mt  771  135 L
SO
 771 1603 mt  771 1593 L
 771  135 mt  771  144 L
DO
 771 1603 mt  771  135 L
 771  135 mt  771  135 L
SO
 771 1603 mt  771 1593 L
 771  135 mt  771  144 L
DO
 771 1603 mt  771  135 L
 771  135 mt  771  135 L
SO
 771 1603 mt  771 1593 L
 771  135 mt  771  144 L
DO
 771 1603 mt  771  135 L
 771  135 mt  771  135 L
SO
 771 1603 mt  771 1593 L
 771  135 mt  771  144 L
DO
 771 1603 mt  771  135 L
 771  135 mt  771  135 L
SO
1000 1603 mt 1000 1584 L
1000  135 mt 1000  153 L
 968 1671 mt 
(32) s
1000 1603 mt 1000 1593 L
1000  135 mt 1000  144 L
DO
1000 1603 mt 1000  135 L
1000  135 mt 1000  135 L
SO
1000 1603 mt 1000 1593 L
1000  135 mt 1000  144 L
DO
1000 1603 mt 1000  135 L
1000  135 mt 1000  135 L
SO
1000 1603 mt 1000 1593 L
1000  135 mt 1000  144 L
DO
1000 1603 mt 1000  135 L
1000  135 mt 1000  135 L
SO
1000 1603 mt 1000 1593 L
1000  135 mt 1000  144 L
DO
1000 1603 mt 1000  135 L
1000  135 mt 1000  135 L
SO
1000 1603 mt 1000 1593 L
1000  135 mt 1000  144 L
DO
1000 1603 mt 1000  135 L
1000  135 mt 1000  135 L
SO
1000 1603 mt 1000 1593 L
1000  135 mt 1000  144 L
DO
1000 1603 mt 1000  135 L
1000  135 mt 1000  135 L
SO
1000 1603 mt 1000 1593 L
1000  135 mt 1000  144 L
DO
1000 1603 mt 1000  135 L
1000  135 mt 1000  135 L
SO
1000 1603 mt 1000 1593 L
1000  135 mt 1000  144 L
DO
1000 1603 mt 1000  135 L
1000  135 mt 1000  135 L
SO
1000 1603 mt 1000 1593 L
1000  135 mt 1000  144 L
DO
1000 1603 mt 1000  135 L
1000  135 mt 1000  135 L
SO
1230 1603 mt 1230 1584 L
1230  135 mt 1230  153 L
1198 1671 mt 
(64) s
1230 1603 mt 1230 1593 L
1230  135 mt 1230  144 L
DO
1230 1603 mt 1230  135 L
1230  135 mt 1230  135 L
SO
1230 1603 mt 1230 1593 L
1230  135 mt 1230  144 L
DO
1230 1603 mt 1230  135 L
1230  135 mt 1230  135 L
SO
1230 1603 mt 1230 1593 L
1230  135 mt 1230  144 L
DO
1230 1603 mt 1230  135 L
1230  135 mt 1230  135 L
SO
1230 1603 mt 1230 1593 L
1230  135 mt 1230  144 L
DO
1230 1603 mt 1230  135 L
1230  135 mt 1230  135 L
SO
1230 1603 mt 1230 1593 L
1230  135 mt 1230  144 L
DO
1230 1603 mt 1230  135 L
1230  135 mt 1230  135 L
SO
1230 1603 mt 1230 1593 L
1230  135 mt 1230  144 L
DO
1230 1603 mt 1230  135 L
1230  135 mt 1230  135 L
SO
1230 1603 mt 1230 1593 L
1230  135 mt 1230  144 L
DO
1230 1603 mt 1230  135 L
1230  135 mt 1230  135 L
SO
1230 1603 mt 1230 1593 L
1230  135 mt 1230  144 L
DO
1230 1603 mt 1230  135 L
1230  135 mt 1230  135 L
SO
1230 1603 mt 1230 1593 L
1230  135 mt 1230  144 L
DO
1230 1603 mt 1230  135 L
1230  135 mt 1230  135 L
SO
1459 1603 mt 1459 1584 L
1459  135 mt 1459  153 L
1411 1671 mt 
(128) s
1459 1603 mt 1459 1593 L
1459  135 mt 1459  144 L
DO
1459 1603 mt 1459  135 L
1459  135 mt 1459  135 L
SO
1459 1603 mt 1459 1593 L
1459  135 mt 1459  144 L
DO
1459 1603 mt 1459  135 L
1459  135 mt 1459  135 L
SO
1459 1603 mt 1459 1593 L
1459  135 mt 1459  144 L
DO
1459 1603 mt 1459  135 L
1459  135 mt 1459  135 L
SO
1459 1603 mt 1459 1593 L
1459  135 mt 1459  144 L
DO
1459 1603 mt 1459  135 L
1459  135 mt 1459  135 L
SO
1459 1603 mt 1459 1593 L
1459  135 mt 1459  144 L
DO
1459 1603 mt 1459  135 L
1459  135 mt 1459  135 L
SO
1459 1603 mt 1459 1593 L
1459  135 mt 1459  144 L
DO
1459 1603 mt 1459  135 L
1459  135 mt 1459  135 L
SO
1459 1603 mt 1459 1593 L
1459  135 mt 1459  144 L
DO
1459 1603 mt 1459  135 L
1459  135 mt 1459  135 L
SO
1459 1603 mt 1459 1593 L
1459  135 mt 1459  144 L
DO
1459 1603 mt 1459  135 L
1459  135 mt 1459  135 L
SO
1459 1603 mt 1459 1593 L
1459  135 mt 1459  144 L
DO
1459 1603 mt 1459  135 L
1459  135 mt 1459  135 L
SO
1689 1603 mt 1689 1584 L
1689  135 mt 1689  153 L
1641 1671 mt 
(256) s
1689 1603 mt 1689 1593 L
1689  135 mt 1689  144 L
DO
1689 1603 mt 1689  135 L
1689  135 mt 1689  135 L
SO
1689 1603 mt 1689 1593 L
1689  135 mt 1689  144 L
DO
1689 1603 mt 1689  135 L
1689  135 mt 1689  135 L
SO
1689 1603 mt 1689 1593 L
1689  135 mt 1689  144 L
DO
1689 1603 mt 1689  135 L
1689  135 mt 1689  135 L
SO
1689 1603 mt 1689 1593 L
1689  135 mt 1689  144 L
DO
1689 1603 mt 1689  135 L
1689  135 mt 1689  135 L
SO
1689 1603 mt 1689 1593 L
1689  135 mt 1689  144 L
DO
1689 1603 mt 1689  135 L
1689  135 mt 1689  135 L
SO
1689 1603 mt 1689 1593 L
1689  135 mt 1689  144 L
DO
1689 1603 mt 1689  135 L
1689  135 mt 1689  135 L
SO
1689 1603 mt 1689 1593 L
1689  135 mt 1689  144 L
DO
1689 1603 mt 1689  135 L
1689  135 mt 1689  135 L
SO
1689 1603 mt 1689 1593 L
1689  135 mt 1689  144 L
DO
1689 1603 mt 1689  135 L
1689  135 mt 1689  135 L
SO
1689 1603 mt 1689 1593 L
1689  135 mt 1689  144 L
DO
1689 1603 mt 1689  135 L
1689  135 mt 1689  135 L
SO
1918 1603 mt 1918 1584 L
1918  135 mt 1918  153 L
1870 1671 mt 
(512) s
1918 1603 mt 1918 1593 L
1918  135 mt 1918  144 L
DO
1918 1603 mt 1918  135 L
1918  135 mt 1918  135 L
SO
1918 1603 mt 1918 1593 L
1918  135 mt 1918  144 L
DO
1918 1603 mt 1918  135 L
1918  135 mt 1918  135 L
SO
1918 1603 mt 1918 1593 L
1918  135 mt 1918  144 L
DO
1918 1603 mt 1918  135 L
1918  135 mt 1918  135 L
SO
1918 1603 mt 1918 1593 L
1918  135 mt 1918  144 L
DO
1918 1603 mt 1918  135 L
1918  135 mt 1918  135 L
SO
1918 1603 mt 1918 1593 L
1918  135 mt 1918  144 L
DO
1918 1603 mt 1918  135 L
1918  135 mt 1918  135 L
SO
1918 1603 mt 1918 1593 L
1918  135 mt 1918  144 L
DO
1918 1603 mt 1918  135 L
1918  135 mt 1918  135 L
SO
1918 1603 mt 1918 1593 L
1918  135 mt 1918  144 L
DO
1918 1603 mt 1918  135 L
1918  135 mt 1918  135 L
SO
1918 1603 mt 1918 1593 L
1918  135 mt 1918  144 L
DO
1918 1603 mt 1918  135 L
1918  135 mt 1918  135 L
SO
1918 1603 mt 1918 1593 L
1918  135 mt 1918  144 L
DO
1918 1603 mt 1918  135 L
1918  135 mt 1918  135 L
SO
2148 1603 mt 2148 1584 L
2148  135 mt 2148  153 L
2084 1671 mt 
(1024) s
2148 1603 mt 2148 1593 L
2148  135 mt 2148  144 L
DO
2148 1603 mt 2148  135 L
2148  135 mt 2148  135 L
SO
 312 1603 mt  330 1603 L
2172 1603 mt 2153 1603 L
 268 1625 mt 
(1) s
 312 1469 mt  330 1469 L
2172 1469 mt 2153 1469 L
 219 1491 mt 
(1.1) s
 312 1336 mt  330 1336 L
2172 1336 mt 2153 1336 L
 219 1358 mt 
(1.2) s
DO
 312 1603 mt 2172 1603 L
2172 1603 mt 2172 1603 L
 312 1603 mt 2172 1603 L
2172 1603 mt 2172 1603 L
 312 1603 mt 2172 1603 L
2172 1603 mt 2172 1603 L
 312 1603 mt 2172 1603 L
2172 1603 mt 2172 1603 L
 312 1603 mt 2172 1603 L
2172 1603 mt 2172 1603 L
SO
 312 1069 mt  330 1069 L
2172 1069 mt 2153 1069 L
 219 1091 mt 
(1.4) s
DO
 312 1536 mt 2172 1536 L
2172 1536 mt 2172 1536 L
 312 1469 mt 2172 1469 L
2172 1469 mt 2172 1469 L
 312 1469 mt 2172 1469 L
2172 1469 mt 2172 1469 L
 312 1469 mt 2172 1469 L
2172 1469 mt 2172 1469 L
 312 1469 mt 2172 1469 L
2172 1469 mt 2172 1469 L
 312 1469 mt 2172 1469 L
2172 1469 mt 2172 1469 L
 312 1469 mt 2172 1469 L
2172 1469 mt 2172 1469 L
 312 1469 mt 2172 1469 L
2172 1469 mt 2172 1469 L
 312 1469 mt 2172 1469 L
2172 1469 mt 2172 1469 L
SO
 312  802 mt  330  802 L
2172  802 mt 2153  802 L
 219  824 mt 
(1.6) s
DO
 312 1402 mt 2172 1402 L
2172 1402 mt 2172 1402 L
 312 1336 mt 2172 1336 L
2172 1336 mt 2172 1336 L
 312 1336 mt 2172 1336 L
2172 1336 mt 2172 1336 L
 312 1336 mt 2172 1336 L
2172 1336 mt 2172 1336 L
 312 1336 mt 2172 1336 L
2172 1336 mt 2172 1336 L
 312 1336 mt 2172 1336 L
2172 1336 mt 2172 1336 L
 312 1336 mt 2172 1336 L
2172 1336 mt 2172 1336 L
 312 1336 mt 2172 1336 L
2172 1336 mt 2172 1336 L
 312 1336 mt 2172 1336 L
2172 1336 mt 2172 1336 L
SO
 312  535 mt  330  535 L
2172  535 mt 2153  535 L
 219  557 mt 
(1.8) s
DO
 312 1282 mt 2172 1282 L
2172 1282 mt 2172 1282 L
 312 1229 mt 2172 1229 L
2172 1229 mt 2172 1229 L
 312 1175 mt 2172 1175 L
2172 1175 mt 2172 1175 L
 312 1122 mt 2172 1122 L
2172 1122 mt 2172 1122 L
 312 1069 mt 2172 1069 L
2172 1069 mt 2172 1069 L
 312 1069 mt 2172 1069 L
2172 1069 mt 2172 1069 L
 312 1069 mt 2172 1069 L
2172 1069 mt 2172 1069 L
 312 1069 mt 2172 1069 L
2172 1069 mt 2172 1069 L
 312 1069 mt 2172 1069 L
2172 1069 mt 2172 1069 L
SO
 312  268 mt  330  268 L
2172  268 mt 2153  268 L
 268  290 mt 
(2) s
DO
 312 1015 mt 2172 1015 L
2172 1015 mt 2172 1015 L
 312  962 mt 2172  962 L
2172  962 mt 2172  962 L
 312  909 mt 2172  909 L
2172  909 mt 2172  909 L
 312  855 mt 2172  855 L
2172  855 mt 2172  855 L
 312  802 mt 2172  802 L
2172  802 mt 2172  802 L
 312  802 mt 2172  802 L
2172  802 mt 2172  802 L
 312  802 mt 2172  802 L
2172  802 mt 2172  802 L
 312  802 mt 2172  802 L
2172  802 mt 2172  802 L
 312  802 mt 2172  802 L
2172  802 mt 2172  802 L
SO
 312  135 mt  330  135 L
2172  135 mt 2153  135 L
 219  157 mt 
(2.1) s
DO
 312  748 mt 2172  748 L
2172  748 mt 2172  748 L
 312  695 mt 2172  695 L
2172  695 mt 2172  695 L
 312  642 mt 2172  642 L
2172  642 mt 2172  642 L
 312  588 mt 2172  588 L
2172  588 mt 2172  588 L
 312  535 mt 2172  535 L
2172  535 mt 2172  535 L
 312  481 mt 2172  481 L
2172  481 mt 2172  481 L
 312  428 mt 2172  428 L
2172  428 mt 2172  428 L
 312  375 mt 2172  375 L
2172  375 mt 2172  375 L
 312  321 mt 2172  321 L
2172  321 mt 2172  321 L
SO
 312 1603 mt 2172 1603 L
 312  135 mt 2172  135 L
 312 1603 mt  312  135 L
2172 1603 mt 2172  135 L
gs 312 135 1861 1469 rc
8.33333 w
/c8 { 0.000000 0.000000 1.000000 sr} bdef
c8
230 75 229 151 230 37 229 39 230 8 229 -8 230 9 541 266 8 MP stroke
gr

8.33333 w
c8
 516  266 mt  566  266 L
 541  241 mt  541  291 L
 746  275 mt  796  275 L
 771  250 mt  771  300 L
 975  267 mt 1025  267 L
1000  242 mt 1000  292 L
1205  275 mt 1255  275 L
1230  250 mt 1230  300 L
1434  314 mt 1484  314 L
1459  289 mt 1459  339 L
1664  351 mt 1714  351 L
1689  326 mt 1689  376 L
1893  502 mt 1943  502 L
1918  477 mt 1918  527 L
2123  577 mt 2173  577 L
2148  552 mt 2148  602 L
 524  249 mt  558  283 L
 558  249 mt  524  283 L
 754  258 mt  788  292 L
 788  258 mt  754  292 L
 983  250 mt 1017  284 L
1017  250 mt  983  284 L
1213  258 mt 1247  292 L
1247  258 mt 1213  292 L
1442  297 mt 1476  331 L
1476  297 mt 1442  331 L
1672  334 mt 1706  368 L
1706  334 mt 1672  368 L
1901  485 mt 1935  519 L
1935  485 mt 1901  519 L
2131  560 mt 2165  594 L
2165  560 mt 2131  594 L
gs 312 135 1861 1469 rc
/c9 { 0.000000 0.500000 0.000000 sr} bdef
c9
230 24 229 144 230 15 229 16 230 35 229 5 230 -61 541 321 8 MP stroke
gr

c9
0 j
0 -50 -50 0 0 50 50 0 516 296 5 MP
DP
0 -50 -50 0 0 50 50 0 746 235 5 MP
DP
0 -50 -50 0 0 50 50 0 975 240 5 MP
DP
0 -50 -50 0 0 50 50 0 1205 275 5 MP
DP
0 -50 -50 0 0 50 50 0 1434 291 5 MP
DP
0 -50 -50 0 0 50 50 0 1664 306 5 MP
DP
0 -50 -50 0 0 50 50 0 1893 450 5 MP
DP
0 -50 -50 0 0 50 50 0 2123 474 5 MP
DP
gs 312 135 1861 1469 rc
/c10 { 1.000000 0.000000 0.000000 sr} bdef
c10
230 89 229 116 230 68 229 30 230 0 229 10 230 -8 541 283 8 MP stroke
gr

c10
26 W
541 283 PD
26 W
771 275 PD
26 W
1000 285 PD
26 W
1230 285 PD
26 W
1459 315 PD
26 W
1689 383 PD
26 W
1918 499 PD
26 W
2148 588 PD
gs 312 135 1861 1469 rc
0 sg
230 110 229 193 230 45 229 71 230 18 229 2 230 -6 541 287 8 MP stroke
gr

0 sg
  25   25  541  287 FO
  25   25  771  281 FO
  25   25 1000  283 FO
  25   25 1230  301 FO
  25   25 1459  372 FO
  25   25 1689  417 FO
  25   25 1918  610 FO
  25   25 2148  720 FO
gs 312 135 1861 1469 rc
gr

%%IncludeResource: font Helvetica-Bold
/Helvetica-Bold /ISOLatin1Encoding 66.6667 FMSR

 973 1740 mt 
(Number of Procs) s
 184 1375 mt  -90 rotate
(SpeedUp Relative \(Tp\(i-1\)/Tp\(i\)\)) s
90 rotate
%%IncludeResource: font Helvetica-Bold
/Helvetica-Bold /ISOLatin1Encoding 75 FMSR

 581   85 mt 
(Speed Up Relative - Weak Scalability) s
%%IncludeResource: font Helvetica
/Helvetica /ISOLatin1Encoding 41.6667 FMSR

 306 1619 mt 
( ) s
2167  150 mt 
( ) s
2.08333 w
1 sg
0 370 1058 0 0 -370 391 1302 4 MP
PP
-1058 0 0 370 1058 0 0 -370 391 1302 5 MP stroke
1.38889 w
DO
SO
2.08333 w
0 sg
 391 1302 mt 1449 1302 L
 391  932 mt 1449  932 L
 391 1302 mt  391  932 L
1449 1302 mt 1449  932 L
 391 1302 mt 1449 1302 L
 391 1302 mt  391  932 L
 391 1302 mt 1449 1302 L
 391  932 mt 1449  932 L
 391 1302 mt  391  932 L
1449 1302 mt 1449  932 L
%%IncludeResource: font Helvetica-Bold
/Helvetica-Bold /ISOLatin1Encoding 58.3333 FMSR

 561 1006 mt 
(SpeedUp Relative \(Blas IBM P1\)) s
gs 391 932 1059 371 rc
8.33333 w
c8
130 0 417 983 2 MP stroke
gr

8.33333 w
c8
gs 421 923 122 122 rc
 457  983 mt  507  983 L
 482  958 mt  482 1008 L
 465  966 mt  499 1000 L
 499  966 mt  465 1000 L
gr

gs 391 932 1059 371 rc
gr

0 sg
 561 1095 mt 
(SpeedUp Relative \(Blas IBM P3\)) s
gs 391 932 1059 371 rc
c9
130 0 417 1072 2 MP stroke
gs 409 999 147 147 rc
0 -50 -50 0 0 50 50 0 457 1047 5 MP
DP
gr

gr

c9
0 sg
 561 1184 mt 
(SpeedUp Relative \(Blas IBM P6\)) s
gs 391 932 1059 371 rc
c10
130 0 417 1161 2 MP stroke
gr

c10
gs 388 1067 188 189 rc
26 W
482 1161 PD
gr

gs 391 932 1059 371 rc
gr

0 sg
 561 1273 mt 
(SpeedUp Relative \(Blas IBM P9\)) s
gs 391 932 1059 371 rc
130 0 417 1250 2 MP stroke
gr

gs 421 1189 122 122 rc
  25   25  482 1250 FO
gr

gs 391 932 1059 371 rc
2.08333 w
gr

2.08333 w

end %%Color Dict

eplot
%%EndObject

epage
end

showpage

%%Trailer
%%EOF
