%!PS-Adobe-2.0 EPSF-2.0
%%Title: /home/doc/Work/Doutorado/Article_hp2FEM/Article_hp2FEM-Architecture_english/figs/TwoIndexTableNew.dia
%%Creator: Dia v0.97.3
%%CreationDate: Wed Nov 18 11:01:24 2015
%%For: betogil
%%Orientation: Portrait
%%Magnification: 1.0000
%%BoundingBox: 0 0 697 422
%%BeginSetup
%%EndSetup
%%EndComments
%%BeginProlog
[ /.notdef /.notdef /.notdef /.notdef /.notdef /.notdef /.notdef /.notdef /.notdef /.notdef
/.notdef /.notdef /.notdef /.notdef /.notdef /.notdef /.notdef /.notdef /.notdef /.notdef
/.notdef /.notdef /.notdef /.notdef /.notdef /.notdef /.notdef /.notdef /.notdef /.notdef
/.notdef /.notdef /space /exclam /quotedbl /numbersign /dollar /percent /ampersand /quoteright
/parenleft /parenright /asterisk /plus /comma /hyphen /period /slash /zero /one
/two /three /four /five /six /seven /eight /nine /colon /semicolon
/less /equal /greater /question /at /A /B /C /D /E
/F /G /H /I /J /K /L /M /N /O
/P /Q /R /S /T /U /V /W /X /Y
/Z /bracketleft /backslash /bracketright /asciicircum /underscore /quoteleft /a /b /c
/d /e /f /g /h /i /j /k /l /m
/n /o /p /q /r /s /t /u /v /w
/x /y /z /braceleft /bar /braceright /asciitilde /.notdef /.notdef /.notdef
/.notdef /.notdef /.notdef /.notdef /.notdef /.notdef /.notdef /.notdef /.notdef /.notdef
/.notdef /.notdef /.notdef /.notdef /.notdef /.notdef /.notdef /.notdef /.notdef /.notdef
/.notdef /.notdef /.notdef /.notdef /.notdef /.notdef /.notdef /.notdef /.notdef /.notdef
/space /exclamdown /cent /sterling /currency /yen /brokenbar /section /dieresis /copyright
/ordfeminine /guillemotleft /logicalnot /hyphen /registered /macron /degree /plusminus /twosuperior /threesuperior
/acute /mu /paragraph /periodcentered /cedilla /onesuperior /ordmasculine /guillemotright /onequarter /onehalf
/threequarters /questiondown /Agrave /Aacute /Acircumflex /Atilde /Adieresis /Aring /AE /Ccedilla
/Egrave /Eacute /Ecircumflex /Edieresis /Igrave /Iacute /Icircumflex /Idieresis /Eth /Ntilde
/Ograve /Oacute /Ocircumflex /Otilde /Odieresis /multiply /Oslash /Ugrave /Uacute /Ucircumflex
/Udieresis /Yacute /Thorn /germandbls /agrave /aacute /acircumflex /atilde /adieresis /aring
/ae /ccedilla /egrave /eacute /ecircumflex /edieresis /igrave /iacute /icircumflex /idieresis
/eth /ntilde /ograve /oacute /ocircumflex /otilde /odieresis /divide /oslash /ugrave
/uacute /ucircumflex /udieresis /yacute /thorn /ydieresis] /isolatin1encoding exch def
/cp {closepath} bind def
/c {curveto} bind def
/f {fill} bind def
/a {arc} bind def
/ef {eofill} bind def
/ex {exch} bind def
/gr {grestore} bind def
/gs {gsave} bind def
/sa {save} bind def
/rs {restore} bind def
/l {lineto} bind def
/m {moveto} bind def
/rm {rmoveto} bind def
/n {newpath} bind def
/s {stroke} bind def
/sh {show} bind def
/slc {setlinecap} bind def
/slj {setlinejoin} bind def
/slw {setlinewidth} bind def
/srgb {setrgbcolor} bind def
/rot {rotate} bind def
/sc {scale} bind def
/sd {setdash} bind def
/ff {findfont} bind def
/sf {setfont} bind def
/scf {scalefont} bind def
/sw {stringwidth pop} bind def
/tr {translate} bind def

/ellipsedict 8 dict def
ellipsedict /mtrx matrix put
/ellipse
{ ellipsedict begin
   /endangle exch def
   /startangle exch def
   /yrad exch def
   /xrad exch def
   /y exch def
   /x exch def   /savematrix mtrx currentmatrix def
   x y tr xrad yrad sc
   0 0 1 startangle endangle arc
   savematrix setmatrix
   end
} def

/mergeprocs {
dup length
3 -1 roll
dup
length
dup
5 1 roll
3 -1 roll
add
array cvx
dup
3 -1 roll
0 exch
putinterval
dup
4 2 roll
putinterval
} bind def
/dpi_x 300 def
/dpi_y 300 def
/conicto {
    /to_y exch def
    /to_x exch def
    /conic_cntrl_y exch def
    /conic_cntrl_x exch def
    currentpoint
    /p0_y exch def
    /p0_x exch def
    /p1_x p0_x conic_cntrl_x p0_x sub 2 3 div mul add def
    /p1_y p0_y conic_cntrl_y p0_y sub 2 3 div mul add def
    /p2_x p1_x to_x p0_x sub 1 3 div mul add def
    /p2_y p1_y to_y p0_y sub 1 3 div mul add def
    p1_x p1_y p2_x p2_y to_x to_y curveto
} bind def
/start_ol { gsave 1.1 dpi_x div dup scale} bind def
/end_ol { closepath fill grestore } bind def
28.346000 -28.346000 scale
-14.887500 -29.765000 translate
%%EndProlog


0.100000 slw
[] 0 sd
[] 0 sd
0 slj
1.000000 1.000000 1.000000 srgb
n 19.700000 21.050000 m 19.700000 23.387500 l 39.350000 23.387500 l 39.350000 21.050000 l f
0.000000 0.000000 0.000000 srgb
n 19.700000 21.050000 m 19.700000 23.387500 l 39.350000 23.387500 l 39.350000 21.050000 l cp s
0.100000 slw
[] 0 sd
[] 0 sd
0 slc
n 21.300000 20.600000 m 21.300000 23.600000 l s
0.100000 slw
[0.200000] 0 sd
[0.200000] 0 sd
0 slc
n 22.825000 20.615000 m 22.825000 23.615000 l s
0.100000 slw
[0.200000] 0 sd
[0.200000] 0 sd
0 slc
n 27.350000 20.655000 m 27.350000 23.655000 l s
0.300000 slw
[] 0 sd
[] 0 sd
0 slc
n 28.825000 20.645000 m 28.825000 23.645000 l s
0.100000 slw
[0.200000] 0 sd
[0.200000] 0 sd
0 slc
n 24.325000 20.635000 m 24.325000 23.635000 l s
0.100000 slw
[] 0 sd
[] 0 sd
0 slc
n 25.812500 20.670000 m 25.812500 23.670000 l s
0.100000 slw
[0.200000] 0 sd
[0.200000] 0 sd
0 slc
n 30.287500 20.645000 m 30.287500 23.645000 l s
0.100000 slw
[0.200000] 0 sd
[0.200000] 0 sd
0 slc
n 31.800000 20.652500 m 31.800000 23.652500 l s
0.100000 slw
[0.200000] 0 sd
[0.200000] 0 sd
0 slc
n 33.337500 20.610000 m 33.337500 23.610000 l s
0.100000 slw
[] 0 sd
[] 0 sd
0 slc
n 34.825000 20.617500 m 34.825000 23.617500 l s
0.100000 slw
[] 0 sd
[] 0 sd
0 slc
n 36.312500 20.600000 m 36.312500 23.600000 l s
0.100000 slw
[0.200000] 0 sd
[0.200000] 0 sd
0 slc
n 37.800000 20.632500 m 37.800000 23.632500 l s
0.100000 slw
[] 0 sd
[] 0 sd
0 slj
1.000000 1.000000 1.000000 srgb
n 24.412500 27.070000 m 24.412500 29.362500 l 34.975000 29.362500 l 34.975000 27.070000 l f
0.000000 0.000000 0.000000 srgb
n 24.412500 27.070000 m 24.412500 29.362500 l 34.975000 29.362500 l 34.975000 27.070000 l cp s
0.100000 slw
[0.200000] 0 sd
[0.200000] 0 sd
0 slc
n 25.862500 26.570000 m 25.862500 29.570000 l s
0.100000 slw
[0.200000] 0 sd
[0.200000] 0 sd
0 slc
n 27.387500 26.585000 m 27.387500 29.585000 l s
0.100000 slw
[0.200000] 0 sd
[0.200000] 0 sd
0 slc
n 31.912500 26.625000 m 31.912500 29.625000 l s
0.300000 slw
[] 0 sd
[] 0 sd
0 slc
1.000000 0.000000 0.000000 srgb
n 33.387500 26.615000 m 33.387500 29.615000 l s
0.300000 slw
[] 0 sd
[] 0 sd
0 slc
0.000000 0.000000 0.000000 srgb
n 28.887500 26.605000 m 28.887500 29.605000 l s
0.100000 slw
[0.200000] 0 sd
[0.200000] 0 sd
0 slc
n 30.375000 26.640000 m 30.375000 29.640000 l s
gsave 32.012500 28.722500 translate 0.035278 -0.035278 scale
start_ol
4148 0 moveto
4148 160 lineto
3306 160 3136 267 3136 782 curveto
3136 7211 lineto
3052 7232 lineto
1153 6257 lineto
1153 6107 lineto
1281 6161 1398 6204 1441 6225 curveto
1632 6300 1813 6343 1920 6343 curveto
2144 6343 2240 6182 2240 5839 curveto
2240 985 lineto
2240 631 2155 385 1984 289 curveto
1825 192 1675 160 1228 160 curveto
1228 0 lineto
4148 0 lineto
end_ol grestore 
gsave 32.716837 28.722500 translate 0.035278 -0.035278 scale
start_ol
4148 0 moveto
4148 160 lineto
3306 160 3136 267 3136 782 curveto
3136 7211 lineto
3052 7232 lineto
1153 6257 lineto
1153 6107 lineto
1281 6161 1398 6204 1441 6225 curveto
1632 6300 1813 6343 1920 6343 curveto
2144 6343 2240 6182 2240 5839 curveto
2240 985 lineto
2240 631 2155 385 1984 289 curveto
1825 192 1675 160 1228 160 curveto
1228 0 lineto
4148 0 lineto
end_ol grestore 
gsave 33.587500 28.710000 translate 0.035278 -0.035278 scale
start_ol
4148 0 moveto
4148 160 lineto
3306 160 3136 267 3136 782 curveto
3136 7211 lineto
3052 7232 lineto
1153 6257 lineto
1153 6107 lineto
1281 6161 1398 6204 1441 6225 curveto
1632 6300 1813 6343 1920 6343 curveto
2144 6343 2240 6182 2240 5839 curveto
2240 985 lineto
2240 631 2155 385 1984 289 curveto
1825 192 1675 160 1228 160 curveto
1228 0 lineto
4148 0 lineto
end_ol grestore 
gsave 34.291837 28.710000 translate 0.035278 -0.035278 scale
start_ol
4608 2352 moveto
4608 2895 4436 3396 4124 3726 curveto
3909 3960 3705 4088 3232 4290 curveto
3960 4793 4224 5190 4224 5768 curveto
4224 6634 3546 7232 2571 7232 curveto
2038 7232 1569 7050 1186 6708 curveto
866 6419 706 6141 472 5500 curveto
632 5457 lineto
1069 6239 1549 6592 2220 6592 curveto
2913 6592 3392 6121 3392 5446 curveto
3392 5061 3232 4675 2966 4408 curveto
2646 4086 2348 3926 1623 3669 curveto
1623 3530 lineto
2255 3530 2501 3509 2758 3412 curveto
3422 3177 3840 2567 3840 1828 curveto
3840 942 3228 256 2433 256 curveto
2145 256 1932 328 1538 575 curveto
1218 760 1037 832 856 832 curveto
611 832 451 688 451 472 curveto
451 104 909 -128 1655 -128 curveto
2479 -128 3324 149 3827 585 curveto
4330 1022 4608 1639 4608 2352 curveto
end_ol grestore 
gsave 30.362500 28.710000 translate 0.035278 -0.035278 scale
start_ol
4148 0 moveto
4148 160 lineto
3306 160 3136 267 3136 782 curveto
3136 7211 lineto
3052 7232 lineto
1153 6257 lineto
1153 6107 lineto
1281 6161 1398 6204 1441 6225 curveto
1632 6300 1813 6343 1920 6343 curveto
2144 6343 2240 6182 2240 5839 curveto
2240 985 lineto
2240 631 2155 385 1984 289 curveto
1825 192 1675 160 1228 160 curveto
1228 0 lineto
4148 0 lineto
end_ol grestore 
gsave 31.066837 28.710000 translate 0.035278 -0.035278 scale
start_ol
5056 3509 moveto
5056 5677 4089 7168 2698 7168 curveto
2114 7168 1668 6988 1275 6618 curveto
659 6026 256 4810 256 3573 curveto
256 2420 606 1183 1106 591 curveto
1498 126 2040 -128 2656 -128 curveto
3198 -128 3654 52 4037 422 curveto
4652 1003 5056 2230 5056 3509 curveto
4032 3488 moveto
4032 1266 3566 128 2656 128 curveto
1746 128 1280 1266 1280 3477 curveto
1280 5732 1756 6912 2667 6912 curveto
3556 6912 4032 5710 4032 3488 curveto
end_ol grestore 
gsave 29.362500 28.685000 translate 0.035278 -0.035278 scale
start_ol
4992 2369 moveto
4992 3740 4212 4608 2983 4608 curveto
2512 4608 2287 4530 1612 4107 curveto
1901 5707 3099 6851 4779 7126 curveto
4758 7296 lineto
3548 7190 2932 6989 2157 6448 curveto
1010 5632 384 4423 384 3003 curveto
384 2073 669 1133 1122 599 curveto
1523 128 2093 -128 2747 -128 curveto
4073 -128 4992 890 4992 2369 curveto
4032 2006 moveto
4032 839 3614 192 2865 192 curveto
1922 192 1344 1189 1344 2834 curveto
1344 3375 1430 3672 1644 3831 curveto
1869 4001 2201 4096 2576 4096 curveto
3497 4096 4032 3332 4032 2006 curveto
end_ol grestore 
gsave 27.762500 28.685000 translate 0.035278 -0.035278 scale
start_ol
5055 1792 moveto
5055 2496 lineto
3968 2496 lineto
3968 7232 lineto
3493 7232 lineto
152 2496 lineto
152 1792 lineto
3136 1792 lineto
3136 0 lineto
3968 0 lineto
3968 1792 lineto
5055 1792 lineto
3136 2496 moveto
578 2496 lineto
3136 6146 lineto
3136 2496 lineto
end_ol grestore 
gsave 26.262500 28.685000 translate 0.035278 -0.035278 scale
start_ol
4148 0 moveto
4148 160 lineto
3306 160 3136 267 3136 782 curveto
3136 7211 lineto
3052 7232 lineto
1153 6257 lineto
1153 6107 lineto
1281 6161 1398 6204 1441 6225 curveto
1632 6300 1813 6343 1920 6343 curveto
2144 6343 2240 6182 2240 5839 curveto
2240 985 lineto
2240 631 2155 385 1984 289 curveto
1825 192 1675 160 1228 160 curveto
1228 0 lineto
4148 0 lineto
end_ol grestore 
gsave 24.787500 28.660000 translate 0.035278 -0.035278 scale
start_ol
5056 3509 moveto
5056 5677 4089 7168 2698 7168 curveto
2114 7168 1668 6988 1275 6618 curveto
659 6026 256 4810 256 3573 curveto
256 2420 606 1183 1106 591 curveto
1498 126 2040 -128 2656 -128 curveto
3198 -128 3654 52 4037 422 curveto
4652 1003 5056 2230 5056 3509 curveto
4032 3488 moveto
4032 1266 3566 128 2656 128 curveto
1746 128 1280 1266 1280 3477 curveto
1280 5732 1756 6912 2667 6912 curveto
3556 6912 4032 5710 4032 3488 curveto
end_ol grestore 
0.100000 slw
[] 0 sd
[] 0 sd
0 slj
1.000000 1.000000 1.000000 srgb
n 27.287500 15.545000 m 27.287500 17.837500 l 31.800000 17.837500 l 31.800000 15.545000 l f
0.000000 0.000000 0.000000 srgb
n 27.287500 15.545000 m 27.287500 17.837500 l 31.800000 17.837500 l 31.800000 15.545000 l cp s
0.300000 slw
[] 0 sd
[] 0 sd
0 slc
n 28.737500 15.045000 m 28.737500 18.045000 l s
0.300000 slw
[] 0 sd
[] 0 sd
0 slc
1.000000 0.000000 0.000000 srgb
n 30.262500 15.060000 m 30.262500 18.060000 l s
0.000000 0.000000 0.000000 srgb
gsave 27.587500 17.210000 translate 0.035278 -0.035278 scale
start_ol
5056 3509 moveto
5056 5677 4089 7168 2698 7168 curveto
2114 7168 1668 6988 1275 6618 curveto
659 6026 256 4810 256 3573 curveto
256 2420 606 1183 1106 591 curveto
1498 126 2040 -128 2656 -128 curveto
3198 -128 3654 52 4037 422 curveto
4652 1003 5056 2230 5056 3509 curveto
4032 3488 moveto
4032 1266 3566 128 2656 128 curveto
1746 128 1280 1266 1280 3477 curveto
1280 5732 1756 6912 2667 6912 curveto
3556 6912 4032 5710 4032 3488 curveto
end_ol grestore 
gsave 29.087500 17.235000 translate 0.035278 -0.035278 scale
start_ol
4992 2369 moveto
4992 3740 4212 4608 2983 4608 curveto
2512 4608 2287 4530 1612 4107 curveto
1901 5707 3099 6851 4779 7126 curveto
4758 7296 lineto
3548 7190 2932 6989 2157 6448 curveto
1010 5632 384 4423 384 3003 curveto
384 2073 669 1133 1122 599 curveto
1523 128 2093 -128 2747 -128 curveto
4073 -128 4992 890 4992 2369 curveto
4032 2006 moveto
4032 839 3614 192 2865 192 curveto
1922 192 1344 1189 1344 2834 curveto
1344 3375 1430 3672 1644 3831 curveto
1869 4001 2201 4096 2576 4096 curveto
3497 4096 4032 3332 4032 2006 curveto
end_ol grestore 
gsave 30.350000 17.217500 translate 0.035278 -0.035278 scale
start_ol
4148 0 moveto
4148 160 lineto
3306 160 3136 267 3136 782 curveto
3136 7211 lineto
3052 7232 lineto
1153 6257 lineto
1153 6107 lineto
1281 6161 1398 6204 1441 6225 curveto
1632 6300 1813 6343 1920 6343 curveto
2144 6343 2240 6182 2240 5839 curveto
2240 985 lineto
2240 631 2155 385 1984 289 curveto
1825 192 1675 160 1228 160 curveto
1228 0 lineto
4148 0 lineto
end_ol grestore 
gsave 31.054337 17.217500 translate 0.035278 -0.035278 scale
start_ol
4608 2352 moveto
4608 2895 4436 3396 4124 3726 curveto
3909 3960 3705 4088 3232 4290 curveto
3960 4793 4224 5190 4224 5768 curveto
4224 6634 3546 7232 2571 7232 curveto
2038 7232 1569 7050 1186 6708 curveto
866 6419 706 6141 472 5500 curveto
632 5457 lineto
1069 6239 1549 6592 2220 6592 curveto
2913 6592 3392 6121 3392 5446 curveto
3392 5061 3232 4675 2966 4408 curveto
2646 4086 2348 3926 1623 3669 curveto
1623 3530 lineto
2255 3530 2501 3509 2758 3412 curveto
3422 3177 3840 2567 3840 1828 curveto
3840 942 3228 256 2433 256 curveto
2145 256 1932 328 1538 575 curveto
1218 760 1037 832 856 832 curveto
611 832 451 688 451 472 curveto
451 104 909 -128 1655 -128 curveto
2479 -128 3324 149 3827 585 curveto
4330 1022 4608 1639 4608 2352 curveto
end_ol grestore 
0.100000 slw
[] 0 sd
[] 0 sd
0 slc
n 27.411281 18.227650 m 20.325000 20.937500 l s
0 slj
n 27.500576 18.461159 m 27.878298 18.049059 l 27.321985 17.994142 l ef
0.100000 slw
[] 0 sd
0 slj
n 27.500576 18.461159 m 27.878298 18.049059 l 27.321985 17.994142 l cp s
0.100000 slw
[] 0 sd
[] 0 sd
0 slc
n 29.620309 18.556180 m 29.600000 20.937500 l s
0 slj
n 29.870300 18.558312 m 29.624574 18.056198 l 29.370319 18.554048 l ef
0.100000 slw
[] 0 sd
0 slj
n 29.870300 18.558312 m 29.624574 18.056198 l 29.370319 18.554048 l cp s
0.100000 slw
[] 0 sd
[] 0 sd
0 slc
n 24.512041 26.529796 m 20.425000 23.425000 l s
0 slj
n 24.360812 26.728869 m 24.910186 26.832254 l 24.663270 26.330724 l ef
0.100000 slw
[] 0 sd
0 slj
n 24.360812 26.728869 m 24.910186 26.832254 l 24.663270 26.330724 l cp s
0.100000 slw
[] 0 sd
[] 0 sd
0 slc
n 26.260875 26.531337 m 22.175000 23.450000 l s
0 slj
n 26.110346 26.730939 m 26.660080 26.832394 l 26.411404 26.331734 l ef
0.100000 slw
[] 0 sd
0 slj
n 26.110346 26.730939 m 26.660080 26.832394 l 26.411404 26.331734 l cp s
0.100000 slw
[] 0 sd
[] 0 sd
0 slc
n 27.893601 26.382246 m 26.525000 23.431200 l s
0 slj
n 27.666804 26.487428 m 28.103964 26.835841 l 28.120398 26.277065 l ef
0.100000 slw
[] 0 sd
0 slj
n 27.666804 26.487428 m 28.103964 26.835841 l 28.120398 26.277065 l cp s
0.100000 slw
[] 0 sd
[] 0 sd
0 slc
n 29.658193 26.306261 m 29.700000 23.500000 l s
0 slj
n 29.408221 26.302537 m 29.650745 26.806206 l 29.908165 26.309985 l ef
0.100000 slw
[] 0 sd
0 slj
n 29.408221 26.302537 m 29.650745 26.806206 l 29.908165 26.309985 l cp s
0.100000 slw
[] 0 sd
[] 0 sd
0 slc
n 31.463672 26.480737 m 35.544700 23.394300 l s
0 slj
n 31.312871 26.281341 m 31.064879 26.782340 l 31.614474 26.680133 l ef
0.100000 slw
[] 0 sd
0 slj
n 31.312871 26.281341 m 31.064879 26.782340 l 31.614474 26.680133 l cp s
0.100000 slw
[] 0 sd
[] 0 sd
0 slc
n 33.012128 26.478706 m 37.002800 23.431400 l s
0 slj
n 32.860404 26.280011 m 32.614739 26.782155 l 33.163853 26.677400 l ef
0.100000 slw
[] 0 sd
0 slj
n 32.860404 26.280011 m 32.614739 26.782155 l 33.163853 26.677400 l cp s
gsave 32.025000 16.568700 translate 0.035278 -0.035278 scale
start_ol
end_ol grestore 
gsave 32.274767 16.568700 translate 0.035278 -0.035278 scale
start_ol
end_ol grestore 
gsave 32.524533 16.568700 translate 0.035278 -0.035278 scale
start_ol
end_ol grestore 
gsave 32.774300 16.568700 translate 0.035278 -0.035278 scale
start_ol
end_ol grestore 
gsave 33.024067 16.568700 translate 0.035278 -0.035278 scale
start_ol
end_ol grestore 
gsave 33.273833 16.568700 translate 0.035278 -0.035278 scale
start_ol
576 4352 moveto
1152 4352 lineto
1152 0 lineto
576 0 lineto
576 4352 lineto
end_ol grestore 
gsave 33.506113 16.568700 translate 0.035278 -0.035278 scale
start_ol
3264 1967 moveto
3264 0 lineto
2752 0 lineto
2752 1949 lineto
2752 2416 2563 2648 conicto
2375 2880 1999 2880 conicto
1546 2880 1285 2601 conicto
1024 2322 1024 1841 conicto
1024 0 lineto
512 0 lineto
512 3264 lineto
1024 3264 lineto
1024 2752 lineto
1220 3041 1486 3184 conicto
1753 3328 2101 3328 conicto
2675 3328 2969 2982 conicto
3264 2637 3264 1967 conicto
end_ol grestore 
gsave 34.005646 16.568700 translate 0.035278 -0.035278 scale
start_ol
2688 2752 moveto
2688 4544 lineto
3200 4544 lineto
3200 0 lineto
2688 0 lineto
2688 512 lineto
2520 220 2263 78 conicto
2007 -64 1647 -64 conicto
1059 -64 689 403 conicto
320 871 320 1632 conicto
320 2393 689 2860 conicto
1059 3328 1647 3328 conicto
2007 3328 2263 3186 conicto
2520 3044 2688 2752 conicto
896 1632 moveto
896 1048 1134 716 conicto
1373 384 1791 384 conicto
2208 384 2448 716 conicto
2688 1048 2688 1632 conicto
2688 2216 2448 2548 conicto
2208 2880 1791 2880 conicto
1373 2880 1134 2548 conicto
896 2216 896 1632 conicto
end_ol grestore 
gsave 34.507676 16.568700 translate 0.035278 -0.035278 scale
start_ol
3328 1752 moveto
3328 1472 lineto
896 1472 lineto
930 941 1224 662 conicto
1519 384 2044 384 conicto
2348 384 2633 464 conicto
2919 544 3200 704 conicto
3200 192 lineto
2913 67 2612 1 conicto
2311 -64 2002 -64 conicto
1226 -64 773 386 conicto
320 836 320 1603 conicto
320 2396 750 2862 conicto
1181 3328 1911 3328 conicto
2566 3328 2947 2904 conicto
3328 2480 3328 1752 conicto
2816 1920 moveto
2810 2358 2571 2619 conicto
2332 2880 1937 2880 conicto
1490 2880 1222 2627 conicto
954 2375 913 1917 conicto
2816 1920 lineto
end_ol grestore 
gsave 34.977237 16.568700 translate 0.035278 -0.035278 scale
start_ol
3264 3264 moveto
2104 1676 lineto
3328 0 lineto
2705 0 lineto
1769 1282 lineto
822 0 lineto
192 0 lineto
1460 1708 lineto
320 3264 lineto
941 3264 lineto
1792 2101 lineto
2643 3264 lineto
3264 3264 lineto
end_ol grestore 
gsave 35.444293 16.568700 translate 0.035278 -0.035278 scale
start_ol
end_ol grestore 
gsave 35.694060 16.568700 translate 0.035278 -0.035278 scale
start_ol
2048 3771 moveto
1253 1600 lineto
2846 1600 lineto
2048 3771 lineto
1717 4352 moveto
2382 4352 lineto
4032 0 lineto
3423 0 lineto
3028 1152 lineto
1076 1152 lineto
682 0 lineto
64 0 lineto
1717 4352 lineto
end_ol grestore 
gsave 36.233553 16.568700 translate 0.035278 -0.035278 scale
start_ol
2432 2752 moveto
2339 2818 2230 2849 conicto
2121 2880 1990 2880 conicto
1523 2880 1273 2579 conicto
1024 2279 1024 1716 conicto
1024 0 lineto
512 0 lineto
512 3264 lineto
1024 3264 lineto
1024 2752 lineto
1197 3044 1475 3186 conicto
1753 3328 2151 3328 conicto
2208 3328 2276 3328 conicto
2345 3328 2429 3328 conicto
2432 2752 lineto
end_ol grestore 
gsave 36.543257 16.568700 translate 0.035278 -0.035278 scale
start_ol
2432 2752 moveto
2339 2818 2230 2849 conicto
2121 2880 1990 2880 conicto
1523 2880 1273 2579 conicto
1024 2279 1024 1716 conicto
1024 0 lineto
512 0 lineto
512 3264 lineto
1024 3264 lineto
1024 2752 lineto
1197 3044 1475 3186 conicto
1753 3328 2151 3328 conicto
2208 3328 2276 3328 conicto
2345 3328 2429 3328 conicto
2432 2752 lineto
end_ol grestore 
gsave 36.867950 16.568700 translate 0.035278 -0.035278 scale
start_ol
2013 1600 moveto
1346 1600 1089 1458 conicto
832 1317 832 975 conicto
832 703 1025 543 conicto
1218 384 1550 384 conicto
2007 384 2283 685 conicto
2560 986 2560 1486 conicto
2560 1600 lineto
2013 1600 lineto
3072 1836 moveto
3072 0 lineto
2560 0 lineto
2560 512 lineto
2375 217 2098 76 conicto
1822 -64 1422 -64 conicto
917 -64 618 213 conicto
320 490 320 955 conicto
320 1497 688 1772 conicto
1057 2048 1789 2048 conicto
2560 2048 lineto
2560 2102 lineto
2560 2473 2316 2676 conicto
2073 2880 1632 2880 conicto
1352 2880 1086 2816 conicto
821 2752 576 2624 conicto
576 3136 lineto
868 3232 1142 3280 conicto
1417 3328 1677 3328 conicto
2379 3328 2725 2958 conicto
3072 2588 3072 1836 conicto
end_ol grestore 
gsave 37.352493 16.568700 translate 0.035278 -0.035278 scale
start_ol
1959 -281 moveto
1732 -862 1516 -1039 conicto
1301 -1216 940 -1216 conicto
512 -1216 lineto
512 -768 lineto
826 -768 lineto
1048 -768 1170 -666 conicto
1292 -565 1441 -186 conicto
1537 58 lineto
192 3264 lineto
786 3264 lineto
1805 711 lineto
2824 3264 lineto
3392 3264 lineto
1959 -281 lineto
end_ol grestore 
gsave 32.025000 17.556478 translate 0.035278 -0.035278 scale
start_ol
2176 4544 moveto
2176 4096 lineto
1672 4096 lineto
1379 4096 1265 3978 conicto
1152 3861 1152 3555 conicto
1152 3264 lineto
2048 3264 lineto
2048 2816 lineto
1152 2816 lineto
1152 0 lineto
640 0 lineto
640 2816 lineto
128 2816 lineto
128 3264 lineto
640 3264 lineto
640 3493 lineto
640 4042 889 4293 conicto
1138 4544 1678 4544 conicto
2176 4544 lineto
end_ol grestore 
gsave 32.302234 17.556478 translate 0.035278 -0.035278 scale
start_ol
1825 2880 moveto
1396 2880 1146 2546 conicto
896 2213 896 1632 conicto
896 1051 1144 717 conicto
1393 384 1825 384 conicto
2252 384 2502 719 conicto
2752 1054 2752 1632 conicto
2752 2207 2502 2543 conicto
2252 2880 1825 2880 conicto
1824 3328 moveto
2526 3328 2927 2878 conicto
3328 2428 3328 1632 conicto
3328 839 2927 387 conicto
2526 -64 1824 -64 conicto
1119 -64 719 387 conicto
320 839 320 1632 conicto
320 2428 719 2878 conicto
1119 3328 1824 3328 conicto
end_ol grestore 
gsave 32.784280 17.556478 translate 0.035278 -0.035278 scale
start_ol
2432 2752 moveto
2339 2818 2230 2849 conicto
2121 2880 1990 2880 conicto
1523 2880 1273 2579 conicto
1024 2279 1024 1716 conicto
1024 0 lineto
512 0 lineto
512 3264 lineto
1024 3264 lineto
1024 2752 lineto
1197 3044 1475 3186 conicto
1753 3328 2151 3328 conicto
2208 3328 2276 3328 conicto
2345 3328 2429 3328 conicto
2432 2752 lineto
end_ol grestore 
gsave 33.108973 17.556478 translate 0.035278 -0.035278 scale
start_ol
end_ol grestore 
gsave 33.358740 17.556478 translate 0.035278 -0.035278 scale
start_ol
1024 4160 moveto
1024 3264 lineto
2112 3264 lineto
2112 2816 lineto
1024 2816 lineto
1024 1067 lineto
1024 673 1131 560 conicto
1239 448 1569 448 conicto
2112 448 lineto
2112 0 lineto
1569 0 lineto
969 0 740 230 conicto
512 460 512 1067 conicto
512 2816 lineto
128 2816 lineto
128 3264 lineto
512 3264 lineto
512 4160 lineto
1024 4160 lineto
end_ol grestore 
gsave 33.668443 17.556478 translate 0.035278 -0.035278 scale
start_ol
3264 1967 moveto
3264 0 lineto
2752 0 lineto
2752 1949 lineto
2752 2416 2563 2648 conicto
2375 2880 1999 2880 conicto
1546 2880 1285 2601 conicto
1024 2322 1024 1841 conicto
1024 0 lineto
512 0 lineto
512 4544 lineto
1024 4544 lineto
1024 2752 lineto
1220 3041 1486 3184 conicto
1753 3328 2101 3328 conicto
2675 3328 2969 2982 conicto
3264 2637 3264 1967 conicto
end_ol grestore 
gsave 34.167976 17.556478 translate 0.035278 -0.035278 scale
start_ol
3328 1752 moveto
3328 1472 lineto
896 1472 lineto
930 941 1224 662 conicto
1519 384 2044 384 conicto
2348 384 2633 464 conicto
2919 544 3200 704 conicto
3200 192 lineto
2913 67 2612 1 conicto
2311 -64 2002 -64 conicto
1226 -64 773 386 conicto
320 836 320 1603 conicto
320 2396 750 2862 conicto
1181 3328 1911 3328 conicto
2566 3328 2947 2904 conicto
3328 2480 3328 1752 conicto
2816 1920 moveto
2810 2358 2571 2619 conicto
2332 2880 1937 2880 conicto
1490 2880 1222 2627 conicto
954 2375 913 1917 conicto
2816 1920 lineto
end_ol grestore 
gsave 34.652519 17.556478 translate 0.035278 -0.035278 scale
start_ol
end_ol grestore 
gsave 34.902286 17.556478 translate 0.035278 -0.035278 scale
start_ol
1152 3904 moveto
1152 448 lineto
1858 448 lineto
2753 448 3168 864 conicto
3584 1281 3584 2180 conicto
3584 3073 3168 3488 conicto
2753 3904 1858 3904 conicto
1152 3904 lineto
576 4352 moveto
1769 4352 lineto
3037 4352 3630 3826 conicto
4224 3300 4224 2180 conicto
4224 1055 3628 527 conicto
3032 0 1769 0 conicto
576 0 lineto
576 4352 lineto
end_ol grestore 
gsave 35.509215 17.556478 translate 0.035278 -0.035278 scale
start_ol
2013 1600 moveto
1346 1600 1089 1458 conicto
832 1317 832 975 conicto
832 703 1025 543 conicto
1218 384 1550 384 conicto
2007 384 2283 685 conicto
2560 986 2560 1486 conicto
2560 1600 lineto
2013 1600 lineto
3072 1836 moveto
3072 0 lineto
2560 0 lineto
2560 512 lineto
2375 217 2098 76 conicto
1822 -64 1422 -64 conicto
917 -64 618 213 conicto
320 490 320 955 conicto
320 1497 688 1772 conicto
1057 2048 1789 2048 conicto
2560 2048 lineto
2560 2102 lineto
2560 2473 2316 2676 conicto
2073 2880 1632 2880 conicto
1352 2880 1086 2816 conicto
821 2752 576 2624 conicto
576 3136 lineto
868 3232 1142 3280 conicto
1417 3328 1677 3328 conicto
2379 3328 2725 2958 conicto
3072 2588 3072 1836 conicto
end_ol grestore 
gsave 35.993758 17.556478 translate 0.035278 -0.035278 scale
start_ol
1024 4160 moveto
1024 3264 lineto
2112 3264 lineto
2112 2816 lineto
1024 2816 lineto
1024 1067 lineto
1024 673 1131 560 conicto
1239 448 1569 448 conicto
2112 448 lineto
2112 0 lineto
1569 0 lineto
969 0 740 230 conicto
512 460 512 1067 conicto
512 2816 lineto
128 2816 lineto
128 3264 lineto
512 3264 lineto
512 4160 lineto
1024 4160 lineto
end_ol grestore 
gsave 36.303461 17.556478 translate 0.035278 -0.035278 scale
start_ol
2013 1600 moveto
1346 1600 1089 1458 conicto
832 1317 832 975 conicto
832 703 1025 543 conicto
1218 384 1550 384 conicto
2007 384 2283 685 conicto
2560 986 2560 1486 conicto
2560 1600 lineto
2013 1600 lineto
3072 1836 moveto
3072 0 lineto
2560 0 lineto
2560 512 lineto
2375 217 2098 76 conicto
1822 -64 1422 -64 conicto
917 -64 618 213 conicto
320 490 320 955 conicto
320 1497 688 1772 conicto
1057 2048 1789 2048 conicto
2560 2048 lineto
2560 2102 lineto
2560 2473 2316 2676 conicto
2073 2880 1632 2880 conicto
1352 2880 1086 2816 conicto
821 2752 576 2624 conicto
576 3136 lineto
868 3232 1142 3280 conicto
1417 3328 1677 3328 conicto
2379 3328 2725 2958 conicto
3072 2588 3072 1836 conicto
end_ol grestore 
gsave 36.788004 17.556478 translate 0.035278 -0.035278 scale
start_ol
end_ol grestore 
gsave 37.037771 17.556478 translate 0.035278 -0.035278 scale
start_ol
3520 608 moveto
3520 1792 lineto
2560 1792 lineto
2560 2240 lineto
4096 2240 lineto
4096 390 lineto
3757 166 3349 51 conicto
2941 -64 2477 -64 conicto
1464 -64 892 527 conicto
320 1119 320 2175 conicto
320 3233 889 3824 conicto
1459 4416 2468 4416 conicto
2889 4416 3268 4302 conicto
3648 4189 3968 3968 conicto
3968 3328 lineto
3648 3646 3287 3807 conicto
2927 3968 2530 3968 conicto
1746 3968 1353 3517 conicto
960 3067 960 2175 conicto
960 1285 1355 834 conicto
1750 384 2537 384 conicto
2845 384 3086 438 conicto
3327 493 3520 608 conicto
end_ol grestore 
gsave 37.649694 17.556478 translate 0.035278 -0.035278 scale
start_ol
2432 2752 moveto
2339 2818 2230 2849 conicto
2121 2880 1990 2880 conicto
1523 2880 1273 2579 conicto
1024 2279 1024 1716 conicto
1024 0 lineto
512 0 lineto
512 3264 lineto
1024 3264 lineto
1024 2752 lineto
1197 3044 1475 3186 conicto
1753 3328 2151 3328 conicto
2208 3328 2276 3328 conicto
2345 3328 2429 3328 conicto
2432 2752 lineto
end_ol grestore 
gsave 37.956900 17.556478 translate 0.035278 -0.035278 scale
start_ol
1825 2880 moveto
1396 2880 1146 2546 conicto
896 2213 896 1632 conicto
896 1051 1144 717 conicto
1393 384 1825 384 conicto
2252 384 2502 719 conicto
2752 1054 2752 1632 conicto
2752 2207 2502 2543 conicto
2252 2880 1825 2880 conicto
1824 3328 moveto
2526 3328 2927 2878 conicto
3328 2428 3328 1632 conicto
3328 839 2927 387 conicto
2526 -64 1824 -64 conicto
1119 -64 719 387 conicto
320 839 320 1632 conicto
320 2428 719 2878 conicto
1119 3328 1824 3328 conicto
end_ol grestore 
gsave 38.438946 17.556478 translate 0.035278 -0.035278 scale
start_ol
512 1296 moveto
512 3264 lineto
1024 3264 lineto
1024 1316 lineto
1024 850 1212 617 conicto
1400 384 1776 384 conicto
2228 384 2490 662 conicto
2752 941 2752 1421 conicto
2752 3264 lineto
3264 3264 lineto
3264 0 lineto
2752 0 lineto
2752 512 lineto
2553 220 2290 78 conicto
2027 -64 1680 -64 conicto
1106 -64 809 282 conicto
512 629 512 1296 conicto
1870 3328 moveto
1870 3328 lineto
end_ol grestore 
gsave 38.938480 17.556478 translate 0.035278 -0.035278 scale
start_ol
1024 512 moveto
1024 -1216 lineto
512 -1216 lineto
512 3264 lineto
1024 3264 lineto
1024 2752 lineto
1192 3044 1448 3186 conicto
1705 3328 2062 3328 conicto
2653 3328 3022 2860 conicto
3392 2393 3392 1632 conicto
3392 871 3022 403 conicto
2653 -64 2062 -64 conicto
1705 -64 1448 78 conicto
1192 220 1024 512 conicto
2816 1632 moveto
2816 2216 2577 2548 conicto
2338 2880 1920 2880 conicto
1502 2880 1263 2548 conicto
1024 2216 1024 1632 conicto
1024 1048 1263 716 conicto
1502 384 1920 384 conicto
2338 384 2577 716 conicto
2816 1048 2816 1632 conicto
end_ol grestore 
gsave 14.887500 27.996200 translate 0.035278 -0.035278 scale
start_ol
end_ol grestore 
gsave 15.137267 27.996200 translate 0.035278 -0.035278 scale
start_ol
end_ol grestore 
gsave 15.387033 27.996200 translate 0.035278 -0.035278 scale
start_ol
end_ol grestore 
gsave 15.636800 27.996200 translate 0.035278 -0.035278 scale
start_ol
end_ol grestore 
gsave 15.886567 27.996200 translate 0.035278 -0.035278 scale
start_ol
end_ol grestore 
gsave 16.136333 27.996200 translate 0.035278 -0.035278 scale
start_ol
end_ol grestore 
gsave 16.386100 27.996200 translate 0.035278 -0.035278 scale
start_ol
end_ol grestore 
gsave 16.635867 27.996200 translate 0.035278 -0.035278 scale
start_ol
end_ol grestore 
gsave 16.885633 27.996200 translate 0.035278 -0.035278 scale
start_ol
576 4352 moveto
1152 4352 lineto
1152 0 lineto
576 0 lineto
576 4352 lineto
end_ol grestore 
gsave 17.117913 27.996200 translate 0.035278 -0.035278 scale
start_ol
3264 1967 moveto
3264 0 lineto
2752 0 lineto
2752 1949 lineto
2752 2416 2563 2648 conicto
2375 2880 1999 2880 conicto
1546 2880 1285 2601 conicto
1024 2322 1024 1841 conicto
1024 0 lineto
512 0 lineto
512 3264 lineto
1024 3264 lineto
1024 2752 lineto
1220 3041 1486 3184 conicto
1753 3328 2101 3328 conicto
2675 3328 2969 2982 conicto
3264 2637 3264 1967 conicto
end_ol grestore 
gsave 17.617446 27.996200 translate 0.035278 -0.035278 scale
start_ol
2688 2752 moveto
2688 4544 lineto
3200 4544 lineto
3200 0 lineto
2688 0 lineto
2688 512 lineto
2520 220 2263 78 conicto
2007 -64 1647 -64 conicto
1059 -64 689 403 conicto
320 871 320 1632 conicto
320 2393 689 2860 conicto
1059 3328 1647 3328 conicto
2007 3328 2263 3186 conicto
2520 3044 2688 2752 conicto
896 1632 moveto
896 1048 1134 716 conicto
1373 384 1791 384 conicto
2208 384 2448 716 conicto
2688 1048 2688 1632 conicto
2688 2216 2448 2548 conicto
2208 2880 1791 2880 conicto
1373 2880 1134 2548 conicto
896 2216 896 1632 conicto
end_ol grestore 
gsave 18.119476 27.996200 translate 0.035278 -0.035278 scale
start_ol
3328 1752 moveto
3328 1472 lineto
896 1472 lineto
930 941 1224 662 conicto
1519 384 2044 384 conicto
2348 384 2633 464 conicto
2919 544 3200 704 conicto
3200 192 lineto
2913 67 2612 1 conicto
2311 -64 2002 -64 conicto
1226 -64 773 386 conicto
320 836 320 1603 conicto
320 2396 750 2862 conicto
1181 3328 1911 3328 conicto
2566 3328 2947 2904 conicto
3328 2480 3328 1752 conicto
2816 1920 moveto
2810 2358 2571 2619 conicto
2332 2880 1937 2880 conicto
1490 2880 1222 2627 conicto
954 2375 913 1917 conicto
2816 1920 lineto
end_ol grestore 
gsave 18.589037 27.996200 translate 0.035278 -0.035278 scale
start_ol
3264 3264 moveto
2104 1676 lineto
3328 0 lineto
2705 0 lineto
1769 1282 lineto
822 0 lineto
192 0 lineto
1460 1708 lineto
320 3264 lineto
941 3264 lineto
1792 2101 lineto
2643 3264 lineto
3264 3264 lineto
end_ol grestore 
gsave 19.056093 27.996200 translate 0.035278 -0.035278 scale
start_ol
end_ol grestore 
gsave 19.305860 27.996200 translate 0.035278 -0.035278 scale
start_ol
2048 3771 moveto
1253 1600 lineto
2846 1600 lineto
2048 3771 lineto
1717 4352 moveto
2382 4352 lineto
4032 0 lineto
3423 0 lineto
3028 1152 lineto
1076 1152 lineto
682 0 lineto
64 0 lineto
1717 4352 lineto
end_ol grestore 
gsave 19.845353 27.996200 translate 0.035278 -0.035278 scale
start_ol
2432 2752 moveto
2339 2818 2230 2849 conicto
2121 2880 1990 2880 conicto
1523 2880 1273 2579 conicto
1024 2279 1024 1716 conicto
1024 0 lineto
512 0 lineto
512 3264 lineto
1024 3264 lineto
1024 2752 lineto
1197 3044 1475 3186 conicto
1753 3328 2151 3328 conicto
2208 3328 2276 3328 conicto
2345 3328 2429 3328 conicto
2432 2752 lineto
end_ol grestore 
gsave 20.155057 27.996200 translate 0.035278 -0.035278 scale
start_ol
2432 2752 moveto
2339 2818 2230 2849 conicto
2121 2880 1990 2880 conicto
1523 2880 1273 2579 conicto
1024 2279 1024 1716 conicto
1024 0 lineto
512 0 lineto
512 3264 lineto
1024 3264 lineto
1024 2752 lineto
1197 3044 1475 3186 conicto
1753 3328 2151 3328 conicto
2208 3328 2276 3328 conicto
2345 3328 2429 3328 conicto
2432 2752 lineto
end_ol grestore 
gsave 20.479750 27.996200 translate 0.035278 -0.035278 scale
start_ol
2013 1600 moveto
1346 1600 1089 1458 conicto
832 1317 832 975 conicto
832 703 1025 543 conicto
1218 384 1550 384 conicto
2007 384 2283 685 conicto
2560 986 2560 1486 conicto
2560 1600 lineto
2013 1600 lineto
3072 1836 moveto
3072 0 lineto
2560 0 lineto
2560 512 lineto
2375 217 2098 76 conicto
1822 -64 1422 -64 conicto
917 -64 618 213 conicto
320 490 320 955 conicto
320 1497 688 1772 conicto
1057 2048 1789 2048 conicto
2560 2048 lineto
2560 2102 lineto
2560 2473 2316 2676 conicto
2073 2880 1632 2880 conicto
1352 2880 1086 2816 conicto
821 2752 576 2624 conicto
576 3136 lineto
868 3232 1142 3280 conicto
1417 3328 1677 3328 conicto
2379 3328 2725 2958 conicto
3072 2588 3072 1836 conicto
end_ol grestore 
gsave 20.964293 27.996200 translate 0.035278 -0.035278 scale
start_ol
1959 -281 moveto
1732 -862 1516 -1039 conicto
1301 -1216 940 -1216 conicto
512 -1216 lineto
512 -768 lineto
826 -768 lineto
1048 -768 1170 -666 conicto
1292 -565 1441 -186 conicto
1537 58 lineto
192 3264 lineto
786 3264 lineto
1805 711 lineto
2824 3264 lineto
3392 3264 lineto
1959 -281 lineto
end_ol grestore 
gsave 14.887500 28.983978 translate 0.035278 -0.035278 scale
start_ol
2176 4544 moveto
2176 4096 lineto
1672 4096 lineto
1379 4096 1265 3978 conicto
1152 3861 1152 3555 conicto
1152 3264 lineto
2048 3264 lineto
2048 2816 lineto
1152 2816 lineto
1152 0 lineto
640 0 lineto
640 2816 lineto
128 2816 lineto
128 3264 lineto
640 3264 lineto
640 3493 lineto
640 4042 889 4293 conicto
1138 4544 1678 4544 conicto
2176 4544 lineto
end_ol grestore 
gsave 15.164734 28.983978 translate 0.035278 -0.035278 scale
start_ol
1825 2880 moveto
1396 2880 1146 2546 conicto
896 2213 896 1632 conicto
896 1051 1144 717 conicto
1393 384 1825 384 conicto
2252 384 2502 719 conicto
2752 1054 2752 1632 conicto
2752 2207 2502 2543 conicto
2252 2880 1825 2880 conicto
1824 3328 moveto
2526 3328 2927 2878 conicto
3328 2428 3328 1632 conicto
3328 839 2927 387 conicto
2526 -64 1824 -64 conicto
1119 -64 719 387 conicto
320 839 320 1632 conicto
320 2428 719 2878 conicto
1119 3328 1824 3328 conicto
end_ol grestore 
gsave 15.646780 28.983978 translate 0.035278 -0.035278 scale
start_ol
2432 2752 moveto
2339 2818 2230 2849 conicto
2121 2880 1990 2880 conicto
1523 2880 1273 2579 conicto
1024 2279 1024 1716 conicto
1024 0 lineto
512 0 lineto
512 3264 lineto
1024 3264 lineto
1024 2752 lineto
1197 3044 1475 3186 conicto
1753 3328 2151 3328 conicto
2208 3328 2276 3328 conicto
2345 3328 2429 3328 conicto
2432 2752 lineto
end_ol grestore 
gsave 15.971473 28.983978 translate 0.035278 -0.035278 scale
start_ol
end_ol grestore 
gsave 16.221240 28.983978 translate 0.035278 -0.035278 scale
start_ol
1024 4160 moveto
1024 3264 lineto
2112 3264 lineto
2112 2816 lineto
1024 2816 lineto
1024 1067 lineto
1024 673 1131 560 conicto
1239 448 1569 448 conicto
2112 448 lineto
2112 0 lineto
1569 0 lineto
969 0 740 230 conicto
512 460 512 1067 conicto
512 2816 lineto
128 2816 lineto
128 3264 lineto
512 3264 lineto
512 4160 lineto
1024 4160 lineto
end_ol grestore 
gsave 16.530943 28.983978 translate 0.035278 -0.035278 scale
start_ol
3264 1967 moveto
3264 0 lineto
2752 0 lineto
2752 1949 lineto
2752 2416 2563 2648 conicto
2375 2880 1999 2880 conicto
1546 2880 1285 2601 conicto
1024 2322 1024 1841 conicto
1024 0 lineto
512 0 lineto
512 4544 lineto
1024 4544 lineto
1024 2752 lineto
1220 3041 1486 3184 conicto
1753 3328 2101 3328 conicto
2675 3328 2969 2982 conicto
3264 2637 3264 1967 conicto
end_ol grestore 
gsave 17.030476 28.983978 translate 0.035278 -0.035278 scale
start_ol
3328 1752 moveto
3328 1472 lineto
896 1472 lineto
930 941 1224 662 conicto
1519 384 2044 384 conicto
2348 384 2633 464 conicto
2919 544 3200 704 conicto
3200 192 lineto
2913 67 2612 1 conicto
2311 -64 2002 -64 conicto
1226 -64 773 386 conicto
320 836 320 1603 conicto
320 2396 750 2862 conicto
1181 3328 1911 3328 conicto
2566 3328 2947 2904 conicto
3328 2480 3328 1752 conicto
2816 1920 moveto
2810 2358 2571 2619 conicto
2332 2880 1937 2880 conicto
1490 2880 1222 2627 conicto
954 2375 913 1917 conicto
2816 1920 lineto
end_ol grestore 
gsave 17.515019 28.983978 translate 0.035278 -0.035278 scale
start_ol
end_ol grestore 
gsave 17.764786 28.983978 translate 0.035278 -0.035278 scale
start_ol
1152 3904 moveto
1152 448 lineto
1858 448 lineto
2753 448 3168 864 conicto
3584 1281 3584 2180 conicto
3584 3073 3168 3488 conicto
2753 3904 1858 3904 conicto
1152 3904 lineto
576 4352 moveto
1769 4352 lineto
3037 4352 3630 3826 conicto
4224 3300 4224 2180 conicto
4224 1055 3628 527 conicto
3032 0 1769 0 conicto
576 0 lineto
576 4352 lineto
end_ol grestore 
gsave 18.371715 28.983978 translate 0.035278 -0.035278 scale
start_ol
2013 1600 moveto
1346 1600 1089 1458 conicto
832 1317 832 975 conicto
832 703 1025 543 conicto
1218 384 1550 384 conicto
2007 384 2283 685 conicto
2560 986 2560 1486 conicto
2560 1600 lineto
2013 1600 lineto
3072 1836 moveto
3072 0 lineto
2560 0 lineto
2560 512 lineto
2375 217 2098 76 conicto
1822 -64 1422 -64 conicto
917 -64 618 213 conicto
320 490 320 955 conicto
320 1497 688 1772 conicto
1057 2048 1789 2048 conicto
2560 2048 lineto
2560 2102 lineto
2560 2473 2316 2676 conicto
2073 2880 1632 2880 conicto
1352 2880 1086 2816 conicto
821 2752 576 2624 conicto
576 3136 lineto
868 3232 1142 3280 conicto
1417 3328 1677 3328 conicto
2379 3328 2725 2958 conicto
3072 2588 3072 1836 conicto
end_ol grestore 
gsave 18.856258 28.983978 translate 0.035278 -0.035278 scale
start_ol
1024 4160 moveto
1024 3264 lineto
2112 3264 lineto
2112 2816 lineto
1024 2816 lineto
1024 1067 lineto
1024 673 1131 560 conicto
1239 448 1569 448 conicto
2112 448 lineto
2112 0 lineto
1569 0 lineto
969 0 740 230 conicto
512 460 512 1067 conicto
512 2816 lineto
128 2816 lineto
128 3264 lineto
512 3264 lineto
512 4160 lineto
1024 4160 lineto
end_ol grestore 
gsave 19.165961 28.983978 translate 0.035278 -0.035278 scale
start_ol
2013 1600 moveto
1346 1600 1089 1458 conicto
832 1317 832 975 conicto
832 703 1025 543 conicto
1218 384 1550 384 conicto
2007 384 2283 685 conicto
2560 986 2560 1486 conicto
2560 1600 lineto
2013 1600 lineto
3072 1836 moveto
3072 0 lineto
2560 0 lineto
2560 512 lineto
2375 217 2098 76 conicto
1822 -64 1422 -64 conicto
917 -64 618 213 conicto
320 490 320 955 conicto
320 1497 688 1772 conicto
1057 2048 1789 2048 conicto
2560 2048 lineto
2560 2102 lineto
2560 2473 2316 2676 conicto
2073 2880 1632 2880 conicto
1352 2880 1086 2816 conicto
821 2752 576 2624 conicto
576 3136 lineto
868 3232 1142 3280 conicto
1417 3328 1677 3328 conicto
2379 3328 2725 2958 conicto
3072 2588 3072 1836 conicto
end_ol grestore 
gsave 19.650504 28.983978 translate 0.035278 -0.035278 scale
start_ol
end_ol grestore 
gsave 19.900271 28.983978 translate 0.035278 -0.035278 scale
start_ol
3200 4224 moveto
3200 3648 lineto
2870 3809 2577 3888 conicto
2284 3968 2012 3968 conicto
1538 3968 1281 3782 conicto
1024 3596 1024 3254 conicto
1024 2966 1191 2819 conicto
1359 2673 1826 2583 conicto
2169 2511 lineto
2829 2386 3142 2069 conicto
3456 1753 3456 1222 conicto
3456 589 3028 262 conicto
2601 -64 1774 -64 conicto
1463 -64 1111 0 conicto
760 65 384 192 conicto
384 832 lineto
743 610 1087 497 conicto
1431 384 1763 384 conicto
2268 384 2542 586 conicto
2816 789 2816 1165 conicto
2816 1493 2626 1678 conicto
2436 1863 2003 1955 conicto
1657 2024 lineto
985 2153 684 2428 conicto
384 2704 384 3194 conicto
384 3762 793 4089 conicto
1202 4416 1919 4416 conicto
2227 4416 2546 4368 conicto
2866 4320 3200 4224 conicto
end_ol grestore 
gsave 20.402301 28.983978 translate 0.035278 -0.035278 scale
start_ol
512 1296 moveto
512 3264 lineto
1024 3264 lineto
1024 1316 lineto
1024 850 1212 617 conicto
1400 384 1776 384 conicto
2228 384 2490 662 conicto
2752 941 2752 1421 conicto
2752 3264 lineto
3264 3264 lineto
3264 0 lineto
2752 0 lineto
2752 512 lineto
2553 220 2290 78 conicto
2027 -64 1680 -64 conicto
1106 -64 809 282 conicto
512 629 512 1296 conicto
1870 3328 moveto
1870 3328 lineto
end_ol grestore 
gsave 20.901835 28.983978 translate 0.035278 -0.035278 scale
start_ol
2816 1632 moveto
2816 2216 2577 2548 conicto
2338 2880 1920 2880 conicto
1502 2880 1263 2548 conicto
1024 2216 1024 1632 conicto
1024 1048 1263 716 conicto
1502 384 1920 384 conicto
2338 384 2577 716 conicto
2816 1048 2816 1632 conicto
1024 2752 moveto
1192 3044 1448 3186 conicto
1705 3328 2062 3328 conicto
2653 3328 3022 2860 conicto
3392 2393 3392 1632 conicto
3392 871 3022 403 conicto
2653 -64 2062 -64 conicto
1705 -64 1448 78 conicto
1192 220 1024 512 conicto
1024 0 lineto
512 0 lineto
512 4544 lineto
1024 4544 lineto
1024 2752 lineto
end_ol grestore 
gsave 21.403865 28.983978 translate 0.035278 -0.035278 scale
start_ol
320 1920 moveto
1856 1920 lineto
1856 1408 lineto
320 1408 lineto
320 1920 lineto
end_ol grestore 
gsave 21.718570 28.983978 translate 0.035278 -0.035278 scale
start_ol
3520 608 moveto
3520 1792 lineto
2560 1792 lineto
2560 2240 lineto
4096 2240 lineto
4096 390 lineto
3757 166 3349 51 conicto
2941 -64 2477 -64 conicto
1464 -64 892 527 conicto
320 1119 320 2175 conicto
320 3233 889 3824 conicto
1459 4416 2468 4416 conicto
2889 4416 3268 4302 conicto
3648 4189 3968 3968 conicto
3968 3328 lineto
3648 3646 3287 3807 conicto
2927 3968 2530 3968 conicto
1746 3968 1353 3517 conicto
960 3067 960 2175 conicto
960 1285 1355 834 conicto
1750 384 2537 384 conicto
2845 384 3086 438 conicto
3327 493 3520 608 conicto
end_ol grestore 
gsave 22.330494 28.983978 translate 0.035278 -0.035278 scale
start_ol
2432 2752 moveto
2339 2818 2230 2849 conicto
2121 2880 1990 2880 conicto
1523 2880 1273 2579 conicto
1024 2279 1024 1716 conicto
1024 0 lineto
512 0 lineto
512 3264 lineto
1024 3264 lineto
1024 2752 lineto
1197 3044 1475 3186 conicto
1753 3328 2151 3328 conicto
2208 3328 2276 3328 conicto
2345 3328 2429 3328 conicto
2432 2752 lineto
end_ol grestore 
gsave 22.637700 28.983978 translate 0.035278 -0.035278 scale
start_ol
1825 2880 moveto
1396 2880 1146 2546 conicto
896 2213 896 1632 conicto
896 1051 1144 717 conicto
1393 384 1825 384 conicto
2252 384 2502 719 conicto
2752 1054 2752 1632 conicto
2752 2207 2502 2543 conicto
2252 2880 1825 2880 conicto
1824 3328 moveto
2526 3328 2927 2878 conicto
3328 2428 3328 1632 conicto
3328 839 2927 387 conicto
2526 -64 1824 -64 conicto
1119 -64 719 387 conicto
320 839 320 1632 conicto
320 2428 719 2878 conicto
1119 3328 1824 3328 conicto
end_ol grestore 
gsave 23.119746 28.983978 translate 0.035278 -0.035278 scale
start_ol
512 1296 moveto
512 3264 lineto
1024 3264 lineto
1024 1316 lineto
1024 850 1212 617 conicto
1400 384 1776 384 conicto
2228 384 2490 662 conicto
2752 941 2752 1421 conicto
2752 3264 lineto
3264 3264 lineto
3264 0 lineto
2752 0 lineto
2752 512 lineto
2553 220 2290 78 conicto
2027 -64 1680 -64 conicto
1106 -64 809 282 conicto
512 629 512 1296 conicto
1870 3328 moveto
1870 3328 lineto
end_ol grestore 
gsave 23.619279 28.983978 translate 0.035278 -0.035278 scale
start_ol
1024 512 moveto
1024 -1216 lineto
512 -1216 lineto
512 3264 lineto
1024 3264 lineto
1024 2752 lineto
1192 3044 1448 3186 conicto
1705 3328 2062 3328 conicto
2653 3328 3022 2860 conicto
3392 2393 3392 1632 conicto
3392 871 3022 403 conicto
2653 -64 2062 -64 conicto
1705 -64 1448 78 conicto
1192 220 1024 512 conicto
2816 1632 moveto
2816 2216 2577 2548 conicto
2338 2880 1920 2880 conicto
1502 2880 1263 2548 conicto
1024 2216 1024 1632 conicto
1024 1048 1263 716 conicto
1502 384 1920 384 conicto
2338 384 2577 716 conicto
2816 1048 2816 1632 conicto
end_ol grestore 
gsave 35.200000 20.350000 translate 0.035278 -0.035278 scale
start_ol
1152 3904 moveto
1152 448 lineto
1858 448 lineto
2753 448 3168 864 conicto
3584 1281 3584 2180 conicto
3584 3073 3168 3488 conicto
2753 3904 1858 3904 conicto
1152 3904 lineto
576 4352 moveto
1769 4352 lineto
3037 4352 3630 3826 conicto
4224 3300 4224 2180 conicto
4224 1055 3628 527 conicto
3032 0 1769 0 conicto
576 0 lineto
576 4352 lineto
end_ol grestore 
gsave 35.806929 20.350000 translate 0.035278 -0.035278 scale
start_ol
2013 1600 moveto
1346 1600 1089 1458 conicto
832 1317 832 975 conicto
832 703 1025 543 conicto
1218 384 1550 384 conicto
2007 384 2283 685 conicto
2560 986 2560 1486 conicto
2560 1600 lineto
2013 1600 lineto
3072 1836 moveto
3072 0 lineto
2560 0 lineto
2560 512 lineto
2375 217 2098 76 conicto
1822 -64 1422 -64 conicto
917 -64 618 213 conicto
320 490 320 955 conicto
320 1497 688 1772 conicto
1057 2048 1789 2048 conicto
2560 2048 lineto
2560 2102 lineto
2560 2473 2316 2676 conicto
2073 2880 1632 2880 conicto
1352 2880 1086 2816 conicto
821 2752 576 2624 conicto
576 3136 lineto
868 3232 1142 3280 conicto
1417 3328 1677 3328 conicto
2379 3328 2725 2958 conicto
3072 2588 3072 1836 conicto
end_ol grestore 
gsave 36.291472 20.350000 translate 0.035278 -0.035278 scale
start_ol
1024 4160 moveto
1024 3264 lineto
2112 3264 lineto
2112 2816 lineto
1024 2816 lineto
1024 1067 lineto
1024 673 1131 560 conicto
1239 448 1569 448 conicto
2112 448 lineto
2112 0 lineto
1569 0 lineto
969 0 740 230 conicto
512 460 512 1067 conicto
512 2816 lineto
128 2816 lineto
128 3264 lineto
512 3264 lineto
512 4160 lineto
1024 4160 lineto
end_ol grestore 
gsave 36.601175 20.350000 translate 0.035278 -0.035278 scale
start_ol
2013 1600 moveto
1346 1600 1089 1458 conicto
832 1317 832 975 conicto
832 703 1025 543 conicto
1218 384 1550 384 conicto
2007 384 2283 685 conicto
2560 986 2560 1486 conicto
2560 1600 lineto
2013 1600 lineto
3072 1836 moveto
3072 0 lineto
2560 0 lineto
2560 512 lineto
2375 217 2098 76 conicto
1822 -64 1422 -64 conicto
917 -64 618 213 conicto
320 490 320 955 conicto
320 1497 688 1772 conicto
1057 2048 1789 2048 conicto
2560 2048 lineto
2560 2102 lineto
2560 2473 2316 2676 conicto
2073 2880 1632 2880 conicto
1352 2880 1086 2816 conicto
821 2752 576 2624 conicto
576 3136 lineto
868 3232 1142 3280 conicto
1417 3328 1677 3328 conicto
2379 3328 2725 2958 conicto
3072 2588 3072 1836 conicto
end_ol grestore 
gsave 37.085718 20.350000 translate 0.035278 -0.035278 scale
start_ol
end_ol grestore 
gsave 37.335485 20.350000 translate 0.035278 -0.035278 scale
start_ol
2048 3771 moveto
1253 1600 lineto
2846 1600 lineto
2048 3771 lineto
1717 4352 moveto
2382 4352 lineto
4032 0 lineto
3423 0 lineto
3028 1152 lineto
1076 1152 lineto
682 0 lineto
64 0 lineto
1717 4352 lineto
end_ol grestore 
gsave 37.874979 20.350000 translate 0.035278 -0.035278 scale
start_ol
2432 2752 moveto
2339 2818 2230 2849 conicto
2121 2880 1990 2880 conicto
1523 2880 1273 2579 conicto
1024 2279 1024 1716 conicto
1024 0 lineto
512 0 lineto
512 3264 lineto
1024 3264 lineto
1024 2752 lineto
1197 3044 1475 3186 conicto
1753 3328 2151 3328 conicto
2208 3328 2276 3328 conicto
2345 3328 2429 3328 conicto
2432 2752 lineto
end_ol grestore 
gsave 38.184682 20.350000 translate 0.035278 -0.035278 scale
start_ol
2432 2752 moveto
2339 2818 2230 2849 conicto
2121 2880 1990 2880 conicto
1523 2880 1273 2579 conicto
1024 2279 1024 1716 conicto
1024 0 lineto
512 0 lineto
512 3264 lineto
1024 3264 lineto
1024 2752 lineto
1197 3044 1475 3186 conicto
1753 3328 2151 3328 conicto
2208 3328 2276 3328 conicto
2345 3328 2429 3328 conicto
2432 2752 lineto
end_ol grestore 
gsave 38.509375 20.350000 translate 0.035278 -0.035278 scale
start_ol
2013 1600 moveto
1346 1600 1089 1458 conicto
832 1317 832 975 conicto
832 703 1025 543 conicto
1218 384 1550 384 conicto
2007 384 2283 685 conicto
2560 986 2560 1486 conicto
2560 1600 lineto
2013 1600 lineto
3072 1836 moveto
3072 0 lineto
2560 0 lineto
2560 512 lineto
2375 217 2098 76 conicto
1822 -64 1422 -64 conicto
917 -64 618 213 conicto
320 490 320 955 conicto
320 1497 688 1772 conicto
1057 2048 1789 2048 conicto
2560 2048 lineto
2560 2102 lineto
2560 2473 2316 2676 conicto
2073 2880 1632 2880 conicto
1352 2880 1086 2816 conicto
821 2752 576 2624 conicto
576 3136 lineto
868 3232 1142 3280 conicto
1417 3328 1677 3328 conicto
2379 3328 2725 2958 conicto
3072 2588 3072 1836 conicto
end_ol grestore 
gsave 38.993918 20.350000 translate 0.035278 -0.035278 scale
start_ol
1959 -281 moveto
1732 -862 1516 -1039 conicto
1301 -1216 940 -1216 conicto
512 -1216 lineto
512 -768 lineto
826 -768 lineto
1048 -768 1170 -666 conicto
1292 -565 1441 -186 conicto
1537 58 lineto
192 3264 lineto
786 3264 lineto
1805 711 lineto
2824 3264 lineto
3392 3264 lineto
1959 -281 lineto
end_ol grestore 
showpage
