%!PS-Adobe-2.0 EPSF-2.0
%%Title: /home/doc/Work/Doutorado/Article_hp2FEM/Article_hp2FEM-Architecture_english/figs/TwoIndexTableNew.dia
%%Creator: Dia v0.97.3
%%CreationDate: Wed Nov 18 11:01:36 2015
%%For: betogil
%%Orientation: Portrait
%%Magnification: 1.0000
%%BoundingBox: 0 0 697 422
%%BeginSetup
%%EndSetup
%%EndComments
%%BeginProlog
[ /.notdef /.notdef /.notdef /.notdef /.notdef /.notdef /.notdef /.notdef /.notdef /.notdef
/.notdef /.notdef /.notdef /.notdef /.notdef /.notdef /.notdef /.notdef /.notdef /.notdef
/.notdef /.notdef /.notdef /.notdef /.notdef /.notdef /.notdef /.notdef /.notdef /.notdef
/.notdef /.notdef /space /exclam /quotedbl /numbersign /dollar /percent /ampersand /quoteright
/parenleft /parenright /asterisk /plus /comma /hyphen /period /slash /zero /one
/two /three /four /five /six /seven /eight /nine /colon /semicolon
/less /equal /greater /question /at /A /B /C /D /E
/F /G /H /I /J /K /L /M /N /O
/P /Q /R /S /T /U /V /W /X /Y
/Z /bracketleft /backslash /bracketright /asciicircum /underscore /quoteleft /a /b /c
/d /e /f /g /h /i /j /k /l /m
/n /o /p /q /r /s /t /u /v /w
/x /y /z /braceleft /bar /braceright /asciitilde /.notdef /.notdef /.notdef
/.notdef /.notdef /.notdef /.notdef /.notdef /.notdef /.notdef /.notdef /.notdef /.notdef
/.notdef /.notdef /.notdef /.notdef /.notdef /.notdef /.notdef /.notdef /.notdef /.notdef
/.notdef /.notdef /.notdef /.notdef /.notdef /.notdef /.notdef /.notdef /.notdef /.notdef
/space /exclamdown /cent /sterling /currency /yen /brokenbar /section /dieresis /copyright
/ordfeminine /guillemotleft /logicalnot /hyphen /registered /macron /degree /plusminus /twosuperior /threesuperior
/acute /mu /paragraph /periodcentered /cedilla /onesuperior /ordmasculine /guillemotright /onequarter /onehalf
/threequarters /questiondown /Agrave /Aacute /Acircumflex /Atilde /Adieresis /Aring /AE /Ccedilla
/Egrave /Eacute /Ecircumflex /Edieresis /Igrave /Iacute /Icircumflex /Idieresis /Eth /Ntilde
/Ograve /Oacute /Ocircumflex /Otilde /Odieresis /multiply /Oslash /Ugrave /Uacute /Ucircumflex
/Udieresis /Yacute /Thorn /germandbls /agrave /aacute /acircumflex /atilde /adieresis /aring
/ae /ccedilla /egrave /eacute /ecircumflex /edieresis /igrave /iacute /icircumflex /idieresis
/eth /ntilde /ograve /oacute /ocircumflex /otilde /odieresis /divide /oslash /ugrave
/uacute /ucircumflex /udieresis /yacute /thorn /ydieresis] /isolatin1encoding exch def
/cp {closepath} bind def
/c {curveto} bind def
/f {fill} bind def
/a {arc} bind def
/ef {eofill} bind def
/ex {exch} bind def
/gr {grestore} bind def
/gs {gsave} bind def
/sa {save} bind def
/rs {restore} bind def
/l {lineto} bind def
/m {moveto} bind def
/rm {rmoveto} bind def
/n {newpath} bind def
/s {stroke} bind def
/sh {show} bind def
/slc {setlinecap} bind def
/slj {setlinejoin} bind def
/slw {setlinewidth} bind def
/srgb {setrgbcolor} bind def
/rot {rotate} bind def
/sc {scale} bind def
/sd {setdash} bind def
/ff {findfont} bind def
/sf {setfont} bind def
/scf {scalefont} bind def
/sw {stringwidth pop} bind def
/tr {translate} bind def

/ellipsedict 8 dict def
ellipsedict /mtrx matrix put
/ellipse
{ ellipsedict begin
   /endangle exch def
   /startangle exch def
   /yrad exch def
   /xrad exch def
   /y exch def
   /x exch def   /savematrix mtrx currentmatrix def
   x y tr xrad yrad sc
   0 0 1 startangle endangle arc
   savematrix setmatrix
   end
} def

/mergeprocs {
dup length
3 -1 roll
dup
length
dup
5 1 roll
3 -1 roll
add
array cvx
dup
3 -1 roll
0 exch
putinterval
dup
4 2 roll
putinterval
} bind def
/Times-Roman-latin1
    /Times-Roman findfont
    dup length dict begin
	{1 index /FID ne {def} {pop pop} ifelse} forall
	/Encoding isolatin1encoding def
    currentdict end
definefont pop
/Times-Italic-latin1
    /Times-Italic findfont
    dup length dict begin
	{1 index /FID ne {def} {pop pop} ifelse} forall
	/Encoding isolatin1encoding def
    currentdict end
definefont pop
/Times-Bold-latin1
    /Times-Bold findfont
    dup length dict begin
	{1 index /FID ne {def} {pop pop} ifelse} forall
	/Encoding isolatin1encoding def
    currentdict end
definefont pop
/Times-BoldItalic-latin1
    /Times-BoldItalic findfont
    dup length dict begin
	{1 index /FID ne {def} {pop pop} ifelse} forall
	/Encoding isolatin1encoding def
    currentdict end
definefont pop
/AvantGarde-Gothic-latin1
    /AvantGarde-Gothic findfont
    dup length dict begin
	{1 index /FID ne {def} {pop pop} ifelse} forall
	/Encoding isolatin1encoding def
    currentdict end
definefont pop
/AvantGarde-BookOblique-latin1
    /AvantGarde-BookOblique findfont
    dup length dict begin
	{1 index /FID ne {def} {pop pop} ifelse} forall
	/Encoding isolatin1encoding def
    currentdict end
definefont pop
/AvantGarde-Demi-latin1
    /AvantGarde-Demi findfont
    dup length dict begin
	{1 index /FID ne {def} {pop pop} ifelse} forall
	/Encoding isolatin1encoding def
    currentdict end
definefont pop
/AvantGarde-DemiOblique-latin1
    /AvantGarde-DemiOblique findfont
    dup length dict begin
	{1 index /FID ne {def} {pop pop} ifelse} forall
	/Encoding isolatin1encoding def
    currentdict end
definefont pop
/Bookman-Light-latin1
    /Bookman-Light findfont
    dup length dict begin
	{1 index /FID ne {def} {pop pop} ifelse} forall
	/Encoding isolatin1encoding def
    currentdict end
definefont pop
/Bookman-LightItalic-latin1
    /Bookman-LightItalic findfont
    dup length dict begin
	{1 index /FID ne {def} {pop pop} ifelse} forall
	/Encoding isolatin1encoding def
    currentdict end
definefont pop
/Bookman-Demi-latin1
    /Bookman-Demi findfont
    dup length dict begin
	{1 index /FID ne {def} {pop pop} ifelse} forall
	/Encoding isolatin1encoding def
    currentdict end
definefont pop
/Bookman-DemiItalic-latin1
    /Bookman-DemiItalic findfont
    dup length dict begin
	{1 index /FID ne {def} {pop pop} ifelse} forall
	/Encoding isolatin1encoding def
    currentdict end
definefont pop
/Courier-latin1
    /Courier findfont
    dup length dict begin
	{1 index /FID ne {def} {pop pop} ifelse} forall
	/Encoding isolatin1encoding def
    currentdict end
definefont pop
/Courier-Oblique-latin1
    /Courier-Oblique findfont
    dup length dict begin
	{1 index /FID ne {def} {pop pop} ifelse} forall
	/Encoding isolatin1encoding def
    currentdict end
definefont pop
/Courier-Bold-latin1
    /Courier-Bold findfont
    dup length dict begin
	{1 index /FID ne {def} {pop pop} ifelse} forall
	/Encoding isolatin1encoding def
    currentdict end
definefont pop
/Courier-BoldOblique-latin1
    /Courier-BoldOblique findfont
    dup length dict begin
	{1 index /FID ne {def} {pop pop} ifelse} forall
	/Encoding isolatin1encoding def
    currentdict end
definefont pop
/Helvetica-latin1
    /Helvetica findfont
    dup length dict begin
	{1 index /FID ne {def} {pop pop} ifelse} forall
	/Encoding isolatin1encoding def
    currentdict end
definefont pop
/Helvetica-Oblique-latin1
    /Helvetica-Oblique findfont
    dup length dict begin
	{1 index /FID ne {def} {pop pop} ifelse} forall
	/Encoding isolatin1encoding def
    currentdict end
definefont pop
/Helvetica-Bold-latin1
    /Helvetica-Bold findfont
    dup length dict begin
	{1 index /FID ne {def} {pop pop} ifelse} forall
	/Encoding isolatin1encoding def
    currentdict end
definefont pop
/Helvetica-BoldOblique-latin1
    /Helvetica-BoldOblique findfont
    dup length dict begin
	{1 index /FID ne {def} {pop pop} ifelse} forall
	/Encoding isolatin1encoding def
    currentdict end
definefont pop
/Helvetica-Narrow-latin1
    /Helvetica-Narrow findfont
    dup length dict begin
	{1 index /FID ne {def} {pop pop} ifelse} forall
	/Encoding isolatin1encoding def
    currentdict end
definefont pop
/Helvetica-Narrow-Oblique-latin1
    /Helvetica-Narrow-Oblique findfont
    dup length dict begin
	{1 index /FID ne {def} {pop pop} ifelse} forall
	/Encoding isolatin1encoding def
    currentdict end
definefont pop
/Helvetica-Narrow-Bold-latin1
    /Helvetica-Narrow-Bold findfont
    dup length dict begin
	{1 index /FID ne {def} {pop pop} ifelse} forall
	/Encoding isolatin1encoding def
    currentdict end
definefont pop
/Helvetica-Narrow-BoldOblique-latin1
    /Helvetica-Narrow-BoldOblique findfont
    dup length dict begin
	{1 index /FID ne {def} {pop pop} ifelse} forall
	/Encoding isolatin1encoding def
    currentdict end
definefont pop
/NewCenturySchlbk-Roman-latin1
    /NewCenturySchlbk-Roman findfont
    dup length dict begin
	{1 index /FID ne {def} {pop pop} ifelse} forall
	/Encoding isolatin1encoding def
    currentdict end
definefont pop
/NewCenturySchlbk-Italic-latin1
    /NewCenturySchlbk-Italic findfont
    dup length dict begin
	{1 index /FID ne {def} {pop pop} ifelse} forall
	/Encoding isolatin1encoding def
    currentdict end
definefont pop
/NewCenturySchlbk-Bold-latin1
    /NewCenturySchlbk-Bold findfont
    dup length dict begin
	{1 index /FID ne {def} {pop pop} ifelse} forall
	/Encoding isolatin1encoding def
    currentdict end
definefont pop
/NewCenturySchlbk-BoldItalic-latin1
    /NewCenturySchlbk-BoldItalic findfont
    dup length dict begin
	{1 index /FID ne {def} {pop pop} ifelse} forall
	/Encoding isolatin1encoding def
    currentdict end
definefont pop
/Palatino-Roman-latin1
    /Palatino-Roman findfont
    dup length dict begin
	{1 index /FID ne {def} {pop pop} ifelse} forall
	/Encoding isolatin1encoding def
    currentdict end
definefont pop
/Palatino-Italic-latin1
    /Palatino-Italic findfont
    dup length dict begin
	{1 index /FID ne {def} {pop pop} ifelse} forall
	/Encoding isolatin1encoding def
    currentdict end
definefont pop
/Palatino-Bold-latin1
    /Palatino-Bold findfont
    dup length dict begin
	{1 index /FID ne {def} {pop pop} ifelse} forall
	/Encoding isolatin1encoding def
    currentdict end
definefont pop
/Palatino-BoldItalic-latin1
    /Palatino-BoldItalic findfont
    dup length dict begin
	{1 index /FID ne {def} {pop pop} ifelse} forall
	/Encoding isolatin1encoding def
    currentdict end
definefont pop
/Symbol-latin1
    /Symbol findfont
definefont pop
/ZapfChancery-MediumItalic-latin1
    /ZapfChancery-MediumItalic findfont
    dup length dict begin
	{1 index /FID ne {def} {pop pop} ifelse} forall
	/Encoding isolatin1encoding def
    currentdict end
definefont pop
/ZapfDingbats-latin1
    /ZapfDingbats findfont
    dup length dict begin
	{1 index /FID ne {def} {pop pop} ifelse} forall
	/Encoding isolatin1encoding def
    currentdict end
definefont pop
28.346000 -28.346000 scale
-14.887500 -29.765000 translate
%%EndProlog


0.100000 slw
[] 0 sd
[] 0 sd
0 slj
1.000000 1.000000 1.000000 srgb
n 19.700000 21.050000 m 19.700000 23.387500 l 39.350000 23.387500 l 39.350000 21.050000 l f
0.000000 0.000000 0.000000 srgb
n 19.700000 21.050000 m 19.700000 23.387500 l 39.350000 23.387500 l 39.350000 21.050000 l cp s
0.100000 slw
[] 0 sd
[] 0 sd
0 slc
n 21.300000 20.600000 m 21.300000 23.600000 l s
0.100000 slw
[0.200000] 0 sd
[0.200000] 0 sd
0 slc
n 22.825000 20.615000 m 22.825000 23.615000 l s
0.100000 slw
[0.200000] 0 sd
[0.200000] 0 sd
0 slc
n 27.350000 20.655000 m 27.350000 23.655000 l s
0.300000 slw
[] 0 sd
[] 0 sd
0 slc
n 28.825000 20.645000 m 28.825000 23.645000 l s
0.100000 slw
[0.200000] 0 sd
[0.200000] 0 sd
0 slc
n 24.325000 20.635000 m 24.325000 23.635000 l s
0.100000 slw
[] 0 sd
[] 0 sd
0 slc
n 25.812500 20.670000 m 25.812500 23.670000 l s
0.100000 slw
[0.200000] 0 sd
[0.200000] 0 sd
0 slc
n 30.287500 20.645000 m 30.287500 23.645000 l s
0.100000 slw
[0.200000] 0 sd
[0.200000] 0 sd
0 slc
n 31.800000 20.652500 m 31.800000 23.652500 l s
0.100000 slw
[0.200000] 0 sd
[0.200000] 0 sd
0 slc
n 33.337500 20.610000 m 33.337500 23.610000 l s
0.100000 slw
[] 0 sd
[] 0 sd
0 slc
n 34.825000 20.617500 m 34.825000 23.617500 l s
0.100000 slw
[] 0 sd
[] 0 sd
0 slc
n 36.312500 20.600000 m 36.312500 23.600000 l s
0.100000 slw
[0.200000] 0 sd
[0.200000] 0 sd
0 slc
n 37.800000 20.632500 m 37.800000 23.632500 l s
0.100000 slw
[] 0 sd
[] 0 sd
0 slj
1.000000 1.000000 1.000000 srgb
n 24.412500 27.070000 m 24.412500 29.362500 l 34.975000 29.362500 l 34.975000 27.070000 l f
0.000000 0.000000 0.000000 srgb
n 24.412500 27.070000 m 24.412500 29.362500 l 34.975000 29.362500 l 34.975000 27.070000 l cp s
0.100000 slw
[0.200000] 0 sd
[0.200000] 0 sd
0 slc
n 25.862500 26.570000 m 25.862500 29.570000 l s
0.100000 slw
[0.200000] 0 sd
[0.200000] 0 sd
0 slc
n 27.387500 26.585000 m 27.387500 29.585000 l s
0.100000 slw
[0.200000] 0 sd
[0.200000] 0 sd
0 slc
n 31.912500 26.625000 m 31.912500 29.625000 l s
0.300000 slw
[] 0 sd
[] 0 sd
0 slc
1.000000 0.000000 0.000000 srgb
n 33.387500 26.615000 m 33.387500 29.615000 l s
0.300000 slw
[] 0 sd
[] 0 sd
0 slc
0.000000 0.000000 0.000000 srgb
n 28.887500 26.605000 m 28.887500 29.605000 l s
0.100000 slw
[0.200000] 0 sd
[0.200000] 0 sd
0 slc
n 30.375000 26.640000 m 30.375000 29.640000 l s
/Courier-latin1 ff 1.234722 scf sf
(11) 32.012500 28.281528 m
 gs 1 -1 sc sh gr
/Courier-latin1 ff 1.234722 scf sf
(13) 33.587500 28.269028 m
 gs 1 -1 sc sh gr
/Courier-latin1 ff 1.234722 scf sf
(10) 30.362500 28.269028 m
 gs 1 -1 sc sh gr
/Courier-latin1 ff 1.234722 scf sf
(6) 29.362500 28.244028 m
 gs 1 -1 sc sh gr
/Courier-latin1 ff 1.234722 scf sf
(4) 27.762500 28.244028 m
 gs 1 -1 sc sh gr
/Courier-latin1 ff 1.234722 scf sf
(1) 26.262500 28.244028 m
 gs 1 -1 sc sh gr
/Courier-latin1 ff 1.234722 scf sf
(0) 24.787500 28.219028 m
 gs 1 -1 sc sh gr
0.100000 slw
[] 0 sd
[] 0 sd
0 slj
1.000000 1.000000 1.000000 srgb
n 27.287500 15.545000 m 27.287500 17.837500 l 31.800000 17.837500 l 31.800000 15.545000 l f
0.000000 0.000000 0.000000 srgb
n 27.287500 15.545000 m 27.287500 17.837500 l 31.800000 17.837500 l 31.800000 15.545000 l cp s
0.300000 slw
[] 0 sd
[] 0 sd
0 slc
n 28.737500 15.045000 m 28.737500 18.045000 l s
0.300000 slw
[] 0 sd
[] 0 sd
0 slc
1.000000 0.000000 0.000000 srgb
n 30.262500 15.060000 m 30.262500 18.060000 l s
/Courier-latin1 ff 1.234722 scf sf
0.000000 0.000000 0.000000 srgb
(0) 27.587500 16.769028 m
 gs 1 -1 sc sh gr
/Courier-latin1 ff 1.234722 scf sf
(6) 29.087500 16.794028 m
 gs 1 -1 sc sh gr
/Courier-latin1 ff 1.234722 scf sf
(13) 30.350000 16.776528 m
 gs 1 -1 sc sh gr
0.100000 slw
[] 0 sd
[] 0 sd
0 slc
n 27.411281 18.227650 m 20.325000 20.937500 l s
0 slj
n 27.500576 18.461159 m 27.878298 18.049059 l 27.321985 17.994142 l ef
0.100000 slw
[] 0 sd
0 slj
n 27.500576 18.461159 m 27.878298 18.049059 l 27.321985 17.994142 l cp s
0.100000 slw
[] 0 sd
[] 0 sd
0 slc
n 29.620309 18.556180 m 29.600000 20.937500 l s
0 slj
n 29.870300 18.558312 m 29.624574 18.056198 l 29.370319 18.554048 l ef
0.100000 slw
[] 0 sd
0 slj
n 29.870300 18.558312 m 29.624574 18.056198 l 29.370319 18.554048 l cp s
0.100000 slw
[] 0 sd
[] 0 sd
0 slc
n 24.512041 26.529796 m 20.425000 23.425000 l s
0 slj
n 24.360812 26.728869 m 24.910186 26.832254 l 24.663270 26.330724 l ef
0.100000 slw
[] 0 sd
0 slj
n 24.360812 26.728869 m 24.910186 26.832254 l 24.663270 26.330724 l cp s
0.100000 slw
[] 0 sd
[] 0 sd
0 slc
n 26.260875 26.531337 m 22.175000 23.450000 l s
0 slj
n 26.110346 26.730939 m 26.660080 26.832394 l 26.411404 26.331734 l ef
0.100000 slw
[] 0 sd
0 slj
n 26.110346 26.730939 m 26.660080 26.832394 l 26.411404 26.331734 l cp s
0.100000 slw
[] 0 sd
[] 0 sd
0 slc
n 27.893601 26.382246 m 26.525000 23.431200 l s
0 slj
n 27.666804 26.487428 m 28.103964 26.835841 l 28.120398 26.277065 l ef
0.100000 slw
[] 0 sd
0 slj
n 27.666804 26.487428 m 28.103964 26.835841 l 28.120398 26.277065 l cp s
0.100000 slw
[] 0 sd
[] 0 sd
0 slc
n 29.658193 26.306261 m 29.700000 23.500000 l s
0 slj
n 29.408221 26.302537 m 29.650745 26.806206 l 29.908165 26.309985 l ef
0.100000 slw
[] 0 sd
0 slj
n 29.408221 26.302537 m 29.650745 26.806206 l 29.908165 26.309985 l cp s
0.100000 slw
[] 0 sd
[] 0 sd
0 slc
n 31.463672 26.480737 m 35.544700 23.394300 l s
0 slj
n 31.312871 26.281341 m 31.064879 26.782340 l 31.614474 26.680133 l ef
0.100000 slw
[] 0 sd
0 slj
n 31.312871 26.281341 m 31.064879 26.782340 l 31.614474 26.680133 l cp s
0.100000 slw
[] 0 sd
[] 0 sd
0 slc
n 33.012128 26.478706 m 37.002800 23.431400 l s
0 slj
n 32.860404 26.280011 m 32.614739 26.782155 l 33.163853 26.677400 l ef
0.100000 slw
[] 0 sd
0 slj
n 32.860404 26.280011 m 32.614739 26.782155 l 33.163853 26.677400 l cp s
/Helvetica-latin1 ff 0.560000 scf sf
/Helvetica-latin1 ff 0.691444 scf sf
(     Index Array) 32.025000 16.371144 m
 gs 1 -1 sc sh gr
(for the Data Group) 32.025000 17.358922 m
 gs 1 -1 sc sh gr
/Helvetica-latin1 ff 0.691444 scf sf
(        Index Array) 14.887500 27.798644 m
 gs 1 -1 sc sh gr
(for the Data Sub-Group) 14.887500 28.786422 m
 gs 1 -1 sc sh gr
/Helvetica-latin1 ff 0.691444 scf sf
(Data Array) 35.200000 20.152444 m
 gs 1 -1 sc sh gr
showpage
