<?xml version="1.0" encoding="UTF-8" standalone="no"?>
<!-- Created with Inkscape (http://www.inkscape.org/) -->

<svg
   xmlns:dc="http://purl.org/dc/elements/1.1/"
   xmlns:cc="http://creativecommons.org/ns#"
   xmlns:rdf="http://www.w3.org/1999/02/22-rdf-syntax-ns#"
   xmlns:svg="http://www.w3.org/2000/svg"
   xmlns="http://www.w3.org/2000/svg"
   xmlns:sodipodi="http://sodipodi.sourceforge.net/DTD/sodipodi-0.dtd"
   xmlns:inkscape="http://www.inkscape.org/namespaces/inkscape"
   width="198.49672mm"
   height="63.423401mm"
   viewBox="0 0 703.33483 224.72859"
   id="svg2"
   version="1.1"
   inkscape:version="0.92.3 (2405546, 2018-03-11)"
   sodipodi:docname="BuildPartitionModel.svg">
  <defs
     id="defs4">
    <inkscape:path-effect
       effect="spiro"
       id="path-effect13881"
       is_visible="true" />
    <inkscape:path-effect
       effect="spiro"
       id="path-effect13877"
       is_visible="true" />
    <inkscape:path-effect
       effect="spiro"
       id="path-effect13873"
       is_visible="true" />
    <inkscape:path-effect
       effect="spiro"
       id="path-effect13815"
       is_visible="true" />
    <marker
       inkscape:stockid="Arrow1Mstart"
       orient="auto"
       refY="0"
       refX="0"
       id="Arrow1Mstart"
       style="overflow:visible"
       inkscape:isstock="true">
      <path
         id="path8245"
         d="M 0,0 5,-5 -12.5,0 5,5 Z"
         style="fill:#000000;fill-opacity:1;fill-rule:evenodd;stroke:#000000;stroke-width:1.00000003pt;stroke-opacity:1"
         transform="matrix(0.4,0,0,0.4,4,0)"
         inkscape:connector-curvature="0" />
    </marker>
    <marker
       inkscape:stockid="Arrow2Lstart"
       orient="auto"
       refY="0"
       refX="0"
       id="Arrow2Lstart"
       style="overflow:visible"
       inkscape:isstock="true">
      <path
         id="path8257"
         style="fill:#000000;fill-opacity:1;fill-rule:evenodd;stroke:#000000;stroke-width:0.625;stroke-linejoin:round;stroke-opacity:1"
         d="M 8.7185878,4.0337352 -2.2072895,0.01601326 8.7185884,-4.0017078 c -1.7454984,2.3720609 -1.7354408,5.6174519 -6e-7,8.035443 z"
         transform="matrix(1.1,0,0,1.1,1.1,0)"
         inkscape:connector-curvature="0" />
    </marker>
    <inkscape:path-effect
       effect="spiro"
       id="path-effect8233"
       is_visible="true" />
    <marker
       inkscape:stockid="Arrow1Mstart"
       orient="auto"
       refY="0"
       refX="0"
       id="Arrow1Mstart-5"
       style="overflow:visible"
       inkscape:isstock="true">
      <path
         inkscape:connector-curvature="0"
         id="path8245-1"
         d="M 0,0 5,-5 -12.5,0 5,5 Z"
         style="fill:#000000;fill-opacity:1;fill-rule:evenodd;stroke:#000000;stroke-width:1.00000003pt;stroke-opacity:1"
         transform="matrix(0.4,0,0,0.4,4,0)" />
    </marker>
    <inkscape:path-effect
       effect="spiro"
       id="path-effect8233-6"
       is_visible="true" />
    <marker
       inkscape:stockid="Arrow1Mstart"
       orient="auto"
       refY="0"
       refX="0"
       id="Arrow1Mstart-4"
       style="overflow:visible"
       inkscape:isstock="true">
      <path
         inkscape:connector-curvature="0"
         id="path8245-6"
         d="M 0,0 5,-5 -12.5,0 5,5 Z"
         style="fill:#000000;fill-opacity:1;fill-rule:evenodd;stroke:#000000;stroke-width:1.00000003pt;stroke-opacity:1"
         transform="matrix(0.4,0,0,0.4,4,0)" />
    </marker>
    <inkscape:path-effect
       effect="spiro"
       id="path-effect8233-3"
       is_visible="true" />
    <marker
       inkscape:stockid="Arrow1Mstart"
       orient="auto"
       refY="0"
       refX="0"
       id="Arrow1Mstart-4-4"
       style="overflow:visible"
       inkscape:isstock="true">
      <path
         inkscape:connector-curvature="0"
         id="path8245-6-8"
         d="M 0,0 5,-5 -12.5,0 5,5 Z"
         style="fill:#000000;fill-opacity:1;fill-rule:evenodd;stroke:#000000;stroke-width:1.00000003pt;stroke-opacity:1"
         transform="matrix(0.4,0,0,0.4,4,0)" />
    </marker>
    <inkscape:path-effect
       effect="spiro"
       id="path-effect8233-3-7"
       is_visible="true" />
    <marker
       inkscape:stockid="Arrow1Mstart"
       orient="auto"
       refY="0"
       refX="0"
       id="Arrow1Mstart-4-8"
       style="overflow:visible"
       inkscape:isstock="true">
      <path
         inkscape:connector-curvature="0"
         id="path8245-6-83"
         d="M 0,0 5,-5 -12.5,0 5,5 Z"
         style="fill:#000000;fill-opacity:1;fill-rule:evenodd;stroke:#000000;stroke-width:1.00000003pt;stroke-opacity:1"
         transform="matrix(0.4,0,0,0.4,4,0)" />
    </marker>
    <inkscape:path-effect
       effect="spiro"
       id="path-effect8233-3-8"
       is_visible="true" />
    <inkscape:path-effect
       effect="spiro"
       id="path-effect13815-9"
       is_visible="true" />
    <inkscape:path-effect
       effect="spiro"
       id="path-effect13815-9-0"
       is_visible="true" />
    <inkscape:path-effect
       effect="spiro"
       id="path-effect13815-5"
       is_visible="true" />
  </defs>
  <sodipodi:namedview
     id="base"
     pagecolor="#ffffff"
     bordercolor="#666666"
     borderopacity="1.0"
     inkscape:pageopacity="0.0"
     inkscape:pageshadow="2"
     inkscape:zoom="1.4"
     inkscape:cx="187.84811"
     inkscape:cy="17.234397"
     inkscape:document-units="px"
     inkscape:current-layer="g13638-6"
     showgrid="false"
     inkscape:window-width="1920"
     inkscape:window-height="1018"
     inkscape:window-x="0"
     inkscape:window-y="0"
     inkscape:window-maximized="1"
     fit-margin-top="0"
     fit-margin-left="0"
     fit-margin-right="0"
     fit-margin-bottom="0" />
  <metadata
     id="metadata7">
    <rdf:RDF>
      <cc:Work
         rdf:about="">
        <dc:format>image/svg+xml</dc:format>
        <dc:type
           rdf:resource="http://purl.org/dc/dcmitype/StillImage" />
        <dc:title></dc:title>
      </cc:Work>
    </rdf:RDF>
  </metadata>
  <g
     inkscape:label="Layer 1"
     inkscape:groupmode="layer"
     id="layer1"
     transform="translate(-22.457119,-72.67647)">
    <flowRoot
       xml:space="preserve"
       id="flowRoot13564"
       style="font-style:normal;font-variant:normal;font-weight:normal;font-stretch:normal;line-height:0.01%;font-family:'TeX Gyre Termes Math';-inkscape-font-specification:'TeX Gyre Termes Math, Normal';text-align:start;letter-spacing:0px;word-spacing:0px;writing-mode:lr-tb;text-anchor:start;fill:#000000;fill-opacity:1;stroke:none;stroke-width:1px;stroke-linecap:butt;stroke-linejoin:miter;stroke-opacity:1"><flowRegion
         id="flowRegion13566"><rect
           id="rect13568"
           width="220.71428"
           height="82.14286"
           x="365.71429"
           y="123.07649"
           style="font-size:8.75px" /></flowRegion><flowPara
         id="flowPara13570"
         style="font-size:8.75px;line-height:1"> </flowPara></flowRoot>    <flowRoot
       xml:space="preserve"
       id="flowRoot13572"
       style="font-style:normal;font-variant:normal;font-weight:normal;font-stretch:normal;line-height:0.01%;font-family:'TeX Gyre Termes Math';-inkscape-font-specification:'TeX Gyre Termes Math, Normal';text-align:start;letter-spacing:0px;word-spacing:0px;writing-mode:lr-tb;text-anchor:start;fill:#000000;fill-opacity:1;stroke:none;stroke-width:1px;stroke-linecap:butt;stroke-linejoin:miter;stroke-opacity:1"><flowRegion
         id="flowRegion13574"><rect
           id="rect13576"
           width="202.85715"
           height="60"
           x="369.64285"
           y="50.576488"
           style="font-size:8.75px" /></flowRegion><flowPara
         id="flowPara13578"
         style="font-size:8.75px;line-height:1"> </flowPara></flowRoot>    <flowRoot
       xml:space="preserve"
       id="flowRoot13580"
       style="font-style:normal;font-variant:normal;font-weight:normal;font-stretch:normal;line-height:0.01%;font-family:'TeX Gyre Termes Math';-inkscape-font-specification:'TeX Gyre Termes Math, Normal';text-align:start;letter-spacing:0px;word-spacing:0px;writing-mode:lr-tb;text-anchor:start;fill:#000000;fill-opacity:1;stroke:none;stroke-width:1px;stroke-linecap:butt;stroke-linejoin:miter;stroke-opacity:1"><flowRegion
         id="flowRegion13582"><rect
           id="rect13584"
           width="212.14285"
           height="85.35714"
           x="355.35715"
           y="119.14792"
           style="font-size:10px" /></flowRegion><flowPara
         id="flowPara13586"
         style="font-size:10px;line-height:1"> </flowPara></flowRoot>    <flowRoot
       xml:space="preserve"
       id="flowRoot13667"
       style="font-style:normal;font-variant:normal;font-weight:normal;font-stretch:normal;line-height:0.01%;font-family:'TeX Gyre Termes Math';-inkscape-font-specification:'TeX Gyre Termes Math, Normal';text-align:start;letter-spacing:0px;word-spacing:0px;writing-mode:lr-tb;text-anchor:start;fill:#000000;fill-opacity:1;stroke:none;stroke-width:1px;stroke-linecap:butt;stroke-linejoin:miter;stroke-opacity:1"><flowRegion
         id="flowRegion13669"><rect
           id="rect13671"
           width="144.64285"
           height="21.428572"
           x="357.14285"
           y="79.505058" /></flowRegion><flowPara
         id="flowPara13673"
         style="font-size:10px;line-height:1"> </flowPara></flowRoot>    <g
       id="g14048"
       transform="translate(-60.00002)">
      <g
         transform="translate(-31.785714,3.5714286)"
         id="g13449">
        <g
           id="g8106"
           transform="translate(0.35715163,-13.571429)">
          <ellipse
             ry="20.837477"
             rx="79.051765"
             cy="103.79076"
             cx="282.5"
             id="path8068"
             style="opacity:1;fill:#ffffff;fill-opacity:1;fill-rule:nonzero;stroke:#000000;stroke-width:0.55361784;stroke-linecap:butt;stroke-miterlimit:4;stroke-dasharray:none;stroke-dashoffset:0;stroke-opacity:1" />
          <text
             id="text8070"
             y="108.83826"
             x="220.45966"
             style="font-style:normal;font-variant:normal;font-weight:normal;font-stretch:normal;line-height:0%;font-family:'TeX Gyre Termes Math';-inkscape-font-specification:'TeX Gyre Termes Math, Normal';text-align:start;letter-spacing:0px;word-spacing:0px;writing-mode:lr-tb;text-anchor:start;fill:#000000;fill-opacity:1;stroke:none;stroke-width:1px;stroke-linecap:butt;stroke-linejoin:miter;stroke-opacity:1"
             xml:space="preserve"><tspan
               y="108.83826"
               x="220.45966"
               id="tspan8072"
               sodipodi:role="line"
               style="font-size:15px;line-height:1">BuildPartitionModel</tspan></text>
        </g>
        <g
           transform="translate(-5.3571428,47.857163)"
           id="g8106-9">
          <ellipse
             ry="20.82773"
             rx="84.756302"
             cy="103.79076"
             cx="288.21429"
             id="path8068-8"
             style="opacity:1;fill:#ffffff;fill-opacity:1;fill-rule:nonzero;stroke:#000000;stroke-width:0.57311094;stroke-linecap:butt;stroke-miterlimit:4;stroke-dasharray:none;stroke-dashoffset:0;stroke-opacity:1" />
          <text
             id="text8070-4"
             y="107.28576"
             x="215.0471"
             style="font-style:normal;font-variant:normal;font-weight:normal;font-stretch:normal;line-height:0%;font-family:'TeX Gyre Termes Math';-inkscape-font-specification:'TeX Gyre Termes Math, Normal';text-align:start;letter-spacing:0px;word-spacing:0px;writing-mode:lr-tb;text-anchor:start;fill:#000000;fill-opacity:1;stroke:none;stroke-width:1px;stroke-linecap:butt;stroke-linejoin:miter;stroke-opacity:1"
             xml:space="preserve"><tspan
               y="107.28576"
               x="215.0471"
               id="tspan8072-4"
               sodipodi:role="line"
               style="font-size:15px;line-height:1">BuildPartitionFEGroups</tspan></text>
        </g>
        <g
           transform="translate(-88.928573,168.92859)"
           id="g8159">
          <ellipse
             ry="20.837477"
             rx="79.051765"
             cy="103.79076"
             cx="282.5"
             id="path8068-0"
             style="opacity:1;fill:#ffffff;fill-opacity:1;fill-rule:nonzero;stroke:#000000;stroke-width:0.55361784;stroke-linecap:butt;stroke-miterlimit:4;stroke-dasharray:none;stroke-dashoffset:0;stroke-opacity:1" />
          <text
             id="text8070-9"
             y="108.83826"
             x="217.28691"
             style="font-style:normal;font-variant:normal;font-weight:normal;font-stretch:normal;line-height:0%;font-family:'TeX Gyre Termes Math';-inkscape-font-specification:'TeX Gyre Termes Math, Normal';text-align:start;letter-spacing:0px;word-spacing:0px;writing-mode:lr-tb;text-anchor:start;fill:#000000;fill-opacity:1;stroke:none;stroke-width:1px;stroke-linecap:butt;stroke-linejoin:miter;stroke-opacity:1"
             xml:space="preserve"><tspan
               y="108.83826"
               x="217.28691"
               id="tspan8072-7"
               sodipodi:role="line"
               style="font-size:15px;line-height:1">BuildPartitionMeshes</tspan></text>
        </g>
        <g
           id="g8159-5"
           transform="translate(89.642858,168.92859)">
          <g
             id="g8188">
            <ellipse
               style="opacity:1;fill:#ffffff;fill-opacity:1;fill-rule:nonzero;stroke:#000000;stroke-width:0.55361784;stroke-linecap:butt;stroke-miterlimit:4;stroke-dasharray:none;stroke-dashoffset:0;stroke-opacity:1"
               id="path8068-0-7"
               cx="282.5"
               cy="103.79076"
               rx="79.051765"
               ry="20.837477" />
            <text
               xml:space="preserve"
               style="font-style:normal;font-variant:normal;font-weight:normal;font-stretch:normal;line-height:0%;font-family:'TeX Gyre Termes Math';-inkscape-font-specification:'TeX Gyre Termes Math, Normal';text-align:start;letter-spacing:0px;word-spacing:0px;writing-mode:lr-tb;text-anchor:start;fill:#000000;fill-opacity:1;stroke:none;stroke-width:1px;stroke-linecap:butt;stroke-linejoin:miter;stroke-opacity:1"
               x="214.64423"
               y="108.83826"
               id="text8070-9-8"><tspan
                 sodipodi:role="line"
                 id="tspan8072-7-1"
                 x="214.64423"
                 y="108.83826"
                 style="font-size:15px;line-height:1">BuildPartitionMaterial</tspan></text>
          </g>
        </g>
        <g
           transform="translate(0.35715163,111.42859)"
           id="g8106-6">
          <g
             id="g8217">
            <ellipse
               style="opacity:1;fill:#ffffff;fill-opacity:1;fill-rule:nonzero;stroke:#000000;stroke-width:0.55361784;stroke-linecap:butt;stroke-miterlimit:4;stroke-dasharray:none;stroke-dashoffset:0;stroke-opacity:1"
               id="path8068-9"
               cx="282.5"
               cy="103.79076"
               rx="79.051765"
               ry="20.837477" />
            <text
               xml:space="preserve"
               style="font-style:normal;font-variant:normal;font-weight:normal;font-stretch:normal;line-height:0%;font-family:'TeX Gyre Termes Math';-inkscape-font-specification:'TeX Gyre Termes Math, Normal';text-align:start;letter-spacing:0px;word-spacing:0px;writing-mode:lr-tb;text-anchor:start;fill:#000000;fill-opacity:1;stroke:none;stroke-width:1px;stroke-linecap:butt;stroke-linejoin:miter;stroke-opacity:1"
               x="220.45966"
               y="108.83826"
               id="text8070-0"><tspan
                 sodipodi:role="line"
                 id="tspan8072-3"
                 x="220.45966"
                 y="108.83826"
                 style="font-size:15px;line-height:1">BuildPartitionGroup</tspan></text>
          </g>
        </g>
        <path
           style="fill:none;fill-rule:evenodd;stroke:#000000;stroke-width:1px;stroke-linecap:butt;stroke-linejoin:miter;stroke-opacity:1;marker-start:url(#Arrow1Mstart)"
           d="m 282.85568,129.38774 0.004,-18.58517"
           id="path8231"
           inkscape:path-effect="#path-effect8233"
           inkscape:original-d="m 282.85568,129.38774 c 0.004,-18.58517 0.004,-18.58517 0.004,-18.58517"
           inkscape:connector-curvature="0" />
        <path
           style="fill:none;fill-rule:evenodd;stroke:#000000;stroke-width:1;stroke-linecap:butt;stroke-linejoin:miter;stroke-miterlimit:4;stroke-dasharray:none;stroke-opacity:1;marker-start:url(#Arrow1Mstart-5)"
           d="m 282.85579,192.85485 0.004,-20.20446"
           id="path8231-8"
           inkscape:path-effect="#path-effect8233-6"
           inkscape:original-d="m 282.85579,192.85485 c 0.004,-20.20446 0.004,-20.20446 0.004,-20.20446"
           inkscape:connector-curvature="0" />
        <path
           style="fill:none;fill-rule:evenodd;stroke:#000000;stroke-width:1;stroke-linecap:butt;stroke-linejoin:miter;stroke-miterlimit:4;stroke-dasharray:none;stroke-opacity:1;marker-start:url(#Arrow1Mstart-4)"
           d="m 215.73671,251.97181 23.64454,-19.93052"
           id="path8231-3"
           inkscape:path-effect="#path-effect8233-3"
           inkscape:original-d="m 215.73671,251.97181 c 23.64454,-19.93052 23.64454,-19.93052 23.64454,-19.93052"
           inkscape:connector-curvature="0" />
        <path
           style="fill:none;fill-rule:evenodd;stroke:#000000;stroke-width:1;stroke-linecap:butt;stroke-linejoin:miter;stroke-miterlimit:4;stroke-dasharray:none;stroke-opacity:1;marker-start:url(#Arrow1Mstart-4-8)"
           d="m 358.91934,251.19061 -22.8288,-20.85993"
           id="path8231-3-2"
           inkscape:path-effect="#path-effect8233-3-8"
           inkscape:original-d="m 358.91934,251.19061 c -22.8288,-20.85993 -22.8288,-20.85993 -22.8288,-20.85993"
           inkscape:connector-curvature="0" />
      </g>
      <g
         transform="translate(11.148835,-1.4285715)"
         id="g13638">
        <text
           xml:space="preserve"
           style="font-style:normal;font-variant:normal;font-weight:normal;font-stretch:normal;line-height:0%;font-family:'TeX Gyre Termes Math';-inkscape-font-specification:'TeX Gyre Termes Math, Normal';text-align:start;letter-spacing:0px;word-spacing:0px;writing-mode:lr-tb;text-anchor:start;fill:#000000;fill-opacity:1;stroke:none;stroke-width:1px;stroke-linecap:butt;stroke-linejoin:miter;stroke-opacity:1"
           x="366.78571"
           y="95.576485"
           id="text13477"><tspan
             sodipodi:role="line"
             x="366.78571"
             y="95.576485"
             id="tspan13481"
             style="font-size:13.75px;line-height:1">Convert the global boundary conditions and loads to local;</tspan></text>
        <circle
           style="opacity:1;fill:#000000;fill-opacity:1;fill-rule:nonzero;stroke:#000000;stroke-width:0.76216221;stroke-linecap:butt;stroke-miterlimit:4;stroke-dasharray:none;stroke-dashoffset:0;stroke-opacity:1"
           id="path13600"
           cx="198.62863"
           cy="315.09164"
           r="1.91026"
           transform="rotate(-43.228475)" />
      </g>
      <g
         id="g13638-6"
         transform="translate(11.148835,39.647497)">
        <text
           xml:space="preserve"
           style="font-style:normal;font-variant:normal;font-weight:normal;font-stretch:normal;line-height:0%;font-family:'TeX Gyre Termes Math';-inkscape-font-specification:'TeX Gyre Termes Math, Normal';text-align:start;letter-spacing:0px;word-spacing:0px;writing-mode:lr-tb;text-anchor:start;fill:#000000;fill-opacity:1;stroke:none;stroke-width:1px;stroke-linecap:butt;stroke-linejoin:miter;stroke-opacity:1"
           x="366.78571"
           y="95.576485"
           id="text13477-1"><tspan
             sodipodi:role="line"
             x="366.78571"
             y="95.576485"
             id="tspan13481-6"
             style="font-size:13.75px;line-height:1">Calculates the local groups for each partition;</tspan></text>
        <circle
           style="opacity:1;fill:#000000;fill-opacity:1;fill-rule:nonzero;stroke:#000000;stroke-width:0.76216221;stroke-linecap:butt;stroke-miterlimit:4;stroke-dasharray:none;stroke-dashoffset:0;stroke-opacity:1"
           id="path13600-4"
           cx="198.62863"
           cy="315.09164"
           r="1.91026"
           transform="rotate(-43.228475)" />
      </g>
      <g
         id="g13638-6-5"
         transform="translate(11.148835,64.027495)">
        <text
           xml:space="preserve"
           style="font-style:normal;font-variant:normal;font-weight:normal;font-stretch:normal;line-height:0%;font-family:'TeX Gyre Termes Math';-inkscape-font-specification:'TeX Gyre Termes Math, Normal';text-align:start;letter-spacing:0px;word-spacing:0px;writing-mode:lr-tb;text-anchor:start;fill:#000000;fill-opacity:1;stroke:none;stroke-width:1px;stroke-linecap:butt;stroke-linejoin:miter;stroke-opacity:1"
           x="366.78571"
           y="95.576485"
           id="text13477-1-2"><tspan
             id="tspan13699"
             sodipodi:role="line"
             x="366.78571"
             y="95.576485"
             style="font-size:13.75px;line-height:1">Generate the local incidences according to global incidence data structure;</tspan></text>
        <circle
           style="opacity:1;fill:#000000;fill-opacity:1;fill-rule:nonzero;stroke:#000000;stroke-width:0.76216221;stroke-linecap:butt;stroke-miterlimit:4;stroke-dasharray:none;stroke-dashoffset:0;stroke-opacity:1"
           id="path13600-4-9"
           cx="198.62863"
           cy="315.09164"
           r="1.91026"
           transform="rotate(-43.228475)" />
      </g>
      <g
         transform="translate(-54.519553,-85.303046)"
         id="g13730">
        <g
           transform="translate(65.668388,173.71054)"
           id="g13638-6-5-8">
          <text
             id="text13477-1-2-0"
             y="95.576485"
             x="366.78571"
             style="font-style:normal;font-variant:normal;font-weight:normal;font-stretch:normal;line-height:0%;font-family:'TeX Gyre Termes Math';-inkscape-font-specification:'TeX Gyre Termes Math, Normal';text-align:start;letter-spacing:0px;word-spacing:0px;writing-mode:lr-tb;text-anchor:start;fill:#000000;fill-opacity:1;stroke:none;stroke-width:1px;stroke-linecap:butt;stroke-linejoin:miter;stroke-opacity:1"
             xml:space="preserve"><tspan
               style="font-size:13.75px;line-height:1"
               y="95.576485"
               x="366.78571"
               sodipodi:role="line"
               id="tspan13699-9">Map the global coordinates to local;</tspan></text>
          <circle
             transform="rotate(-43.228475)"
             r="1.91026"
             cy="315.09164"
             cx="198.62863"
             id="path13600-4-9-8"
             style="opacity:1;fill:#000000;fill-opacity:1;fill-rule:nonzero;stroke:#000000;stroke-width:0.76216221;stroke-linecap:butt;stroke-miterlimit:4;stroke-dasharray:none;stroke-dashoffset:0;stroke-opacity:1" />
        </g>
      </g>
      <g
         transform="translate(-66.785712,-59.285683)"
         id="g13763">
        <g
           transform="translate(12.266159,20.109553)"
           id="g13730-7">
          <g
             id="g13638-6-5-8-5"
             transform="translate(65.668388,173.71054)">
            <text
               xml:space="preserve"
               style="font-style:normal;font-variant:normal;font-weight:normal;font-stretch:normal;line-height:0%;font-family:'TeX Gyre Termes Math';-inkscape-font-specification:'TeX Gyre Termes Math, Normal';text-align:start;letter-spacing:0px;word-spacing:0px;writing-mode:lr-tb;text-anchor:start;fill:#000000;fill-opacity:1;stroke:none;stroke-width:1px;stroke-linecap:butt;stroke-linejoin:miter;stroke-opacity:1"
               x="366.78571"
               y="95.576485"
               id="text13477-1-2-0-8"><tspan
                 id="tspan13699-9-9"
                 sodipodi:role="line"
                 x="366.78571"
                 y="95.576485"
                 style="font-size:13.75px;line-height:1">Generate high order coordinates and incidences locally.</tspan></text>
            <circle
               style="opacity:1;fill:#000000;fill-opacity:1;fill-rule:nonzero;stroke:#000000;stroke-width:0.76216221;stroke-linecap:butt;stroke-miterlimit:4;stroke-dasharray:none;stroke-dashoffset:0;stroke-opacity:1"
               id="path13600-4-9-8-1"
               cx="198.62863"
               cy="315.09164"
               r="1.91026"
               transform="rotate(-43.228475)" />
          </g>
        </g>
      </g>
      <path
         inkscape:connector-curvature="0"
         inkscape:original-d="m 329.78984,92.593229 c 35.35895,0.02522 35.00182,0.02136 35.00182,0.02136"
         inkscape:path-effect="#path-effect13815"
         id="path13813"
         d="m 329.78984,92.593229 35.00182,0.02136"
         style="fill:none;fill-rule:evenodd;stroke:#000000;stroke-width:1;stroke-linecap:butt;stroke-linejoin:miter;stroke-miterlimit:4;stroke-dasharray:1, 1;stroke-dashoffset:0;stroke-opacity:1" />
      <path
         inkscape:connector-curvature="0"
         inkscape:original-d="m 335.64721,152.36966 c 33.37315,-18.72756 33.03432,-18.54188 33.03432,-18.54188"
         inkscape:path-effect="#path-effect13815-9"
         id="path13813-3"
         d="m 335.64721,152.36966 33.03432,-18.54188"
         style="fill:none;fill-rule:evenodd;stroke:#000000;stroke-width:1;stroke-linecap:butt;stroke-linejoin:miter;stroke-miterlimit:4;stroke-dasharray:1, 1;stroke-dashoffset:0;stroke-opacity:1" />
      <path
         inkscape:connector-curvature="0"
         inkscape:original-d="m 370.83963,181.64187 c -37.383,-22.98537 -37.0063,-22.74807 -37.0063,-22.74807"
         inkscape:path-effect="#path-effect13815-9-0"
         id="path13813-3-0"
         d="M 370.83963,181.64187 333.83333,158.8938"
         style="fill:none;fill-rule:evenodd;stroke:#000000;stroke-width:1;stroke-linecap:butt;stroke-linejoin:miter;stroke-miterlimit:4;stroke-dasharray:1, 1;stroke-dashoffset:0;stroke-opacity:1" />
      <path
         inkscape:connector-curvature="0"
         inkscape:original-d="m 336.49469,156.81879 c 32.67981,0.0251 32.34974,0.0214 32.34974,0.0214"
         inkscape:path-effect="#path-effect13815-5"
         id="path13813-38"
         d="m 336.49469,156.81879 32.34974,0.0214"
         style="fill:none;fill-rule:evenodd;stroke:#000000;stroke-width:1;stroke-linecap:butt;stroke-linejoin:miter;stroke-miterlimit:4;stroke-dasharray:1, 1;stroke-dashoffset:0;stroke-opacity:1" />
      <g
         id="g13883">
        <path
           style="fill:none;fill-rule:evenodd;stroke:#000000;stroke-width:1;stroke-linecap:butt;stroke-linejoin:miter;stroke-miterlimit:4;stroke-dasharray:0.5, 0.5;stroke-dashoffset:0;stroke-opacity:1"
           d="M 330,95.933632 V 228.43363"
           id="path13875"
           inkscape:path-effect="#path-effect13877"
           inkscape:original-d="m 330,95.933632 c -0.71429,132.142858 0,132.499998 0,132.499998"
           inkscape:connector-curvature="0" />
        <path
           style="fill:none;fill-rule:evenodd;stroke:#000000;stroke-width:1;stroke-linecap:butt;stroke-linejoin:miter;stroke-miterlimit:4;stroke-dasharray:0.5, 0.5;stroke-dashoffset:0;stroke-opacity:1"
           d="m 329.73211,228.16576 h 38.21429 l -0.0893,-0.0893 v 0"
           id="path13879"
           inkscape:path-effect="#path-effect13881"
           inkscape:original-d="m 329.73211,228.16576 c 38.30357,-0.0893 38.21429,0 38.21429,0 l -0.0893,-0.0893 v 0"
           inkscape:connector-curvature="0" />
      </g>
    </g>
  </g>
</svg>
