<?xml version="1.0"?>
<!DOCTYPE svg PUBLIC '-//W3C//DTD SVG 1.0//EN'
          'http://www.w3.org/TR/2001/REC-SVG-20010904/DTD/svg10.dtd'>
<svg xmlns:xlink="http://www.w3.org/1999/xlink" style="fill-opacity:1; color-rendering:auto; color-interpolation:auto; stroke:black; text-rendering:auto; stroke-linecap:square; stroke-miterlimit:10; stroke-opacity:1; shape-rendering:auto; fill:black; stroke-dasharray:none; font-weight:normal; stroke-width:1; font-family:'Dialog'; font-style:normal; stroke-linejoin:miter; font-size:12px; stroke-dashoffset:0; image-rendering:auto;" width="560" height="420" xmlns="http://www.w3.org/2000/svg"
><!--Generated by the Batik Graphics2D SVG Generator--><defs id="genericDefs"
  /><g
  ><defs id="defs1"
    ><clipPath clipPathUnits="userSpaceOnUse" id="clipPath1"
      ><path d="M0 0 L560 0 L560 420 L0 420 L0 0 Z"
      /></clipPath
      ><font horiz-adv-x="60.009766" id="font1"
      ><font-face ascent="92.822266" descent="23.583984" units-per-em="100" style="font-style:normal; font-family:SansSerif; font-weight:normal;"
        /><missing-glyph horiz-adv-x="60.009766" d="M4.9844 -17.6719 L4.9844 70.5156 L54.9844 70.5156 L54.9844 -17.6719 L4.9844 -17.6719 ZM10.5938 -12.1094 L49.4219 -12.1094 L49.4219 64.8906 L10.5938 64.8906 L10.5938 -12.1094 Z"
        /><glyph unicode="0" horiz-adv-x="63.623047" d="M31.7812 66.4062 Q24.1719 66.4062 20.3359 58.9141 Q16.5 51.4219 16.5 36.375 Q16.5 21.3906 20.3359 13.8906 Q24.1719 6.3906 31.7812 6.3906 Q39.4531 6.3906 43.2891 13.8906 Q47.125 21.3906 47.125 36.375 Q47.125 51.4219 43.2891 58.9141 Q39.4531 66.4062 31.7812 66.4062 ZM31.7812 74.2188 Q44.0469 74.2188 50.5156 64.5234 Q56.9844 54.8281 56.9844 36.375 Q56.9844 17.9688 50.5156 8.2734 Q44.0469 -1.4219 31.7812 -1.4219 Q19.5312 -1.4219 13.0625 8.2734 Q6.5938 17.9688 6.5938 36.375 Q6.5938 54.8281 13.0625 64.5234 Q19.5312 74.2188 31.7812 74.2188 Z"
        /><glyph unicode=" " horiz-adv-x="31.78711" d=""
        /><glyph unicode="1" horiz-adv-x="63.623047" d="M12.4062 8.2969 L28.5156 8.2969 L28.5156 63.9219 L10.9844 60.4062 L10.9844 69.3906 L28.4219 72.9062 L38.2812 72.9062 L38.2812 8.2969 L54.3906 8.2969 L54.3906 0 L12.4062 0 L12.4062 8.2969 Z"
        /><glyph unicode="2" horiz-adv-x="63.623047" d="M19.1875 8.2969 L53.6094 8.2969 L53.6094 0 L7.3281 0 L7.3281 8.2969 Q12.9375 14.1094 22.6328 23.8984 Q32.3281 33.6875 34.8125 36.5312 Q39.5469 41.8438 41.4297 45.5312 Q43.3125 49.2188 43.3125 52.7812 Q43.3125 58.5938 39.2344 62.2578 Q35.1562 65.9219 28.6094 65.9219 Q23.9688 65.9219 18.8203 64.3125 Q13.6719 62.7031 7.8125 59.4219 L7.8125 69.3906 Q13.7656 71.7812 18.9453 73 Q24.125 74.2188 28.4219 74.2188 Q39.75 74.2188 46.4844 68.5547 Q53.2188 62.8906 53.2188 53.4219 Q53.2188 48.9219 51.5391 44.8984 Q49.8594 40.875 45.4062 35.4062 Q44.1875 33.9844 37.6484 27.2188 Q31.1094 20.4531 19.1875 8.2969 Z"
        /><glyph unicode="3" horiz-adv-x="63.623047" d="M40.5781 39.3125 Q47.6562 37.7969 51.6328 33.0078 Q55.6094 28.2188 55.6094 21.1875 Q55.6094 10.4062 48.1875 4.4922 Q40.7656 -1.4219 27.0938 -1.4219 Q22.5156 -1.4219 17.6562 -0.5156 Q12.7969 0.3906 7.625 2.2031 L7.625 11.7188 Q11.7188 9.3281 16.6016 8.1094 Q21.4844 6.8906 26.8125 6.8906 Q36.0781 6.8906 40.9375 10.5469 Q45.7969 14.2031 45.7969 21.1875 Q45.7969 27.6406 41.2812 31.2734 Q36.7656 34.9062 28.7188 34.9062 L20.2188 34.9062 L20.2188 43.0156 L29.1094 43.0156 Q36.375 43.0156 40.2344 45.9219 Q44.0938 48.8281 44.0938 54.2969 Q44.0938 59.9062 40.1172 62.9141 Q36.1406 65.9219 28.7188 65.9219 Q24.6562 65.9219 20.0156 65.0391 Q15.375 64.1562 9.8125 62.3125 L9.8125 71.0938 Q15.4375 72.6562 20.3438 73.4375 Q25.25 74.2188 29.5938 74.2188 Q40.8281 74.2188 47.3672 69.1172 Q53.9062 64.0156 53.9062 55.3281 Q53.9062 49.2656 50.4375 45.0938 Q46.9688 40.9219 40.5781 39.3125 Z"
        /><glyph unicode="4" horiz-adv-x="63.623047" d="M37.7969 64.3125 L12.8906 25.3906 L37.7969 25.3906 L37.7969 64.3125 ZM35.2031 72.9062 L47.6094 72.9062 L47.6094 25.3906 L58.0156 25.3906 L58.0156 17.1875 L47.6094 17.1875 L47.6094 0 L37.7969 0 L37.7969 17.1875 L4.8906 17.1875 L4.8906 26.7031 L35.2031 72.9062 Z"
        /><glyph unicode="5" horiz-adv-x="63.623047" d="M10.7969 72.9062 L49.5156 72.9062 L49.5156 64.5938 L19.8281 64.5938 L19.8281 46.7344 Q21.9688 47.4688 24.1172 47.8281 Q26.2656 48.1875 28.4219 48.1875 Q40.625 48.1875 47.7578 41.5 Q54.8906 34.8125 54.8906 23.3906 Q54.8906 11.625 47.5625 5.1016 Q40.2344 -1.4219 26.9062 -1.4219 Q22.3125 -1.4219 17.5547 -0.6406 Q12.7969 0.1406 7.7188 1.7031 L7.7188 11.625 Q12.1094 9.2344 16.7969 8.0625 Q21.4844 6.8906 26.7031 6.8906 Q35.1562 6.8906 40.0859 11.3281 Q45.0156 15.7656 45.0156 23.3906 Q45.0156 31 40.0859 35.4453 Q35.1562 39.8906 26.7031 39.8906 Q22.75 39.8906 18.8203 39.0156 Q14.8906 38.1406 10.7969 36.2812 L10.7969 72.9062 Z"
        /><glyph unicode="6" horiz-adv-x="63.623047" d="M33.0156 40.375 Q26.375 40.375 22.4922 35.8359 Q18.6094 31.2969 18.6094 23.3906 Q18.6094 15.5312 22.4922 10.9609 Q26.375 6.3906 33.0156 6.3906 Q39.6562 6.3906 43.5312 10.9609 Q47.4062 15.5312 47.4062 23.3906 Q47.4062 31.2969 43.5312 35.8359 Q39.6562 40.375 33.0156 40.375 ZM52.5938 71.2969 L52.5938 62.3125 Q48.875 64.0625 45.0938 64.9922 Q41.3125 65.9219 37.5938 65.9219 Q27.8281 65.9219 22.6797 59.3281 Q17.5312 52.7344 16.7969 39.4062 Q19.6719 43.6562 24.0234 45.9219 Q28.375 48.1875 33.5938 48.1875 Q44.5781 48.1875 50.9531 41.5234 Q57.3281 34.8594 57.3281 23.3906 Q57.3281 12.1562 50.6875 5.3672 Q44.0469 -1.4219 33.0156 -1.4219 Q20.3594 -1.4219 13.6719 8.2734 Q6.9844 17.9688 6.9844 36.375 Q6.9844 53.6562 15.1875 63.9375 Q23.3906 74.2188 37.2031 74.2188 Q40.9219 74.2188 44.7031 73.4844 Q48.4844 72.75 52.5938 71.2969 Z"
        /><glyph unicode="7" horiz-adv-x="63.623047" d="M8.2031 72.9062 L55.0781 72.9062 L55.0781 68.7031 L28.6094 0 L18.3125 0 L43.2188 64.5938 L8.2031 64.5938 L8.2031 72.9062 Z"
        /><glyph unicode="8" horiz-adv-x="63.623047" d="M31.7812 34.625 Q24.75 34.625 20.7266 30.8594 Q16.7031 27.0938 16.7031 20.5156 Q16.7031 13.9219 20.7266 10.1562 Q24.75 6.3906 31.7812 6.3906 Q38.8125 6.3906 42.8672 10.1797 Q46.9219 13.9688 46.9219 20.5156 Q46.9219 27.0938 42.8984 30.8594 Q38.875 34.625 31.7812 34.625 ZM21.9219 38.8125 Q15.5781 40.375 12.0391 44.7266 Q8.5 49.0781 8.5 55.3281 Q8.5 64.0625 14.7266 69.1406 Q20.9531 74.2188 31.7812 74.2188 Q42.6719 74.2188 48.875 69.1406 Q55.0781 64.0625 55.0781 55.3281 Q55.0781 49.0781 51.5391 44.7266 Q48 40.375 41.7031 38.8125 Q48.8281 37.1562 52.8047 32.3203 Q56.7812 27.4844 56.7812 20.5156 Q56.7812 9.9062 50.3125 4.2422 Q43.8438 -1.4219 31.7812 -1.4219 Q19.7344 -1.4219 13.2578 4.2422 Q6.7812 9.9062 6.7812 20.5156 Q6.7812 27.4844 10.7891 32.3203 Q14.7969 37.1562 21.9219 38.8125 ZM18.3125 54.3906 Q18.3125 48.7344 21.8516 45.5625 Q25.3906 42.3906 31.7812 42.3906 Q38.1406 42.3906 41.7266 45.5625 Q45.3125 48.7344 45.3125 54.3906 Q45.3125 60.0625 41.7266 63.2344 Q38.1406 66.4062 31.7812 66.4062 Q25.3906 66.4062 21.8516 63.2344 Q18.3125 60.0625 18.3125 54.3906 Z"
        /><glyph unicode="9" horiz-adv-x="63.623047" d="M10.9844 1.5156 L10.9844 10.5 Q14.7031 8.7344 18.5078 7.8125 Q22.3125 6.8906 25.9844 6.8906 Q35.75 6.8906 40.8984 13.4531 Q46.0469 20.0156 46.7812 33.4062 Q43.9531 29.2031 39.6016 26.9531 Q35.25 24.7031 29.9844 24.7031 Q19.0469 24.7031 12.6719 31.3203 Q6.2969 37.9375 6.2969 49.4219 Q6.2969 60.6406 12.9375 67.4297 Q19.5781 74.2188 30.6094 74.2188 Q43.2656 74.2188 49.9297 64.5234 Q56.5938 54.8281 56.5938 36.375 Q56.5938 19.1406 48.4141 8.8594 Q40.2344 -1.4219 26.4219 -1.4219 Q22.7031 -1.4219 18.8984 -0.6875 Q15.0938 0.0469 10.9844 1.5156 ZM30.6094 32.4219 Q37.25 32.4219 41.1328 36.9609 Q45.0156 41.5 45.0156 49.4219 Q45.0156 57.2812 41.1328 61.8438 Q37.25 66.4062 30.6094 66.4062 Q23.9688 66.4062 20.0938 61.8438 Q16.2188 57.2812 16.2188 49.4219 Q16.2188 41.5 20.0938 36.9609 Q23.9688 32.4219 30.6094 32.4219 Z"
      /></font
    ></defs
    ><g style="fill:white; stroke:white;"
    ><rect x="0" y="0" width="560" style="clip-path:url(#clipPath1); stroke:none;" height="420"
    /></g
    ><g style="fill:white; text-rendering:optimizeSpeed; color-rendering:optimizeSpeed; image-rendering:optimizeSpeed; shape-rendering:crispEdges; color-interpolation:sRGB; stroke:white;"
    ><rect x="0" width="560" height="420" y="0" style="stroke:none;"
    /></g
    ><g style="fill-opacity:0.102; fill:rgb(255,0,0); text-rendering:optimizeSpeed; color-rendering:optimizeSpeed; image-rendering:optimizeSpeed; shape-rendering:crispEdges; color-interpolation:sRGB; stroke:rgb(255,0,0); stroke-opacity:0.102;"
    ><path style="stroke:none;" d="M73 365.25 L181.5 365.25 L181.5 256.75 Z"
      /><path style="stroke:none;" d="M73 365.25 L181.5 256.75 L73 256.75 Z"
    /></g
    ><g style="text-rendering:geometricPrecision; stroke-width:1.0278; color-interpolation:linearRGB; color-rendering:optimizeQuality; image-rendering:optimizeQuality;"
    ><path d="M73 365.25 L181.5 365.25 L181.5 256.75 L73 256.75 L73 365.25" style="fill:none; fill-rule:evenodd;"
    /></g
    ><g style="fill-opacity:0.102; fill:rgb(0,255,0); text-rendering:optimizeSpeed; color-rendering:optimizeSpeed; image-rendering:optimizeSpeed; shape-rendering:crispEdges; color-interpolation:sRGB; stroke:rgb(0,255,0); stroke-opacity:0.102;"
    ><path style="stroke:none;" d="M181.5 365.25 L290 365.25 L290 256.75 Z"
      /><path style="stroke:none;" d="M181.5 365.25 L290 256.75 L181.5 256.75 Z"
    /></g
    ><g style="text-rendering:geometricPrecision; stroke-width:1.0278; color-interpolation:linearRGB; color-rendering:optimizeQuality; image-rendering:optimizeQuality;"
    ><path d="M181.5 365.25 L290 365.25 L290 256.75 L181.5 256.75 L181.5 365.25" style="fill:none; fill-rule:evenodd;"
    /></g
    ><g style="fill-opacity:0.102; fill:rgb(0,255,0); text-rendering:optimizeSpeed; color-rendering:optimizeSpeed; image-rendering:optimizeSpeed; shape-rendering:crispEdges; color-interpolation:sRGB; stroke:rgb(0,255,0); stroke-opacity:0.102;"
    ><path style="stroke:none;" d="M290 365.25 L398.5 365.25 L398.5 256.75 Z"
      /><path style="stroke:none;" d="M290 365.25 L398.5 256.75 L290 256.75 Z"
    /></g
    ><g style="text-rendering:geometricPrecision; stroke-width:1.0278; color-interpolation:linearRGB; color-rendering:optimizeQuality; image-rendering:optimizeQuality;"
    ><path d="M290 365.25 L398.5 365.25 L398.5 256.75 L290 256.75 L290 365.25" style="fill:none; fill-rule:evenodd;"
    /></g
    ><g style="fill-opacity:0.102; fill:rgb(0,0,255); text-rendering:optimizeSpeed; color-rendering:optimizeSpeed; image-rendering:optimizeSpeed; shape-rendering:crispEdges; color-interpolation:sRGB; stroke:rgb(0,0,255); stroke-opacity:0.102;"
    ><path style="stroke:none;" d="M398.5 365.25 L507 365.25 L507 256.75 Z"
      /><path style="stroke:none;" d="M398.5 365.25 L507 256.75 L398.5 256.75 Z"
    /></g
    ><g style="text-rendering:geometricPrecision; stroke-width:1.0278; color-interpolation:linearRGB; color-rendering:optimizeQuality; image-rendering:optimizeQuality;"
    ><path d="M398.5 365.25 L507 365.25 L507 256.75 L398.5 256.75 L398.5 365.25" style="fill:none; fill-rule:evenodd;"
    /></g
    ><g style="fill-opacity:0.102; fill:rgb(255,0,0); text-rendering:optimizeSpeed; color-rendering:optimizeSpeed; image-rendering:optimizeSpeed; shape-rendering:crispEdges; color-interpolation:sRGB; stroke:rgb(255,0,0); stroke-opacity:0.102;"
    ><path style="stroke:none;" d="M73 256.75 L181.5 256.75 L181.5 148.25 Z"
      /><path style="stroke:none;" d="M73 256.75 L181.5 148.25 L73 148.25 Z"
    /></g
    ><g style="text-rendering:geometricPrecision; stroke-width:1.0278; color-interpolation:linearRGB; color-rendering:optimizeQuality; image-rendering:optimizeQuality;"
    ><path d="M73 256.75 L181.5 256.75 L181.5 148.25 L73 148.25 L73 256.75" style="fill:none; fill-rule:evenodd;"
    /></g
    ><g style="fill-opacity:0.102; fill:rgb(0,255,0); text-rendering:optimizeSpeed; color-rendering:optimizeSpeed; image-rendering:optimizeSpeed; shape-rendering:crispEdges; color-interpolation:sRGB; stroke:rgb(0,255,0); stroke-opacity:0.102;"
    ><path style="stroke:none;" d="M181.5 256.75 L290 256.75 L290 148.25 Z"
      /><path style="stroke:none;" d="M181.5 256.75 L290 148.25 L181.5 148.25 Z"
    /></g
    ><g style="text-rendering:geometricPrecision; stroke-width:1.0278; color-interpolation:linearRGB; color-rendering:optimizeQuality; image-rendering:optimizeQuality;"
    ><path d="M181.5 256.75 L290 256.75 L290 148.25 L181.5 148.25 L181.5 256.75" style="fill:none; fill-rule:evenodd;"
    /></g
    ><g style="fill-opacity:0.102; fill:rgb(0,255,0); text-rendering:optimizeSpeed; color-rendering:optimizeSpeed; image-rendering:optimizeSpeed; shape-rendering:crispEdges; color-interpolation:sRGB; stroke:rgb(0,255,0); stroke-opacity:0.102;"
    ><path style="stroke:none;" d="M290 256.75 L398.5 256.75 L398.5 148.25 Z"
      /><path style="stroke:none;" d="M290 256.75 L398.5 148.25 L290 148.25 Z"
    /></g
    ><g style="text-rendering:geometricPrecision; stroke-width:1.0278; color-interpolation:linearRGB; color-rendering:optimizeQuality; image-rendering:optimizeQuality;"
    ><path d="M290 256.75 L398.5 256.75 L398.5 148.25 L290 148.25 L290 256.75" style="fill:none; fill-rule:evenodd;"
    /></g
    ><g style="fill-opacity:0.102; fill:rgb(0,0,255); text-rendering:optimizeSpeed; color-rendering:optimizeSpeed; image-rendering:optimizeSpeed; shape-rendering:crispEdges; color-interpolation:sRGB; stroke:rgb(0,0,255); stroke-opacity:0.102;"
    ><path style="stroke:none;" d="M398.5 256.75 L507 256.75 L507 148.25 Z"
      /><path style="stroke:none;" d="M398.5 256.75 L507 148.25 L398.5 148.25 Z"
    /></g
    ><g style="text-rendering:geometricPrecision; stroke-width:1.0278; color-interpolation:linearRGB; color-rendering:optimizeQuality; image-rendering:optimizeQuality;"
    ><path d="M398.5 256.75 L507 256.75 L507 148.25 L398.5 148.25 L398.5 256.75" style="fill:none; fill-rule:evenodd;"
    /></g
    ><g style="fill-opacity:0.102; fill:rgb(255,0,0); text-rendering:optimizeSpeed; color-rendering:optimizeSpeed; image-rendering:optimizeSpeed; shape-rendering:crispEdges; color-interpolation:sRGB; stroke:rgb(255,0,0); stroke-opacity:0.102;"
    ><path style="stroke:none;" d="M73 148.25 L181.5 148.25 L181.5 39.75 Z"
      /><path style="stroke:none;" d="M73 148.25 L181.5 39.75 L73 39.75 Z"
    /></g
    ><g style="text-rendering:geometricPrecision; stroke-width:1.0278; color-interpolation:linearRGB; color-rendering:optimizeQuality; image-rendering:optimizeQuality;"
    ><path d="M73 148.25 L181.5 148.25 L181.5 39.75 L73 39.75 L73 148.25" style="fill:none; fill-rule:evenodd;"
    /></g
    ><g style="fill-opacity:0.102; fill:rgb(255,0,0); text-rendering:optimizeSpeed; color-rendering:optimizeSpeed; image-rendering:optimizeSpeed; shape-rendering:crispEdges; color-interpolation:sRGB; stroke:rgb(255,0,0); stroke-opacity:0.102;"
    ><path style="stroke:none;" d="M181.5 148.25 L290 148.25 L290 39.75 Z"
      /><path style="stroke:none;" d="M181.5 148.25 L290 39.75 L181.5 39.75 Z"
    /></g
    ><g style="text-rendering:geometricPrecision; stroke-width:1.0278; color-interpolation:linearRGB; color-rendering:optimizeQuality; image-rendering:optimizeQuality;"
    ><path d="M181.5 148.25 L290 148.25 L290 39.75 L181.5 39.75 L181.5 148.25" style="fill:none; fill-rule:evenodd;"
    /></g
    ><g style="fill-opacity:0.102; fill:rgb(0,255,0); text-rendering:optimizeSpeed; color-rendering:optimizeSpeed; image-rendering:optimizeSpeed; shape-rendering:crispEdges; color-interpolation:sRGB; stroke:rgb(0,255,0); stroke-opacity:0.102;"
    ><path style="stroke:none;" d="M290 148.25 L398.5 148.25 L398.5 39.75 Z"
      /><path style="stroke:none;" d="M290 148.25 L398.5 39.75 L290 39.75 Z"
    /></g
    ><g style="text-rendering:geometricPrecision; stroke-width:1.0278; color-interpolation:linearRGB; color-rendering:optimizeQuality; image-rendering:optimizeQuality;"
    ><path d="M290 148.25 L398.5 148.25 L398.5 39.75 L290 39.75 L290 148.25" style="fill:none; fill-rule:evenodd;"
    /></g
    ><g style="fill-opacity:0.102; fill:rgb(0,0,255); text-rendering:optimizeSpeed; color-rendering:optimizeSpeed; image-rendering:optimizeSpeed; shape-rendering:crispEdges; color-interpolation:sRGB; stroke:rgb(0,0,255); stroke-opacity:0.102;"
    ><path style="stroke:none;" d="M398.5 148.25 L507 148.25 L507 39.75 Z"
      /><path style="stroke:none;" d="M398.5 148.25 L507 39.75 L398.5 39.75 Z"
    /></g
    ><g style="text-rendering:geometricPrecision; stroke-width:1.0278; color-interpolation:linearRGB; color-rendering:optimizeQuality; image-rendering:optimizeQuality;"
    ><path d="M398.5 148.25 L507 148.25 L507 39.75 L398.5 39.75 L398.5 148.25" style="fill:none; fill-rule:evenodd;"
    /></g
    ><g transform="translate(127.25,311)" style="font-size:33px; fill:blue; text-rendering:geometricPrecision; color-rendering:optimizeQuality; image-rendering:optimizeQuality; font-family:'SansSerif'; color-interpolation:linearRGB; stroke:blue;"
    ><text x="-16" xml:space="preserve" y="11.5" style="stroke:none;"
      > 0</text
    ></g
    ><g transform="translate(235.75,311)" style="font-size:33px; fill:blue; text-rendering:geometricPrecision; color-rendering:optimizeQuality; image-rendering:optimizeQuality; font-family:'SansSerif'; color-interpolation:linearRGB; stroke:blue;"
    ><text x="-16" xml:space="preserve" y="11.5" style="stroke:none;"
      > 1</text
    ></g
    ><g transform="translate(344.25,311)" style="font-size:33px; fill:blue; text-rendering:geometricPrecision; color-rendering:optimizeQuality; image-rendering:optimizeQuality; font-family:'SansSerif'; color-interpolation:linearRGB; stroke:blue;"
    ><text x="-16" xml:space="preserve" y="11.5" style="stroke:none;"
      > 2</text
    ></g
    ><g transform="translate(452.75,311)" style="font-size:33px; fill:blue; text-rendering:geometricPrecision; color-rendering:optimizeQuality; image-rendering:optimizeQuality; font-family:'SansSerif'; color-interpolation:linearRGB; stroke:blue;"
    ><text x="-16" xml:space="preserve" y="11.5" style="stroke:none;"
      > 3</text
    ></g
    ><g transform="translate(127.25,202.5)" style="font-size:33px; fill:blue; text-rendering:geometricPrecision; color-rendering:optimizeQuality; image-rendering:optimizeQuality; font-family:'SansSerif'; color-interpolation:linearRGB; stroke:blue;"
    ><text x="-16" xml:space="preserve" y="11.5" style="stroke:none;"
      > 4</text
    ></g
    ><g transform="translate(235.75,202.5)" style="font-size:33px; fill:blue; text-rendering:geometricPrecision; color-rendering:optimizeQuality; image-rendering:optimizeQuality; font-family:'SansSerif'; color-interpolation:linearRGB; stroke:blue;"
    ><text x="-16" xml:space="preserve" y="11.5" style="stroke:none;"
      > 5</text
    ></g
    ><g transform="translate(344.25,202.5)" style="font-size:33px; fill:blue; text-rendering:geometricPrecision; color-rendering:optimizeQuality; image-rendering:optimizeQuality; font-family:'SansSerif'; color-interpolation:linearRGB; stroke:blue;"
    ><text x="-16" xml:space="preserve" y="11.5" style="stroke:none;"
      > 6</text
    ></g
    ><g transform="translate(452.75,202.5)" style="font-size:33px; fill:blue; text-rendering:geometricPrecision; color-rendering:optimizeQuality; image-rendering:optimizeQuality; font-family:'SansSerif'; color-interpolation:linearRGB; stroke:blue;"
    ><text x="-16" xml:space="preserve" y="11.5" style="stroke:none;"
      > 7</text
    ></g
    ><g transform="translate(127.25,94)" style="font-size:33px; fill:blue; text-rendering:geometricPrecision; color-rendering:optimizeQuality; image-rendering:optimizeQuality; font-family:'SansSerif'; color-interpolation:linearRGB; stroke:blue;"
    ><text x="-16" xml:space="preserve" y="11.5" style="stroke:none;"
      > 8</text
    ></g
    ><g transform="translate(235.75,94)" style="font-size:33px; fill:blue; text-rendering:geometricPrecision; color-rendering:optimizeQuality; image-rendering:optimizeQuality; font-family:'SansSerif'; color-interpolation:linearRGB; stroke:blue;"
    ><text x="-16" xml:space="preserve" y="11.5" style="stroke:none;"
      > 9</text
    ></g
    ><g transform="translate(344.25,94)" style="font-size:33px; fill:blue; text-rendering:geometricPrecision; color-rendering:optimizeQuality; image-rendering:optimizeQuality; font-family:'SansSerif'; color-interpolation:linearRGB; stroke:blue;"
    ><text x="-21" xml:space="preserve" y="11.5" style="stroke:none;"
      >10</text
    ></g
    ><g transform="translate(452.75,94)" style="font-size:33px; fill:blue; text-rendering:geometricPrecision; color-rendering:optimizeQuality; image-rendering:optimizeQuality; font-family:'SansSerif'; color-interpolation:linearRGB; stroke:blue;"
    ><text x="-21" xml:space="preserve" y="11.5" style="stroke:none;"
      >11</text
    ></g
    ><g transform="translate(73,39.75)" style="font-size:23px; text-rendering:geometricPrecision; color-rendering:optimizeQuality; image-rendering:optimizeQuality; font-family:'SansSerif'; color-interpolation:linearRGB;"
    ><text x="-11" xml:space="preserve" y="8" style="stroke:none;"
      > 0</text
    ></g
    ><g transform="translate(181.5,39.75)" style="font-size:23px; text-rendering:geometricPrecision; color-rendering:optimizeQuality; image-rendering:optimizeQuality; font-family:'SansSerif'; color-interpolation:linearRGB;"
    ><text x="-11" xml:space="preserve" y="8" style="stroke:none;"
      > 1</text
    ></g
    ><g transform="translate(290,39.75)" style="font-size:23px; text-rendering:geometricPrecision; color-rendering:optimizeQuality; image-rendering:optimizeQuality; font-family:'SansSerif'; color-interpolation:linearRGB;"
    ><text x="-11" xml:space="preserve" y="8" style="stroke:none;"
      > 2</text
    ></g
    ><g transform="translate(398.5,39.75)" style="font-size:23px; text-rendering:geometricPrecision; color-rendering:optimizeQuality; image-rendering:optimizeQuality; font-family:'SansSerif'; color-interpolation:linearRGB;"
    ><text x="-11" xml:space="preserve" y="8" style="stroke:none;"
      > 3</text
    ></g
    ><g transform="translate(507,39.75)" style="font-size:23px; text-rendering:geometricPrecision; color-rendering:optimizeQuality; image-rendering:optimizeQuality; font-family:'SansSerif'; color-interpolation:linearRGB;"
    ><text x="-11" xml:space="preserve" y="8" style="stroke:none;"
      > 4</text
    ></g
    ><g transform="translate(507,148.25)" style="font-size:23px; text-rendering:geometricPrecision; color-rendering:optimizeQuality; image-rendering:optimizeQuality; font-family:'SansSerif'; color-interpolation:linearRGB;"
    ><text x="-11" xml:space="preserve" y="8" style="stroke:none;"
      > 5</text
    ></g
    ><g transform="translate(507,256.75)" style="font-size:23px; text-rendering:geometricPrecision; color-rendering:optimizeQuality; image-rendering:optimizeQuality; font-family:'SansSerif'; color-interpolation:linearRGB;"
    ><text x="-11" xml:space="preserve" y="8" style="stroke:none;"
      > 6</text
    ></g
    ><g transform="translate(507,365.25)" style="font-size:23px; text-rendering:geometricPrecision; color-rendering:optimizeQuality; image-rendering:optimizeQuality; font-family:'SansSerif'; color-interpolation:linearRGB;"
    ><text x="-11" xml:space="preserve" y="8" style="stroke:none;"
      > 7</text
    ></g
    ><g transform="translate(398.5,365.25)" style="font-size:23px; text-rendering:geometricPrecision; color-rendering:optimizeQuality; image-rendering:optimizeQuality; font-family:'SansSerif'; color-interpolation:linearRGB;"
    ><text x="-11" xml:space="preserve" y="8" style="stroke:none;"
      > 8</text
    ></g
    ><g transform="translate(290,365.25)" style="font-size:23px; text-rendering:geometricPrecision; color-rendering:optimizeQuality; image-rendering:optimizeQuality; font-family:'SansSerif'; color-interpolation:linearRGB;"
    ><text x="-11" xml:space="preserve" y="8" style="stroke:none;"
      > 9</text
    ></g
    ><g transform="translate(181.5,365.25)" style="font-size:23px; text-rendering:geometricPrecision; color-rendering:optimizeQuality; image-rendering:optimizeQuality; font-family:'SansSerif'; color-interpolation:linearRGB;"
    ><text x="-15" xml:space="preserve" y="8" style="stroke:none;"
      >10</text
    ></g
    ><g transform="translate(73,365.25)" style="font-size:23px; text-rendering:geometricPrecision; color-rendering:optimizeQuality; image-rendering:optimizeQuality; font-family:'SansSerif'; color-interpolation:linearRGB;"
    ><text x="-15" xml:space="preserve" y="8" style="stroke:none;"
      >11</text
    ></g
    ><g transform="translate(73,256.75)" style="font-size:23px; text-rendering:geometricPrecision; color-rendering:optimizeQuality; image-rendering:optimizeQuality; font-family:'SansSerif'; color-interpolation:linearRGB;"
    ><text x="-15" xml:space="preserve" y="8" style="stroke:none;"
      >12</text
    ></g
    ><g transform="translate(73,148.25)" style="font-size:23px; text-rendering:geometricPrecision; color-rendering:optimizeQuality; image-rendering:optimizeQuality; font-family:'SansSerif'; color-interpolation:linearRGB;"
    ><text x="-15" xml:space="preserve" y="8" style="stroke:none;"
      >13</text
    ></g
    ><g transform="translate(181.5,256.75)" style="font-size:23px; text-rendering:geometricPrecision; color-rendering:optimizeQuality; image-rendering:optimizeQuality; font-family:'SansSerif'; color-interpolation:linearRGB;"
    ><text x="-15" xml:space="preserve" y="8" style="stroke:none;"
      >14</text
    ></g
    ><g transform="translate(290,256.75)" style="font-size:23px; text-rendering:geometricPrecision; color-rendering:optimizeQuality; image-rendering:optimizeQuality; font-family:'SansSerif'; color-interpolation:linearRGB;"
    ><text x="-15" xml:space="preserve" y="8" style="stroke:none;"
      >15</text
    ></g
    ><g transform="translate(398.5,256.75)" style="font-size:23px; text-rendering:geometricPrecision; color-rendering:optimizeQuality; image-rendering:optimizeQuality; font-family:'SansSerif'; color-interpolation:linearRGB;"
    ><text x="-15" xml:space="preserve" y="8" style="stroke:none;"
      >16</text
    ></g
    ><g transform="translate(181.5,148.25)" style="font-size:23px; text-rendering:geometricPrecision; color-rendering:optimizeQuality; image-rendering:optimizeQuality; font-family:'SansSerif'; color-interpolation:linearRGB;"
    ><text x="-15" xml:space="preserve" y="8" style="stroke:none;"
      >17</text
    ></g
    ><g transform="translate(290,148.25)" style="font-size:23px; text-rendering:geometricPrecision; color-rendering:optimizeQuality; image-rendering:optimizeQuality; font-family:'SansSerif'; color-interpolation:linearRGB;"
    ><text x="-15" xml:space="preserve" y="8" style="stroke:none;"
      >18</text
    ></g
    ><g transform="translate(398.5,148.25)" style="font-size:23px; text-rendering:geometricPrecision; color-rendering:optimizeQuality; image-rendering:optimizeQuality; font-family:'SansSerif'; color-interpolation:linearRGB;"
    ><text x="-15" xml:space="preserve" y="8" style="stroke:none;"
      >19</text
    ></g
  ></g
></svg
>
