----- Process 272212 -----

ProjectionSolver_Serial, The elapsed time =, 6.39, NumRanks =, 1
Total Number of Dofs : 11466 
Dof 0 : 
                 L2 Norm =     1.555661504419332e-01
           Infinity Norm =     8.927225857509935e-03

----- Process 272213 -----

Time, PartitionData::Metis Parameters, 42.793247, (seconds elapsed)
Time, PartitionData::Metis, 0.000000, (seconds elapsed)
Time, PartitionData::MetisAndParameters, 43.214417, (seconds elapsed)
Time, PartitionData::BuildPartitionElements, 0.000000, (seconds elapsed)
Time, PartitionData::BuildOverlappingPartitionIncidences, 0.011322, (seconds elapsed)
PartitionData, Total Number of Dofs :, 11466 
PartitionData, The elapsed time =, 43.233422, NumRanks =, 2
ProjectionSolver_Parallel, Total Number of Dofs : 11466 
ProjectionSolver_Parallel, The elapsed time = 3.139096, NumRanks = 2
Total Number of Dofs : 11466 
Dof 0 : 
                 L2 Norm =     1.555661504419312e-01
           Infinity Norm =     8.927225857508936e-03

----- Process 272214 -----

Time, PartitionData::Metis Parameters, 19.942894, (seconds elapsed)
Time, PartitionData::Metis, 0.000000, (seconds elapsed)
Time, PartitionData::MetisAndParameters, 20.263234, (seconds elapsed)
Time, PartitionData::BuildPartitionElements, 0.000000, (seconds elapsed)
Time, PartitionData::BuildOverlappingPartitionIncidences, 0.013945, (seconds elapsed)
PartitionData, Total Number of Dofs :, 11466 
PartitionData, The elapsed time =, 20.282220, NumRanks =, 4
ProjectionSolver_Parallel, Total Number of Dofs : 11466 
ProjectionSolver_Parallel, The elapsed time = 1.596592, NumRanks = 4
Total Number of Dofs : 11466 
Dof 0 : 
                 L2 Norm =     1.555661504419355e-01
           Infinity Norm =     8.927225857510823e-03

----- Process 272215 -----

Time, PartitionData::Metis Parameters, 9.613517, (seconds elapsed)
Time, PartitionData::Metis, 0.000000, (seconds elapsed)
Time, PartitionData::MetisAndParameters, 9.908361, (seconds elapsed)
Time, PartitionData::BuildPartitionElements, 0.000000, (seconds elapsed)
Time, PartitionData::BuildOverlappingPartitionIncidences, 0.013770, (seconds elapsed)
PartitionData, Total Number of Dofs :, 11466 
PartitionData, The elapsed time =, 9.925715, NumRanks =, 8
ProjectionSolver_Parallel, Total Number of Dofs : 11466 
ProjectionSolver_Parallel, The elapsed time = 0.797769, NumRanks = 8
Total Number of Dofs : 11466 
Dof 0 : 
                 L2 Norm =     1.555661504419404e-01
           Infinity Norm =     8.927225857511600e-03

----- Process 272216 -----

Time, PartitionData::Metis Parameters, 4.723343, (seconds elapsed)
Time, PartitionData::Metis, 0.000000, (seconds elapsed)
Time, PartitionData::MetisAndParameters, 5.041503, (seconds elapsed)
Time, PartitionData::BuildPartitionElements, 0.000000, (seconds elapsed)
Time, PartitionData::BuildOverlappingPartitionIncidences, 0.014559, (seconds elapsed)
PartitionData, Total Number of Dofs :, 11466 
PartitionData, The elapsed time =, 5.058764, NumRanks =, 16
ProjectionSolver_Parallel, Total Number of Dofs : 11466 
ProjectionSolver_Parallel, The elapsed time = 0.400010, NumRanks = 16
Total Number of Dofs : 11466 
Dof 0 : 
                 L2 Norm =     1.555661504419376e-01
           Infinity Norm =     8.927225857510823e-03

----- Process 272217 -----

Time, PartitionData::Metis Parameters, 2.348546, (seconds elapsed)
Time, PartitionData::Metis, 0.000000, (seconds elapsed)
Time, PartitionData::MetisAndParameters, 2.730515, (seconds elapsed)
Time, PartitionData::BuildPartitionElements, 0.000000, (seconds elapsed)
Time, PartitionData::BuildOverlappingPartitionIncidences, 0.013338, (seconds elapsed)
PartitionData, Total Number of Dofs :, 11466 
PartitionData, The elapsed time =, 2.746234, NumRanks =, 32
ProjectionSolver_Parallel, Total Number of Dofs : 11466 
ProjectionSolver_Parallel, The elapsed time = 0.199899, NumRanks = 32
----- Process 272218 -----

Time, PartitionData::Metis Parameters, 1.173631, (seconds elapsed)
Time, PartitionData::Metis, 0.000000, (seconds elapsed)
Time, PartitionData::MetisAndParameters, 1.634240, (seconds elapsed)
Time, PartitionData::BuildPartitionElements, 0.000000, (seconds elapsed)
Time, PartitionData::BuildOverlappingPartitionIncidences, 0.019716, (seconds elapsed)
PartitionData, Total Number of Dofs :, 11466 
PartitionData, The elapsed time =, 1.656030, NumRanks =, 64
ProjectionSolver_Parallel, Total Number of Dofs : 11466 
ProjectionSolver_Parallel, The elapsed time = 0.100226, NumRanks = 64
----- Process 272219 -----

Time, PartitionData::Metis Parameters, 0.589454, (seconds elapsed)
Time, PartitionData::Metis, 0.000000, (seconds elapsed)
Time, PartitionData::MetisAndParameters, 1.158651, (seconds elapsed)
Time, PartitionData::BuildPartitionElements, 0.000000, (seconds elapsed)
Time, PartitionData::BuildOverlappingPartitionIncidences, 0.034855, (seconds elapsed)
PartitionData, Total Number of Dofs :, 11466 
PartitionData, The elapsed time =, 1.195415, NumRanks =, 128
ProjectionSolver_Parallel, Total Number of Dofs : 11466 
ProjectionSolver_Parallel, The elapsed time = 0.050991, NumRanks = 128
----- Process 272220 -----

Time, PartitionData::Metis Parameters, 0.298194, (seconds elapsed)
Time, PartitionData::Metis, 0.000000, (seconds elapsed)
Time, PartitionData::MetisAndParameters, 1.027624, (seconds elapsed)
Time, PartitionData::BuildPartitionElements, 0.000000, (seconds elapsed)
Time, PartitionData::BuildOverlappingPartitionIncidences, 0.058737, (seconds elapsed)
PartitionData, Total Number of Dofs :, 11466 
PartitionData, The elapsed time =, 1.088215, NumRanks =, 256
ProjectionSolver_Parallel, Total Number of Dofs : 11466 
ProjectionSolver_Parallel, The elapsed time = 0.026318, NumRanks = 256
----- Process 272221 -----

Time, PartitionData::Metis Parameters, 0.149034, (seconds elapsed)
Time, PartitionData::Metis, 0.000000, (seconds elapsed)
Time, PartitionData::MetisAndParameters, 1.047863, (seconds elapsed)
Time, PartitionData::BuildPartitionElements, 0.000000, (seconds elapsed)
Time, PartitionData::BuildOverlappingPartitionIncidences, 0.117889, (seconds elapsed)
PartitionData, Total Number of Dofs :, 11466 
PartitionData, The elapsed time =, 1.167552, NumRanks =, 512
ProjectionSolver_Parallel, Total Number of Dofs : 11466 
ProjectionSolver_Parallel, The elapsed time = 0.014421, NumRanks = 512
----- Process 272222 -----

Time, PartitionData::Metis Parameters, 0.074501, (seconds elapsed)
Time, PartitionData::Metis, 0.000000, (seconds elapsed)
Time, PartitionData::MetisAndParameters, 1.257730, (seconds elapsed)
Time, PartitionData::BuildPartitionElements, 0.000000, (seconds elapsed)
Time, PartitionData::BuildOverlappingPartitionIncidences, 0.297306, (seconds elapsed)
PartitionData, Total Number of Dofs :, 11466 
PartitionData, The elapsed time =, 1.556811, NumRanks =, 1024
ProjectionSolver_Parallel, Total Number of Dofs : 11466 
ProjectionSolver_Parallel, The elapsed time = 0.008156, NumRanks = 1024
