%!PS-Adobe-3.0 EPSF-3.0
%%Title: /home/doc/Work/Doutorado/thesis/thesis/matplotlib/cap6/dynamic-linear/crankshaft/mpi_only/../../../../../eps/cap6/crankshaft/mpi-vs-openmp-by-core_efficiency.eps
%%Creator: matplotlib version 3.0.3, http://matplotlib.org/
%%CreationDate: Wed Jul 29 15:49:37 2020
%%Orientation: portrait
%%BoundingBox: -17 141 629 650
%%EndComments
%%BeginProlog
/mpldict 8 dict def
mpldict begin
/m { moveto } bind def
/l { lineto } bind def
/r { rlineto } bind def
/c { curveto } bind def
/cl { closepath } bind def
/box {
m
1 index 0 r
0 exch r
neg 0 r
cl
} bind def
/clipbox {
box
clip
newpath
} bind def
%!PS-Adobe-3.0 Resource-Font
%%Title: DejaVu Sans
%%Copyright: Copyright (c) 2003 by Bitstream, Inc. All Rights Reserved. Copyright (c) 2006 by Tavmjong Bah. All Rights Reserved. DejaVu changes are in public domain 
%%Creator: Converted from TrueType to type 3 by PPR
25 dict begin
/_d{bind def}bind def
/_m{moveto}_d
/_l{lineto}_d
/_cl{closepath eofill}_d
/_c{curveto}_d
/_sc{7 -1 roll{setcachedevice}{pop pop pop pop pop pop}ifelse}_d
/_e{exec}_d
/FontName /DejaVuSans def
/PaintType 0 def
/FontMatrix[.001 0 0 .001 0 0]def
/FontBBox[-1021 -463 1793 1232]def
/FontType 3 def
/Encoding [ /space /hyphen /period /zero /one /two /three /four /five /six /seven /eight /nine /B /C /E /I /M /N /O /P /underscore /b /c /e /f /i /m /n /o /p /r /s /u /y ] def
/FontInfo 10 dict dup begin
/FamilyName (DejaVu Sans) def
/FullName (DejaVu Sans) def
/Notice (Copyright (c) 2003 by Bitstream, Inc. All Rights Reserved. Copyright (c) 2006 by Tavmjong Bah. All Rights Reserved. DejaVu changes are in public domain ) def
/Weight (Book) def
/Version (Version 2.35) def
/ItalicAngle 0.0 def
/isFixedPitch false def
/UnderlinePosition -130 def
/UnderlineThickness 90 def
end readonly def
/CharStrings 36 dict dup begin
/.notdef 0 def
/space{318 0 0 0 0 0 _sc
}_d
/hyphen{361 0 49 234 312 314 _sc
49 314 _m
312 314 _l
312 234 _l
49 234 _l
49 314 _l
_cl}_d
/period{318 0 107 0 210 124 _sc
107 124 _m
210 124 _l
210 0 _l
107 0 _l
107 124 _l
_cl}_d
/zero{636 0 66 -13 570 742 _sc
318 664 _m
267 664 229 639 203 589 _c
177 539 165 464 165 364 _c
165 264 177 189 203 139 _c
229 89 267 64 318 64 _c
369 64 407 89 433 139 _c
458 189 471 264 471 364 _c
471 464 458 539 433 589 _c
407 639 369 664 318 664 _c
318 742 _m
399 742 461 709 505 645 _c
548 580 570 486 570 364 _c
570 241 548 147 505 83 _c
461 19 399 -13 318 -13 _c
236 -13 173 19 130 83 _c
87 147 66 241 66 364 _c
66 486 87 580 130 645 _c
173 709 236 742 318 742 _c
_cl}_d
/one{636 0 110 0 544 729 _sc
124 83 _m
285 83 _l
285 639 _l
110 604 _l
110 694 _l
284 729 _l
383 729 _l
383 83 _l
544 83 _l
544 0 _l
124 0 _l
124 83 _l
_cl}_d
/two{{636 0 73 0 536 742 _sc
192 83 _m
536 83 _l
536 0 _l
73 0 _l
73 83 _l
110 121 161 173 226 239 _c
290 304 331 346 348 365 _c
380 400 402 430 414 455 _c
426 479 433 504 433 528 _c
433 566 419 598 392 622 _c
365 646 330 659 286 659 _c
255 659 222 653 188 643 _c
154 632 117 616 78 594 _c
78 694 _l
118 710 155 722 189 730 _c
223 738 255 742 284 742 _c
}_e{359 742 419 723 464 685 _c
509 647 532 597 532 534 _c
532 504 526 475 515 449 _c
504 422 484 390 454 354 _c
446 344 420 317 376 272 _c
332 227 271 164 192 83 _c
_cl}_e}_d
/three{{636 0 76 -13 556 742 _sc
406 393 _m
453 383 490 362 516 330 _c
542 298 556 258 556 212 _c
556 140 531 84 482 45 _c
432 6 362 -13 271 -13 _c
240 -13 208 -10 176 -4 _c
144 1 110 10 76 22 _c
76 117 _l
103 101 133 89 166 81 _c
198 73 232 69 268 69 _c
330 69 377 81 409 105 _c
441 129 458 165 458 212 _c
458 254 443 288 413 312 _c
383 336 341 349 287 349 _c
}_e{202 349 _l
202 430 _l
291 430 _l
339 430 376 439 402 459 _c
428 478 441 506 441 543 _c
441 580 427 609 401 629 _c
374 649 336 659 287 659 _c
260 659 231 656 200 650 _c
169 644 135 635 98 623 _c
98 711 _l
135 721 170 729 203 734 _c
235 739 266 742 296 742 _c
370 742 429 725 473 691 _c
517 657 539 611 539 553 _c
539 513 527 479 504 451 _c
481 423 448 403 406 393 _c
_cl}_e}_d
/four{636 0 49 0 580 729 _sc
378 643 _m
129 254 _l
378 254 _l
378 643 _l
352 729 _m
476 729 _l
476 254 _l
580 254 _l
580 172 _l
476 172 _l
476 0 _l
378 0 _l
378 172 _l
49 172 _l
49 267 _l
352 729 _l
_cl}_d
/five{{636 0 77 -13 549 729 _sc
108 729 _m
495 729 _l
495 646 _l
198 646 _l
198 467 _l
212 472 227 476 241 478 _c
255 480 270 482 284 482 _c
365 482 429 459 477 415 _c
525 370 549 310 549 234 _c
549 155 524 94 475 51 _c
426 8 357 -13 269 -13 _c
238 -13 207 -10 175 -6 _c
143 -1 111 6 77 17 _c
77 116 _l
106 100 136 88 168 80 _c
199 72 232 69 267 69 _c
}_e{323 69 368 83 401 113 _c
433 143 450 183 450 234 _c
450 284 433 324 401 354 _c
368 384 323 399 267 399 _c
241 399 214 396 188 390 _c
162 384 135 375 108 363 _c
108 729 _l
_cl}_e}_d
/six{{636 0 70 -13 573 742 _sc
330 404 _m
286 404 251 388 225 358 _c
199 328 186 286 186 234 _c
186 181 199 139 225 109 _c
251 79 286 64 330 64 _c
374 64 409 79 435 109 _c
461 139 474 181 474 234 _c
474 286 461 328 435 358 _c
409 388 374 404 330 404 _c
526 713 _m
526 623 _l
501 635 476 644 451 650 _c
425 656 400 659 376 659 _c
310 659 260 637 226 593 _c
}_e{192 549 172 482 168 394 _c
187 422 211 444 240 459 _c
269 474 301 482 336 482 _c
409 482 467 459 509 415 _c
551 371 573 310 573 234 _c
573 159 550 99 506 54 _c
462 9 403 -13 330 -13 _c
246 -13 181 19 137 83 _c
92 147 70 241 70 364 _c
70 479 97 571 152 639 _c
206 707 280 742 372 742 _c
396 742 421 739 447 735 _c
472 730 498 723 526 713 _c
_cl}_e}_d
/seven{636 0 82 0 551 729 _sc
82 729 _m
551 729 _l
551 687 _l
286 0 _l
183 0 _l
432 646 _l
82 646 _l
82 729 _l
_cl}_d
/eight{{636 0 68 -13 568 742 _sc
318 346 _m
271 346 234 333 207 308 _c
180 283 167 249 167 205 _c
167 161 180 126 207 101 _c
234 76 271 64 318 64 _c
364 64 401 76 428 102 _c
455 127 469 161 469 205 _c
469 249 455 283 429 308 _c
402 333 365 346 318 346 _c
219 388 _m
177 398 144 418 120 447 _c
96 476 85 511 85 553 _c
85 611 105 657 147 691 _c
188 725 245 742 318 742 _c
}_e{390 742 447 725 489 691 _c
530 657 551 611 551 553 _c
551 511 539 476 515 447 _c
491 418 459 398 417 388 _c
464 377 501 355 528 323 _c
554 291 568 251 568 205 _c
568 134 546 80 503 43 _c
459 5 398 -13 318 -13 _c
237 -13 175 5 132 43 _c
89 80 68 134 68 205 _c
68 251 81 291 108 323 _c
134 355 171 377 219 388 _c
183 544 _m
183 506 194 476 218 455 _c
}_e{242 434 275 424 318 424 _c
360 424 393 434 417 455 _c
441 476 453 506 453 544 _c
453 582 441 611 417 632 _c
393 653 360 664 318 664 _c
275 664 242 653 218 632 _c
194 611 183 582 183 544 _c
_cl}_e}_d
/nine{{636 0 63 -13 566 742 _sc
110 15 _m
110 105 _l
134 93 159 84 185 78 _c
210 72 235 69 260 69 _c
324 69 374 90 408 134 _c
442 178 462 244 468 334 _c
448 306 424 284 396 269 _c
367 254 335 247 300 247 _c
226 247 168 269 126 313 _c
84 357 63 417 63 494 _c
63 568 85 628 129 674 _c
173 719 232 742 306 742 _c
390 742 455 709 499 645 _c
543 580 566 486 566 364 _c
}_e{566 248 538 157 484 89 _c
429 21 356 -13 264 -13 _c
239 -13 214 -10 189 -6 _c
163 -2 137 5 110 15 _c
306 324 _m
350 324 385 339 411 369 _c
437 399 450 441 450 494 _c
450 546 437 588 411 618 _c
385 648 350 664 306 664 _c
262 664 227 648 201 618 _c
175 588 162 546 162 494 _c
162 441 175 399 201 369 _c
227 339 262 324 306 324 _c
_cl}_e}_d
/B{{686 0 98 0 615 729 _sc
197 348 _m
197 81 _l
355 81 _l
408 81 447 92 473 114 _c
498 136 511 169 511 215 _c
511 260 498 293 473 315 _c
447 337 408 348 355 348 _c
197 348 _l
197 648 _m
197 428 _l
343 428 _l
391 428 426 437 450 455 _c
474 473 486 500 486 538 _c
486 574 474 602 450 620 _c
426 638 391 648 343 648 _c
197 648 _l
98 729 _m
350 729 _l
}_e{425 729 483 713 524 682 _c
564 650 585 606 585 549 _c
585 504 574 468 553 442 _c
532 416 502 399 462 393 _c
510 382 548 360 575 327 _c
601 294 615 253 615 204 _c
615 138 592 88 548 53 _c
504 17 441 0 360 0 _c
98 0 _l
98 729 _l
_cl}_e}_d
/C{{698 0 56 -13 644 742 _sc
644 673 _m
644 569 _l
610 599 575 622 537 638 _c
499 653 460 661 418 661 _c
334 661 270 635 226 584 _c
182 533 160 460 160 364 _c
160 268 182 194 226 143 _c
270 92 334 67 418 67 _c
460 67 499 74 537 90 _c
575 105 610 128 644 159 _c
644 56 _l
609 32 572 15 534 4 _c
496 -7 455 -13 412 -13 _c
302 -13 215 20 151 87 _c
}_e{87 154 56 246 56 364 _c
56 481 87 573 151 641 _c
215 708 302 742 412 742 _c
456 742 497 736 535 725 _c
573 713 610 696 644 673 _c
_cl}_e}_d
/E{632 0 98 0 568 729 _sc
98 729 _m
559 729 _l
559 646 _l
197 646 _l
197 430 _l
544 430 _l
544 347 _l
197 347 _l
197 83 _l
568 83 _l
568 0 _l
98 0 _l
98 729 _l
_cl}_d
/I{295 0 98 0 197 729 _sc
98 729 _m
197 729 _l
197 0 _l
98 0 _l
98 729 _l
_cl}_d
/M{863 0 98 0 765 729 _sc
98 729 _m
245 729 _l
431 233 _l
618 729 _l
765 729 _l
765 0 _l
669 0 _l
669 640 _l
481 140 _l
382 140 _l
194 640 _l
194 0 _l
98 0 _l
98 729 _l
_cl}_d
/N{748 0 98 0 650 729 _sc
98 729 _m
231 729 _l
554 119 _l
554 729 _l
650 729 _l
650 0 _l
517 0 _l
194 610 _l
194 0 _l
98 0 _l
98 729 _l
_cl}_d
/O{787 0 56 -13 731 742 _sc
394 662 _m
322 662 265 635 223 582 _c
181 528 160 456 160 364 _c
160 272 181 199 223 146 _c
265 92 322 66 394 66 _c
465 66 522 92 564 146 _c
606 199 627 272 627 364 _c
627 456 606 528 564 582 _c
522 635 465 662 394 662 _c
394 742 _m
496 742 577 707 639 639 _c
700 571 731 479 731 364 _c
731 248 700 157 639 89 _c
577 21 496 -13 394 -13 _c
291 -13 209 21 148 89 _c
86 157 56 248 56 364 _c
56 479 86 571 148 639 _c
209 707 291 742 394 742 _c
_cl}_d
/P{603 0 98 0 569 729 _sc
197 648 _m
197 374 _l
321 374 _l
367 374 402 385 427 409 _c
452 433 465 467 465 511 _c
465 555 452 588 427 612 _c
402 636 367 648 321 648 _c
197 648 _l
98 729 _m
321 729 _l
402 729 464 710 506 673 _c
548 636 569 582 569 511 _c
569 439 548 384 506 348 _c
464 311 402 293 321 293 _c
197 293 _l
197 0 _l
98 0 _l
98 729 _l
_cl}_d
/underscore{500 0 -9 -235 510 -165 _sc
510 -165 _m
510 -235 _l
-9 -235 _l
-9 -165 _l
510 -165 _l
_cl}_d
/b{{635 0 91 -13 580 760 _sc
487 273 _m
487 339 473 390 446 428 _c
418 466 381 485 334 485 _c
286 485 249 466 222 428 _c
194 390 181 339 181 273 _c
181 207 194 155 222 117 _c
249 79 286 61 334 61 _c
381 61 418 79 446 117 _c
473 155 487 207 487 273 _c
181 464 _m
199 496 223 520 252 536 _c
281 552 316 560 356 560 _c
422 560 476 533 518 481 _c
559 428 580 359 580 273 _c
}_e{580 187 559 117 518 65 _c
476 13 422 -13 356 -13 _c
316 -13 281 -5 252 10 _c
223 25 199 49 181 82 _c
181 0 _l
91 0 _l
91 760 _l
181 760 _l
181 464 _l
_cl}_e}_d
/c{{550 0 55 -13 488 560 _sc
488 526 _m
488 442 _l
462 456 437 466 411 473 _c
385 480 360 484 334 484 _c
276 484 230 465 198 428 _c
166 391 150 339 150 273 _c
150 206 166 154 198 117 _c
230 80 276 62 334 62 _c
360 62 385 65 411 72 _c
437 79 462 90 488 104 _c
488 21 _l
462 9 436 0 410 -5 _c
383 -10 354 -13 324 -13 _c
242 -13 176 12 128 64 _c
}_e{79 115 55 185 55 273 _c
55 362 79 432 128 483 _c
177 534 244 560 330 560 _c
358 560 385 557 411 551 _c
437 545 463 537 488 526 _c
_cl}_e}_d
/e{{615 0 55 -13 562 560 _sc
562 296 _m
562 252 _l
149 252 _l
153 190 171 142 205 110 _c
238 78 284 62 344 62 _c
378 62 412 66 444 74 _c
476 82 509 95 541 113 _c
541 28 _l
509 14 476 3 442 -3 _c
408 -9 373 -13 339 -13 _c
251 -13 182 12 131 62 _c
80 112 55 181 55 268 _c
55 357 79 428 127 481 _c
175 533 241 560 323 560 _c
397 560 455 536 498 489 _c
}_e{540 441 562 377 562 296 _c
472 322 _m
471 371 457 410 431 440 _c
404 469 368 484 324 484 _c
274 484 234 469 204 441 _c
174 413 156 373 152 322 _c
472 322 _l
_cl}_e}_d
/f{352 0 23 0 371 760 _sc
371 760 _m
371 685 _l
285 685 _l
253 685 230 678 218 665 _c
205 652 199 629 199 595 _c
199 547 _l
347 547 _l
347 477 _l
199 477 _l
199 0 _l
109 0 _l
109 477 _l
23 477 _l
23 547 _l
109 547 _l
109 585 _l
109 645 123 690 151 718 _c
179 746 224 760 286 760 _c
371 760 _l
_cl}_d
/i{278 0 94 0 184 760 _sc
94 547 _m
184 547 _l
184 0 _l
94 0 _l
94 547 _l
94 760 _m
184 760 _l
184 646 _l
94 646 _l
94 760 _l
_cl}_d
/m{{974 0 91 0 889 560 _sc
520 442 _m
542 482 569 511 600 531 _c
631 550 668 560 711 560 _c
767 560 811 540 842 500 _c
873 460 889 403 889 330 _c
889 0 _l
799 0 _l
799 327 _l
799 379 789 418 771 444 _c
752 469 724 482 686 482 _c
639 482 602 466 575 435 _c
548 404 535 362 535 309 _c
535 0 _l
445 0 _l
445 327 _l
445 379 435 418 417 444 _c
398 469 369 482 331 482 _c
}_e{285 482 248 466 221 435 _c
194 404 181 362 181 309 _c
181 0 _l
91 0 _l
91 547 _l
181 547 _l
181 462 _l
201 495 226 520 255 536 _c
283 552 317 560 357 560 _c
397 560 430 550 458 530 _c
486 510 506 480 520 442 _c
_cl}_e}_d
/n{634 0 91 0 549 560 _sc
549 330 _m
549 0 _l
459 0 _l
459 327 _l
459 379 448 417 428 443 _c
408 469 378 482 338 482 _c
289 482 251 466 223 435 _c
195 404 181 362 181 309 _c
181 0 _l
91 0 _l
91 547 _l
181 547 _l
181 462 _l
202 494 227 519 257 535 _c
286 551 320 560 358 560 _c
420 560 468 540 500 501 _c
532 462 549 405 549 330 _c
_cl}_d
/o{612 0 55 -13 557 560 _sc
306 484 _m
258 484 220 465 192 427 _c
164 389 150 338 150 273 _c
150 207 163 156 191 118 _c
219 80 257 62 306 62 _c
354 62 392 80 420 118 _c
448 156 462 207 462 273 _c
462 337 448 389 420 427 _c
392 465 354 484 306 484 _c
306 560 _m
384 560 445 534 490 484 _c
534 433 557 363 557 273 _c
557 183 534 113 490 63 _c
445 12 384 -13 306 -13 _c
227 -13 165 12 121 63 _c
77 113 55 183 55 273 _c
55 363 77 433 121 484 _c
165 534 227 560 306 560 _c
_cl}_d
/p{{635 0 91 -207 580 560 _sc
181 82 _m
181 -207 _l
91 -207 _l
91 547 _l
181 547 _l
181 464 _l
199 496 223 520 252 536 _c
281 552 316 560 356 560 _c
422 560 476 533 518 481 _c
559 428 580 359 580 273 _c
580 187 559 117 518 65 _c
476 13 422 -13 356 -13 _c
316 -13 281 -5 252 10 _c
223 25 199 49 181 82 _c
487 273 _m
487 339 473 390 446 428 _c
418 466 381 485 334 485 _c
}_e{286 485 249 466 222 428 _c
194 390 181 339 181 273 _c
181 207 194 155 222 117 _c
249 79 286 61 334 61 _c
381 61 418 79 446 117 _c
473 155 487 207 487 273 _c
_cl}_e}_d
/r{411 0 91 0 411 560 _sc
411 463 _m
401 469 390 473 378 476 _c
366 478 353 480 339 480 _c
288 480 249 463 222 430 _c
194 397 181 350 181 288 _c
181 0 _l
91 0 _l
91 547 _l
181 547 _l
181 462 _l
199 495 224 520 254 536 _c
284 552 321 560 365 560 _c
371 560 378 559 386 559 _c
393 558 401 557 411 555 _c
411 463 _l
_cl}_d
/s{{521 0 54 -13 472 560 _sc
443 531 _m
443 446 _l
417 458 391 468 364 475 _c
336 481 308 485 279 485 _c
234 485 200 478 178 464 _c
156 450 145 430 145 403 _c
145 382 153 366 169 354 _c
185 342 217 330 265 320 _c
296 313 _l
360 299 405 279 432 255 _c
458 230 472 195 472 151 _c
472 100 452 60 412 31 _c
372 1 316 -13 246 -13 _c
216 -13 186 -10 154 -5 _c
}_e{122 0 89 8 54 20 _c
54 113 _l
87 95 120 82 152 74 _c
184 65 216 61 248 61 _c
290 61 323 68 346 82 _c
368 96 380 117 380 144 _c
380 168 371 187 355 200 _c
339 213 303 226 247 238 _c
216 245 _l
160 257 119 275 95 299 _c
70 323 58 356 58 399 _c
58 450 76 490 112 518 _c
148 546 200 560 268 560 _c
301 560 332 557 362 552 _c
391 547 418 540 443 531 _c
}_e{_cl}_e}_d
/u{634 0 85 -13 543 560 _sc
85 216 _m
85 547 _l
175 547 _l
175 219 _l
175 167 185 129 205 103 _c
225 77 255 64 296 64 _c
344 64 383 79 411 110 _c
439 141 453 183 453 237 _c
453 547 _l
543 547 _l
543 0 _l
453 0 _l
453 84 _l
431 50 405 26 377 10 _c
348 -5 315 -13 277 -13 _c
214 -13 166 6 134 45 _c
101 83 85 140 85 216 _c
311 560 _m
311 560 _l
_cl}_d
/y{592 0 30 -207 562 547 _sc
322 -50 _m
296 -114 271 -157 247 -177 _c
223 -197 191 -207 151 -207 _c
79 -207 _l
79 -132 _l
132 -132 _l
156 -132 175 -126 189 -114 _c
203 -102 218 -75 235 -31 _c
251 9 _l
30 547 _l
125 547 _l
296 119 _l
467 547 _l
562 547 _l
322 -50 _l
_cl}_d
end readonly def

/BuildGlyph
 {exch begin
 CharStrings exch
 2 copy known not{pop /.notdef}if
 true 3 1 roll get exec
 end}_d

/BuildChar {
 1 index /Encoding get exch get
 1 index /BuildGlyph get exec
}_d

FontName currentdict end definefont pop
end
%%EndProlog
mpldict begin
-17.052 141.36 translate
646.103 509.28 0 0 clipbox
gsave
0 0 m
646.103125 0 l
646.103125 509.28 l
0 509.28 l
cl
1.000 setgray
fill
grestore
gsave
77.403125 63.7 m
635.403125 63.7 l
635.403125 498.58 l
77.403125 498.58 l
cl
1.000 setgray
fill
grestore
0.800 setlinewidth
1 setlinejoin
2 setlinecap
[] 0 setdash
0.690 setgray
gsave
558 434.9 77.4 63.7 clipbox
102.766761 63.7 m
102.766761 498.58 l
stroke
grestore
0 setlinecap
0.000 setgray
gsave
/o {
gsave
newpath
translate
0.8 setlinewidth
1 setlinejoin
0 setlinecap
0 0 m
0 -3.5 l

gsave
0.000 setgray
fill
grestore
stroke
grestore
} bind def
102.767 63.7 o
grestore
/DejaVuSans findfont
22.000 scalefont
setfont
gsave
95.766761 39.981250 translate
0.000000 rotate
0.000000 0.000000 m /one glyphshow
grestore
2 setlinecap
0.690 setgray
gsave
558 434.9 77.4 63.7 clipbox
220.138619 63.7 m
220.138619 498.58 l
stroke
grestore
0 setlinecap
0.000 setgray
gsave
/o {
gsave
newpath
translate
0.8 setlinewidth
1 setlinejoin
0 setlinecap
0 0 m
0 -3.5 l

gsave
0.000 setgray
fill
grestore
stroke
grestore
} bind def
220.139 63.7 o
grestore
gsave
213.138619 39.981250 translate
0.000000 rotate
0.000000 0.000000 m /two glyphshow
grestore
2 setlinecap
0.690 setgray
gsave
558 434.9 77.4 63.7 clipbox
337.510476 63.7 m
337.510476 498.58 l
stroke
grestore
0 setlinecap
0.000 setgray
gsave
/o {
gsave
newpath
translate
0.8 setlinewidth
1 setlinejoin
0 setlinecap
0 0 m
0 -3.5 l

gsave
0.000 setgray
fill
grestore
stroke
grestore
} bind def
337.51 63.7 o
grestore
gsave
330.510476 39.981250 translate
0.000000 rotate
0.000000 0.000000 m /four glyphshow
grestore
2 setlinecap
0.690 setgray
gsave
558 434.9 77.4 63.7 clipbox
454.882333 63.7 m
454.882333 498.58 l
stroke
grestore
0 setlinecap
0.000 setgray
gsave
/o {
gsave
newpath
translate
0.8 setlinewidth
1 setlinejoin
0 setlinecap
0 0 m
0 -3.5 l

gsave
0.000 setgray
fill
grestore
stroke
grestore
} bind def
454.882 63.7 o
grestore
gsave
447.882333 39.981250 translate
0.000000 rotate
0.000000 0.000000 m /eight glyphshow
grestore
2 setlinecap
0.690 setgray
gsave
558 434.9 77.4 63.7 clipbox
572.25419 63.7 m
572.25419 498.58 l
stroke
grestore
0 setlinecap
0.000 setgray
gsave
/o {
gsave
newpath
translate
0.8 setlinewidth
1 setlinejoin
0 setlinecap
0 0 m
0 -3.5 l

gsave
0.000 setgray
fill
grestore
stroke
grestore
} bind def
572.254 63.7 o
grestore
gsave
558.254190 39.981250 translate
0.000000 rotate
0.000000 0.000000 m /one glyphshow
13.997070 0.000000 m /six glyphshow
grestore
2 setlinecap
0.690 setgray
gsave
558 434.9 77.4 63.7 clipbox
610.039489 63.7 m
610.039489 498.58 l
stroke
grestore
0 setlinecap
0.000 setgray
gsave
/o {
gsave
newpath
translate
0.8 setlinewidth
1 setlinejoin
0 setlinecap
0 0 m
0 -3.5 l

gsave
0.000 setgray
fill
grestore
stroke
grestore
} bind def
610.039 63.7 o
grestore
gsave
596.039489 39.981250 translate
0.000000 rotate
0.000000 0.000000 m /two glyphshow
13.997070 0.000000 m /zero glyphshow
grestore
/DejaVuSans findfont
25.000 scalefont
setfont
gsave
250.465625 12.403125 translate
0.000000 rotate
0.000000 0.000000 m /N glyphshow
18.701172 0.000000 m /u glyphshow
34.545898 0.000000 m /m glyphshow
58.898926 0.000000 m /b glyphshow
74.768066 0.000000 m /e glyphshow
90.148926 0.000000 m /r glyphshow
100.427246 0.000000 m /space glyphshow
108.374023 0.000000 m /o glyphshow
123.669434 0.000000 m /f glyphshow
132.470703 0.000000 m /space glyphshow
140.417480 0.000000 m /C glyphshow
157.873535 0.000000 m /o glyphshow
173.168945 0.000000 m /r glyphshow
183.447266 0.000000 m /e glyphshow
198.828125 0.000000 m /s glyphshow
grestore
2 setlinecap
0.690 setgray
gsave
558 434.9 77.4 63.7 clipbox
77.403125 63.7 m
635.403125 63.7 l
stroke
grestore
0 setlinecap
0.000 setgray
gsave
/o {
gsave
newpath
translate
0.8 setlinewidth
1 setlinejoin
0 setlinecap
0 0 m
-3.5 0 l

gsave
0.000 setgray
fill
grestore
stroke
grestore
} bind def
77.4031 63.7 o
grestore
/DejaVuSans findfont
22.000 scalefont
setfont
gsave
35.403125 55.340625 translate
0.000000 rotate
0.000000 0.000000 m /zero glyphshow
13.997070 0.000000 m /period glyphshow
20.990234 0.000000 m /one glyphshow
grestore
2 setlinecap
0.690 setgray
gsave
558 434.9 77.4 63.7 clipbox
77.403125 110.136733 m
635.403125 110.136733 l
stroke
grestore
0 setlinecap
0.000 setgray
gsave
/o {
gsave
newpath
translate
0.8 setlinewidth
1 setlinejoin
0 setlinecap
0 0 m
-3.5 0 l

gsave
0.000 setgray
fill
grestore
stroke
grestore
} bind def
77.4031 110.137 o
grestore
gsave
35.403125 101.777358 translate
0.000000 rotate
0.000000 0.000000 m /zero glyphshow
13.997070 0.000000 m /period glyphshow
20.990234 0.000000 m /two glyphshow
grestore
2 setlinecap
0.690 setgray
gsave
558 434.9 77.4 63.7 clipbox
77.403125 156.573465 m
635.403125 156.573465 l
stroke
grestore
0 setlinecap
0.000 setgray
gsave
/o {
gsave
newpath
translate
0.8 setlinewidth
1 setlinejoin
0 setlinecap
0 0 m
-3.5 0 l

gsave
0.000 setgray
fill
grestore
stroke
grestore
} bind def
77.4031 156.573 o
grestore
gsave
35.403125 148.214090 translate
0.000000 rotate
0.000000 0.000000 m /zero glyphshow
13.997070 0.000000 m /period glyphshow
20.990234 0.000000 m /three glyphshow
grestore
2 setlinecap
0.690 setgray
gsave
558 434.9 77.4 63.7 clipbox
77.403125 203.010198 m
635.403125 203.010198 l
stroke
grestore
0 setlinecap
0.000 setgray
gsave
/o {
gsave
newpath
translate
0.8 setlinewidth
1 setlinejoin
0 setlinecap
0 0 m
-3.5 0 l

gsave
0.000 setgray
fill
grestore
stroke
grestore
} bind def
77.4031 203.01 o
grestore
gsave
35.403125 194.650823 translate
0.000000 rotate
0.000000 0.000000 m /zero glyphshow
13.997070 0.000000 m /period glyphshow
20.990234 0.000000 m /four glyphshow
grestore
2 setlinecap
0.690 setgray
gsave
558 434.9 77.4 63.7 clipbox
77.403125 249.44693 m
635.403125 249.44693 l
stroke
grestore
0 setlinecap
0.000 setgray
gsave
/o {
gsave
newpath
translate
0.8 setlinewidth
1 setlinejoin
0 setlinecap
0 0 m
-3.5 0 l

gsave
0.000 setgray
fill
grestore
stroke
grestore
} bind def
77.4031 249.447 o
grestore
gsave
35.403125 241.087555 translate
0.000000 rotate
0.000000 0.000000 m /zero glyphshow
13.997070 0.000000 m /period glyphshow
20.990234 0.000000 m /five glyphshow
grestore
2 setlinecap
0.690 setgray
gsave
558 434.9 77.4 63.7 clipbox
77.403125 295.883663 m
635.403125 295.883663 l
stroke
grestore
0 setlinecap
0.000 setgray
gsave
/o {
gsave
newpath
translate
0.8 setlinewidth
1 setlinejoin
0 setlinecap
0 0 m
-3.5 0 l

gsave
0.000 setgray
fill
grestore
stroke
grestore
} bind def
77.4031 295.884 o
grestore
gsave
35.403125 287.524288 translate
0.000000 rotate
0.000000 0.000000 m /zero glyphshow
13.997070 0.000000 m /period glyphshow
20.990234 0.000000 m /six glyphshow
grestore
2 setlinecap
0.690 setgray
gsave
558 434.9 77.4 63.7 clipbox
77.403125 342.320395 m
635.403125 342.320395 l
stroke
grestore
0 setlinecap
0.000 setgray
gsave
/o {
gsave
newpath
translate
0.8 setlinewidth
1 setlinejoin
0 setlinecap
0 0 m
-3.5 0 l

gsave
0.000 setgray
fill
grestore
stroke
grestore
} bind def
77.4031 342.32 o
grestore
gsave
35.403125 333.961020 translate
0.000000 rotate
0.000000 0.000000 m /zero glyphshow
13.997070 0.000000 m /period glyphshow
20.990234 0.000000 m /seven glyphshow
grestore
2 setlinecap
0.690 setgray
gsave
558 434.9 77.4 63.7 clipbox
77.403125 388.757128 m
635.403125 388.757128 l
stroke
grestore
0 setlinecap
0.000 setgray
gsave
/o {
gsave
newpath
translate
0.8 setlinewidth
1 setlinejoin
0 setlinecap
0 0 m
-3.5 0 l

gsave
0.000 setgray
fill
grestore
stroke
grestore
} bind def
77.4031 388.757 o
grestore
gsave
35.403125 380.397753 translate
0.000000 rotate
0.000000 0.000000 m /zero glyphshow
13.997070 0.000000 m /period glyphshow
20.990234 0.000000 m /eight glyphshow
grestore
2 setlinecap
0.690 setgray
gsave
558 434.9 77.4 63.7 clipbox
77.403125 435.19386 m
635.403125 435.19386 l
stroke
grestore
0 setlinecap
0.000 setgray
gsave
/o {
gsave
newpath
translate
0.8 setlinewidth
1 setlinejoin
0 setlinecap
0 0 m
-3.5 0 l

gsave
0.000 setgray
fill
grestore
stroke
grestore
} bind def
77.4031 435.194 o
grestore
gsave
35.403125 426.834485 translate
0.000000 rotate
0.000000 0.000000 m /zero glyphshow
13.997070 0.000000 m /period glyphshow
20.990234 0.000000 m /nine glyphshow
grestore
2 setlinecap
0.690 setgray
gsave
558 434.9 77.4 63.7 clipbox
77.403125 481.630593 m
635.403125 481.630593 l
stroke
grestore
0 setlinecap
0.000 setgray
gsave
/o {
gsave
newpath
translate
0.8 setlinewidth
1 setlinejoin
0 setlinecap
0 0 m
-3.5 0 l

gsave
0.000 setgray
fill
grestore
stroke
grestore
} bind def
77.4031 481.631 o
grestore
gsave
56.403125 473.271218 translate
0.000000 rotate
0.000000 0.000000 m /one glyphshow
grestore
/DejaVuSans findfont
25.000 scalefont
setfont
gsave
26.200000 220.733750 translate
90.000000 rotate
0.000000 0.000000 m /E glyphshow
15.795898 0.000000 m /f glyphshow
24.597168 0.000000 m /f glyphshow
33.398438 0.000000 m /i glyphshow
40.344238 0.000000 m /c glyphshow
54.089355 0.000000 m /i glyphshow
61.035156 0.000000 m /e glyphshow
76.416016 0.000000 m /n glyphshow
92.260742 0.000000 m /c glyphshow
106.005859 0.000000 m /y glyphshow
grestore
4.000 setlinewidth
[25.6 6.4 4 6.4] 0 setdash
0.000 0.000 1.000 setrgbcolor
gsave
558 434.9 77.4 63.7 clipbox
102.766761 481.630593 m
220.138619 458.412226 l
337.510476 463.0559 l
454.882333 439.837533 l
572.25419 388.757128 l
610.039489 407.331821 l
stroke
grestore
1.000 setlinewidth
[] 0 setdash
gsave
558 434.9 77.4 63.7 clipbox
/o {
gsave
newpath
translate
1.0 setlinewidth
1 setlinejoin
0 setlinecap
0 -7 m
1.856422 -7 3.637059 -6.262436 4.949747 -4.949747 c
6.262436 -3.637059 7 -1.856422 7 0 c
7 1.856422 6.262436 3.637059 4.949747 4.949747 c
3.637059 6.262436 1.856422 7 0 7 c
-1.856422 7 -3.637059 6.262436 -4.949747 4.949747 c
-6.262436 3.637059 -7 1.856422 -7 0 c
-7 -1.856422 -6.262436 -3.637059 -4.949747 -4.949747 c
-3.637059 -6.262436 -1.856422 -7 0 -7 c
cl

gsave
0.000 0.000 1.000 setrgbcolor
fill
grestore
stroke
grestore
} bind def
102.767 481.631 o
220.139 458.412 o
337.51 463.056 o
454.882 439.838 o
572.254 388.757 o
610.039 407.332 o
grestore
3.000 setlinewidth
[19.2 4.8 3 4.8] 0 setdash
0.000 0.502 0.000 setrgbcolor
gsave
558 434.9 77.4 63.7 clipbox
102.766761 481.630593 m
220.138619 444.481207 l
337.510476 453.768553 l
454.882333 421.26284 l
572.25419 370.182435 l
610.039489 360.895088 l
stroke
grestore
1.000 setlinewidth
0 setlinejoin
[] 0 setdash
gsave
558 434.9 77.4 63.7 clipbox
/o {
gsave
newpath
translate
1.0 setlinewidth
0 setlinejoin
0 setlinecap
-3.5 -7 m
0 -3.5 l
3.5 -7 l
7 -3.5 l
3.5 0 l
7 3.5 l
3.5 7 l
0 3.5 l
-3.5 7 l
-7 3.5 l
-3.5 0 l
-7 -3.5 l
cl

gsave
0.000 0.502 0.000 setrgbcolor
fill
grestore
stroke
grestore
} bind def
102.767 481.631 o
220.139 444.481 o
337.51 453.769 o
454.882 421.263 o
572.254 370.182 o
610.039 360.895 o
grestore
3.000 setlinewidth
1 setlinejoin
[19.2 4.8 3 4.8] 0 setdash
0.529 0.808 0.922 setrgbcolor
gsave
558 434.9 77.4 63.7 clipbox
102.766761 481.630593 m
220.138619 453.768553 l
337.510476 444.481207 l
454.882333 430.550187 l
572.25419 379.469781 l
610.039489 388.757128 l
stroke
grestore
1.000 setlinewidth
0 setlinejoin
[] 0 setdash
gsave
558 434.9 77.4 63.7 clipbox
/o {
gsave
newpath
translate
1.0 setlinewidth
0 setlinejoin
0 setlinecap
7 -0 m
-7 7 l
-7 -7 l
cl

gsave
0.529 0.808 0.922 setrgbcolor
fill
grestore
stroke
grestore
} bind def
102.767 481.631 o
220.139 453.769 o
337.51 444.481 o
454.882 430.55 o
572.254 379.47 o
610.039 388.757 o
grestore
3.000 setlinewidth
1 setlinejoin
[19.2 4.8 3 4.8] 0 setdash
1.000 0.000 0.000 setrgbcolor
gsave
558 434.9 77.4 63.7 clipbox
102.766761 481.630593 m
220.138619 379.469781 l
337.510476 351.607742 l
454.882333 300.527336 l
572.25419 203.010198 l
610.039489 142.642445 l
stroke
grestore
1.000 setlinewidth
0 setlinejoin
[] 0 setdash
gsave
558 434.9 77.4 63.7 clipbox
/o {
gsave
newpath
translate
1.0 setlinewidth
0 setlinejoin
0 setlinecap
-7 -7 m
7 -7 l
7 7 l
-7 7 l
cl

gsave
1.000 0.000 0.000 setrgbcolor
fill
grestore
stroke
grestore
} bind def
102.767 481.631 o
220.139 379.47 o
337.51 351.608 o
454.882 300.527 o
572.254 203.01 o
610.039 142.642 o
grestore
3.000 setlinewidth
1 setlinejoin
[19.2 4.8 3 4.8] 0 setdash
0.502 0.502 0.000 setrgbcolor
gsave
558 434.9 77.4 63.7 clipbox
102.766761 481.630593 m
220.138619 444.481207 l
337.510476 421.26284 l
454.882333 398.044474 l
572.25419 314.458356 l
610.039489 291.239989 l
stroke
grestore
1.000 setlinewidth
0 setlinejoin
[] 0 setdash
gsave
558 434.9 77.4 63.7 clipbox
/o {
gsave
newpath
translate
1.0 setlinewidth
0 setlinejoin
0 setlinecap
-0 -7 m
7 7 l
-7 7 l
cl

gsave
0.502 0.502 0.000 setrgbcolor
fill
grestore
stroke
grestore
} bind def
102.767 481.631 o
220.139 444.481 o
337.51 421.263 o
454.882 398.044 o
572.254 314.458 o
610.039 291.24 o
grestore
3.000 setlinewidth
1 setlinejoin
[19.2 4.8 3 4.8] 0 setdash
0.647 0.165 0.165 setrgbcolor
gsave
558 434.9 77.4 63.7 clipbox
102.766761 481.630593 m
220.138619 393.400801 l
337.510476 388.757128 l
454.882333 337.676722 l
572.25419 333.033049 l
610.039489 300.527336 l
stroke
grestore
1.000 setlinewidth
0 setlinejoin
[] 0 setdash
gsave
558 434.9 77.4 63.7 clipbox
/o {
gsave
newpath
translate
1.0 setlinewidth
0 setlinejoin
0 setlinecap
-0 -9.899495 m
5.939697 0 l
0 9.899495 l
-5.939697 0 l
cl

gsave
0.647 0.165 0.165 setrgbcolor
fill
grestore
stroke
grestore
} bind def
102.767 481.631 o
220.139 393.401 o
337.51 388.757 o
454.882 337.677 o
572.254 333.033 o
610.039 300.527 o
grestore
1.200 setlinewidth
1 setlinejoin
[4.44 1.92] 0 setdash
0.000 0.000 0.545 setrgbcolor
gsave
558 434.9 77.4 63.7 clipbox
77.403125 156.573465 m
635.403125 156.573465 l
stroke
grestore
gsave
558 434.9 77.4 63.7 clipbox
77.403125 203.010198 m
635.403125 203.010198 l
stroke
grestore
gsave
558 434.9 77.4 63.7 clipbox
77.403125 249.44693 m
635.403125 249.44693 l
stroke
grestore
gsave
558 434.9 77.4 63.7 clipbox
77.403125 295.883663 m
635.403125 295.883663 l
stroke
grestore
gsave
558 434.9 77.4 63.7 clipbox
77.403125 342.320395 m
635.403125 342.320395 l
stroke
grestore
gsave
558 434.9 77.4 63.7 clipbox
77.403125 388.757128 m
635.403125 388.757128 l
stroke
grestore
gsave
558 434.9 77.4 63.7 clipbox
77.403125 435.19386 m
635.403125 435.19386 l
stroke
grestore
gsave
558 434.9 77.4 63.7 clipbox
77.403125 481.630593 m
635.403125 481.630593 l
stroke
grestore
2.000 setlinewidth
0 setlinejoin
2 setlinecap
[] 0 setdash
0.000 setgray
gsave
77.403125 63.7 m
77.403125 498.58 l
stroke
grestore
gsave
635.403125 63.7 m
635.403125 498.58 l
stroke
grestore
gsave
77.403125 63.7 m
635.403125 63.7 l
stroke
grestore
gsave
77.403125 498.58 m
635.403125 498.58 l
stroke
grestore
1.000 setlinewidth
0 setlinecap
0.800 setgray
gsave
87.383125 68.0488 m
382.439375 68.0488 l
385.372708 68.0488 386.839375 69.515467 386.839375 72.4488 c
386.839375 267.6863 l
386.839375 270.619633 385.372708 272.0863 382.439375 272.0863 c
87.383125 272.0863 l
84.449792 272.0863 82.983125 270.619633 82.983125 267.6863 c
82.983125 72.4488 l
82.983125 69.515467 84.449792 68.0488 87.383125 68.0488 c
cl
gsave
1.000 setgray
fill
grestore
stroke
grestore
4.000 setlinewidth
1 setlinejoin
[25.6 6.4 4 6.4] 0 setdash
0.000 0.000 1.000 setrgbcolor
gsave
91.783125 254.26755 m
135.783125 254.26755 l
stroke
grestore
1.000 setlinewidth
[] 0 setdash
gsave
/o {
gsave
newpath
translate
1.0 setlinewidth
1 setlinejoin
0 setlinecap
0 -7 m
1.856422 -7 3.637059 -6.262436 4.949747 -4.949747 c
6.262436 -3.637059 7 -1.856422 7 0 c
7 1.856422 6.262436 3.637059 4.949747 4.949747 c
3.637059 6.262436 1.856422 7 0 7 c
-1.856422 7 -3.637059 6.262436 -4.949747 4.949747 c
-6.262436 3.637059 -7 1.856422 -7 0 c
-7 -1.856422 -6.262436 -3.637059 -4.949747 -4.949747 c
-3.637059 -6.262436 -1.856422 -7 0 -7 c
cl

gsave
0.000 0.000 1.000 setrgbcolor
fill
grestore
stroke
grestore
} bind def
113.783 254.268 o
grestore
0.000 setgray
/DejaVuSans findfont
22.000 scalefont
setfont
gsave
153.383125 246.567550 translate
0.000000 rotate
0.000000 0.000000 m /P glyphshow
13.266602 0.000000 m /one glyphshow
27.263672 0.000000 m /underscore glyphshow
38.263672 0.000000 m /M glyphshow
57.245117 0.000000 m /P glyphshow
70.511719 0.000000 m /I glyphshow
77.000000 0.000000 m /hyphen glyphshow
84.938477 0.000000 m /B glyphshow
100.031250 0.000000 m /y glyphshow
113.050781 0.000000 m /hyphen glyphshow
120.989258 0.000000 m /C glyphshow
136.350586 0.000000 m /o glyphshow
149.810547 0.000000 m /r glyphshow
158.855469 0.000000 m /e glyphshow
grestore
3.000 setlinewidth
[19.2 4.8 3 4.8] 0 setdash
0.000 0.502 0.000 setrgbcolor
gsave
91.783125 221.3613 m
135.783125 221.3613 l
stroke
grestore
1.000 setlinewidth
0 setlinejoin
[] 0 setdash
gsave
/o {
gsave
newpath
translate
1.0 setlinewidth
0 setlinejoin
0 setlinecap
-3.5 -7 m
0 -3.5 l
3.5 -7 l
7 -3.5 l
3.5 0 l
7 3.5 l
3.5 7 l
0 3.5 l
-3.5 7 l
-7 3.5 l
-3.5 0 l
-7 -3.5 l
cl

gsave
0.000 0.502 0.000 setrgbcolor
fill
grestore
stroke
grestore
} bind def
113.783 221.361 o
grestore
0.000 setgray
gsave
153.383125 213.661300 translate
0.000000 rotate
0.000000 0.000000 m /P glyphshow
13.266602 0.000000 m /two glyphshow
27.263672 0.000000 m /underscore glyphshow
38.263672 0.000000 m /M glyphshow
57.245117 0.000000 m /P glyphshow
70.511719 0.000000 m /I glyphshow
77.000000 0.000000 m /hyphen glyphshow
84.938477 0.000000 m /B glyphshow
100.031250 0.000000 m /y glyphshow
113.050781 0.000000 m /hyphen glyphshow
120.989258 0.000000 m /C glyphshow
136.350586 0.000000 m /o glyphshow
149.810547 0.000000 m /r glyphshow
158.855469 0.000000 m /e glyphshow
grestore
3.000 setlinewidth
1 setlinejoin
[19.2 4.8 3 4.8] 0 setdash
0.529 0.808 0.922 setrgbcolor
gsave
91.783125 188.45505 m
135.783125 188.45505 l
stroke
grestore
1.000 setlinewidth
0 setlinejoin
[] 0 setdash
gsave
/o {
gsave
newpath
translate
1.0 setlinewidth
0 setlinejoin
0 setlinecap
7 -0 m
-7 7 l
-7 -7 l
cl

gsave
0.529 0.808 0.922 setrgbcolor
fill
grestore
stroke
grestore
} bind def
113.783 188.455 o
grestore
0.000 setgray
gsave
153.383125 180.755050 translate
0.000000 rotate
0.000000 0.000000 m /P glyphshow
13.266602 0.000000 m /four glyphshow
27.263672 0.000000 m /underscore glyphshow
38.263672 0.000000 m /M glyphshow
57.245117 0.000000 m /P glyphshow
70.511719 0.000000 m /I glyphshow
77.000000 0.000000 m /hyphen glyphshow
84.938477 0.000000 m /B glyphshow
100.031250 0.000000 m /y glyphshow
113.050781 0.000000 m /hyphen glyphshow
120.989258 0.000000 m /C glyphshow
136.350586 0.000000 m /o glyphshow
149.810547 0.000000 m /r glyphshow
158.855469 0.000000 m /e glyphshow
grestore
3.000 setlinewidth
1 setlinejoin
[19.2 4.8 3 4.8] 0 setdash
1.000 0.000 0.000 setrgbcolor
gsave
91.783125 155.5488 m
135.783125 155.5488 l
stroke
grestore
1.000 setlinewidth
0 setlinejoin
[] 0 setdash
gsave
/o {
gsave
newpath
translate
1.0 setlinewidth
0 setlinejoin
0 setlinecap
-7 -7 m
7 -7 l
7 7 l
-7 7 l
cl

gsave
1.000 0.000 0.000 setrgbcolor
fill
grestore
stroke
grestore
} bind def
113.783 155.549 o
grestore
0.000 setgray
gsave
153.383125 147.848800 translate
0.000000 rotate
0.000000 0.000000 m /P glyphshow
13.266602 0.000000 m /one glyphshow
27.263672 0.000000 m /underscore glyphshow
38.263672 0.000000 m /O glyphshow
55.580078 0.000000 m /p glyphshow
69.544922 0.000000 m /e glyphshow
83.080078 0.000000 m /n glyphshow
97.023438 0.000000 m /M glyphshow
116.004883 0.000000 m /P glyphshow
129.271484 0.000000 m /hyphen glyphshow
137.209961 0.000000 m /B glyphshow
152.302734 0.000000 m /y glyphshow
165.322266 0.000000 m /hyphen glyphshow
173.260742 0.000000 m /C glyphshow
188.622070 0.000000 m /o glyphshow
202.082031 0.000000 m /r glyphshow
211.126953 0.000000 m /e glyphshow
grestore
3.000 setlinewidth
1 setlinejoin
[19.2 4.8 3 4.8] 0 setdash
0.502 0.502 0.000 setrgbcolor
gsave
91.783125 122.64255 m
135.783125 122.64255 l
stroke
grestore
1.000 setlinewidth
0 setlinejoin
[] 0 setdash
gsave
/o {
gsave
newpath
translate
1.0 setlinewidth
0 setlinejoin
0 setlinecap
-0 -7 m
7 7 l
-7 7 l
cl

gsave
0.502 0.502 0.000 setrgbcolor
fill
grestore
stroke
grestore
} bind def
113.783 122.643 o
grestore
0.000 setgray
gsave
153.383125 114.942550 translate
0.000000 rotate
0.000000 0.000000 m /P glyphshow
13.266602 0.000000 m /two glyphshow
27.263672 0.000000 m /underscore glyphshow
38.263672 0.000000 m /O glyphshow
55.580078 0.000000 m /p glyphshow
69.544922 0.000000 m /e glyphshow
83.080078 0.000000 m /n glyphshow
97.023438 0.000000 m /M glyphshow
116.004883 0.000000 m /P glyphshow
129.271484 0.000000 m /hyphen glyphshow
137.209961 0.000000 m /B glyphshow
152.302734 0.000000 m /y glyphshow
165.322266 0.000000 m /hyphen glyphshow
173.260742 0.000000 m /C glyphshow
188.622070 0.000000 m /o glyphshow
202.082031 0.000000 m /r glyphshow
211.126953 0.000000 m /e glyphshow
grestore
3.000 setlinewidth
1 setlinejoin
[19.2 4.8 3 4.8] 0 setdash
0.647 0.165 0.165 setrgbcolor
gsave
91.783125 89.7363 m
135.783125 89.7363 l
stroke
grestore
1.000 setlinewidth
0 setlinejoin
[] 0 setdash
gsave
/o {
gsave
newpath
translate
1.0 setlinewidth
0 setlinejoin
0 setlinecap
-0 -9.899495 m
5.939697 0 l
0 9.899495 l
-5.939697 0 l
cl

gsave
0.647 0.165 0.165 setrgbcolor
fill
grestore
stroke
grestore
} bind def
113.783 89.7363 o
grestore
0.000 setgray
gsave
153.383125 82.036300 translate
0.000000 rotate
0.000000 0.000000 m /P glyphshow
13.266602 0.000000 m /four glyphshow
27.263672 0.000000 m /underscore glyphshow
38.263672 0.000000 m /O glyphshow
55.580078 0.000000 m /p glyphshow
69.544922 0.000000 m /e glyphshow
83.080078 0.000000 m /n glyphshow
97.023438 0.000000 m /M glyphshow
116.004883 0.000000 m /P glyphshow
129.271484 0.000000 m /hyphen glyphshow
137.209961 0.000000 m /B glyphshow
152.302734 0.000000 m /y glyphshow
165.322266 0.000000 m /hyphen glyphshow
173.260742 0.000000 m /C glyphshow
188.622070 0.000000 m /o glyphshow
202.082031 0.000000 m /r glyphshow
211.126953 0.000000 m /e glyphshow
grestore

end
showpage
