%!PS-Adobe-3.0 EPSF-3.0
%%Title: /home/doc/Work/Doutorado/thesis/thesis/matplotlib/cap6/dynamic-linear/crankshaft/mpi_only/../../../../../eps/cap6/crankshaft/mpi-vs-openmp-by-core.eps
%%Creator: matplotlib version 3.0.3, http://matplotlib.org/
%%CreationDate: Wed Jul 29 15:49:37 2020
%%Orientation: portrait
%%BoundingBox: -13 138 625 653
%%EndComments
%%BeginProlog
/mpldict 8 dict def
mpldict begin
/m { moveto } bind def
/l { lineto } bind def
/r { rlineto } bind def
/c { curveto } bind def
/cl { closepath } bind def
/box {
m
1 index 0 r
0 exch r
neg 0 r
cl
} bind def
/clipbox {
box
clip
newpath
} bind def
%!PS-Adobe-3.0 Resource-Font
%%Title: DejaVu Sans
%%Copyright: Copyright (c) 2003 by Bitstream, Inc. All Rights Reserved. Copyright (c) 2006 by Tavmjong Bah. All Rights Reserved. DejaVu changes are in public domain 
%%Creator: Converted from TrueType to type 3 by PPR
25 dict begin
/_d{bind def}bind def
/_m{moveto}_d
/_l{lineto}_d
/_cl{closepath eofill}_d
/_c{curveto}_d
/_sc{7 -1 roll{setcachedevice}{pop pop pop pop pop pop}ifelse}_d
/_e{exec}_d
/FontName /DejaVuSans def
/PaintType 0 def
/FontMatrix[.001 0 0 .001 0 0]def
/FontBBox[-1021 -463 1793 1232]def
/FontType 3 def
/Encoding [ /space /hyphen /zero /one /two /four /six /eight /B /C /I /M /N /O /P /S /underscore /b /d /e /f /m /n /o /p /r /s /u /y ] def
/FontInfo 10 dict dup begin
/FamilyName (DejaVu Sans) def
/FullName (DejaVu Sans) def
/Notice (Copyright (c) 2003 by Bitstream, Inc. All Rights Reserved. Copyright (c) 2006 by Tavmjong Bah. All Rights Reserved. DejaVu changes are in public domain ) def
/Weight (Book) def
/Version (Version 2.35) def
/ItalicAngle 0.0 def
/isFixedPitch false def
/UnderlinePosition -130 def
/UnderlineThickness 90 def
end readonly def
/CharStrings 30 dict dup begin
/.notdef 0 def
/space{318 0 0 0 0 0 _sc
}_d
/hyphen{361 0 49 234 312 314 _sc
49 314 _m
312 314 _l
312 234 _l
49 234 _l
49 314 _l
_cl}_d
/zero{636 0 66 -13 570 742 _sc
318 664 _m
267 664 229 639 203 589 _c
177 539 165 464 165 364 _c
165 264 177 189 203 139 _c
229 89 267 64 318 64 _c
369 64 407 89 433 139 _c
458 189 471 264 471 364 _c
471 464 458 539 433 589 _c
407 639 369 664 318 664 _c
318 742 _m
399 742 461 709 505 645 _c
548 580 570 486 570 364 _c
570 241 548 147 505 83 _c
461 19 399 -13 318 -13 _c
236 -13 173 19 130 83 _c
87 147 66 241 66 364 _c
66 486 87 580 130 645 _c
173 709 236 742 318 742 _c
_cl}_d
/one{636 0 110 0 544 729 _sc
124 83 _m
285 83 _l
285 639 _l
110 604 _l
110 694 _l
284 729 _l
383 729 _l
383 83 _l
544 83 _l
544 0 _l
124 0 _l
124 83 _l
_cl}_d
/two{{636 0 73 0 536 742 _sc
192 83 _m
536 83 _l
536 0 _l
73 0 _l
73 83 _l
110 121 161 173 226 239 _c
290 304 331 346 348 365 _c
380 400 402 430 414 455 _c
426 479 433 504 433 528 _c
433 566 419 598 392 622 _c
365 646 330 659 286 659 _c
255 659 222 653 188 643 _c
154 632 117 616 78 594 _c
78 694 _l
118 710 155 722 189 730 _c
223 738 255 742 284 742 _c
}_e{359 742 419 723 464 685 _c
509 647 532 597 532 534 _c
532 504 526 475 515 449 _c
504 422 484 390 454 354 _c
446 344 420 317 376 272 _c
332 227 271 164 192 83 _c
_cl}_e}_d
/four{636 0 49 0 580 729 _sc
378 643 _m
129 254 _l
378 254 _l
378 643 _l
352 729 _m
476 729 _l
476 254 _l
580 254 _l
580 172 _l
476 172 _l
476 0 _l
378 0 _l
378 172 _l
49 172 _l
49 267 _l
352 729 _l
_cl}_d
/six{{636 0 70 -13 573 742 _sc
330 404 _m
286 404 251 388 225 358 _c
199 328 186 286 186 234 _c
186 181 199 139 225 109 _c
251 79 286 64 330 64 _c
374 64 409 79 435 109 _c
461 139 474 181 474 234 _c
474 286 461 328 435 358 _c
409 388 374 404 330 404 _c
526 713 _m
526 623 _l
501 635 476 644 451 650 _c
425 656 400 659 376 659 _c
310 659 260 637 226 593 _c
}_e{192 549 172 482 168 394 _c
187 422 211 444 240 459 _c
269 474 301 482 336 482 _c
409 482 467 459 509 415 _c
551 371 573 310 573 234 _c
573 159 550 99 506 54 _c
462 9 403 -13 330 -13 _c
246 -13 181 19 137 83 _c
92 147 70 241 70 364 _c
70 479 97 571 152 639 _c
206 707 280 742 372 742 _c
396 742 421 739 447 735 _c
472 730 498 723 526 713 _c
_cl}_e}_d
/eight{{636 0 68 -13 568 742 _sc
318 346 _m
271 346 234 333 207 308 _c
180 283 167 249 167 205 _c
167 161 180 126 207 101 _c
234 76 271 64 318 64 _c
364 64 401 76 428 102 _c
455 127 469 161 469 205 _c
469 249 455 283 429 308 _c
402 333 365 346 318 346 _c
219 388 _m
177 398 144 418 120 447 _c
96 476 85 511 85 553 _c
85 611 105 657 147 691 _c
188 725 245 742 318 742 _c
}_e{390 742 447 725 489 691 _c
530 657 551 611 551 553 _c
551 511 539 476 515 447 _c
491 418 459 398 417 388 _c
464 377 501 355 528 323 _c
554 291 568 251 568 205 _c
568 134 546 80 503 43 _c
459 5 398 -13 318 -13 _c
237 -13 175 5 132 43 _c
89 80 68 134 68 205 _c
68 251 81 291 108 323 _c
134 355 171 377 219 388 _c
183 544 _m
183 506 194 476 218 455 _c
}_e{242 434 275 424 318 424 _c
360 424 393 434 417 455 _c
441 476 453 506 453 544 _c
453 582 441 611 417 632 _c
393 653 360 664 318 664 _c
275 664 242 653 218 632 _c
194 611 183 582 183 544 _c
_cl}_e}_d
/B{{686 0 98 0 615 729 _sc
197 348 _m
197 81 _l
355 81 _l
408 81 447 92 473 114 _c
498 136 511 169 511 215 _c
511 260 498 293 473 315 _c
447 337 408 348 355 348 _c
197 348 _l
197 648 _m
197 428 _l
343 428 _l
391 428 426 437 450 455 _c
474 473 486 500 486 538 _c
486 574 474 602 450 620 _c
426 638 391 648 343 648 _c
197 648 _l
98 729 _m
350 729 _l
}_e{425 729 483 713 524 682 _c
564 650 585 606 585 549 _c
585 504 574 468 553 442 _c
532 416 502 399 462 393 _c
510 382 548 360 575 327 _c
601 294 615 253 615 204 _c
615 138 592 88 548 53 _c
504 17 441 0 360 0 _c
98 0 _l
98 729 _l
_cl}_e}_d
/C{{698 0 56 -13 644 742 _sc
644 673 _m
644 569 _l
610 599 575 622 537 638 _c
499 653 460 661 418 661 _c
334 661 270 635 226 584 _c
182 533 160 460 160 364 _c
160 268 182 194 226 143 _c
270 92 334 67 418 67 _c
460 67 499 74 537 90 _c
575 105 610 128 644 159 _c
644 56 _l
609 32 572 15 534 4 _c
496 -7 455 -13 412 -13 _c
302 -13 215 20 151 87 _c
}_e{87 154 56 246 56 364 _c
56 481 87 573 151 641 _c
215 708 302 742 412 742 _c
456 742 497 736 535 725 _c
573 713 610 696 644 673 _c
_cl}_e}_d
/I{295 0 98 0 197 729 _sc
98 729 _m
197 729 _l
197 0 _l
98 0 _l
98 729 _l
_cl}_d
/M{863 0 98 0 765 729 _sc
98 729 _m
245 729 _l
431 233 _l
618 729 _l
765 729 _l
765 0 _l
669 0 _l
669 640 _l
481 140 _l
382 140 _l
194 640 _l
194 0 _l
98 0 _l
98 729 _l
_cl}_d
/N{748 0 98 0 650 729 _sc
98 729 _m
231 729 _l
554 119 _l
554 729 _l
650 729 _l
650 0 _l
517 0 _l
194 610 _l
194 0 _l
98 0 _l
98 729 _l
_cl}_d
/O{787 0 56 -13 731 742 _sc
394 662 _m
322 662 265 635 223 582 _c
181 528 160 456 160 364 _c
160 272 181 199 223 146 _c
265 92 322 66 394 66 _c
465 66 522 92 564 146 _c
606 199 627 272 627 364 _c
627 456 606 528 564 582 _c
522 635 465 662 394 662 _c
394 742 _m
496 742 577 707 639 639 _c
700 571 731 479 731 364 _c
731 248 700 157 639 89 _c
577 21 496 -13 394 -13 _c
291 -13 209 21 148 89 _c
86 157 56 248 56 364 _c
56 479 86 571 148 639 _c
209 707 291 742 394 742 _c
_cl}_d
/P{603 0 98 0 569 729 _sc
197 648 _m
197 374 _l
321 374 _l
367 374 402 385 427 409 _c
452 433 465 467 465 511 _c
465 555 452 588 427 612 _c
402 636 367 648 321 648 _c
197 648 _l
98 729 _m
321 729 _l
402 729 464 710 506 673 _c
548 636 569 582 569 511 _c
569 439 548 384 506 348 _c
464 311 402 293 321 293 _c
197 293 _l
197 0 _l
98 0 _l
98 729 _l
_cl}_d
/S{{635 0 66 -13 579 742 _sc
535 705 _m
535 609 _l
497 627 462 640 429 649 _c
395 657 363 662 333 662 _c
279 662 237 651 208 631 _c
179 610 165 580 165 542 _c
165 510 174 485 194 469 _c
213 452 250 439 304 429 _c
364 417 _l
437 403 491 378 526 343 _c
561 307 579 260 579 201 _c
579 130 555 77 508 41 _c
460 5 391 -13 300 -13 _c
265 -13 228 -9 189 -2 _c
}_e{150 5 110 16 69 32 _c
69 134 _l
109 111 148 94 186 83 _c
224 71 262 66 300 66 _c
356 66 399 77 430 99 _c
460 121 476 152 476 194 _c
476 230 465 258 443 278 _c
421 298 385 313 335 323 _c
275 335 _l
201 349 148 372 115 404 _c
82 435 66 478 66 534 _c
66 598 88 649 134 686 _c
179 723 242 742 322 742 _c
356 742 390 739 426 733 _c
461 727 497 717 535 705 _c
}_e{_cl}_e}_d
/underscore{500 0 -9 -235 510 -165 _sc
510 -165 _m
510 -235 _l
-9 -235 _l
-9 -165 _l
510 -165 _l
_cl}_d
/b{{635 0 91 -13 580 760 _sc
487 273 _m
487 339 473 390 446 428 _c
418 466 381 485 334 485 _c
286 485 249 466 222 428 _c
194 390 181 339 181 273 _c
181 207 194 155 222 117 _c
249 79 286 61 334 61 _c
381 61 418 79 446 117 _c
473 155 487 207 487 273 _c
181 464 _m
199 496 223 520 252 536 _c
281 552 316 560 356 560 _c
422 560 476 533 518 481 _c
559 428 580 359 580 273 _c
}_e{580 187 559 117 518 65 _c
476 13 422 -13 356 -13 _c
316 -13 281 -5 252 10 _c
223 25 199 49 181 82 _c
181 0 _l
91 0 _l
91 760 _l
181 760 _l
181 464 _l
_cl}_e}_d
/d{{635 0 55 -13 544 760 _sc
454 464 _m
454 760 _l
544 760 _l
544 0 _l
454 0 _l
454 82 _l
435 49 411 25 382 10 _c
353 -5 319 -13 279 -13 _c
213 -13 159 13 117 65 _c
75 117 55 187 55 273 _c
55 359 75 428 117 481 _c
159 533 213 560 279 560 _c
319 560 353 552 382 536 _c
411 520 435 496 454 464 _c
148 273 _m
148 207 161 155 188 117 _c
215 79 253 61 301 61 _c
}_e{348 61 385 79 413 117 _c
440 155 454 207 454 273 _c
454 339 440 390 413 428 _c
385 466 348 485 301 485 _c
253 485 215 466 188 428 _c
161 390 148 339 148 273 _c
_cl}_e}_d
/e{{615 0 55 -13 562 560 _sc
562 296 _m
562 252 _l
149 252 _l
153 190 171 142 205 110 _c
238 78 284 62 344 62 _c
378 62 412 66 444 74 _c
476 82 509 95 541 113 _c
541 28 _l
509 14 476 3 442 -3 _c
408 -9 373 -13 339 -13 _c
251 -13 182 12 131 62 _c
80 112 55 181 55 268 _c
55 357 79 428 127 481 _c
175 533 241 560 323 560 _c
397 560 455 536 498 489 _c
}_e{540 441 562 377 562 296 _c
472 322 _m
471 371 457 410 431 440 _c
404 469 368 484 324 484 _c
274 484 234 469 204 441 _c
174 413 156 373 152 322 _c
472 322 _l
_cl}_e}_d
/f{352 0 23 0 371 760 _sc
371 760 _m
371 685 _l
285 685 _l
253 685 230 678 218 665 _c
205 652 199 629 199 595 _c
199 547 _l
347 547 _l
347 477 _l
199 477 _l
199 0 _l
109 0 _l
109 477 _l
23 477 _l
23 547 _l
109 547 _l
109 585 _l
109 645 123 690 151 718 _c
179 746 224 760 286 760 _c
371 760 _l
_cl}_d
/m{{974 0 91 0 889 560 _sc
520 442 _m
542 482 569 511 600 531 _c
631 550 668 560 711 560 _c
767 560 811 540 842 500 _c
873 460 889 403 889 330 _c
889 0 _l
799 0 _l
799 327 _l
799 379 789 418 771 444 _c
752 469 724 482 686 482 _c
639 482 602 466 575 435 _c
548 404 535 362 535 309 _c
535 0 _l
445 0 _l
445 327 _l
445 379 435 418 417 444 _c
398 469 369 482 331 482 _c
}_e{285 482 248 466 221 435 _c
194 404 181 362 181 309 _c
181 0 _l
91 0 _l
91 547 _l
181 547 _l
181 462 _l
201 495 226 520 255 536 _c
283 552 317 560 357 560 _c
397 560 430 550 458 530 _c
486 510 506 480 520 442 _c
_cl}_e}_d
/n{634 0 91 0 549 560 _sc
549 330 _m
549 0 _l
459 0 _l
459 327 _l
459 379 448 417 428 443 _c
408 469 378 482 338 482 _c
289 482 251 466 223 435 _c
195 404 181 362 181 309 _c
181 0 _l
91 0 _l
91 547 _l
181 547 _l
181 462 _l
202 494 227 519 257 535 _c
286 551 320 560 358 560 _c
420 560 468 540 500 501 _c
532 462 549 405 549 330 _c
_cl}_d
/o{612 0 55 -13 557 560 _sc
306 484 _m
258 484 220 465 192 427 _c
164 389 150 338 150 273 _c
150 207 163 156 191 118 _c
219 80 257 62 306 62 _c
354 62 392 80 420 118 _c
448 156 462 207 462 273 _c
462 337 448 389 420 427 _c
392 465 354 484 306 484 _c
306 560 _m
384 560 445 534 490 484 _c
534 433 557 363 557 273 _c
557 183 534 113 490 63 _c
445 12 384 -13 306 -13 _c
227 -13 165 12 121 63 _c
77 113 55 183 55 273 _c
55 363 77 433 121 484 _c
165 534 227 560 306 560 _c
_cl}_d
/p{{635 0 91 -207 580 560 _sc
181 82 _m
181 -207 _l
91 -207 _l
91 547 _l
181 547 _l
181 464 _l
199 496 223 520 252 536 _c
281 552 316 560 356 560 _c
422 560 476 533 518 481 _c
559 428 580 359 580 273 _c
580 187 559 117 518 65 _c
476 13 422 -13 356 -13 _c
316 -13 281 -5 252 10 _c
223 25 199 49 181 82 _c
487 273 _m
487 339 473 390 446 428 _c
418 466 381 485 334 485 _c
}_e{286 485 249 466 222 428 _c
194 390 181 339 181 273 _c
181 207 194 155 222 117 _c
249 79 286 61 334 61 _c
381 61 418 79 446 117 _c
473 155 487 207 487 273 _c
_cl}_e}_d
/r{411 0 91 0 411 560 _sc
411 463 _m
401 469 390 473 378 476 _c
366 478 353 480 339 480 _c
288 480 249 463 222 430 _c
194 397 181 350 181 288 _c
181 0 _l
91 0 _l
91 547 _l
181 547 _l
181 462 _l
199 495 224 520 254 536 _c
284 552 321 560 365 560 _c
371 560 378 559 386 559 _c
393 558 401 557 411 555 _c
411 463 _l
_cl}_d
/s{{521 0 54 -13 472 560 _sc
443 531 _m
443 446 _l
417 458 391 468 364 475 _c
336 481 308 485 279 485 _c
234 485 200 478 178 464 _c
156 450 145 430 145 403 _c
145 382 153 366 169 354 _c
185 342 217 330 265 320 _c
296 313 _l
360 299 405 279 432 255 _c
458 230 472 195 472 151 _c
472 100 452 60 412 31 _c
372 1 316 -13 246 -13 _c
216 -13 186 -10 154 -5 _c
}_e{122 0 89 8 54 20 _c
54 113 _l
87 95 120 82 152 74 _c
184 65 216 61 248 61 _c
290 61 323 68 346 82 _c
368 96 380 117 380 144 _c
380 168 371 187 355 200 _c
339 213 303 226 247 238 _c
216 245 _l
160 257 119 275 95 299 _c
70 323 58 356 58 399 _c
58 450 76 490 112 518 _c
148 546 200 560 268 560 _c
301 560 332 557 362 552 _c
391 547 418 540 443 531 _c
}_e{_cl}_e}_d
/u{634 0 85 -13 543 560 _sc
85 216 _m
85 547 _l
175 547 _l
175 219 _l
175 167 185 129 205 103 _c
225 77 255 64 296 64 _c
344 64 383 79 411 110 _c
439 141 453 183 453 237 _c
453 547 _l
543 547 _l
543 0 _l
453 0 _l
453 84 _l
431 50 405 26 377 10 _c
348 -5 315 -13 277 -13 _c
214 -13 166 6 134 45 _c
101 83 85 140 85 216 _c
311 560 _m
311 560 _l
_cl}_d
/y{592 0 30 -207 562 547 _sc
322 -50 _m
296 -114 271 -157 247 -177 _c
223 -197 191 -207 151 -207 _c
79 -207 _l
79 -132 _l
132 -132 _l
156 -132 175 -126 189 -114 _c
203 -102 218 -75 235 -31 _c
251 9 _l
30 547 _l
125 547 _l
296 119 _l
467 547 _l
562 547 _l
322 -50 _l
_cl}_d
end readonly def

/BuildGlyph
 {exch begin
 CharStrings exch
 2 copy known not{pop /.notdef}if
 true 3 1 roll get exec
 end}_d

/BuildChar {
 1 index /Encoding get exch get
 1 index /BuildGlyph get exec
}_d

FontName currentdict end definefont pop
end
%%EndProlog
mpldict begin
-13.552 138.93 translate
639.103 514.139 0 0 clipbox
gsave
0 0 m
639.103125 0 l
639.103125 514.139375 l
0 514.139375 l
cl
1.000 setgray
fill
grestore
gsave
70.403125 63.7 m
628.403125 63.7 l
628.403125 498.58 l
70.403125 498.58 l
cl
1.000 setgray
fill
grestore
0.800 setlinewidth
1 setlinejoin
2 setlinecap
[] 0 setdash
0.690 setgray
gsave
558 434.9 70.4 63.7 clipbox
95.766761 63.7 m
95.766761 498.58 l
stroke
grestore
0 setlinecap
0.000 setgray
gsave
/o {
gsave
newpath
translate
0.8 setlinewidth
1 setlinejoin
0 setlinecap
0 0 m
0 -3.5 l

gsave
0.000 setgray
fill
grestore
stroke
grestore
} bind def
95.7668 63.7 o
grestore
/DejaVuSans findfont
22.000 scalefont
setfont
gsave
88.766761 39.981250 translate
0.000000 rotate
0.000000 0.000000 m /one glyphshow
grestore
2 setlinecap
0.690 setgray
gsave
558 434.9 70.4 63.7 clipbox
213.138619 63.7 m
213.138619 498.58 l
stroke
grestore
0 setlinecap
0.000 setgray
gsave
/o {
gsave
newpath
translate
0.8 setlinewidth
1 setlinejoin
0 setlinecap
0 0 m
0 -3.5 l

gsave
0.000 setgray
fill
grestore
stroke
grestore
} bind def
213.139 63.7 o
grestore
gsave
206.138619 39.981250 translate
0.000000 rotate
0.000000 0.000000 m /two glyphshow
grestore
2 setlinecap
0.690 setgray
gsave
558 434.9 70.4 63.7 clipbox
330.510476 63.7 m
330.510476 498.58 l
stroke
grestore
0 setlinecap
0.000 setgray
gsave
/o {
gsave
newpath
translate
0.8 setlinewidth
1 setlinejoin
0 setlinecap
0 0 m
0 -3.5 l

gsave
0.000 setgray
fill
grestore
stroke
grestore
} bind def
330.51 63.7 o
grestore
gsave
323.510476 39.981250 translate
0.000000 rotate
0.000000 0.000000 m /four glyphshow
grestore
2 setlinecap
0.690 setgray
gsave
558 434.9 70.4 63.7 clipbox
447.882333 63.7 m
447.882333 498.58 l
stroke
grestore
0 setlinecap
0.000 setgray
gsave
/o {
gsave
newpath
translate
0.8 setlinewidth
1 setlinejoin
0 setlinecap
0 0 m
0 -3.5 l

gsave
0.000 setgray
fill
grestore
stroke
grestore
} bind def
447.882 63.7 o
grestore
gsave
440.882333 39.981250 translate
0.000000 rotate
0.000000 0.000000 m /eight glyphshow
grestore
2 setlinecap
0.690 setgray
gsave
558 434.9 70.4 63.7 clipbox
565.25419 63.7 m
565.25419 498.58 l
stroke
grestore
0 setlinecap
0.000 setgray
gsave
/o {
gsave
newpath
translate
0.8 setlinewidth
1 setlinejoin
0 setlinecap
0 0 m
0 -3.5 l

gsave
0.000 setgray
fill
grestore
stroke
grestore
} bind def
565.254 63.7 o
grestore
gsave
551.254190 39.981250 translate
0.000000 rotate
0.000000 0.000000 m /one glyphshow
13.997070 0.000000 m /six glyphshow
grestore
2 setlinecap
0.690 setgray
gsave
558 434.9 70.4 63.7 clipbox
603.039489 63.7 m
603.039489 498.58 l
stroke
grestore
0 setlinecap
0.000 setgray
gsave
/o {
gsave
newpath
translate
0.8 setlinewidth
1 setlinejoin
0 setlinecap
0 0 m
0 -3.5 l

gsave
0.000 setgray
fill
grestore
stroke
grestore
} bind def
603.039 63.7 o
grestore
gsave
589.039489 39.981250 translate
0.000000 rotate
0.000000 0.000000 m /two glyphshow
13.997070 0.000000 m /zero glyphshow
grestore
/DejaVuSans findfont
25.000 scalefont
setfont
gsave
243.465625 12.403125 translate
0.000000 rotate
0.000000 0.000000 m /N glyphshow
18.701172 0.000000 m /u glyphshow
34.545898 0.000000 m /m glyphshow
58.898926 0.000000 m /b glyphshow
74.768066 0.000000 m /e glyphshow
90.148926 0.000000 m /r glyphshow
100.427246 0.000000 m /space glyphshow
108.374023 0.000000 m /o glyphshow
123.669434 0.000000 m /f glyphshow
132.470703 0.000000 m /space glyphshow
140.417480 0.000000 m /C glyphshow
157.873535 0.000000 m /o glyphshow
173.168945 0.000000 m /r glyphshow
183.447266 0.000000 m /e glyphshow
198.828125 0.000000 m /s glyphshow
grestore
2 setlinecap
0.690 setgray
gsave
558 434.9 70.4 63.7 clipbox
70.403125 83.257523 m
628.403125 83.257523 l
stroke
grestore
0 setlinecap
0.000 setgray
gsave
/o {
gsave
newpath
translate
0.8 setlinewidth
1 setlinejoin
0 setlinecap
0 0 m
-3.5 0 l

gsave
0.000 setgray
fill
grestore
stroke
grestore
} bind def
70.4031 83.2575 o
grestore
/DejaVuSans findfont
22.000 scalefont
setfont
gsave
49.403125 74.898148 translate
0.000000 rotate
0.000000 0.000000 m /one glyphshow
grestore
2 setlinecap
0.690 setgray
gsave
558 434.9 70.4 63.7 clipbox
70.403125 179.354096 m
628.403125 179.354096 l
stroke
grestore
0 setlinecap
0.000 setgray
gsave
/o {
gsave
newpath
translate
0.8 setlinewidth
1 setlinejoin
0 setlinecap
0 0 m
-3.5 0 l

gsave
0.000 setgray
fill
grestore
stroke
grestore
} bind def
70.4031 179.354 o
grestore
gsave
49.403125 170.994721 translate
0.000000 rotate
0.000000 0.000000 m /two glyphshow
grestore
2 setlinecap
0.690 setgray
gsave
558 434.9 70.4 63.7 clipbox
70.403125 275.450668 m
628.403125 275.450668 l
stroke
grestore
0 setlinecap
0.000 setgray
gsave
/o {
gsave
newpath
translate
0.8 setlinewidth
1 setlinejoin
0 setlinecap
0 0 m
-3.5 0 l

gsave
0.000 setgray
fill
grestore
stroke
grestore
} bind def
70.4031 275.451 o
grestore
gsave
49.403125 267.091293 translate
0.000000 rotate
0.000000 0.000000 m /four glyphshow
grestore
2 setlinecap
0.690 setgray
gsave
558 434.9 70.4 63.7 clipbox
70.403125 371.547241 m
628.403125 371.547241 l
stroke
grestore
0 setlinecap
0.000 setgray
gsave
/o {
gsave
newpath
translate
0.8 setlinewidth
1 setlinejoin
0 setlinecap
0 0 m
-3.5 0 l

gsave
0.000 setgray
fill
grestore
stroke
grestore
} bind def
70.4031 371.547 o
grestore
gsave
49.403125 363.187866 translate
0.000000 rotate
0.000000 0.000000 m /eight glyphshow
grestore
2 setlinecap
0.690 setgray
gsave
558 434.9 70.4 63.7 clipbox
70.403125 467.643813 m
628.403125 467.643813 l
stroke
grestore
0 setlinecap
0.000 setgray
gsave
/o {
gsave
newpath
translate
0.8 setlinewidth
1 setlinejoin
0 setlinecap
0 0 m
-3.5 0 l

gsave
0.000 setgray
fill
grestore
stroke
grestore
} bind def
70.4031 467.644 o
grestore
gsave
35.403125 459.284438 translate
0.000000 rotate
0.000000 0.000000 m /one glyphshow
13.997070 0.000000 m /six glyphshow
grestore
2 setlinecap
0.690 setgray
gsave
558 434.9 70.4 63.7 clipbox
70.403125 498.58 m
628.403125 498.58 l
stroke
grestore
0 setlinecap
0.000 setgray
gsave
/o {
gsave
newpath
translate
0.8 setlinewidth
1 setlinejoin
0 setlinecap
0 0 m
-3.5 0 l

gsave
0.000 setgray
fill
grestore
stroke
grestore
} bind def
70.4031 498.58 o
grestore
gsave
35.403125 490.220625 translate
0.000000 rotate
0.000000 0.000000 m /two glyphshow
13.997070 0.000000 m /zero glyphshow
grestore
/DejaVuSans findfont
25.000 scalefont
setfont
gsave
26.200000 226.093125 translate
90.000000 rotate
0.000000 0.000000 m /S glyphshow
15.869141 0.000000 m /p glyphshow
31.738281 0.000000 m /e glyphshow
47.119141 0.000000 m /e glyphshow
62.500000 0.000000 m /d glyphshow
78.369141 0.000000 m /u glyphshow
94.213867 0.000000 m /p glyphshow
grestore
4.000 setlinewidth
2 setlinecap
0.000 0.000 1.000 setrgbcolor
gsave
558 434.9 70.4 63.7 clipbox
95.766761 83.257523 m
213.138619 172.242894 l
330.510476 268.339466 l
447.882333 358.852544 l
565.25419 436.707627 l
603.039489 474.407987 l
stroke
grestore
1.000 setlinewidth
0 setlinecap
gsave
558 434.9 70.4 63.7 clipbox
/o {
gsave
newpath
translate
1.0 setlinewidth
1 setlinejoin
0 setlinecap
0 -7 m
1.856422 -7 3.637059 -6.262436 4.949747 -4.949747 c
6.262436 -3.637059 7 -1.856422 7 0 c
7 1.856422 6.262436 3.637059 4.949747 4.949747 c
3.637059 6.262436 1.856422 7 0 7 c
-1.856422 7 -3.637059 6.262436 -4.949747 4.949747 c
-6.262436 3.637059 -7 1.856422 -7 0 c
-7 -1.856422 -6.262436 -3.637059 -4.949747 -4.949747 c
-3.637059 -6.262436 -1.856422 -7 0 -7 c
cl

gsave
0.000 0.000 1.000 setrgbcolor
fill
grestore
stroke
grestore
} bind def
95.7668 83.2575 o
213.139 172.243 o
330.51 268.339 o
447.882 358.853 o
565.254 436.708 o
603.039 474.408 o
grestore
3.000 setlinewidth
2 setlinecap
0.000 0.502 0.000 setrgbcolor
gsave
558 434.9 70.4 63.7 clipbox
95.766761 83.257523 m
213.138619 164.747119 l
330.510476 268.339466 l
447.882333 351.039883 l
565.25419 428.910662 l
603.039489 457.768971 l
stroke
grestore
1.000 setlinewidth
0 setlinejoin
0 setlinecap
gsave
558 434.9 70.4 63.7 clipbox
/o {
gsave
newpath
translate
1.0 setlinewidth
0 setlinejoin
0 setlinecap
-3.5 -7 m
0 -3.5 l
3.5 -7 l
7 -3.5 l
3.5 0 l
7 3.5 l
3.5 7 l
0 3.5 l
-3.5 7 l
-7 3.5 l
-3.5 0 l
-7 -3.5 l
cl

gsave
0.000 0.502 0.000 setrgbcolor
fill
grestore
stroke
grestore
} bind def
95.7668 83.2575 o
213.139 164.747 o
330.51 268.339 o
447.882 351.04 o
565.254 428.911 o
603.039 457.769 o
grestore
3.000 setlinewidth
1 setlinejoin
2 setlinecap
0.529 0.808 0.922 setrgbcolor
gsave
558 434.9 70.4 63.7 clipbox
95.766761 83.257523 m
213.138619 172.242894 l
330.510476 264.642232 l
447.882333 355.001239 l
565.25419 433.419614 l
603.039489 466.774607 l
stroke
grestore
1.000 setlinewidth
0 setlinejoin
0 setlinecap
gsave
558 434.9 70.4 63.7 clipbox
/o {
gsave
newpath
translate
1.0 setlinewidth
0 setlinejoin
0 setlinecap
7 -0 m
-7 7 l
-7 -7 l
cl

gsave
0.529 0.808 0.922 setrgbcolor
fill
grestore
stroke
grestore
} bind def
95.7668 83.2575 o
213.139 172.243 o
330.51 264.642 o
447.882 355.001 o
565.254 433.42 o
603.039 466.775 o
grestore
3.000 setlinewidth
1 setlinejoin
2 setlinecap
1.000 0.000 0.000 setrgbcolor
gsave
558 434.9 70.4 63.7 clipbox
95.766761 83.257523 m
213.138619 148.417909 l
330.510476 230.866942 l
447.882333 303.585991 l
565.25419 338.427733 l
603.039489 319.600472 l
stroke
grestore
1.000 setlinewidth
0 setlinejoin
0 setlinecap
gsave
558 434.9 70.4 63.7 clipbox
/o {
gsave
newpath
translate
1.0 setlinewidth
0 setlinejoin
0 setlinecap
-7 -7 m
7 -7 l
7 7 l
-7 7 l
cl

gsave
1.000 0.000 0.000 setrgbcolor
fill
grestore
stroke
grestore
} bind def
95.7668 83.2575 o
213.139 148.418 o
330.51 230.867 o
447.882 303.586 o
565.254 338.428 o
603.039 319.6 o
grestore
3.000 setlinewidth
1 setlinejoin
2 setlinecap
0.502 0.502 0.000 setrgbcolor
gsave
558 434.9 70.4 63.7 clipbox
95.766761 83.257523 m
213.138619 164.747119 l
330.510476 256.938137 l
447.882333 342.760525 l
565.25419 406.581402 l
603.039489 426.599974 l
stroke
grestore
1.000 setlinewidth
0 setlinejoin
0 setlinecap
gsave
558 434.9 70.4 63.7 clipbox
/o {
gsave
newpath
translate
1.0 setlinewidth
0 setlinejoin
0 setlinecap
-0 -7 m
7 7 l
-7 7 l
cl

gsave
0.502 0.502 0.000 setrgbcolor
fill
grestore
stroke
grestore
} bind def
95.7668 83.2575 o
213.139 164.747 o
330.51 256.938 o
447.882 342.761 o
565.254 406.581 o
603.039 426.6 o
grestore
3.000 setlinewidth
1 setlinejoin
2 setlinecap
0.647 0.165 0.165 setrgbcolor
gsave
558 434.9 70.4 63.7 clipbox
95.766761 83.257523 m
213.138619 148.417909 l
330.510476 244.514482 l
447.882333 322.098523 l
565.25419 414.430935 l
603.039489 431.183468 l
stroke
grestore
1.000 setlinewidth
0 setlinejoin
0 setlinecap
gsave
558 434.9 70.4 63.7 clipbox
/o {
gsave
newpath
translate
1.0 setlinewidth
0 setlinejoin
0 setlinecap
-0 -9.899495 m
5.939697 0 l
0 9.899495 l
-5.939697 0 l
cl

gsave
0.647 0.165 0.165 setrgbcolor
fill
grestore
stroke
grestore
} bind def
95.7668 83.2575 o
213.139 148.418 o
330.51 244.514 o
447.882 322.099 o
565.254 414.431 o
603.039 431.183 o
grestore
1.300 setlinewidth
1 setlinejoin
[4.81 2.08] 0 setdash
0.412 setgray
gsave
558 434.9 70.4 63.7 clipbox
70.403125 83.257523 m
628.403125 83.257523 l
stroke
grestore
gsave
558 434.9 70.4 63.7 clipbox
70.403125 179.354096 m
628.403125 179.354096 l
stroke
grestore
gsave
558 434.9 70.4 63.7 clipbox
70.403125 275.450668 m
628.403125 275.450668 l
stroke
grestore
gsave
558 434.9 70.4 63.7 clipbox
70.403125 371.547241 m
628.403125 371.547241 l
stroke
grestore
gsave
558 434.9 70.4 63.7 clipbox
70.403125 467.643813 m
628.403125 467.643813 l
stroke
grestore
gsave
558 434.9 70.4 63.7 clipbox
70.403125 498.58 m
628.403125 498.58 l
stroke
grestore
2.000 setlinewidth
0 setlinejoin
2 setlinecap
[] 0 setdash
0.000 setgray
gsave
70.403125 63.7 m
70.403125 498.58 l
stroke
grestore
gsave
628.403125 63.7 m
628.403125 498.58 l
stroke
grestore
gsave
70.403125 63.7 m
628.403125 63.7 l
stroke
grestore
gsave
70.403125 498.58 m
628.403125 498.58 l
stroke
grestore
1.000 setlinewidth
0 setlinecap
0.800 setgray
gsave
74.803125 298.5352 m
369.859375 298.5352 l
372.792708 298.5352 374.259375 300.001867 374.259375 302.9352 c
374.259375 498.1727 l
374.259375 501.106033 372.792708 502.5727 369.859375 502.5727 c
74.803125 502.5727 l
71.869792 502.5727 70.403125 501.106033 70.403125 498.1727 c
70.403125 302.9352 l
70.403125 300.001867 71.869792 298.5352 74.803125 298.5352 c
cl
gsave
1.000 setgray
fill
grestore
stroke
grestore
4.000 setlinewidth
1 setlinejoin
2 setlinecap
[] 0 setdash
0.000 0.000 1.000 setrgbcolor
gsave
79.203125 484.75395 m
123.203125 484.75395 l
stroke
grestore
1.000 setlinewidth
0 setlinecap
gsave
/o {
gsave
newpath
translate
1.0 setlinewidth
1 setlinejoin
0 setlinecap
0 -7 m
1.856422 -7 3.637059 -6.262436 4.949747 -4.949747 c
6.262436 -3.637059 7 -1.856422 7 0 c
7 1.856422 6.262436 3.637059 4.949747 4.949747 c
3.637059 6.262436 1.856422 7 0 7 c
-1.856422 7 -3.637059 6.262436 -4.949747 4.949747 c
-6.262436 3.637059 -7 1.856422 -7 0 c
-7 -1.856422 -6.262436 -3.637059 -4.949747 -4.949747 c
-3.637059 -6.262436 -1.856422 -7 0 -7 c
cl

gsave
0.000 0.000 1.000 setrgbcolor
fill
grestore
stroke
grestore
} bind def
101.203 484.754 o
grestore
0.000 setgray
/DejaVuSans findfont
22.000 scalefont
setfont
gsave
140.803125 477.053950 translate
0.000000 rotate
0.000000 0.000000 m /P glyphshow
13.266602 0.000000 m /one glyphshow
27.263672 0.000000 m /underscore glyphshow
38.263672 0.000000 m /M glyphshow
57.245117 0.000000 m /P glyphshow
70.511719 0.000000 m /I glyphshow
77.000000 0.000000 m /hyphen glyphshow
84.938477 0.000000 m /B glyphshow
100.031250 0.000000 m /y glyphshow
113.050781 0.000000 m /hyphen glyphshow
120.989258 0.000000 m /C glyphshow
136.350586 0.000000 m /o glyphshow
149.810547 0.000000 m /r glyphshow
158.855469 0.000000 m /e glyphshow
grestore
3.000 setlinewidth
2 setlinecap
0.000 0.502 0.000 setrgbcolor
gsave
79.203125 451.8477 m
123.203125 451.8477 l
stroke
grestore
1.000 setlinewidth
0 setlinejoin
0 setlinecap
gsave
/o {
gsave
newpath
translate
1.0 setlinewidth
0 setlinejoin
0 setlinecap
-3.5 -7 m
0 -3.5 l
3.5 -7 l
7 -3.5 l
3.5 0 l
7 3.5 l
3.5 7 l
0 3.5 l
-3.5 7 l
-7 3.5 l
-3.5 0 l
-7 -3.5 l
cl

gsave
0.000 0.502 0.000 setrgbcolor
fill
grestore
stroke
grestore
} bind def
101.203 451.848 o
grestore
0.000 setgray
gsave
140.803125 444.147700 translate
0.000000 rotate
0.000000 0.000000 m /P glyphshow
13.266602 0.000000 m /two glyphshow
27.263672 0.000000 m /underscore glyphshow
38.263672 0.000000 m /M glyphshow
57.245117 0.000000 m /P glyphshow
70.511719 0.000000 m /I glyphshow
77.000000 0.000000 m /hyphen glyphshow
84.938477 0.000000 m /B glyphshow
100.031250 0.000000 m /y glyphshow
113.050781 0.000000 m /hyphen glyphshow
120.989258 0.000000 m /C glyphshow
136.350586 0.000000 m /o glyphshow
149.810547 0.000000 m /r glyphshow
158.855469 0.000000 m /e glyphshow
grestore
3.000 setlinewidth
1 setlinejoin
2 setlinecap
0.529 0.808 0.922 setrgbcolor
gsave
79.203125 418.94145 m
123.203125 418.94145 l
stroke
grestore
1.000 setlinewidth
0 setlinejoin
0 setlinecap
gsave
/o {
gsave
newpath
translate
1.0 setlinewidth
0 setlinejoin
0 setlinecap
7 -0 m
-7 7 l
-7 -7 l
cl

gsave
0.529 0.808 0.922 setrgbcolor
fill
grestore
stroke
grestore
} bind def
101.203 418.941 o
grestore
0.000 setgray
gsave
140.803125 411.241450 translate
0.000000 rotate
0.000000 0.000000 m /P glyphshow
13.266602 0.000000 m /four glyphshow
27.263672 0.000000 m /underscore glyphshow
38.263672 0.000000 m /M glyphshow
57.245117 0.000000 m /P glyphshow
70.511719 0.000000 m /I glyphshow
77.000000 0.000000 m /hyphen glyphshow
84.938477 0.000000 m /B glyphshow
100.031250 0.000000 m /y glyphshow
113.050781 0.000000 m /hyphen glyphshow
120.989258 0.000000 m /C glyphshow
136.350586 0.000000 m /o glyphshow
149.810547 0.000000 m /r glyphshow
158.855469 0.000000 m /e glyphshow
grestore
3.000 setlinewidth
1 setlinejoin
2 setlinecap
1.000 0.000 0.000 setrgbcolor
gsave
79.203125 386.0352 m
123.203125 386.0352 l
stroke
grestore
1.000 setlinewidth
0 setlinejoin
0 setlinecap
gsave
/o {
gsave
newpath
translate
1.0 setlinewidth
0 setlinejoin
0 setlinecap
-7 -7 m
7 -7 l
7 7 l
-7 7 l
cl

gsave
1.000 0.000 0.000 setrgbcolor
fill
grestore
stroke
grestore
} bind def
101.203 386.035 o
grestore
0.000 setgray
gsave
140.803125 378.335200 translate
0.000000 rotate
0.000000 0.000000 m /P glyphshow
13.266602 0.000000 m /one glyphshow
27.263672 0.000000 m /underscore glyphshow
38.263672 0.000000 m /O glyphshow
55.580078 0.000000 m /p glyphshow
69.544922 0.000000 m /e glyphshow
83.080078 0.000000 m /n glyphshow
97.023438 0.000000 m /M glyphshow
116.004883 0.000000 m /P glyphshow
129.271484 0.000000 m /hyphen glyphshow
137.209961 0.000000 m /B glyphshow
152.302734 0.000000 m /y glyphshow
165.322266 0.000000 m /hyphen glyphshow
173.260742 0.000000 m /C glyphshow
188.622070 0.000000 m /o glyphshow
202.082031 0.000000 m /r glyphshow
211.126953 0.000000 m /e glyphshow
grestore
3.000 setlinewidth
1 setlinejoin
2 setlinecap
0.502 0.502 0.000 setrgbcolor
gsave
79.203125 353.12895 m
123.203125 353.12895 l
stroke
grestore
1.000 setlinewidth
0 setlinejoin
0 setlinecap
gsave
/o {
gsave
newpath
translate
1.0 setlinewidth
0 setlinejoin
0 setlinecap
-0 -7 m
7 7 l
-7 7 l
cl

gsave
0.502 0.502 0.000 setrgbcolor
fill
grestore
stroke
grestore
} bind def
101.203 353.129 o
grestore
0.000 setgray
gsave
140.803125 345.428950 translate
0.000000 rotate
0.000000 0.000000 m /P glyphshow
13.266602 0.000000 m /two glyphshow
27.263672 0.000000 m /underscore glyphshow
38.263672 0.000000 m /O glyphshow
55.580078 0.000000 m /p glyphshow
69.544922 0.000000 m /e glyphshow
83.080078 0.000000 m /n glyphshow
97.023438 0.000000 m /M glyphshow
116.004883 0.000000 m /P glyphshow
129.271484 0.000000 m /hyphen glyphshow
137.209961 0.000000 m /B glyphshow
152.302734 0.000000 m /y glyphshow
165.322266 0.000000 m /hyphen glyphshow
173.260742 0.000000 m /C glyphshow
188.622070 0.000000 m /o glyphshow
202.082031 0.000000 m /r glyphshow
211.126953 0.000000 m /e glyphshow
grestore
3.000 setlinewidth
1 setlinejoin
2 setlinecap
0.647 0.165 0.165 setrgbcolor
gsave
79.203125 320.2227 m
123.203125 320.2227 l
stroke
grestore
1.000 setlinewidth
0 setlinejoin
0 setlinecap
gsave
/o {
gsave
newpath
translate
1.0 setlinewidth
0 setlinejoin
0 setlinecap
-0 -9.899495 m
5.939697 0 l
0 9.899495 l
-5.939697 0 l
cl

gsave
0.647 0.165 0.165 setrgbcolor
fill
grestore
stroke
grestore
} bind def
101.203 320.223 o
grestore
0.000 setgray
gsave
140.803125 312.522700 translate
0.000000 rotate
0.000000 0.000000 m /P glyphshow
13.266602 0.000000 m /four glyphshow
27.263672 0.000000 m /underscore glyphshow
38.263672 0.000000 m /O glyphshow
55.580078 0.000000 m /p glyphshow
69.544922 0.000000 m /e glyphshow
83.080078 0.000000 m /n glyphshow
97.023438 0.000000 m /M glyphshow
116.004883 0.000000 m /P glyphshow
129.271484 0.000000 m /hyphen glyphshow
137.209961 0.000000 m /B glyphshow
152.302734 0.000000 m /y glyphshow
165.322266 0.000000 m /hyphen glyphshow
173.260742 0.000000 m /C glyphshow
188.622070 0.000000 m /o glyphshow
202.082031 0.000000 m /r glyphshow
211.126953 0.000000 m /e glyphshow
grestore

end
showpage
