%!PS-Adobe-3.0 EPSF-3.0
%%Title: /home/doc/Work/Doutorado/thesis/thesis/matplotlib/cap6/dynamic-linear/crankshaft/consist_17810/../../../../../eps/cap6/crankshaft/parallel_region_openmp_consist_17810.eps
%%Creator: matplotlib version 3.0.3, http://matplotlib.org/
%%CreationDate: Wed Jul 15 11:05:30 2020
%%Orientation: portrait
%%BoundingBox: -23 142 635 649
%%EndComments
%%BeginProlog
/mpldict 8 dict def
mpldict begin
/m { moveto } bind def
/l { lineto } bind def
/r { rlineto } bind def
/c { curveto } bind def
/cl { closepath } bind def
/box {
m
1 index 0 r
0 exch r
neg 0 r
cl
} bind def
/clipbox {
box
clip
newpath
} bind def
%!PS-Adobe-3.0 Resource-Font
%%Title: DejaVu Sans
%%Copyright: Copyright (c) 2003 by Bitstream, Inc. All Rights Reserved. Copyright (c) 2006 by Tavmjong Bah. All Rights Reserved. DejaVu changes are in public domain 
%%Creator: Converted from TrueType to type 3 by PPR
25 dict begin
/_d{bind def}bind def
/_m{moveto}_d
/_l{lineto}_d
/_cl{closepath eofill}_d
/_c{curveto}_d
/_sc{7 -1 roll{setcachedevice}{pop pop pop pop pop pop}ifelse}_d
/_e{exec}_d
/FontName /DejaVuSans def
/PaintType 0 def
/FontMatrix[.001 0 0 .001 0 0]def
/FontBBox[-1021 -463 1793 1232]def
/FontType 3 def
/Encoding [ /space /percent /parenleft /parenright /period /zero /one /two /three /four /five /six /seven /eight /nine /D /M /N /O /P /R /T /a /b /d /e /f /g /h /i /l /m /n /o /p /r /s /u ] def
/FontInfo 10 dict dup begin
/FamilyName (DejaVu Sans) def
/FullName (DejaVu Sans) def
/Notice (Copyright (c) 2003 by Bitstream, Inc. All Rights Reserved. Copyright (c) 2006 by Tavmjong Bah. All Rights Reserved. DejaVu changes are in public domain ) def
/Weight (Book) def
/Version (Version 2.35) def
/ItalicAngle 0.0 def
/isFixedPitch false def
/UnderlinePosition -130 def
/UnderlineThickness 90 def
end readonly def
/CharStrings 39 dict dup begin
/.notdef 0 def
/space{318 0 0 0 0 0 _sc
}_d
/percent{{950 0 55 -13 895 742 _sc
727 321 _m
699 321 676 309 660 285 _c
644 261 636 227 636 184 _c
636 142 644 108 660 84 _c
676 60 699 48 727 48 _c
755 48 777 60 793 84 _c
809 108 817 142 817 184 _c
817 226 809 260 793 284 _c
777 308 755 321 727 321 _c
727 383 _m
778 383 819 365 849 329 _c
879 293 895 244 895 184 _c
895 123 879 75 849 40 _c
819 4 778 -13 727 -13 _c
}_e{675 -13 633 4 603 40 _c
573 75 558 123 558 184 _c
558 245 573 293 603 329 _c
633 365 675 383 727 383 _c
223 680 _m
195 680 173 667 157 643 _c
141 619 133 586 133 544 _c
133 500 141 467 157 443 _c
173 419 195 407 223 407 _c
251 407 274 419 290 443 _c
306 467 314 500 314 544 _c
314 586 305 619 289 643 _c
273 667 251 680 223 680 _c
664 742 _m
742 742 _l
286 -13 _l
}_e{208 -13 _l
664 742 _l
223 742 _m
274 742 315 724 346 688 _c
376 652 392 604 392 544 _c
392 482 376 434 346 398 _c
316 362 275 345 223 345 _c
171 345 130 362 100 398 _c
70 434 55 482 55 544 _c
55 604 70 652 100 688 _c
130 724 171 742 223 742 _c
_cl}_e}_d
/parenleft{390 0 86 -131 310 759 _sc
310 759 _m
266 683 234 609 213 536 _c
191 463 181 389 181 314 _c
181 238 191 164 213 91 _c
234 17 266 -56 310 -131 _c
232 -131 _l
183 -54 146 20 122 94 _c
98 168 86 241 86 314 _c
86 386 98 459 122 533 _c
146 607 182 682 232 759 _c
310 759 _l
_cl}_d
/parenright{390 0 80 -131 304 759 _sc
80 759 _m
158 759 _l
206 682 243 607 267 533 _c
291 459 304 386 304 314 _c
304 241 291 168 267 94 _c
243 20 206 -54 158 -131 _c
80 -131 _l
123 -56 155 17 177 91 _c
198 164 209 238 209 314 _c
209 389 198 463 177 536 _c
155 609 123 683 80 759 _c
_cl}_d
/period{318 0 107 0 210 124 _sc
107 124 _m
210 124 _l
210 0 _l
107 0 _l
107 124 _l
_cl}_d
/zero{636 0 66 -13 570 742 _sc
318 664 _m
267 664 229 639 203 589 _c
177 539 165 464 165 364 _c
165 264 177 189 203 139 _c
229 89 267 64 318 64 _c
369 64 407 89 433 139 _c
458 189 471 264 471 364 _c
471 464 458 539 433 589 _c
407 639 369 664 318 664 _c
318 742 _m
399 742 461 709 505 645 _c
548 580 570 486 570 364 _c
570 241 548 147 505 83 _c
461 19 399 -13 318 -13 _c
236 -13 173 19 130 83 _c
87 147 66 241 66 364 _c
66 486 87 580 130 645 _c
173 709 236 742 318 742 _c
_cl}_d
/one{636 0 110 0 544 729 _sc
124 83 _m
285 83 _l
285 639 _l
110 604 _l
110 694 _l
284 729 _l
383 729 _l
383 83 _l
544 83 _l
544 0 _l
124 0 _l
124 83 _l
_cl}_d
/two{{636 0 73 0 536 742 _sc
192 83 _m
536 83 _l
536 0 _l
73 0 _l
73 83 _l
110 121 161 173 226 239 _c
290 304 331 346 348 365 _c
380 400 402 430 414 455 _c
426 479 433 504 433 528 _c
433 566 419 598 392 622 _c
365 646 330 659 286 659 _c
255 659 222 653 188 643 _c
154 632 117 616 78 594 _c
78 694 _l
118 710 155 722 189 730 _c
223 738 255 742 284 742 _c
}_e{359 742 419 723 464 685 _c
509 647 532 597 532 534 _c
532 504 526 475 515 449 _c
504 422 484 390 454 354 _c
446 344 420 317 376 272 _c
332 227 271 164 192 83 _c
_cl}_e}_d
/three{{636 0 76 -13 556 742 _sc
406 393 _m
453 383 490 362 516 330 _c
542 298 556 258 556 212 _c
556 140 531 84 482 45 _c
432 6 362 -13 271 -13 _c
240 -13 208 -10 176 -4 _c
144 1 110 10 76 22 _c
76 117 _l
103 101 133 89 166 81 _c
198 73 232 69 268 69 _c
330 69 377 81 409 105 _c
441 129 458 165 458 212 _c
458 254 443 288 413 312 _c
383 336 341 349 287 349 _c
}_e{202 349 _l
202 430 _l
291 430 _l
339 430 376 439 402 459 _c
428 478 441 506 441 543 _c
441 580 427 609 401 629 _c
374 649 336 659 287 659 _c
260 659 231 656 200 650 _c
169 644 135 635 98 623 _c
98 711 _l
135 721 170 729 203 734 _c
235 739 266 742 296 742 _c
370 742 429 725 473 691 _c
517 657 539 611 539 553 _c
539 513 527 479 504 451 _c
481 423 448 403 406 393 _c
_cl}_e}_d
/four{636 0 49 0 580 729 _sc
378 643 _m
129 254 _l
378 254 _l
378 643 _l
352 729 _m
476 729 _l
476 254 _l
580 254 _l
580 172 _l
476 172 _l
476 0 _l
378 0 _l
378 172 _l
49 172 _l
49 267 _l
352 729 _l
_cl}_d
/five{{636 0 77 -13 549 729 _sc
108 729 _m
495 729 _l
495 646 _l
198 646 _l
198 467 _l
212 472 227 476 241 478 _c
255 480 270 482 284 482 _c
365 482 429 459 477 415 _c
525 370 549 310 549 234 _c
549 155 524 94 475 51 _c
426 8 357 -13 269 -13 _c
238 -13 207 -10 175 -6 _c
143 -1 111 6 77 17 _c
77 116 _l
106 100 136 88 168 80 _c
199 72 232 69 267 69 _c
}_e{323 69 368 83 401 113 _c
433 143 450 183 450 234 _c
450 284 433 324 401 354 _c
368 384 323 399 267 399 _c
241 399 214 396 188 390 _c
162 384 135 375 108 363 _c
108 729 _l
_cl}_e}_d
/six{{636 0 70 -13 573 742 _sc
330 404 _m
286 404 251 388 225 358 _c
199 328 186 286 186 234 _c
186 181 199 139 225 109 _c
251 79 286 64 330 64 _c
374 64 409 79 435 109 _c
461 139 474 181 474 234 _c
474 286 461 328 435 358 _c
409 388 374 404 330 404 _c
526 713 _m
526 623 _l
501 635 476 644 451 650 _c
425 656 400 659 376 659 _c
310 659 260 637 226 593 _c
}_e{192 549 172 482 168 394 _c
187 422 211 444 240 459 _c
269 474 301 482 336 482 _c
409 482 467 459 509 415 _c
551 371 573 310 573 234 _c
573 159 550 99 506 54 _c
462 9 403 -13 330 -13 _c
246 -13 181 19 137 83 _c
92 147 70 241 70 364 _c
70 479 97 571 152 639 _c
206 707 280 742 372 742 _c
396 742 421 739 447 735 _c
472 730 498 723 526 713 _c
_cl}_e}_d
/seven{636 0 82 0 551 729 _sc
82 729 _m
551 729 _l
551 687 _l
286 0 _l
183 0 _l
432 646 _l
82 646 _l
82 729 _l
_cl}_d
/eight{{636 0 68 -13 568 742 _sc
318 346 _m
271 346 234 333 207 308 _c
180 283 167 249 167 205 _c
167 161 180 126 207 101 _c
234 76 271 64 318 64 _c
364 64 401 76 428 102 _c
455 127 469 161 469 205 _c
469 249 455 283 429 308 _c
402 333 365 346 318 346 _c
219 388 _m
177 398 144 418 120 447 _c
96 476 85 511 85 553 _c
85 611 105 657 147 691 _c
188 725 245 742 318 742 _c
}_e{390 742 447 725 489 691 _c
530 657 551 611 551 553 _c
551 511 539 476 515 447 _c
491 418 459 398 417 388 _c
464 377 501 355 528 323 _c
554 291 568 251 568 205 _c
568 134 546 80 503 43 _c
459 5 398 -13 318 -13 _c
237 -13 175 5 132 43 _c
89 80 68 134 68 205 _c
68 251 81 291 108 323 _c
134 355 171 377 219 388 _c
183 544 _m
183 506 194 476 218 455 _c
}_e{242 434 275 424 318 424 _c
360 424 393 434 417 455 _c
441 476 453 506 453 544 _c
453 582 441 611 417 632 _c
393 653 360 664 318 664 _c
275 664 242 653 218 632 _c
194 611 183 582 183 544 _c
_cl}_e}_d
/nine{{636 0 63 -13 566 742 _sc
110 15 _m
110 105 _l
134 93 159 84 185 78 _c
210 72 235 69 260 69 _c
324 69 374 90 408 134 _c
442 178 462 244 468 334 _c
448 306 424 284 396 269 _c
367 254 335 247 300 247 _c
226 247 168 269 126 313 _c
84 357 63 417 63 494 _c
63 568 85 628 129 674 _c
173 719 232 742 306 742 _c
390 742 455 709 499 645 _c
543 580 566 486 566 364 _c
}_e{566 248 538 157 484 89 _c
429 21 356 -13 264 -13 _c
239 -13 214 -10 189 -6 _c
163 -2 137 5 110 15 _c
306 324 _m
350 324 385 339 411 369 _c
437 399 450 441 450 494 _c
450 546 437 588 411 618 _c
385 648 350 664 306 664 _c
262 664 227 648 201 618 _c
175 588 162 546 162 494 _c
162 441 175 399 201 369 _c
227 339 262 324 306 324 _c
_cl}_e}_d
/D{770 0 98 0 711 729 _sc
197 648 _m
197 81 _l
316 81 _l
416 81 490 103 537 149 _c
583 195 607 267 607 365 _c
607 463 583 534 537 580 _c
490 625 416 648 316 648 _c
197 648 _l
98 729 _m
301 729 _l
442 729 546 699 612 641 _c
678 582 711 490 711 365 _c
711 239 677 147 611 88 _c
545 29 441 0 301 0 _c
98 0 _l
98 729 _l
_cl}_d
/M{863 0 98 0 765 729 _sc
98 729 _m
245 729 _l
431 233 _l
618 729 _l
765 729 _l
765 0 _l
669 0 _l
669 640 _l
481 140 _l
382 140 _l
194 640 _l
194 0 _l
98 0 _l
98 729 _l
_cl}_d
/N{748 0 98 0 650 729 _sc
98 729 _m
231 729 _l
554 119 _l
554 729 _l
650 729 _l
650 0 _l
517 0 _l
194 610 _l
194 0 _l
98 0 _l
98 729 _l
_cl}_d
/O{787 0 56 -13 731 742 _sc
394 662 _m
322 662 265 635 223 582 _c
181 528 160 456 160 364 _c
160 272 181 199 223 146 _c
265 92 322 66 394 66 _c
465 66 522 92 564 146 _c
606 199 627 272 627 364 _c
627 456 606 528 564 582 _c
522 635 465 662 394 662 _c
394 742 _m
496 742 577 707 639 639 _c
700 571 731 479 731 364 _c
731 248 700 157 639 89 _c
577 21 496 -13 394 -13 _c
291 -13 209 21 148 89 _c
86 157 56 248 56 364 _c
56 479 86 571 148 639 _c
209 707 291 742 394 742 _c
_cl}_d
/P{603 0 98 0 569 729 _sc
197 648 _m
197 374 _l
321 374 _l
367 374 402 385 427 409 _c
452 433 465 467 465 511 _c
465 555 452 588 427 612 _c
402 636 367 648 321 648 _c
197 648 _l
98 729 _m
321 729 _l
402 729 464 710 506 673 _c
548 636 569 582 569 511 _c
569 439 548 384 506 348 _c
464 311 402 293 321 293 _c
197 293 _l
197 0 _l
98 0 _l
98 729 _l
_cl}_d
/R{{695 0 98 0 666 729 _sc
444 342 _m
465 334 486 319 506 296 _c
526 272 546 240 566 199 _c
666 0 _l
560 0 _l
467 187 _l
443 235 419 268 397 284 _c
374 300 343 308 304 308 _c
197 308 _l
197 0 _l
98 0 _l
98 729 _l
321 729 _l
404 729 466 711 507 677 _c
548 642 569 589 569 519 _c
569 473 558 434 537 404 _c
515 374 484 353 444 342 _c
197 648 _m
197 389 _l
321 389 _l
}_e{368 389 404 400 428 422 _c
452 444 465 476 465 519 _c
465 561 452 593 428 615 _c
404 637 368 648 321 648 _c
197 648 _l
_cl}_e}_d
/T{611 0 -2 0 614 729 _sc
-2 729 _m
614 729 _l
614 646 _l
355 646 _l
355 0 _l
256 0 _l
256 646 _l
-2 646 _l
-2 729 _l
_cl}_d
/a{{613 0 60 -13 522 560 _sc
343 275 _m
270 275 220 266 192 250 _c
164 233 150 205 150 165 _c
150 133 160 107 181 89 _c
202 70 231 61 267 61 _c
317 61 357 78 387 114 _c
417 149 432 196 432 255 _c
432 275 _l
343 275 _l
522 312 _m
522 0 _l
432 0 _l
432 83 _l
411 49 385 25 355 10 _c
325 -5 287 -13 243 -13 _c
187 -13 142 2 109 33 _c
76 64 60 106 60 159 _c
}_e{60 220 80 266 122 298 _c
163 329 224 345 306 345 _c
432 345 _l
432 354 _l
432 395 418 427 391 450 _c
364 472 326 484 277 484 _c
245 484 215 480 185 472 _c
155 464 127 453 100 439 _c
100 522 _l
132 534 164 544 195 550 _c
226 556 256 560 286 560 _c
365 560 424 539 463 498 _c
502 457 522 395 522 312 _c
_cl}_e}_d
/b{{635 0 91 -13 580 760 _sc
487 273 _m
487 339 473 390 446 428 _c
418 466 381 485 334 485 _c
286 485 249 466 222 428 _c
194 390 181 339 181 273 _c
181 207 194 155 222 117 _c
249 79 286 61 334 61 _c
381 61 418 79 446 117 _c
473 155 487 207 487 273 _c
181 464 _m
199 496 223 520 252 536 _c
281 552 316 560 356 560 _c
422 560 476 533 518 481 _c
559 428 580 359 580 273 _c
}_e{580 187 559 117 518 65 _c
476 13 422 -13 356 -13 _c
316 -13 281 -5 252 10 _c
223 25 199 49 181 82 _c
181 0 _l
91 0 _l
91 760 _l
181 760 _l
181 464 _l
_cl}_e}_d
/d{{635 0 55 -13 544 760 _sc
454 464 _m
454 760 _l
544 760 _l
544 0 _l
454 0 _l
454 82 _l
435 49 411 25 382 10 _c
353 -5 319 -13 279 -13 _c
213 -13 159 13 117 65 _c
75 117 55 187 55 273 _c
55 359 75 428 117 481 _c
159 533 213 560 279 560 _c
319 560 353 552 382 536 _c
411 520 435 496 454 464 _c
148 273 _m
148 207 161 155 188 117 _c
215 79 253 61 301 61 _c
}_e{348 61 385 79 413 117 _c
440 155 454 207 454 273 _c
454 339 440 390 413 428 _c
385 466 348 485 301 485 _c
253 485 215 466 188 428 _c
161 390 148 339 148 273 _c
_cl}_e}_d
/e{{615 0 55 -13 562 560 _sc
562 296 _m
562 252 _l
149 252 _l
153 190 171 142 205 110 _c
238 78 284 62 344 62 _c
378 62 412 66 444 74 _c
476 82 509 95 541 113 _c
541 28 _l
509 14 476 3 442 -3 _c
408 -9 373 -13 339 -13 _c
251 -13 182 12 131 62 _c
80 112 55 181 55 268 _c
55 357 79 428 127 481 _c
175 533 241 560 323 560 _c
397 560 455 536 498 489 _c
}_e{540 441 562 377 562 296 _c
472 322 _m
471 371 457 410 431 440 _c
404 469 368 484 324 484 _c
274 484 234 469 204 441 _c
174 413 156 373 152 322 _c
472 322 _l
_cl}_e}_d
/f{352 0 23 0 371 760 _sc
371 760 _m
371 685 _l
285 685 _l
253 685 230 678 218 665 _c
205 652 199 629 199 595 _c
199 547 _l
347 547 _l
347 477 _l
199 477 _l
199 0 _l
109 0 _l
109 477 _l
23 477 _l
23 547 _l
109 547 _l
109 585 _l
109 645 123 690 151 718 _c
179 746 224 760 286 760 _c
371 760 _l
_cl}_d
/g{{635 0 55 -207 544 560 _sc
454 280 _m
454 344 440 395 414 431 _c
387 467 349 485 301 485 _c
253 485 215 467 188 431 _c
161 395 148 344 148 280 _c
148 215 161 165 188 129 _c
215 93 253 75 301 75 _c
349 75 387 93 414 129 _c
440 165 454 215 454 280 _c
544 68 _m
544 -24 523 -93 482 -139 _c
440 -184 377 -207 292 -207 _c
260 -207 231 -204 203 -200 _c
175 -195 147 -188 121 -178 _c
}_e{121 -91 _l
147 -105 173 -115 199 -122 _c
225 -129 251 -133 278 -133 _c
336 -133 380 -117 410 -87 _c
439 -56 454 -10 454 52 _c
454 96 _l
435 64 411 40 382 24 _c
353 8 319 0 279 0 _c
211 0 157 25 116 76 _c
75 127 55 195 55 280 _c
55 364 75 432 116 483 _c
157 534 211 560 279 560 _c
319 560 353 552 382 536 _c
411 520 435 496 454 464 _c
454 547 _l
544 547 _l
}_e{544 68 _l
_cl}_e}_d
/h{634 0 91 0 549 760 _sc
549 330 _m
549 0 _l
459 0 _l
459 327 _l
459 379 448 417 428 443 _c
408 469 378 482 338 482 _c
289 482 251 466 223 435 _c
195 404 181 362 181 309 _c
181 0 _l
91 0 _l
91 760 _l
181 760 _l
181 462 _l
202 494 227 519 257 535 _c
286 551 320 560 358 560 _c
420 560 468 540 500 501 _c
532 462 549 405 549 330 _c
_cl}_d
/i{278 0 94 0 184 760 _sc
94 547 _m
184 547 _l
184 0 _l
94 0 _l
94 547 _l
94 760 _m
184 760 _l
184 646 _l
94 646 _l
94 760 _l
_cl}_d
/l{278 0 94 0 184 760 _sc
94 760 _m
184 760 _l
184 0 _l
94 0 _l
94 760 _l
_cl}_d
/m{{974 0 91 0 889 560 _sc
520 442 _m
542 482 569 511 600 531 _c
631 550 668 560 711 560 _c
767 560 811 540 842 500 _c
873 460 889 403 889 330 _c
889 0 _l
799 0 _l
799 327 _l
799 379 789 418 771 444 _c
752 469 724 482 686 482 _c
639 482 602 466 575 435 _c
548 404 535 362 535 309 _c
535 0 _l
445 0 _l
445 327 _l
445 379 435 418 417 444 _c
398 469 369 482 331 482 _c
}_e{285 482 248 466 221 435 _c
194 404 181 362 181 309 _c
181 0 _l
91 0 _l
91 547 _l
181 547 _l
181 462 _l
201 495 226 520 255 536 _c
283 552 317 560 357 560 _c
397 560 430 550 458 530 _c
486 510 506 480 520 442 _c
_cl}_e}_d
/n{634 0 91 0 549 560 _sc
549 330 _m
549 0 _l
459 0 _l
459 327 _l
459 379 448 417 428 443 _c
408 469 378 482 338 482 _c
289 482 251 466 223 435 _c
195 404 181 362 181 309 _c
181 0 _l
91 0 _l
91 547 _l
181 547 _l
181 462 _l
202 494 227 519 257 535 _c
286 551 320 560 358 560 _c
420 560 468 540 500 501 _c
532 462 549 405 549 330 _c
_cl}_d
/o{612 0 55 -13 557 560 _sc
306 484 _m
258 484 220 465 192 427 _c
164 389 150 338 150 273 _c
150 207 163 156 191 118 _c
219 80 257 62 306 62 _c
354 62 392 80 420 118 _c
448 156 462 207 462 273 _c
462 337 448 389 420 427 _c
392 465 354 484 306 484 _c
306 560 _m
384 560 445 534 490 484 _c
534 433 557 363 557 273 _c
557 183 534 113 490 63 _c
445 12 384 -13 306 -13 _c
227 -13 165 12 121 63 _c
77 113 55 183 55 273 _c
55 363 77 433 121 484 _c
165 534 227 560 306 560 _c
_cl}_d
/p{{635 0 91 -207 580 560 _sc
181 82 _m
181 -207 _l
91 -207 _l
91 547 _l
181 547 _l
181 464 _l
199 496 223 520 252 536 _c
281 552 316 560 356 560 _c
422 560 476 533 518 481 _c
559 428 580 359 580 273 _c
580 187 559 117 518 65 _c
476 13 422 -13 356 -13 _c
316 -13 281 -5 252 10 _c
223 25 199 49 181 82 _c
487 273 _m
487 339 473 390 446 428 _c
418 466 381 485 334 485 _c
}_e{286 485 249 466 222 428 _c
194 390 181 339 181 273 _c
181 207 194 155 222 117 _c
249 79 286 61 334 61 _c
381 61 418 79 446 117 _c
473 155 487 207 487 273 _c
_cl}_e}_d
/r{411 0 91 0 411 560 _sc
411 463 _m
401 469 390 473 378 476 _c
366 478 353 480 339 480 _c
288 480 249 463 222 430 _c
194 397 181 350 181 288 _c
181 0 _l
91 0 _l
91 547 _l
181 547 _l
181 462 _l
199 495 224 520 254 536 _c
284 552 321 560 365 560 _c
371 560 378 559 386 559 _c
393 558 401 557 411 555 _c
411 463 _l
_cl}_d
/s{{521 0 54 -13 472 560 _sc
443 531 _m
443 446 _l
417 458 391 468 364 475 _c
336 481 308 485 279 485 _c
234 485 200 478 178 464 _c
156 450 145 430 145 403 _c
145 382 153 366 169 354 _c
185 342 217 330 265 320 _c
296 313 _l
360 299 405 279 432 255 _c
458 230 472 195 472 151 _c
472 100 452 60 412 31 _c
372 1 316 -13 246 -13 _c
216 -13 186 -10 154 -5 _c
}_e{122 0 89 8 54 20 _c
54 113 _l
87 95 120 82 152 74 _c
184 65 216 61 248 61 _c
290 61 323 68 346 82 _c
368 96 380 117 380 144 _c
380 168 371 187 355 200 _c
339 213 303 226 247 238 _c
216 245 _l
160 257 119 275 95 299 _c
70 323 58 356 58 399 _c
58 450 76 490 112 518 _c
148 546 200 560 268 560 _c
301 560 332 557 362 552 _c
391 547 418 540 443 531 _c
}_e{_cl}_e}_d
/u{634 0 85 -13 543 560 _sc
85 216 _m
85 547 _l
175 547 _l
175 219 _l
175 167 185 129 205 103 _c
225 77 255 64 296 64 _c
344 64 383 79 411 110 _c
439 141 453 183 453 237 _c
453 547 _l
543 547 _l
543 0 _l
453 0 _l
453 84 _l
431 50 405 26 377 10 _c
348 -5 315 -13 277 -13 _c
214 -13 166 6 134 45 _c
101 83 85 140 85 216 _c
311 560 _m
311 560 _l
_cl}_d
end readonly def

/BuildGlyph
 {exch begin
 CharStrings exch
 2 copy known not{pop /.notdef}if
 true 3 1 roll get exec
 end}_d

/BuildChar {
 1 index /Encoding get exch get
 1 index /BuildGlyph get exec
}_d

FontName currentdict end definefont pop
end
%%EndProlog
mpldict begin
-23.239 142.329 translate
658.478 507.342 0 0 clipbox
gsave
0 0 m
658.478125 0 l
658.478125 507.3425 l
0 507.3425 l
cl
1.000 setgray
fill
grestore
gsave
80.559375 61.7625 m
638.559375 61.7625 l
638.559375 496.6425 l
80.559375 496.6425 l
cl
1.000 setgray
fill
grestore
0.800 setlinewidth
1 setlinejoin
2 setlinecap
[] 0 setdash
0.690 setgray
gsave
558 434.9 80.56 61.76 clipbox
80.559375 61.7625 m
80.559375 496.6425 l
stroke
grestore
0 setlinecap
0.000 setgray
gsave
/o {
gsave
newpath
translate
0.8 setlinewidth
1 setlinejoin
0 setlinecap
0 0 m
0 -3.5 l

gsave
0.000 setgray
fill
grestore
stroke
grestore
} bind def
80.5594 61.7625 o
grestore
/DejaVuSans findfont
20.000 scalefont
setfont
gsave
74.200000 39.559375 translate
0.000000 rotate
0.000000 0.000000 m /one glyphshow
grestore
2 setlinecap
0.690 setgray
gsave
558 434.9 80.56 61.76 clipbox
179.427947 61.7625 m
179.427947 496.6425 l
stroke
grestore
0 setlinecap
0.000 setgray
gsave
/o {
gsave
newpath
translate
0.8 setlinewidth
1 setlinejoin
0 setlinecap
0 0 m
0 -3.5 l

gsave
0.000 setgray
fill
grestore
stroke
grestore
} bind def
179.428 61.7625 o
grestore
gsave
173.068572 39.559375 translate
0.000000 rotate
0.000000 0.000000 m /two glyphshow
grestore
2 setlinecap
0.690 setgray
gsave
558 434.9 80.56 61.76 clipbox
278.296518 61.7625 m
278.296518 496.6425 l
stroke
grestore
0 setlinecap
0.000 setgray
gsave
/o {
gsave
newpath
translate
0.8 setlinewidth
1 setlinejoin
0 setlinecap
0 0 m
0 -3.5 l

gsave
0.000 setgray
fill
grestore
stroke
grestore
} bind def
278.297 61.7625 o
grestore
gsave
271.937143 39.559375 translate
0.000000 rotate
0.000000 0.000000 m /four glyphshow
grestore
2 setlinecap
0.690 setgray
gsave
558 434.9 80.56 61.76 clipbox
377.16509 61.7625 m
377.16509 496.6425 l
stroke
grestore
0 setlinecap
0.000 setgray
gsave
/o {
gsave
newpath
translate
0.8 setlinewidth
1 setlinejoin
0 setlinecap
0 0 m
0 -3.5 l

gsave
0.000 setgray
fill
grestore
stroke
grestore
} bind def
377.165 61.7625 o
grestore
gsave
370.805715 39.559375 translate
0.000000 rotate
0.000000 0.000000 m /eight glyphshow
grestore
2 setlinecap
0.690 setgray
gsave
558 434.9 80.56 61.76 clipbox
476.033662 61.7625 m
476.033662 496.6425 l
stroke
grestore
0 setlinecap
0.000 setgray
gsave
/o {
gsave
newpath
translate
0.8 setlinewidth
1 setlinejoin
0 setlinecap
0 0 m
0 -3.5 l

gsave
0.000 setgray
fill
grestore
stroke
grestore
} bind def
476.034 61.7625 o
grestore
gsave
463.314912 39.559375 translate
0.000000 rotate
0.000000 0.000000 m /one glyphshow
12.724609 0.000000 m /six glyphshow
grestore
2 setlinecap
0.690 setgray
gsave
558 434.9 80.56 61.76 clipbox
507.862232 61.7625 m
507.862232 496.6425 l
stroke
grestore
0 setlinecap
0.000 setgray
gsave
/o {
gsave
newpath
translate
0.8 setlinewidth
1 setlinejoin
0 setlinecap
0 0 m
0 -3.5 l

gsave
0.000 setgray
fill
grestore
stroke
grestore
} bind def
507.862 61.7625 o
grestore
gsave
495.143482 39.559375 translate
0.000000 rotate
0.000000 0.000000 m /two glyphshow
12.724609 0.000000 m /zero glyphshow
grestore
2 setlinecap
0.690 setgray
gsave
558 434.9 80.56 61.76 clipbox
606.730804 61.7625 m
606.730804 496.6425 l
stroke
grestore
0 setlinecap
0.000 setgray
gsave
/o {
gsave
newpath
translate
0.8 setlinewidth
1 setlinejoin
0 setlinecap
0 0 m
0 -3.5 l

gsave
0.000 setgray
fill
grestore
stroke
grestore
} bind def
606.731 61.7625 o
grestore
gsave
594.012054 39.559375 translate
0.000000 rotate
0.000000 0.000000 m /four glyphshow
12.724609 0.000000 m /zero glyphshow
grestore
2 setlinecap
0.690 setgray
gsave
558 434.9 80.56 61.76 clipbox
638.559375 61.7625 m
638.559375 496.6425 l
stroke
grestore
0 setlinecap
0.000 setgray
gsave
/o {
gsave
newpath
translate
0.8 setlinewidth
1 setlinejoin
0 setlinecap
0 0 m
0 -3.5 l

gsave
0.000 setgray
fill
grestore
stroke
grestore
} bind def
638.559 61.7625 o
grestore
gsave
625.840625 39.559375 translate
0.000000 rotate
0.000000 0.000000 m /five glyphshow
12.724609 0.000000 m /zero glyphshow
grestore
/DejaVuSans findfont
25.000 scalefont
setfont
gsave
254.864063 12.403125 translate
0.000000 rotate
0.000000 0.000000 m /N glyphshow
18.701172 0.000000 m /u glyphshow
34.545898 0.000000 m /m glyphshow
58.898926 0.000000 m /b glyphshow
74.768066 0.000000 m /e glyphshow
90.148926 0.000000 m /r glyphshow
100.427246 0.000000 m /space glyphshow
108.374023 0.000000 m /T glyphshow
123.645020 0.000000 m /h glyphshow
139.489746 0.000000 m /r glyphshow
149.768066 0.000000 m /e glyphshow
165.148926 0.000000 m /a glyphshow
180.468750 0.000000 m /d glyphshow
196.337891 0.000000 m /s glyphshow
grestore
2 setlinecap
0.690 setgray
gsave
558 434.9 80.56 61.76 clipbox
80.559375 61.576267 m
638.559375 61.576267 l
stroke
grestore
0 setlinecap
0.000 setgray
gsave
/o {
gsave
newpath
translate
0.8 setlinewidth
1 setlinejoin
0 setlinecap
0 0 m
-3.5 0 l

gsave
0.000 setgray
fill
grestore
stroke
grestore
} bind def
80.5594 61.5763 o
grestore
/DejaVuSans findfont
20.000 scalefont
setfont
gsave
48.121875 53.974705 translate
0.000000 rotate
0.000000 0.000000 m /eight glyphshow
12.724609 0.000000 m /four glyphshow
grestore
2 setlinecap
0.690 setgray
gsave
558 434.9 80.56 61.76 clipbox
80.559375 114.785615 m
638.559375 114.785615 l
stroke
grestore
0 setlinecap
0.000 setgray
gsave
/o {
gsave
newpath
translate
0.8 setlinewidth
1 setlinejoin
0 setlinecap
0 0 m
-3.5 0 l

gsave
0.000 setgray
fill
grestore
stroke
grestore
} bind def
80.5594 114.786 o
grestore
gsave
48.121875 107.184053 translate
0.000000 rotate
0.000000 0.000000 m /eight glyphshow
12.724609 0.000000 m /six glyphshow
grestore
2 setlinecap
0.690 setgray
gsave
558 434.9 80.56 61.76 clipbox
80.559375 167.994963 m
638.559375 167.994963 l
stroke
grestore
0 setlinecap
0.000 setgray
gsave
/o {
gsave
newpath
translate
0.8 setlinewidth
1 setlinejoin
0 setlinecap
0 0 m
-3.5 0 l

gsave
0.000 setgray
fill
grestore
stroke
grestore
} bind def
80.5594 167.995 o
grestore
gsave
48.121875 160.393400 translate
0.000000 rotate
0.000000 0.000000 m /eight glyphshow
12.724609 0.000000 m /eight glyphshow
grestore
2 setlinecap
0.690 setgray
gsave
558 434.9 80.56 61.76 clipbox
80.559375 221.204311 m
638.559375 221.204311 l
stroke
grestore
0 setlinecap
0.000 setgray
gsave
/o {
gsave
newpath
translate
0.8 setlinewidth
1 setlinejoin
0 setlinecap
0 0 m
-3.5 0 l

gsave
0.000 setgray
fill
grestore
stroke
grestore
} bind def
80.5594 221.204 o
grestore
gsave
48.121875 213.602748 translate
0.000000 rotate
0.000000 0.000000 m /nine glyphshow
12.724609 0.000000 m /zero glyphshow
grestore
2 setlinecap
0.690 setgray
gsave
558 434.9 80.56 61.76 clipbox
80.559375 274.413659 m
638.559375 274.413659 l
stroke
grestore
0 setlinecap
0.000 setgray
gsave
/o {
gsave
newpath
translate
0.8 setlinewidth
1 setlinejoin
0 setlinecap
0 0 m
-3.5 0 l

gsave
0.000 setgray
fill
grestore
stroke
grestore
} bind def
80.5594 274.414 o
grestore
gsave
48.121875 266.812096 translate
0.000000 rotate
0.000000 0.000000 m /nine glyphshow
12.724609 0.000000 m /two glyphshow
grestore
2 setlinecap
0.690 setgray
gsave
558 434.9 80.56 61.76 clipbox
80.559375 327.623007 m
638.559375 327.623007 l
stroke
grestore
0 setlinecap
0.000 setgray
gsave
/o {
gsave
newpath
translate
0.8 setlinewidth
1 setlinejoin
0 setlinecap
0 0 m
-3.5 0 l

gsave
0.000 setgray
fill
grestore
stroke
grestore
} bind def
80.5594 327.623 o
grestore
gsave
48.121875 320.021444 translate
0.000000 rotate
0.000000 0.000000 m /nine glyphshow
12.724609 0.000000 m /four glyphshow
grestore
2 setlinecap
0.690 setgray
gsave
558 434.9 80.56 61.76 clipbox
80.559375 380.832354 m
638.559375 380.832354 l
stroke
grestore
0 setlinecap
0.000 setgray
gsave
/o {
gsave
newpath
translate
0.8 setlinewidth
1 setlinejoin
0 setlinecap
0 0 m
-3.5 0 l

gsave
0.000 setgray
fill
grestore
stroke
grestore
} bind def
80.5594 380.832 o
grestore
gsave
48.121875 373.230792 translate
0.000000 rotate
0.000000 0.000000 m /nine glyphshow
12.724609 0.000000 m /six glyphshow
grestore
2 setlinecap
0.690 setgray
gsave
558 434.9 80.56 61.76 clipbox
80.559375 434.041702 m
638.559375 434.041702 l
stroke
grestore
0 setlinecap
0.000 setgray
gsave
/o {
gsave
newpath
translate
0.8 setlinewidth
1 setlinejoin
0 setlinecap
0 0 m
-3.5 0 l

gsave
0.000 setgray
fill
grestore
stroke
grestore
} bind def
80.5594 434.042 o
grestore
gsave
48.121875 426.440140 translate
0.000000 rotate
0.000000 0.000000 m /nine glyphshow
12.724609 0.000000 m /eight glyphshow
grestore
2 setlinecap
0.690 setgray
gsave
558 434.9 80.56 61.76 clipbox
80.559375 487.25105 m
638.559375 487.25105 l
stroke
grestore
0 setlinecap
0.000 setgray
gsave
/o {
gsave
newpath
translate
0.8 setlinewidth
1 setlinejoin
0 setlinecap
0 0 m
-3.5 0 l

gsave
0.000 setgray
fill
grestore
stroke
grestore
} bind def
80.5594 487.251 o
grestore
gsave
35.403125 479.649488 translate
0.000000 rotate
0.000000 0.000000 m /one glyphshow
12.724609 0.000000 m /zero glyphshow
25.449219 0.000000 m /zero glyphshow
grestore
/DejaVuSans findfont
25.000 scalefont
setfont
gsave
26.200000 104.468125 translate
90.000000 rotate
0.000000 0.000000 m /P glyphshow
15.060059 0.000000 m /a glyphshow
30.379883 0.000000 m /r glyphshow
40.658203 0.000000 m /a glyphshow
55.978027 0.000000 m /l glyphshow
62.923828 0.000000 m /l glyphshow
69.869629 0.000000 m /e glyphshow
85.250488 0.000000 m /l glyphshow
92.196289 0.000000 m /space glyphshow
100.143066 0.000000 m /R glyphshow
117.498047 0.000000 m /e glyphshow
132.878906 0.000000 m /g glyphshow
148.748047 0.000000 m /i glyphshow
155.693848 0.000000 m /o glyphshow
170.989258 0.000000 m /n glyphshow
186.833984 0.000000 m /space glyphshow
194.780762 0.000000 m /O glyphshow
214.458496 0.000000 m /p glyphshow
230.327637 0.000000 m /e glyphshow
245.708496 0.000000 m /n glyphshow
261.553223 0.000000 m /M glyphshow
283.123047 0.000000 m /P glyphshow
298.198730 0.000000 m /space glyphshow
306.145508 0.000000 m /parenleft glyphshow
315.898926 0.000000 m /percent glyphshow
339.653809 0.000000 m /parenright glyphshow
grestore
3.000 setlinewidth
2 setlinecap
0.122 0.467 0.706 setrgbcolor
gsave
558 434.9 80.56 61.76 clipbox
80.559375 459.848236 m
179.427947 443.885432 l
278.296518 405.840748 l
377.16509 341.98953 l
476.033662 289.046229 l
507.862232 260.579228 l
606.730804 184.489861 l
stroke
grestore
1.000 setlinewidth
0 setlinecap
gsave
558 434.9 80.56 61.76 clipbox
/o {
gsave
newpath
translate
1.0 setlinewidth
1 setlinejoin
0 setlinecap
0 -8 m
2.121625 -8 4.156639 -7.15707 5.656854 -5.656854 c
7.15707 -4.156639 8 -2.121625 8 0 c
8 2.121625 7.15707 4.156639 5.656854 5.656854 c
4.156639 7.15707 2.121625 8 0 8 c
-2.121625 8 -4.156639 7.15707 -5.656854 5.656854 c
-7.15707 4.156639 -8 2.121625 -8 0 c
-8 -2.121625 -7.15707 -4.156639 -5.656854 -5.656854 c
-4.156639 -7.15707 -2.121625 -8 0 -8 c
cl

gsave
0.122 0.467 0.706 setrgbcolor
fill
grestore
stroke
grestore
} bind def
80.5594 459.848 o
179.428 443.885 o
278.297 405.841 o
377.165 341.99 o
476.034 289.046 o
507.862 260.579 o
606.731 184.49 o
grestore
3.000 setlinewidth
2 setlinecap
1.000 0.498 0.055 setrgbcolor
gsave
558 434.9 80.56 61.76 clipbox
80.559375 462.242657 m
179.427947 438.29845 l
278.296518 390.410037 l
377.16509 306.339267 l
476.033662 170.921477 l
507.862232 145.647037 l
606.730804 81.529773 l
stroke
grestore
1.000 setlinewidth
0 setlinecap
gsave
558 434.9 80.56 61.76 clipbox
/o {
gsave
newpath
translate
1.0 setlinewidth
1 setlinejoin
0 setlinecap
0 -8 m
2.121625 -8 4.156639 -7.15707 5.656854 -5.656854 c
7.15707 -4.156639 8 -2.121625 8 0 c
8 2.121625 7.15707 4.156639 5.656854 5.656854 c
4.156639 7.15707 2.121625 8 0 8 c
-2.121625 8 -4.156639 7.15707 -5.656854 5.656854 c
-7.15707 4.156639 -8 2.121625 -8 0 c
-8 -2.121625 -7.15707 -4.156639 -5.656854 -5.656854 c
-4.156639 -7.15707 -2.121625 -8 0 -8 c
cl

gsave
1.000 0.498 0.055 setrgbcolor
fill
grestore
stroke
grestore
} bind def
80.5594 462.243 o
179.428 438.298 o
278.297 390.41 o
377.165 306.339 o
476.034 170.921 o
507.862 145.647 o
606.731 81.5298 o
grestore
3.000 setlinewidth
2 setlinecap
0.173 0.627 0.173 setrgbcolor
gsave
558 434.9 80.56 61.76 clipbox
80.559375 476.875227 m
179.427947 466.765451 l
278.296518 447.876133 l
377.16509 412.757963 l
476.033662 352.897447 l
507.862232 336.402549 l
606.730804 313.522529 l
stroke
grestore
1.000 setlinewidth
0 setlinecap
gsave
558 434.9 80.56 61.76 clipbox
/o {
gsave
newpath
translate
1.0 setlinewidth
1 setlinejoin
0 setlinecap
0 -8 m
2.121625 -8 4.156639 -7.15707 5.656854 -5.656854 c
7.15707 -4.156639 8 -2.121625 8 0 c
8 2.121625 7.15707 4.156639 5.656854 5.656854 c
4.156639 7.15707 2.121625 8 0 8 c
-2.121625 8 -4.156639 7.15707 -5.656854 5.656854 c
-7.15707 4.156639 -8 2.121625 -8 0 c
-8 -2.121625 -7.15707 -4.156639 -5.656854 -5.656854 c
-4.156639 -7.15707 -2.121625 -8 0 -8 c
cl

gsave
0.173 0.627 0.173 setrgbcolor
fill
grestore
stroke
grestore
} bind def
80.5594 476.875 o
179.428 466.765 o
278.297 447.876 o
377.165 412.758 o
476.034 352.897 o
507.862 336.403 o
606.731 313.523 o
grestore
2.000 setlinewidth
0 setlinejoin
2 setlinecap
[] 0 setdash
0.000 setgray
gsave
80.559375 61.7625 m
80.559375 496.6425 l
stroke
grestore
gsave
638.559375 61.7625 m
638.559375 496.6425 l
stroke
grestore
gsave
80.559375 61.7625 m
638.559375 61.7625 l
stroke
grestore
gsave
80.559375 496.6425 m
638.559375 496.6425 l
stroke
grestore
/DejaVuSans findfont
22.000 scalefont
setfont
gsave
345.665090 351.989530 translate
0.000000 rotate
0.000000 0.000000 m /nine glyphshow
13.997070 0.000000 m /four glyphshow
27.994141 0.000000 m /period glyphshow
34.987305 0.000000 m /five glyphshow
48.984375 0.000000 m /four glyphshow
grestore
gsave
444.533662 299.046229 translate
0.000000 rotate
0.000000 0.000000 m /nine glyphshow
13.997070 0.000000 m /two glyphshow
27.994141 0.000000 m /period glyphshow
34.987305 0.000000 m /five glyphshow
48.984375 0.000000 m /five glyphshow
grestore
gsave
476.362232 270.579228 translate
0.000000 rotate
0.000000 0.000000 m /nine glyphshow
13.997070 0.000000 m /one glyphshow
27.994141 0.000000 m /period glyphshow
34.987305 0.000000 m /four glyphshow
48.984375 0.000000 m /eight glyphshow
grestore
gsave
575.230804 194.489861 translate
0.000000 rotate
0.000000 0.000000 m /eight glyphshow
13.997070 0.000000 m /eight glyphshow
27.994141 0.000000 m /period glyphshow
34.987305 0.000000 m /six glyphshow
48.984375 0.000000 m /two glyphshow
grestore
gsave
345.665090 316.339267 translate
0.000000 rotate
0.000000 0.000000 m /nine glyphshow
13.997070 0.000000 m /three glyphshow
27.994141 0.000000 m /period glyphshow
34.987305 0.000000 m /two glyphshow
48.984375 0.000000 m /zero glyphshow
grestore
gsave
444.533662 180.921477 translate
0.000000 rotate
0.000000 0.000000 m /eight glyphshow
13.997070 0.000000 m /eight glyphshow
27.994141 0.000000 m /period glyphshow
34.987305 0.000000 m /one glyphshow
48.984375 0.000000 m /one glyphshow
grestore
gsave
476.362232 155.647037 translate
0.000000 rotate
0.000000 0.000000 m /eight glyphshow
13.997070 0.000000 m /seven glyphshow
27.994141 0.000000 m /period glyphshow
34.987305 0.000000 m /one glyphshow
48.984375 0.000000 m /six glyphshow
grestore
gsave
575.230804 91.529773 translate
0.000000 rotate
0.000000 0.000000 m /eight glyphshow
13.997070 0.000000 m /four glyphshow
27.994141 0.000000 m /period glyphshow
34.987305 0.000000 m /seven glyphshow
48.984375 0.000000 m /five glyphshow
grestore
gsave
345.665090 422.757963 translate
0.000000 rotate
0.000000 0.000000 m /nine glyphshow
13.997070 0.000000 m /seven glyphshow
27.994141 0.000000 m /period glyphshow
34.987305 0.000000 m /two glyphshow
48.984375 0.000000 m /zero glyphshow
grestore
gsave
444.533662 362.897447 translate
0.000000 rotate
0.000000 0.000000 m /nine glyphshow
13.997070 0.000000 m /four glyphshow
27.994141 0.000000 m /period glyphshow
34.987305 0.000000 m /nine glyphshow
48.984375 0.000000 m /five glyphshow
grestore
gsave
476.362232 346.402549 translate
0.000000 rotate
0.000000 0.000000 m /nine glyphshow
13.997070 0.000000 m /four glyphshow
27.994141 0.000000 m /period glyphshow
34.987305 0.000000 m /three glyphshow
48.984375 0.000000 m /three glyphshow
grestore
gsave
575.230804 323.522529 translate
0.000000 rotate
0.000000 0.000000 m /nine glyphshow
13.997070 0.000000 m /three glyphshow
27.994141 0.000000 m /period glyphshow
34.987305 0.000000 m /four glyphshow
48.984375 0.000000 m /seven glyphshow
grestore
1.000 setlinewidth
0 setlinecap
0.800 setgray
gsave
95.959375 72.7625 m
332.359375 72.7625 l
335.292708 72.7625 336.759375 74.229167 336.759375 77.1625 c
336.759375 171.853125 l
336.759375 174.786458 335.292708 176.253125 332.359375 176.253125 c
95.959375 176.253125 l
93.026042 176.253125 91.559375 174.786458 91.559375 171.853125 c
91.559375 77.1625 l
91.559375 74.229167 93.026042 72.7625 95.959375 72.7625 c
cl
gsave
1.000 setgray
fill
grestore
stroke
grestore
3.000 setlinewidth
1 setlinejoin
2 setlinecap
[] 0 setdash
0.122 0.467 0.706 setrgbcolor
gsave
100.359375 158.434375 m
144.359375 158.434375 l
stroke
grestore
1.000 setlinewidth
0 setlinecap
gsave
/o {
gsave
newpath
translate
1.0 setlinewidth
1 setlinejoin
0 setlinecap
0 -8 m
2.121625 -8 4.156639 -7.15707 5.656854 -5.656854 c
7.15707 -4.156639 8 -2.121625 8 0 c
8 2.121625 7.15707 4.156639 5.656854 5.656854 c
4.156639 7.15707 2.121625 8 0 8 c
-2.121625 8 -4.156639 7.15707 -5.656854 5.656854 c
-7.15707 4.156639 -8 2.121625 -8 0 c
-8 -2.121625 -7.15707 -4.156639 -5.656854 -5.656854 c
-4.156639 -7.15707 -2.121625 -8 0 -8 c
cl

gsave
0.122 0.467 0.706 setrgbcolor
fill
grestore
stroke
grestore
} bind def
122.359 158.434 o
grestore
0.000 setgray
gsave
161.959375 150.734375 translate
0.000000 rotate
/DejaVuSans findfont
22.0 scalefont
setfont
0.000000 0.281250 moveto
/space glyphshow

6.993164 0.281250 moveto
/space glyphshow

13.986328 0.281250 moveto
/space glyphshow

20.979492 0.281250 moveto
/space glyphshow

27.972656 0.281250 moveto
/space glyphshow

34.965820 0.281250 moveto
/six glyphshow

48.962891 0.281250 moveto
/five glyphshow

66.531810 0.281250 moveto
/four glyphshow

80.528880 0.281250 moveto
/four glyphshow

94.525950 0.281250 moveto
/two glyphshow

108.523021 0.281250 moveto
/space glyphshow

115.516185 0.281250 moveto
/D glyphshow

132.456614 0.281250 moveto
/o glyphshow

145.916575 0.281250 moveto
/f glyphshow

153.661693 0.281250 moveto
/s glyphshow


grestore
3.000 setlinewidth
2 setlinecap
1.000 0.498 0.055 setrgbcolor
gsave
100.359375 126.1375 m
144.359375 126.1375 l
stroke
grestore
1.000 setlinewidth
0 setlinecap
gsave
/o {
gsave
newpath
translate
1.0 setlinewidth
1 setlinejoin
0 setlinecap
0 -8 m
2.121625 -8 4.156639 -7.15707 5.656854 -5.656854 c
7.15707 -4.156639 8 -2.121625 8 0 c
8 2.121625 7.15707 4.156639 5.656854 5.656854 c
4.156639 7.15707 2.121625 8 0 8 c
-2.121625 8 -4.156639 7.15707 -5.656854 5.656854 c
-7.15707 4.156639 -8 2.121625 -8 0 c
-8 -2.121625 -7.15707 -4.156639 -5.656854 -5.656854 c
-4.156639 -7.15707 -2.121625 -8 0 -8 c
cl

gsave
1.000 0.498 0.055 setrgbcolor
fill
grestore
stroke
grestore
} bind def
122.359 126.138 o
grestore
0.000 setgray
gsave
161.959375 118.437500 translate
0.000000 rotate
/DejaVuSans findfont
22.0 scalefont
setfont
0.000000 0.281250 moveto
/space glyphshow

6.993164 0.281250 moveto
/space glyphshow

13.986328 0.281250 moveto
/space glyphshow

20.979492 0.281250 moveto
/four glyphshow

34.976562 0.281250 moveto
/seven glyphshow

48.973633 0.281250 moveto
/four glyphshow

66.542552 0.281250 moveto
/six glyphshow

80.539622 0.281250 moveto
/seven glyphshow

94.536693 0.281250 moveto
/zero glyphshow

108.533763 0.281250 moveto
/space glyphshow

115.526927 0.281250 moveto
/D glyphshow

132.467357 0.281250 moveto
/o glyphshow

145.927318 0.281250 moveto
/f glyphshow

153.672435 0.281250 moveto
/s glyphshow


grestore
3.000 setlinewidth
2 setlinecap
0.173 0.627 0.173 setrgbcolor
gsave
100.359375 93.840625 m
144.359375 93.840625 l
stroke
grestore
1.000 setlinewidth
0 setlinecap
gsave
/o {
gsave
newpath
translate
1.0 setlinewidth
1 setlinejoin
0 setlinecap
0 -8 m
2.121625 -8 4.156639 -7.15707 5.656854 -5.656854 c
7.15707 -4.156639 8 -2.121625 8 0 c
8 2.121625 7.15707 4.156639 5.656854 5.656854 c
4.156639 7.15707 2.121625 8 0 8 c
-2.121625 8 -4.156639 7.15707 -5.656854 5.656854 c
-7.15707 4.156639 -8 2.121625 -8 0 c
-8 -2.121625 -7.15707 -4.156639 -5.656854 -5.656854 c
-4.156639 -7.15707 -2.121625 -8 0 -8 c
cl

gsave
0.173 0.627 0.173 setrgbcolor
fill
grestore
stroke
grestore
} bind def
122.359 93.8406 o
grestore
0.000 setgray
gsave
161.959375 86.140625 translate
0.000000 rotate
/DejaVuSans findfont
22.0 scalefont
setfont
0.000000 0.281250 moveto
/three glyphshow

17.568919 0.281250 moveto
/six glyphshow

31.565989 0.281250 moveto
/zero glyphshow

45.563060 0.281250 moveto
/six glyphshow

63.131979 0.281250 moveto
/six glyphshow

77.129049 0.281250 moveto
/nine glyphshow

91.126119 0.281250 moveto
/zero glyphshow

105.123190 0.281250 moveto
/space glyphshow

112.116354 0.281250 moveto
/D glyphshow

129.056783 0.281250 moveto
/o glyphshow

142.516744 0.281250 moveto
/f glyphshow

150.261862 0.281250 moveto
/s glyphshow


grestore

end
showpage
