%!PS-Adobe-3.0 EPSF-3.0
%%Title: /home/doc/Work/Doutorado/thesis/thesis/matplotlib/cap6/dynamic-linear/crankshaft/consist_17810/../../../../../eps/cap6/crankshaft/speedup_openmp_consist_17810.eps
%%Creator: matplotlib version 3.0.3, http://matplotlib.org/
%%CreationDate: Wed Jul 15 11:05:28 2020
%%Orientation: portrait
%%BoundingBox: -26 140 638 651
%%EndComments
%%BeginProlog
/mpldict 8 dict def
mpldict begin
/m { moveto } bind def
/l { lineto } bind def
/r { rlineto } bind def
/c { curveto } bind def
/cl { closepath } bind def
/box {
m
1 index 0 r
0 exch r
neg 0 r
cl
} bind def
/clipbox {
box
clip
newpath
} bind def
%!PS-Adobe-3.0 Resource-Font
%%Title: DejaVu Sans
%%Copyright: Copyright (c) 2003 by Bitstream, Inc. All Rights Reserved. Copyright (c) 2006 by Tavmjong Bah. All Rights Reserved. DejaVu changes are in public domain 
%%Creator: Converted from TrueType to type 3 by PPR
25 dict begin
/_d{bind def}bind def
/_m{moveto}_d
/_l{lineto}_d
/_cl{closepath eofill}_d
/_c{curveto}_d
/_sc{7 -1 roll{setcachedevice}{pop pop pop pop pop pop}ifelse}_d
/_e{exec}_d
/FontName /DejaVuSans def
/PaintType 0 def
/FontMatrix[.001 0 0 .001 0 0]def
/FontBBox[-1021 -463 1793 1232]def
/FontType 3 def
/Encoding [ /space /period /zero /one /two /three /four /five /six /seven /eight /nine /D /N /S /T /a /b /d /e /f /h /m /o /p /r /s /u ] def
/FontInfo 10 dict dup begin
/FamilyName (DejaVu Sans) def
/FullName (DejaVu Sans) def
/Notice (Copyright (c) 2003 by Bitstream, Inc. All Rights Reserved. Copyright (c) 2006 by Tavmjong Bah. All Rights Reserved. DejaVu changes are in public domain ) def
/Weight (Book) def
/Version (Version 2.35) def
/ItalicAngle 0.0 def
/isFixedPitch false def
/UnderlinePosition -130 def
/UnderlineThickness 90 def
end readonly def
/CharStrings 29 dict dup begin
/.notdef 0 def
/space{318 0 0 0 0 0 _sc
}_d
/period{318 0 107 0 210 124 _sc
107 124 _m
210 124 _l
210 0 _l
107 0 _l
107 124 _l
_cl}_d
/zero{636 0 66 -13 570 742 _sc
318 664 _m
267 664 229 639 203 589 _c
177 539 165 464 165 364 _c
165 264 177 189 203 139 _c
229 89 267 64 318 64 _c
369 64 407 89 433 139 _c
458 189 471 264 471 364 _c
471 464 458 539 433 589 _c
407 639 369 664 318 664 _c
318 742 _m
399 742 461 709 505 645 _c
548 580 570 486 570 364 _c
570 241 548 147 505 83 _c
461 19 399 -13 318 -13 _c
236 -13 173 19 130 83 _c
87 147 66 241 66 364 _c
66 486 87 580 130 645 _c
173 709 236 742 318 742 _c
_cl}_d
/one{636 0 110 0 544 729 _sc
124 83 _m
285 83 _l
285 639 _l
110 604 _l
110 694 _l
284 729 _l
383 729 _l
383 83 _l
544 83 _l
544 0 _l
124 0 _l
124 83 _l
_cl}_d
/two{{636 0 73 0 536 742 _sc
192 83 _m
536 83 _l
536 0 _l
73 0 _l
73 83 _l
110 121 161 173 226 239 _c
290 304 331 346 348 365 _c
380 400 402 430 414 455 _c
426 479 433 504 433 528 _c
433 566 419 598 392 622 _c
365 646 330 659 286 659 _c
255 659 222 653 188 643 _c
154 632 117 616 78 594 _c
78 694 _l
118 710 155 722 189 730 _c
223 738 255 742 284 742 _c
}_e{359 742 419 723 464 685 _c
509 647 532 597 532 534 _c
532 504 526 475 515 449 _c
504 422 484 390 454 354 _c
446 344 420 317 376 272 _c
332 227 271 164 192 83 _c
_cl}_e}_d
/three{{636 0 76 -13 556 742 _sc
406 393 _m
453 383 490 362 516 330 _c
542 298 556 258 556 212 _c
556 140 531 84 482 45 _c
432 6 362 -13 271 -13 _c
240 -13 208 -10 176 -4 _c
144 1 110 10 76 22 _c
76 117 _l
103 101 133 89 166 81 _c
198 73 232 69 268 69 _c
330 69 377 81 409 105 _c
441 129 458 165 458 212 _c
458 254 443 288 413 312 _c
383 336 341 349 287 349 _c
}_e{202 349 _l
202 430 _l
291 430 _l
339 430 376 439 402 459 _c
428 478 441 506 441 543 _c
441 580 427 609 401 629 _c
374 649 336 659 287 659 _c
260 659 231 656 200 650 _c
169 644 135 635 98 623 _c
98 711 _l
135 721 170 729 203 734 _c
235 739 266 742 296 742 _c
370 742 429 725 473 691 _c
517 657 539 611 539 553 _c
539 513 527 479 504 451 _c
481 423 448 403 406 393 _c
_cl}_e}_d
/four{636 0 49 0 580 729 _sc
378 643 _m
129 254 _l
378 254 _l
378 643 _l
352 729 _m
476 729 _l
476 254 _l
580 254 _l
580 172 _l
476 172 _l
476 0 _l
378 0 _l
378 172 _l
49 172 _l
49 267 _l
352 729 _l
_cl}_d
/five{{636 0 77 -13 549 729 _sc
108 729 _m
495 729 _l
495 646 _l
198 646 _l
198 467 _l
212 472 227 476 241 478 _c
255 480 270 482 284 482 _c
365 482 429 459 477 415 _c
525 370 549 310 549 234 _c
549 155 524 94 475 51 _c
426 8 357 -13 269 -13 _c
238 -13 207 -10 175 -6 _c
143 -1 111 6 77 17 _c
77 116 _l
106 100 136 88 168 80 _c
199 72 232 69 267 69 _c
}_e{323 69 368 83 401 113 _c
433 143 450 183 450 234 _c
450 284 433 324 401 354 _c
368 384 323 399 267 399 _c
241 399 214 396 188 390 _c
162 384 135 375 108 363 _c
108 729 _l
_cl}_e}_d
/six{{636 0 70 -13 573 742 _sc
330 404 _m
286 404 251 388 225 358 _c
199 328 186 286 186 234 _c
186 181 199 139 225 109 _c
251 79 286 64 330 64 _c
374 64 409 79 435 109 _c
461 139 474 181 474 234 _c
474 286 461 328 435 358 _c
409 388 374 404 330 404 _c
526 713 _m
526 623 _l
501 635 476 644 451 650 _c
425 656 400 659 376 659 _c
310 659 260 637 226 593 _c
}_e{192 549 172 482 168 394 _c
187 422 211 444 240 459 _c
269 474 301 482 336 482 _c
409 482 467 459 509 415 _c
551 371 573 310 573 234 _c
573 159 550 99 506 54 _c
462 9 403 -13 330 -13 _c
246 -13 181 19 137 83 _c
92 147 70 241 70 364 _c
70 479 97 571 152 639 _c
206 707 280 742 372 742 _c
396 742 421 739 447 735 _c
472 730 498 723 526 713 _c
_cl}_e}_d
/seven{636 0 82 0 551 729 _sc
82 729 _m
551 729 _l
551 687 _l
286 0 _l
183 0 _l
432 646 _l
82 646 _l
82 729 _l
_cl}_d
/eight{{636 0 68 -13 568 742 _sc
318 346 _m
271 346 234 333 207 308 _c
180 283 167 249 167 205 _c
167 161 180 126 207 101 _c
234 76 271 64 318 64 _c
364 64 401 76 428 102 _c
455 127 469 161 469 205 _c
469 249 455 283 429 308 _c
402 333 365 346 318 346 _c
219 388 _m
177 398 144 418 120 447 _c
96 476 85 511 85 553 _c
85 611 105 657 147 691 _c
188 725 245 742 318 742 _c
}_e{390 742 447 725 489 691 _c
530 657 551 611 551 553 _c
551 511 539 476 515 447 _c
491 418 459 398 417 388 _c
464 377 501 355 528 323 _c
554 291 568 251 568 205 _c
568 134 546 80 503 43 _c
459 5 398 -13 318 -13 _c
237 -13 175 5 132 43 _c
89 80 68 134 68 205 _c
68 251 81 291 108 323 _c
134 355 171 377 219 388 _c
183 544 _m
183 506 194 476 218 455 _c
}_e{242 434 275 424 318 424 _c
360 424 393 434 417 455 _c
441 476 453 506 453 544 _c
453 582 441 611 417 632 _c
393 653 360 664 318 664 _c
275 664 242 653 218 632 _c
194 611 183 582 183 544 _c
_cl}_e}_d
/nine{{636 0 63 -13 566 742 _sc
110 15 _m
110 105 _l
134 93 159 84 185 78 _c
210 72 235 69 260 69 _c
324 69 374 90 408 134 _c
442 178 462 244 468 334 _c
448 306 424 284 396 269 _c
367 254 335 247 300 247 _c
226 247 168 269 126 313 _c
84 357 63 417 63 494 _c
63 568 85 628 129 674 _c
173 719 232 742 306 742 _c
390 742 455 709 499 645 _c
543 580 566 486 566 364 _c
}_e{566 248 538 157 484 89 _c
429 21 356 -13 264 -13 _c
239 -13 214 -10 189 -6 _c
163 -2 137 5 110 15 _c
306 324 _m
350 324 385 339 411 369 _c
437 399 450 441 450 494 _c
450 546 437 588 411 618 _c
385 648 350 664 306 664 _c
262 664 227 648 201 618 _c
175 588 162 546 162 494 _c
162 441 175 399 201 369 _c
227 339 262 324 306 324 _c
_cl}_e}_d
/D{770 0 98 0 711 729 _sc
197 648 _m
197 81 _l
316 81 _l
416 81 490 103 537 149 _c
583 195 607 267 607 365 _c
607 463 583 534 537 580 _c
490 625 416 648 316 648 _c
197 648 _l
98 729 _m
301 729 _l
442 729 546 699 612 641 _c
678 582 711 490 711 365 _c
711 239 677 147 611 88 _c
545 29 441 0 301 0 _c
98 0 _l
98 729 _l
_cl}_d
/N{748 0 98 0 650 729 _sc
98 729 _m
231 729 _l
554 119 _l
554 729 _l
650 729 _l
650 0 _l
517 0 _l
194 610 _l
194 0 _l
98 0 _l
98 729 _l
_cl}_d
/S{{635 0 66 -13 579 742 _sc
535 705 _m
535 609 _l
497 627 462 640 429 649 _c
395 657 363 662 333 662 _c
279 662 237 651 208 631 _c
179 610 165 580 165 542 _c
165 510 174 485 194 469 _c
213 452 250 439 304 429 _c
364 417 _l
437 403 491 378 526 343 _c
561 307 579 260 579 201 _c
579 130 555 77 508 41 _c
460 5 391 -13 300 -13 _c
265 -13 228 -9 189 -2 _c
}_e{150 5 110 16 69 32 _c
69 134 _l
109 111 148 94 186 83 _c
224 71 262 66 300 66 _c
356 66 399 77 430 99 _c
460 121 476 152 476 194 _c
476 230 465 258 443 278 _c
421 298 385 313 335 323 _c
275 335 _l
201 349 148 372 115 404 _c
82 435 66 478 66 534 _c
66 598 88 649 134 686 _c
179 723 242 742 322 742 _c
356 742 390 739 426 733 _c
461 727 497 717 535 705 _c
}_e{_cl}_e}_d
/T{611 0 -2 0 614 729 _sc
-2 729 _m
614 729 _l
614 646 _l
355 646 _l
355 0 _l
256 0 _l
256 646 _l
-2 646 _l
-2 729 _l
_cl}_d
/a{{613 0 60 -13 522 560 _sc
343 275 _m
270 275 220 266 192 250 _c
164 233 150 205 150 165 _c
150 133 160 107 181 89 _c
202 70 231 61 267 61 _c
317 61 357 78 387 114 _c
417 149 432 196 432 255 _c
432 275 _l
343 275 _l
522 312 _m
522 0 _l
432 0 _l
432 83 _l
411 49 385 25 355 10 _c
325 -5 287 -13 243 -13 _c
187 -13 142 2 109 33 _c
76 64 60 106 60 159 _c
}_e{60 220 80 266 122 298 _c
163 329 224 345 306 345 _c
432 345 _l
432 354 _l
432 395 418 427 391 450 _c
364 472 326 484 277 484 _c
245 484 215 480 185 472 _c
155 464 127 453 100 439 _c
100 522 _l
132 534 164 544 195 550 _c
226 556 256 560 286 560 _c
365 560 424 539 463 498 _c
502 457 522 395 522 312 _c
_cl}_e}_d
/b{{635 0 91 -13 580 760 _sc
487 273 _m
487 339 473 390 446 428 _c
418 466 381 485 334 485 _c
286 485 249 466 222 428 _c
194 390 181 339 181 273 _c
181 207 194 155 222 117 _c
249 79 286 61 334 61 _c
381 61 418 79 446 117 _c
473 155 487 207 487 273 _c
181 464 _m
199 496 223 520 252 536 _c
281 552 316 560 356 560 _c
422 560 476 533 518 481 _c
559 428 580 359 580 273 _c
}_e{580 187 559 117 518 65 _c
476 13 422 -13 356 -13 _c
316 -13 281 -5 252 10 _c
223 25 199 49 181 82 _c
181 0 _l
91 0 _l
91 760 _l
181 760 _l
181 464 _l
_cl}_e}_d
/d{{635 0 55 -13 544 760 _sc
454 464 _m
454 760 _l
544 760 _l
544 0 _l
454 0 _l
454 82 _l
435 49 411 25 382 10 _c
353 -5 319 -13 279 -13 _c
213 -13 159 13 117 65 _c
75 117 55 187 55 273 _c
55 359 75 428 117 481 _c
159 533 213 560 279 560 _c
319 560 353 552 382 536 _c
411 520 435 496 454 464 _c
148 273 _m
148 207 161 155 188 117 _c
215 79 253 61 301 61 _c
}_e{348 61 385 79 413 117 _c
440 155 454 207 454 273 _c
454 339 440 390 413 428 _c
385 466 348 485 301 485 _c
253 485 215 466 188 428 _c
161 390 148 339 148 273 _c
_cl}_e}_d
/e{{615 0 55 -13 562 560 _sc
562 296 _m
562 252 _l
149 252 _l
153 190 171 142 205 110 _c
238 78 284 62 344 62 _c
378 62 412 66 444 74 _c
476 82 509 95 541 113 _c
541 28 _l
509 14 476 3 442 -3 _c
408 -9 373 -13 339 -13 _c
251 -13 182 12 131 62 _c
80 112 55 181 55 268 _c
55 357 79 428 127 481 _c
175 533 241 560 323 560 _c
397 560 455 536 498 489 _c
}_e{540 441 562 377 562 296 _c
472 322 _m
471 371 457 410 431 440 _c
404 469 368 484 324 484 _c
274 484 234 469 204 441 _c
174 413 156 373 152 322 _c
472 322 _l
_cl}_e}_d
/f{352 0 23 0 371 760 _sc
371 760 _m
371 685 _l
285 685 _l
253 685 230 678 218 665 _c
205 652 199 629 199 595 _c
199 547 _l
347 547 _l
347 477 _l
199 477 _l
199 0 _l
109 0 _l
109 477 _l
23 477 _l
23 547 _l
109 547 _l
109 585 _l
109 645 123 690 151 718 _c
179 746 224 760 286 760 _c
371 760 _l
_cl}_d
/h{634 0 91 0 549 760 _sc
549 330 _m
549 0 _l
459 0 _l
459 327 _l
459 379 448 417 428 443 _c
408 469 378 482 338 482 _c
289 482 251 466 223 435 _c
195 404 181 362 181 309 _c
181 0 _l
91 0 _l
91 760 _l
181 760 _l
181 462 _l
202 494 227 519 257 535 _c
286 551 320 560 358 560 _c
420 560 468 540 500 501 _c
532 462 549 405 549 330 _c
_cl}_d
/m{{974 0 91 0 889 560 _sc
520 442 _m
542 482 569 511 600 531 _c
631 550 668 560 711 560 _c
767 560 811 540 842 500 _c
873 460 889 403 889 330 _c
889 0 _l
799 0 _l
799 327 _l
799 379 789 418 771 444 _c
752 469 724 482 686 482 _c
639 482 602 466 575 435 _c
548 404 535 362 535 309 _c
535 0 _l
445 0 _l
445 327 _l
445 379 435 418 417 444 _c
398 469 369 482 331 482 _c
}_e{285 482 248 466 221 435 _c
194 404 181 362 181 309 _c
181 0 _l
91 0 _l
91 547 _l
181 547 _l
181 462 _l
201 495 226 520 255 536 _c
283 552 317 560 357 560 _c
397 560 430 550 458 530 _c
486 510 506 480 520 442 _c
_cl}_e}_d
/o{612 0 55 -13 557 560 _sc
306 484 _m
258 484 220 465 192 427 _c
164 389 150 338 150 273 _c
150 207 163 156 191 118 _c
219 80 257 62 306 62 _c
354 62 392 80 420 118 _c
448 156 462 207 462 273 _c
462 337 448 389 420 427 _c
392 465 354 484 306 484 _c
306 560 _m
384 560 445 534 490 484 _c
534 433 557 363 557 273 _c
557 183 534 113 490 63 _c
445 12 384 -13 306 -13 _c
227 -13 165 12 121 63 _c
77 113 55 183 55 273 _c
55 363 77 433 121 484 _c
165 534 227 560 306 560 _c
_cl}_d
/p{{635 0 91 -207 580 560 _sc
181 82 _m
181 -207 _l
91 -207 _l
91 547 _l
181 547 _l
181 464 _l
199 496 223 520 252 536 _c
281 552 316 560 356 560 _c
422 560 476 533 518 481 _c
559 428 580 359 580 273 _c
580 187 559 117 518 65 _c
476 13 422 -13 356 -13 _c
316 -13 281 -5 252 10 _c
223 25 199 49 181 82 _c
487 273 _m
487 339 473 390 446 428 _c
418 466 381 485 334 485 _c
}_e{286 485 249 466 222 428 _c
194 390 181 339 181 273 _c
181 207 194 155 222 117 _c
249 79 286 61 334 61 _c
381 61 418 79 446 117 _c
473 155 487 207 487 273 _c
_cl}_e}_d
/r{411 0 91 0 411 560 _sc
411 463 _m
401 469 390 473 378 476 _c
366 478 353 480 339 480 _c
288 480 249 463 222 430 _c
194 397 181 350 181 288 _c
181 0 _l
91 0 _l
91 547 _l
181 547 _l
181 462 _l
199 495 224 520 254 536 _c
284 552 321 560 365 560 _c
371 560 378 559 386 559 _c
393 558 401 557 411 555 _c
411 463 _l
_cl}_d
/s{{521 0 54 -13 472 560 _sc
443 531 _m
443 446 _l
417 458 391 468 364 475 _c
336 481 308 485 279 485 _c
234 485 200 478 178 464 _c
156 450 145 430 145 403 _c
145 382 153 366 169 354 _c
185 342 217 330 265 320 _c
296 313 _l
360 299 405 279 432 255 _c
458 230 472 195 472 151 _c
472 100 452 60 412 31 _c
372 1 316 -13 246 -13 _c
216 -13 186 -10 154 -5 _c
}_e{122 0 89 8 54 20 _c
54 113 _l
87 95 120 82 152 74 _c
184 65 216 61 248 61 _c
290 61 323 68 346 82 _c
368 96 380 117 380 144 _c
380 168 371 187 355 200 _c
339 213 303 226 247 238 _c
216 245 _l
160 257 119 275 95 299 _c
70 323 58 356 58 399 _c
58 450 76 490 112 518 _c
148 546 200 560 268 560 _c
301 560 332 557 362 552 _c
391 547 418 540 443 531 _c
}_e{_cl}_e}_d
/u{634 0 85 -13 543 560 _sc
85 216 _m
85 547 _l
175 547 _l
175 219 _l
175 167 185 129 205 103 _c
225 77 255 64 296 64 _c
344 64 383 79 411 110 _c
439 141 453 183 453 237 _c
453 547 _l
543 547 _l
543 0 _l
453 0 _l
453 84 _l
431 50 405 26 377 10 _c
348 -5 315 -13 277 -13 _c
214 -13 166 6 134 45 _c
101 83 85 140 85 216 _c
311 560 _m
311 560 _l
_cl}_d
end readonly def

/BuildGlyph
 {exch begin
 CharStrings exch
 2 copy known not{pop /.notdef}if
 true 3 1 roll get exec
 end}_d

/BuildChar {
 1 index /Encoding get exch get
 1 index /BuildGlyph get exec
}_d

FontName currentdict end definefont pop
end
%%EndProlog
mpldict begin
-26.419 140.278 translate
664.837 511.444 0 0 clipbox
gsave
0 0 m
664.8375 0 l
664.8375 511.444062 l
0 511.444062 l
cl
1.000 setgray
fill
grestore
gsave
86.91875 61.7625 m
644.91875 61.7625 l
644.91875 496.6425 l
86.91875 496.6425 l
cl
1.000 setgray
fill
grestore
0.800 setlinewidth
1 setlinejoin
2 setlinecap
[] 0 setdash
0.690 setgray
gsave
558 434.9 86.92 61.76 clipbox
86.91875 61.7625 m
86.91875 496.6425 l
stroke
grestore
0 setlinecap
0.000 setgray
gsave
/o {
gsave
newpath
translate
0.8 setlinewidth
1 setlinejoin
0 setlinecap
0 0 m
0 -3.5 l

gsave
0.000 setgray
fill
grestore
stroke
grestore
} bind def
86.9188 61.7625 o
grestore
/DejaVuSans findfont
20.000 scalefont
setfont
gsave
80.559375 39.559375 translate
0.000000 rotate
0.000000 0.000000 m /one glyphshow
grestore
2 setlinecap
0.690 setgray
gsave
558 434.9 86.92 61.76 clipbox
185.787322 61.7625 m
185.787322 496.6425 l
stroke
grestore
0 setlinecap
0.000 setgray
gsave
/o {
gsave
newpath
translate
0.8 setlinewidth
1 setlinejoin
0 setlinecap
0 0 m
0 -3.5 l

gsave
0.000 setgray
fill
grestore
stroke
grestore
} bind def
185.787 61.7625 o
grestore
gsave
179.427947 39.559375 translate
0.000000 rotate
0.000000 0.000000 m /two glyphshow
grestore
2 setlinecap
0.690 setgray
gsave
558 434.9 86.92 61.76 clipbox
284.655893 61.7625 m
284.655893 496.6425 l
stroke
grestore
0 setlinecap
0.000 setgray
gsave
/o {
gsave
newpath
translate
0.8 setlinewidth
1 setlinejoin
0 setlinecap
0 0 m
0 -3.5 l

gsave
0.000 setgray
fill
grestore
stroke
grestore
} bind def
284.656 61.7625 o
grestore
gsave
278.296518 39.559375 translate
0.000000 rotate
0.000000 0.000000 m /four glyphshow
grestore
2 setlinecap
0.690 setgray
gsave
558 434.9 86.92 61.76 clipbox
383.524465 61.7625 m
383.524465 496.6425 l
stroke
grestore
0 setlinecap
0.000 setgray
gsave
/o {
gsave
newpath
translate
0.8 setlinewidth
1 setlinejoin
0 setlinecap
0 0 m
0 -3.5 l

gsave
0.000 setgray
fill
grestore
stroke
grestore
} bind def
383.524 61.7625 o
grestore
gsave
377.165090 39.559375 translate
0.000000 rotate
0.000000 0.000000 m /eight glyphshow
grestore
2 setlinecap
0.690 setgray
gsave
558 434.9 86.92 61.76 clipbox
482.393037 61.7625 m
482.393037 496.6425 l
stroke
grestore
0 setlinecap
0.000 setgray
gsave
/o {
gsave
newpath
translate
0.8 setlinewidth
1 setlinejoin
0 setlinecap
0 0 m
0 -3.5 l

gsave
0.000 setgray
fill
grestore
stroke
grestore
} bind def
482.393 61.7625 o
grestore
gsave
469.674287 39.559375 translate
0.000000 rotate
0.000000 0.000000 m /one glyphshow
12.724609 0.000000 m /six glyphshow
grestore
2 setlinecap
0.690 setgray
gsave
558 434.9 86.92 61.76 clipbox
514.221607 61.7625 m
514.221607 496.6425 l
stroke
grestore
0 setlinecap
0.000 setgray
gsave
/o {
gsave
newpath
translate
0.8 setlinewidth
1 setlinejoin
0 setlinecap
0 0 m
0 -3.5 l

gsave
0.000 setgray
fill
grestore
stroke
grestore
} bind def
514.222 61.7625 o
grestore
gsave
501.502857 39.559375 translate
0.000000 rotate
0.000000 0.000000 m /two glyphshow
12.724609 0.000000 m /zero glyphshow
grestore
2 setlinecap
0.690 setgray
gsave
558 434.9 86.92 61.76 clipbox
613.090179 61.7625 m
613.090179 496.6425 l
stroke
grestore
0 setlinecap
0.000 setgray
gsave
/o {
gsave
newpath
translate
0.8 setlinewidth
1 setlinejoin
0 setlinecap
0 0 m
0 -3.5 l

gsave
0.000 setgray
fill
grestore
stroke
grestore
} bind def
613.09 61.7625 o
grestore
gsave
600.371429 39.559375 translate
0.000000 rotate
0.000000 0.000000 m /four glyphshow
12.724609 0.000000 m /zero glyphshow
grestore
2 setlinecap
0.690 setgray
gsave
558 434.9 86.92 61.76 clipbox
644.91875 61.7625 m
644.91875 496.6425 l
stroke
grestore
0 setlinecap
0.000 setgray
gsave
/o {
gsave
newpath
translate
0.8 setlinewidth
1 setlinejoin
0 setlinecap
0 0 m
0 -3.5 l

gsave
0.000 setgray
fill
grestore
stroke
grestore
} bind def
644.919 61.7625 o
grestore
gsave
632.200000 39.559375 translate
0.000000 rotate
0.000000 0.000000 m /five glyphshow
12.724609 0.000000 m /zero glyphshow
grestore
/DejaVuSans findfont
25.000 scalefont
setfont
gsave
261.223437 12.403125 translate
0.000000 rotate
0.000000 0.000000 m /N glyphshow
18.701172 0.000000 m /u glyphshow
34.545898 0.000000 m /m glyphshow
58.898926 0.000000 m /b glyphshow
74.768066 0.000000 m /e glyphshow
90.148926 0.000000 m /r glyphshow
100.427246 0.000000 m /space glyphshow
108.374023 0.000000 m /T glyphshow
123.645020 0.000000 m /h glyphshow
139.489746 0.000000 m /r glyphshow
149.768066 0.000000 m /e glyphshow
165.148926 0.000000 m /a glyphshow
180.468750 0.000000 m /d glyphshow
196.337891 0.000000 m /s glyphshow
grestore
2 setlinecap
0.690 setgray
gsave
558 434.9 86.92 61.76 clipbox
86.91875 80.733746 m
644.91875 80.733746 l
stroke
grestore
0 setlinecap
0.000 setgray
gsave
/o {
gsave
newpath
translate
0.8 setlinewidth
1 setlinejoin
0 setlinecap
0 0 m
-3.5 0 l

gsave
0.000 setgray
fill
grestore
stroke
grestore
} bind def
86.9188 80.7337 o
grestore
/DejaVuSans findfont
20.000 scalefont
setfont
gsave
67.200000 73.132184 translate
0.000000 rotate
0.000000 0.000000 m /one glyphshow
grestore
2 setlinecap
0.690 setgray
gsave
558 434.9 86.92 61.76 clipbox
86.91875 137.025989 m
644.91875 137.025989 l
stroke
grestore
0 setlinecap
0.000 setgray
gsave
/o {
gsave
newpath
translate
0.8 setlinewidth
1 setlinejoin
0 setlinecap
0 0 m
-3.5 0 l

gsave
0.000 setgray
fill
grestore
stroke
grestore
} bind def
86.9188 137.026 o
grestore
gsave
48.121875 129.424427 translate
0.000000 rotate
0.000000 0.000000 m /one glyphshow
12.724609 0.000000 m /period glyphshow
19.082031 0.000000 m /five glyphshow
grestore
2 setlinecap
0.690 setgray
gsave
558 434.9 86.92 61.76 clipbox
86.91875 162.338375 m
644.91875 162.338375 l
stroke
grestore
0 setlinecap
0.000 setgray
gsave
/o {
gsave
newpath
translate
0.8 setlinewidth
1 setlinejoin
0 setlinecap
0 0 m
-3.5 0 l

gsave
0.000 setgray
fill
grestore
stroke
grestore
} bind def
86.9188 162.338 o
grestore
gsave
48.121875 154.736812 translate
0.000000 rotate
0.000000 0.000000 m /one glyphshow
12.724609 0.000000 m /period glyphshow
19.082031 0.000000 m /eight glyphshow
grestore
2 setlinecap
0.690 setgray
gsave
558 434.9 86.92 61.76 clipbox
86.91875 176.965971 m
644.91875 176.965971 l
stroke
grestore
0 setlinecap
0.000 setgray
gsave
/o {
gsave
newpath
translate
0.8 setlinewidth
1 setlinejoin
0 setlinecap
0 0 m
-3.5 0 l

gsave
0.000 setgray
fill
grestore
stroke
grestore
} bind def
86.9188 176.966 o
grestore
gsave
67.200000 169.364408 translate
0.000000 rotate
0.000000 0.000000 m /two glyphshow
grestore
2 setlinecap
0.690 setgray
gsave
558 434.9 86.92 61.76 clipbox
86.91875 218.630617 m
644.91875 218.630617 l
stroke
grestore
0 setlinecap
0.000 setgray
gsave
/o {
gsave
newpath
translate
0.8 setlinewidth
1 setlinejoin
0 setlinecap
0 0 m
-3.5 0 l

gsave
0.000 setgray
fill
grestore
stroke
grestore
} bind def
86.9188 218.631 o
grestore
gsave
48.121875 211.029055 translate
0.000000 rotate
0.000000 0.000000 m /two glyphshow
12.724609 0.000000 m /period glyphshow
19.082031 0.000000 m /seven glyphshow
grestore
2 setlinecap
0.690 setgray
gsave
558 434.9 86.92 61.76 clipbox
86.91875 254.659531 m
644.91875 254.659531 l
stroke
grestore
0 setlinecap
0.000 setgray
gsave
/o {
gsave
newpath
translate
0.8 setlinewidth
1 setlinejoin
0 setlinecap
0 0 m
-3.5 0 l

gsave
0.000 setgray
fill
grestore
stroke
grestore
} bind def
86.9188 254.66 o
grestore
gsave
48.121875 247.057968 translate
0.000000 rotate
0.000000 0.000000 m /three glyphshow
12.724609 0.000000 m /period glyphshow
19.082031 0.000000 m /five glyphshow
grestore
2 setlinecap
0.690 setgray
gsave
558 434.9 86.92 61.76 clipbox
86.91875 273.198195 m
644.91875 273.198195 l
stroke
grestore
0 setlinecap
0.000 setgray
gsave
/o {
gsave
newpath
translate
0.8 setlinewidth
1 setlinejoin
0 setlinecap
0 0 m
-3.5 0 l

gsave
0.000 setgray
fill
grestore
stroke
grestore
} bind def
86.9188 273.198 o
grestore
gsave
67.200000 265.596632 translate
0.000000 rotate
0.000000 0.000000 m /four glyphshow
grestore
2 setlinecap
0.690 setgray
gsave
558 434.9 86.92 61.76 clipbox
86.91875 295.587657 m
644.91875 295.587657 l
stroke
grestore
0 setlinecap
0.000 setgray
gsave
/o {
gsave
newpath
translate
0.8 setlinewidth
1 setlinejoin
0 setlinecap
0 0 m
-3.5 0 l

gsave
0.000 setgray
fill
grestore
stroke
grestore
} bind def
86.9188 295.588 o
grestore
gsave
48.121875 287.986095 translate
0.000000 rotate
0.000000 0.000000 m /four glyphshow
12.724609 0.000000 m /period glyphshow
19.082031 0.000000 m /seven glyphshow
grestore
2 setlinecap
0.690 setgray
gsave
558 434.9 86.92 61.76 clipbox
86.91875 334.042772 m
644.91875 334.042772 l
stroke
grestore
0 setlinecap
0.000 setgray
gsave
/o {
gsave
newpath
translate
0.8 setlinewidth
1 setlinejoin
0 setlinecap
0 0 m
-3.5 0 l

gsave
0.000 setgray
fill
grestore
stroke
grestore
} bind def
86.9188 334.043 o
grestore
gsave
48.121875 326.441209 translate
0.000000 rotate
0.000000 0.000000 m /six glyphshow
12.724609 0.000000 m /period glyphshow
19.082031 0.000000 m /two glyphshow
grestore
2 setlinecap
0.690 setgray
gsave
558 434.9 86.92 61.76 clipbox
86.91875 346.867306 m
644.91875 346.867306 l
stroke
grestore
0 setlinecap
0.000 setgray
gsave
/o {
gsave
newpath
translate
0.8 setlinewidth
1 setlinejoin
0 setlinecap
0 0 m
-3.5 0 l

gsave
0.000 setgray
fill
grestore
stroke
grestore
} bind def
86.9188 346.867 o
grestore
gsave
48.121875 339.265744 translate
0.000000 rotate
0.000000 0.000000 m /six glyphshow
12.724609 0.000000 m /period glyphshow
19.082031 0.000000 m /eight glyphshow
grestore
2 setlinecap
0.690 setgray
gsave
558 434.9 86.92 61.76 clipbox
86.91875 369.430419 m
644.91875 369.430419 l
stroke
grestore
0 setlinecap
0.000 setgray
gsave
/o {
gsave
newpath
translate
0.8 setlinewidth
1 setlinejoin
0 setlinecap
0 0 m
-3.5 0 l

gsave
0.000 setgray
fill
grestore
stroke
grestore
} bind def
86.9188 369.43 o
grestore
gsave
67.200000 361.828857 translate
0.000000 rotate
0.000000 0.000000 m /eight glyphshow
grestore
2 setlinecap
0.690 setgray
gsave
558 434.9 86.92 61.76 clipbox
86.91875 385.78268 m
644.91875 385.78268 l
stroke
grestore
0 setlinecap
0.000 setgray
gsave
/o {
gsave
newpath
translate
0.8 setlinewidth
1 setlinejoin
0 setlinecap
0 0 m
-3.5 0 l

gsave
0.000 setgray
fill
grestore
stroke
grestore
} bind def
86.9188 385.783 o
grestore
gsave
67.200000 378.181118 translate
0.000000 rotate
0.000000 0.000000 m /nine glyphshow
grestore
2 setlinecap
0.690 setgray
gsave
558 434.9 86.92 61.76 clipbox
86.91875 426.874816 m
644.91875 426.874816 l
stroke
grestore
0 setlinecap
0.000 setgray
gsave
/o {
gsave
newpath
translate
0.8 setlinewidth
1 setlinejoin
0 setlinecap
0 0 m
-3.5 0 l

gsave
0.000 setgray
fill
grestore
stroke
grestore
} bind def
86.9188 426.875 o
grestore
gsave
35.403125 419.273253 translate
0.000000 rotate
0.000000 0.000000 m /one glyphshow
12.724609 0.000000 m /two glyphshow
25.449219 0.000000 m /period glyphshow
31.806641 0.000000 m /one glyphshow
grestore
2 setlinecap
0.690 setgray
gsave
558 434.9 86.92 61.76 clipbox
86.91875 445.126337 m
644.91875 445.126337 l
stroke
grestore
0 setlinecap
0.000 setgray
gsave
/o {
gsave
newpath
translate
0.8 setlinewidth
1 setlinejoin
0 setlinecap
0 0 m
-3.5 0 l

gsave
0.000 setgray
fill
grestore
stroke
grestore
} bind def
86.9188 445.126 o
grestore
gsave
35.403125 437.524774 translate
0.000000 rotate
0.000000 0.000000 m /one glyphshow
12.724609 0.000000 m /three glyphshow
25.449219 0.000000 m /period glyphshow
31.806641 0.000000 m /eight glyphshow
grestore
2 setlinecap
0.690 setgray
gsave
558 434.9 86.92 61.76 clipbox
86.91875 465.662643 m
644.91875 465.662643 l
stroke
grestore
0 setlinecap
0.000 setgray
gsave
/o {
gsave
newpath
translate
0.8 setlinewidth
1 setlinejoin
0 setlinecap
0 0 m
-3.5 0 l

gsave
0.000 setgray
fill
grestore
stroke
grestore
} bind def
86.9188 465.663 o
grestore
gsave
54.481250 458.061081 translate
0.000000 rotate
0.000000 0.000000 m /one glyphshow
12.724609 0.000000 m /six glyphshow
grestore
2 setlinecap
0.690 setgray
gsave
558 434.9 86.92 61.76 clipbox
86.91875 496.6425 m
644.91875 496.6425 l
stroke
grestore
0 setlinecap
0.000 setgray
gsave
/o {
gsave
newpath
translate
0.8 setlinewidth
1 setlinejoin
0 setlinecap
0 0 m
-3.5 0 l

gsave
0.000 setgray
fill
grestore
stroke
grestore
} bind def
86.9188 496.643 o
grestore
gsave
54.481250 489.040938 translate
0.000000 rotate
0.000000 0.000000 m /two glyphshow
12.724609 0.000000 m /zero glyphshow
grestore
/DejaVuSans findfont
25.000 scalefont
setfont
gsave
26.200000 224.155625 translate
90.000000 rotate
0.000000 0.000000 m /S glyphshow
15.869141 0.000000 m /p glyphshow
31.738281 0.000000 m /e glyphshow
47.119141 0.000000 m /e glyphshow
62.500000 0.000000 m /d glyphshow
78.369141 0.000000 m /u glyphshow
94.213867 0.000000 m /p glyphshow
grestore
1.500 setlinewidth
2 setlinecap
0.122 0.467 0.706 setrgbcolor
gsave
558 434.9 86.92 61.76 clipbox
86.91875 80.733746 m
185.787322 130.798198 l
284.655893 219.415121 l
383.524465 294.186364 l
482.393037 333.562742 l
514.221607 351.396587 l
613.090179 385.620613 l
stroke
grestore
1.000 setlinewidth
0 setlinecap
gsave
558 434.9 86.92 61.76 clipbox
/o {
gsave
newpath
translate
1.0 setlinewidth
1 setlinejoin
0 setlinecap
0 -7 m
1.856422 -7 3.637059 -6.262436 4.949747 -4.949747 c
6.262436 -3.637059 7 -1.856422 7 0 c
7 1.856422 6.262436 3.637059 4.949747 4.949747 c
3.637059 6.262436 1.856422 7 0 7 c
-1.856422 7 -3.637059 6.262436 -4.949747 4.949747 c
-6.262436 3.637059 -7 1.856422 -7 0 c
-7 -1.856422 -6.262436 -3.637059 -4.949747 -4.949747 c
-3.637059 -6.262436 -1.856422 -7 0 -7 c
cl

gsave
0.122 0.467 0.706 setrgbcolor
fill
grestore
stroke
grestore
} bind def
86.9188 80.7337 o
185.787 130.798 o
284.656 219.415 o
383.524 294.186 o
482.393 333.563 o
514.222 351.397 o
613.09 385.621 o
grestore
1.500 setlinewidth
2 setlinecap
1.000 0.498 0.055 setrgbcolor
gsave
558 434.9 86.92 61.76 clipbox
86.91875 80.733746 m
185.787322 159.533557 l
284.655893 255.564941 l
383.524465 342.63854 l
482.393037 418.842344 l
514.221607 431.648678 l
613.090179 443.312722 l
stroke
grestore
1.000 setlinewidth
0 setlinecap
gsave
558 434.9 86.92 61.76 clipbox
/o {
gsave
newpath
translate
1.0 setlinewidth
1 setlinejoin
0 setlinecap
0 -7 m
1.856422 -7 3.637059 -6.262436 4.949747 -4.949747 c
6.262436 -3.637059 7 -1.856422 7 0 c
7 1.856422 6.262436 3.637059 4.949747 4.949747 c
3.637059 6.262436 1.856422 7 0 7 c
-1.856422 7 -3.637059 6.262436 -4.949747 4.949747 c
-6.262436 3.637059 -7 1.856422 -7 0 c
-7 -1.856422 -6.262436 -3.637059 -4.949747 -4.949747 c
-3.637059 -6.262436 -1.856422 -7 0 -7 c
cl

gsave
1.000 0.498 0.055 setrgbcolor
fill
grestore
stroke
grestore
} bind def
86.9188 80.7337 o
185.787 159.534 o
284.656 255.565 o
383.524 342.639 o
482.393 418.842 o
514.222 431.649 o
613.09 443.313 o
grestore
1.500 setlinewidth
2 setlinecap
0.173 0.627 0.173 setrgbcolor
gsave
558 434.9 86.92 61.76 clipbox
86.91875 80.733746 m
185.787322 164.709045 l
284.655893 256.025262 l
383.524465 345.850925 l
482.393037 427.891113 l
514.221607 444.682971 l
613.090179 460.158676 l
stroke
grestore
1.000 setlinewidth
0 setlinecap
gsave
558 434.9 86.92 61.76 clipbox
/o {
gsave
newpath
translate
1.0 setlinewidth
1 setlinejoin
0 setlinecap
0 -7 m
1.856422 -7 3.637059 -6.262436 4.949747 -4.949747 c
6.262436 -3.637059 7 -1.856422 7 0 c
7 1.856422 6.262436 3.637059 4.949747 4.949747 c
3.637059 6.262436 1.856422 7 0 7 c
-1.856422 7 -3.637059 6.262436 -4.949747 4.949747 c
-6.262436 3.637059 -7 1.856422 -7 0 c
-7 -1.856422 -6.262436 -3.637059 -4.949747 -4.949747 c
-3.637059 -6.262436 -1.856422 -7 0 -7 c
cl

gsave
0.173 0.627 0.173 setrgbcolor
fill
grestore
stroke
grestore
} bind def
86.9188 80.7337 o
185.787 164.709 o
284.656 256.025 o
383.524 345.851 o
482.393 427.891 o
514.222 444.683 o
613.09 460.159 o
grestore
1.300 setlinewidth
[4.81 2.08] 0 setdash
0.412 setgray
gsave
558 434.9 86.92 61.76 clipbox
86.91875 80.733746 m
644.91875 80.733746 l
stroke
grestore
gsave
558 434.9 86.92 61.76 clipbox
86.91875 176.965971 m
644.91875 176.965971 l
stroke
grestore
gsave
558 434.9 86.92 61.76 clipbox
86.91875 273.198195 m
644.91875 273.198195 l
stroke
grestore
gsave
558 434.9 86.92 61.76 clipbox
86.91875 369.430419 m
644.91875 369.430419 l
stroke
grestore
gsave
558 434.9 86.92 61.76 clipbox
86.91875 465.662643 m
644.91875 465.662643 l
stroke
grestore
2.000 setlinewidth
0 setlinejoin
2 setlinecap
[] 0 setdash
0.000 setgray
gsave
86.91875 61.7625 m
86.91875 496.6425 l
stroke
grestore
gsave
644.91875 61.7625 m
644.91875 496.6425 l
stroke
grestore
gsave
86.91875 61.7625 m
644.91875 61.7625 l
stroke
grestore
gsave
86.91875 496.6425 m
644.91875 496.6425 l
stroke
grestore
1.000 setlinewidth
0 setlinecap
0.800 setgray
gsave
102.31875 382.151875 m
338.71875 382.151875 l
341.652083 382.151875 343.11875 383.618542 343.11875 386.551875 c
343.11875 481.2425 l
343.11875 484.175833 341.652083 485.6425 338.71875 485.6425 c
102.31875 485.6425 l
99.385417 485.6425 97.91875 484.175833 97.91875 481.2425 c
97.91875 386.551875 l
97.91875 383.618542 99.385417 382.151875 102.31875 382.151875 c
cl
gsave
1.000 setgray
fill
grestore
stroke
grestore
1.500 setlinewidth
1 setlinejoin
2 setlinecap
[] 0 setdash
0.122 0.467 0.706 setrgbcolor
gsave
106.71875 467.82375 m
150.71875 467.82375 l
stroke
grestore
1.000 setlinewidth
0 setlinecap
gsave
/o {
gsave
newpath
translate
1.0 setlinewidth
1 setlinejoin
0 setlinecap
0 -7 m
1.856422 -7 3.637059 -6.262436 4.949747 -4.949747 c
6.262436 -3.637059 7 -1.856422 7 0 c
7 1.856422 6.262436 3.637059 4.949747 4.949747 c
3.637059 6.262436 1.856422 7 0 7 c
-1.856422 7 -3.637059 6.262436 -4.949747 4.949747 c
-6.262436 3.637059 -7 1.856422 -7 0 c
-7 -1.856422 -6.262436 -3.637059 -4.949747 -4.949747 c
-3.637059 -6.262436 -1.856422 -7 0 -7 c
cl

gsave
0.122 0.467 0.706 setrgbcolor
fill
grestore
stroke
grestore
} bind def
128.719 467.824 o
grestore
0.000 setgray
gsave
168.318750 460.123750 translate
0.000000 rotate
/DejaVuSans findfont
22.0 scalefont
setfont
0.000000 0.281250 moveto
/space glyphshow

6.993164 0.281250 moveto
/space glyphshow

13.986328 0.281250 moveto
/space glyphshow

20.979492 0.281250 moveto
/space glyphshow

27.972656 0.281250 moveto
/space glyphshow

34.965820 0.281250 moveto
/six glyphshow

48.962891 0.281250 moveto
/five glyphshow

66.531810 0.281250 moveto
/four glyphshow

80.528880 0.281250 moveto
/four glyphshow

94.525950 0.281250 moveto
/two glyphshow

108.523021 0.281250 moveto
/space glyphshow

115.516185 0.281250 moveto
/D glyphshow

132.456614 0.281250 moveto
/o glyphshow

145.916575 0.281250 moveto
/f glyphshow

153.661693 0.281250 moveto
/s glyphshow


grestore
1.500 setlinewidth
2 setlinecap
1.000 0.498 0.055 setrgbcolor
gsave
106.71875 435.526875 m
150.71875 435.526875 l
stroke
grestore
1.000 setlinewidth
0 setlinecap
gsave
/o {
gsave
newpath
translate
1.0 setlinewidth
1 setlinejoin
0 setlinecap
0 -7 m
1.856422 -7 3.637059 -6.262436 4.949747 -4.949747 c
6.262436 -3.637059 7 -1.856422 7 0 c
7 1.856422 6.262436 3.637059 4.949747 4.949747 c
3.637059 6.262436 1.856422 7 0 7 c
-1.856422 7 -3.637059 6.262436 -4.949747 4.949747 c
-6.262436 3.637059 -7 1.856422 -7 0 c
-7 -1.856422 -6.262436 -3.637059 -4.949747 -4.949747 c
-3.637059 -6.262436 -1.856422 -7 0 -7 c
cl

gsave
1.000 0.498 0.055 setrgbcolor
fill
grestore
stroke
grestore
} bind def
128.719 435.527 o
grestore
0.000 setgray
gsave
168.318750 427.826875 translate
0.000000 rotate
/DejaVuSans findfont
22.0 scalefont
setfont
0.000000 0.281250 moveto
/space glyphshow

6.993164 0.281250 moveto
/space glyphshow

13.986328 0.281250 moveto
/space glyphshow

20.979492 0.281250 moveto
/four glyphshow

34.976562 0.281250 moveto
/seven glyphshow

48.973633 0.281250 moveto
/four glyphshow

66.542552 0.281250 moveto
/six glyphshow

80.539622 0.281250 moveto
/seven glyphshow

94.536693 0.281250 moveto
/zero glyphshow

108.533763 0.281250 moveto
/space glyphshow

115.526927 0.281250 moveto
/D glyphshow

132.467357 0.281250 moveto
/o glyphshow

145.927318 0.281250 moveto
/f glyphshow

153.672435 0.281250 moveto
/s glyphshow


grestore
1.500 setlinewidth
2 setlinecap
0.173 0.627 0.173 setrgbcolor
gsave
106.71875 403.23 m
150.71875 403.23 l
stroke
grestore
1.000 setlinewidth
0 setlinecap
gsave
/o {
gsave
newpath
translate
1.0 setlinewidth
1 setlinejoin
0 setlinecap
0 -7 m
1.856422 -7 3.637059 -6.262436 4.949747 -4.949747 c
6.262436 -3.637059 7 -1.856422 7 0 c
7 1.856422 6.262436 3.637059 4.949747 4.949747 c
3.637059 6.262436 1.856422 7 0 7 c
-1.856422 7 -3.637059 6.262436 -4.949747 4.949747 c
-6.262436 3.637059 -7 1.856422 -7 0 c
-7 -1.856422 -6.262436 -3.637059 -4.949747 -4.949747 c
-3.637059 -6.262436 -1.856422 -7 0 -7 c
cl

gsave
0.173 0.627 0.173 setrgbcolor
fill
grestore
stroke
grestore
} bind def
128.719 403.23 o
grestore
0.000 setgray
gsave
168.318750 395.530000 translate
0.000000 rotate
/DejaVuSans findfont
22.0 scalefont
setfont
0.000000 0.281250 moveto
/three glyphshow

17.568919 0.281250 moveto
/six glyphshow

31.565989 0.281250 moveto
/zero glyphshow

45.563060 0.281250 moveto
/six glyphshow

63.131979 0.281250 moveto
/six glyphshow

77.129049 0.281250 moveto
/nine glyphshow

91.126119 0.281250 moveto
/zero glyphshow

105.123190 0.281250 moveto
/space glyphshow

112.116354 0.281250 moveto
/D glyphshow

129.056783 0.281250 moveto
/o glyphshow

142.516744 0.281250 moveto
/f glyphshow

150.261862 0.281250 moveto
/s glyphshow


grestore

end
showpage
