%!PS-Adobe-3.0 EPSF-3.0
%%Title: /home/doc/Work/Doutorado/thesis/thesis/matplotlib/cap6/dynamic-linear/crankshaft/lumped_17810/../../../../../eps/cap6/crankshaft/speedup_mpi+openmp_lumped_17810_p2.eps
%%Creator: matplotlib version 3.0.3, http://matplotlib.org/
%%CreationDate: Mon Jun  1 19:51:07 2020
%%Orientation: portrait
%%BoundingBox: -259 62 871 729
%%EndComments
%%BeginProlog
/mpldict 9 dict def
mpldict begin
/m { moveto } bind def
/l { lineto } bind def
/r { rlineto } bind def
/c { curveto } bind def
/cl { closepath } bind def
/box {
m
1 index 0 r
0 exch r
neg 0 r
cl
} bind def
/clipbox {
box
clip
newpath
} bind def
%!PS-Adobe-3.0 Resource-Font
%%Title: DejaVu Sans Bold
%%Copyright: Copyright (c) 2003 by Bitstream, Inc. All Rights Reserved. Copyright (c) 2006 by Tavmjong Bah. All Rights Reserved. DejaVu changes are in public domain 
%%Creator: Converted from TrueType to type 3 by PPR
25 dict begin
/_d{bind def}bind def
/_m{moveto}_d
/_l{lineto}_d
/_cl{closepath eofill}_d
/_c{curveto}_d
/_sc{7 -1 roll{setcachedevice}{pop pop pop pop pop pop}ifelse}_d
/_e{exec}_d
/FontName /DejaVuSans-Bold def
/PaintType 0 def
/FontMatrix[.001 0 0 .001 0 0]def
/FontBBox[-1069 -415 1975 1174]def
/FontType 3 def
/Encoding [ /space /parenleft /parenright /I /M /N /P /R /S /T /U /a /b /d /e /f /h /k /m /n /o /p /r /s /u ] def
/FontInfo 10 dict dup begin
/FamilyName (DejaVu Sans) def
/FullName (DejaVu Sans Bold) def
/Notice (Copyright (c) 2003 by Bitstream, Inc. All Rights Reserved. Copyright (c) 2006 by Tavmjong Bah. All Rights Reserved. DejaVu changes are in public domain ) def
/Weight (Bold) def
/Version (Version 2.35) def
/ItalicAngle 0.0 def
/isFixedPitch false def
/UnderlinePosition -130 def
/UnderlineThickness 90 def
end readonly def
/CharStrings 26 dict dup begin
/.notdef 0 def
/space{348 0 0 0 0 0 _sc
}_d
/parenleft{457 0 86 -131 377 759 _sc
377 -131 _m
232 -131 _l
182 -50 145 26 121 98 _c
97 170 86 241 86 313 _c
86 384 98 456 122 529 _c
146 602 182 679 232 759 _c
377 759 _l
335 681 303 606 283 532 _c
262 458 252 386 252 314 _c
252 242 262 169 283 95 _c
303 21 335 -53 377 -131 _c
_cl}_d
/parenright{457 0 80 -131 371 759 _sc
80 -131 _m
122 -53 153 21 174 95 _c
194 169 205 242 205 314 _c
205 386 194 458 174 532 _c
153 606 122 681 80 759 _c
225 759 _l
274 679 311 602 335 529 _c
359 456 371 384 371 313 _c
371 241 359 170 335 98 _c
311 26 275 -50 225 -131 _c
80 -131 _l
_cl}_d
/I{372 0 92 0 280 729 _sc
92 729 _m
280 729 _l
280 0 _l
92 0 _l
92 729 _l
_cl}_d
/M{995 0 92 0 903 729 _sc
92 729 _m
331 729 _l
497 339 _l
664 729 _l
903 729 _l
903 0 _l
725 0 _l
725 533 _l
557 140 _l
438 140 _l
270 533 _l
270 0 _l
92 0 _l
92 729 _l
_cl}_d
/N{837 0 92 0 745 729 _sc
92 729 _m
302 729 _l
567 229 _l
567 729 _l
745 729 _l
745 0 _l
535 0 _l
270 500 _l
270 0 _l
92 0 _l
92 729 _l
_cl}_d
/P{733 0 92 0 692 729 _sc
92 729 _m
404 729 _l
496 729 567 708 617 667 _c
667 625 692 567 692 491 _c
692 414 667 355 617 314 _c
567 273 496 253 404 253 _c
280 253 _l
280 0 _l
92 0 _l
92 729 _l
280 593 _m
280 389 _l
384 389 _l
420 389 448 397 468 415 _c
488 433 498 458 498 491 _c
498 523 488 548 468 566 _c
448 584 420 593 384 593 _c
280 593 _l
_cl}_d
/R{{770 0 92 0 750 729 _sc
359 406 _m
398 406 426 413 443 428 _c
460 442 469 466 469 500 _c
469 533 460 557 443 571 _c
426 585 398 593 359 593 _c
280 593 _l
280 406 _l
359 406 _l
280 276 _m
280 0 _l
92 0 _l
92 729 _l
379 729 _l
475 729 545 712 590 680 _c
634 648 657 597 657 528 _c
657 480 645 440 622 409 _c
598 378 563 355 517 341 _c
543 335 566 321 586 301 _c
}_e{606 280 627 249 648 207 _c
750 0 _l
550 0 _l
461 181 _l
443 217 424 242 406 256 _c
388 269 363 276 333 276 _c
280 276 _l
_cl}_e}_d
/S{{720 0 72 -13 647 742 _sc
599 706 _m
599 552 _l
559 570 520 583 482 592 _c
444 601 408 606 374 606 _c
329 606 296 599 274 587 _c
252 575 242 556 242 530 _c
242 510 249 494 264 484 _c
278 473 305 464 343 456 _c
423 440 _l
503 424 561 399 595 366 _c
629 332 647 285 647 224 _c
647 144 623 84 575 45 _c
527 6 455 -13 357 -13 _c
311 -13 264 -8 218 0 _c
}_e{171 8 124 20 78 38 _c
78 197 _l
124 172 169 153 213 141 _c
256 128 298 122 339 122 _c
379 122 411 128 433 142 _c
455 156 466 175 466 201 _c
466 223 458 241 443 253 _c
428 265 399 277 355 287 _c
282 303 _l
209 319 156 344 122 378 _c
88 412 72 458 72 516 _c
72 588 95 644 142 683 _c
188 722 256 742 344 742 _c
384 742 425 739 467 733 _c
509 727 553 718 599 706 _c
}_e{_cl}_e}_d
/T{682 0 5 0 677 729 _sc
5 729 _m
677 729 _l
677 587 _l
435 587 _l
435 0 _l
247 0 _l
247 587 _l
5 587 _l
5 729 _l
_cl}_d
/U{812 0 92 -13 720 729 _sc
92 729 _m
280 729 _l
280 292 _l
280 232 289 189 309 163 _c
329 137 361 124 406 124 _c
450 124 482 137 502 163 _c
522 189 532 232 532 292 _c
532 729 _l
720 729 _l
720 292 _l
720 188 694 112 642 62 _c
590 12 512 -13 406 -13 _c
300 -13 221 12 169 62 _c
117 112 92 188 92 292 _c
92 729 _l
_cl}_d
/a{{675 0 43 -13 596 560 _sc
329 246 _m
292 246 264 239 246 227 _c
228 215 219 197 219 173 _c
219 151 226 133 241 121 _c
256 108 277 102 303 102 _c
336 102 364 113 386 137 _c
408 161 420 190 420 226 _c
420 246 _l
329 246 _l
596 312 _m
596 0 _l
420 0 _l
420 81 _l
396 47 370 23 341 9 _c
311 -5 276 -13 234 -13 _c
177 -13 131 3 96 36 _c
60 68 43 111 43 164 _c
}_e{43 228 65 275 109 305 _c
153 335 222 350 317 350 _c
420 350 _l
420 364 _l
420 391 409 411 387 424 _c
365 437 331 444 285 444 _c
247 444 212 440 180 432 _c
148 424 118 413 91 399 _c
91 532 _l
128 541 165 548 203 553 _c
241 557 279 560 317 560 _c
415 560 486 540 530 501 _c
574 462 596 399 596 312 _c
_cl}_e}_d
/b{{716 0 84 -13 671 760 _sc
375 113 _m
412 113 440 126 460 154 _c
480 181 490 221 490 273 _c
490 325 480 364 460 392 _c
440 419 412 433 375 433 _c
337 433 309 419 289 392 _c
269 364 259 325 259 273 _c
259 221 269 181 289 154 _c
309 126 337 113 375 113 _c
259 467 _m
283 499 309 522 339 537 _c
368 552 402 560 440 560 _c
507 560 562 533 606 479 _c
649 425 671 357 671 273 _c
}_e{671 188 649 119 606 66 _c
562 13 507 -13 440 -13 _c
402 -13 368 -5 339 9 _c
309 23 283 47 259 79 _c
259 0 _l
84 0 _l
84 760 _l
259 760 _l
259 467 _l
_cl}_e}_d
/d{{716 0 45 -13 632 760 _sc
456 467 _m
456 760 _l
632 760 _l
632 0 _l
456 0 _l
456 79 _l
432 47 405 23 376 9 _c
347 -5 314 -13 276 -13 _c
208 -13 153 13 110 66 _c
66 119 45 188 45 273 _c
45 357 66 425 110 479 _c
153 533 208 560 276 560 _c
314 560 347 552 376 537 _c
405 522 432 499 456 467 _c
341 113 _m
378 113 406 126 426 154 _c
446 181 456 221 456 273 _c
}_e{456 325 446 364 426 392 _c
406 419 378 433 341 433 _c
303 433 275 419 255 392 _c
235 364 226 325 226 273 _c
226 221 235 181 255 154 _c
275 126 303 113 341 113 _c
_cl}_e}_d
/e{{678 0 43 -13 630 560 _sc
630 275 _m
630 225 _l
221 225 _l
225 184 240 153 266 133 _c
291 112 326 102 372 102 _c
408 102 446 107 485 118 _c
523 129 563 146 604 168 _c
604 33 _l
562 17 521 6 480 -1 _c
438 -9 397 -13 356 -13 _c
257 -13 180 12 125 62 _c
70 112 43 182 43 273 _c
43 362 70 432 124 483 _c
178 534 252 560 346 560 _c
432 560 500 534 552 482 _c
}_e{604 430 630 361 630 275 _c
450 333 _m
450 366 440 393 421 413 _c
401 433 376 444 345 444 _c
311 444 283 434 262 415 _c
241 396 228 369 223 333 _c
450 333 _l
_cl}_e}_d
/f{435 0 19 0 444 760 _sc
444 760 _m
444 645 _l
347 645 _l
322 645 305 640 295 631 _c
285 622 281 607 281 585 _c
281 547 _l
430 547 _l
430 422 _l
281 422 _l
281 0 _l
106 0 _l
106 422 _l
19 422 _l
19 547 _l
106 547 _l
106 585 _l
106 644 122 688 156 717 _c
189 745 240 760 310 760 _c
444 760 _l
_cl}_d
/h{712 0 84 0 634 760 _sc
634 333 _m
634 0 _l
458 0 _l
458 54 _l
458 254 _l
458 302 457 334 455 352 _c
453 370 449 383 444 392 _c
437 403 428 412 416 418 _c
404 424 390 428 376 428 _c
339 428 310 414 290 386 _c
269 358 259 319 259 269 _c
259 0 _l
84 0 _l
84 760 _l
259 760 _l
259 467 _l
285 499 312 522 342 537 _c
372 552 405 560 441 560 _c
504 560 552 540 585 502 _c
617 463 634 407 634 333 _c
_cl}_d
/k{665 0 84 0 684 760 _sc
84 760 _m
259 760 _l
259 346 _l
460 547 _l
663 547 _l
396 296 _l
684 0 _l
472 0 _l
259 228 _l
259 0 _l
84 0 _l
84 760 _l
_cl}_d
/m{{1042 0 83 0 963 560 _sc
591 456 _m
613 490 639 515 669 533 _c
699 551 733 560 770 560 _c
832 560 880 540 913 502 _c
946 463 963 407 963 333 _c
963 0 _l
787 0 _l
787 285 _l
787 289 788 294 788 298 _c
788 302 788 309 788 318 _c
788 356 782 384 771 402 _c
759 419 741 428 716 428 _c
682 428 657 414 639 387 _c
621 359 611 320 611 269 _c
611 0 _l
435 0 _l
435 285 _l
}_e{435 345 429 384 419 402 _c
409 419 390 428 364 428 _c
330 428 304 414 286 387 _c
268 359 259 320 259 269 _c
259 0 _l
83 0 _l
83 547 _l
259 547 _l
259 467 _l
280 497 305 520 333 536 _c
361 552 391 560 425 560 _c
462 560 495 550 524 532 _c
553 514 575 488 591 456 _c
_cl}_e}_d
/n{712 0 84 0 634 560 _sc
634 333 _m
634 0 _l
458 0 _l
458 54 _l
458 255 _l
458 302 457 334 455 352 _c
453 370 449 383 444 392 _c
437 403 428 412 416 418 _c
404 424 390 428 376 428 _c
339 428 310 414 290 386 _c
269 358 259 319 259 269 _c
259 0 _l
84 0 _l
84 547 _l
259 547 _l
259 467 _l
285 499 312 522 342 537 _c
372 552 405 560 441 560 _c
504 560 552 540 585 502 _c
617 463 634 407 634 333 _c
_cl}_d
/o{687 0 43 -13 644 560 _sc
344 435 _m
305 435 275 421 255 393 _c
235 365 225 325 225 273 _c
225 220 235 180 255 152 _c
275 124 305 111 344 111 _c
382 111 411 124 431 152 _c
451 180 462 220 462 273 _c
462 325 451 365 431 393 _c
411 421 382 435 344 435 _c
344 560 _m
438 560 511 534 564 484 _c
617 433 644 363 644 273 _c
644 183 617 112 564 62 _c
511 12 438 -13 344 -13 _c
250 -13 176 12 123 62 _c
69 112 43 183 43 273 _c
43 363 69 433 123 484 _c
176 534 250 560 344 560 _c
_cl}_d
/p{{716 0 84 -207 671 560 _sc
259 79 _m
259 -207 _l
84 -207 _l
84 547 _l
259 547 _l
259 467 _l
283 499 309 522 339 537 _c
368 552 402 560 440 560 _c
507 560 562 533 606 479 _c
649 425 671 357 671 273 _c
671 188 649 119 606 66 _c
562 13 507 -13 440 -13 _c
402 -13 368 -5 339 9 _c
309 23 283 47 259 79 _c
375 433 _m
337 433 309 419 289 392 _c
269 364 259 325 259 273 _c
}_e{259 221 269 181 289 154 _c
309 126 337 113 375 113 _c
412 113 440 126 460 154 _c
480 181 490 221 490 273 _c
490 325 480 364 460 392 _c
440 419 412 433 375 433 _c
_cl}_e}_d
/r{493 0 84 0 490 560 _sc
490 398 _m
474 405 459 410 444 414 _c
429 417 414 419 399 419 _c
354 419 319 404 295 376 _c
271 347 259 306 259 252 _c
259 0 _l
84 0 _l
84 547 _l
259 547 _l
259 457 _l
281 493 306 519 336 535 _c
365 551 400 560 441 560 _c
447 560 453 559 460 559 _c
466 559 476 558 490 556 _c
490 398 _l
_cl}_d
/s{{595 0 52 -13 548 560 _sc
511 530 _m
511 397 _l
473 412 437 424 403 432 _c
368 440 335 444 304 444 _c
270 444 246 439 230 431 _c
214 423 206 410 206 393 _c
206 379 212 368 224 361 _c
236 353 258 348 290 344 _c
321 340 _l
410 328 470 310 501 284 _c
532 258 548 217 548 161 _c
548 103 526 59 483 30 _c
440 1 376 -13 291 -13 _c
255 -13 217 -10 179 -5 _c
}_e{140 0 100 8 60 20 _c
60 153 _l
94 135 130 122 167 114 _c
203 106 241 102 279 102 _c
313 102 338 106 356 116 _c
373 125 382 139 382 158 _c
382 174 376 185 364 193 _c
352 201 328 207 293 211 _c
262 215 _l
184 224 130 242 99 269 _c
67 295 52 335 52 389 _c
52 447 71 490 111 518 _c
151 546 212 560 294 560 _c
326 560 359 557 395 552 _c
431 547 469 540 511 530 _c
}_e{_cl}_e}_d
/u{{712 0 78 -13 628 547 _sc
78 213 _m
78 547 _l
254 547 _l
254 492 _l
254 462 253 425 253 380 _c
253 335 253 305 253 291 _c
253 247 254 215 256 196 _c
258 176 262 162 268 154 _c
275 142 284 133 296 127 _c
307 121 320 118 336 118 _c
372 118 401 132 422 160 _c
442 188 453 227 453 277 _c
453 547 _l
628 547 _l
628 0 _l
453 0 _l
453 79 _l
427 47 399 23 369 9 _c
}_e{339 -5 307 -13 272 -13 _c
208 -13 160 6 127 44 _c
94 82 78 139 78 213 _c
_cl}_e}_d
end readonly def

/BuildGlyph
 {exch begin
 CharStrings exch
 2 copy known not{pop /.notdef}if
 true 3 1 roll get exec
 end}_d

/BuildChar {
 1 index /Encoding get exch get
 1 index /BuildGlyph get exec
}_d

FontName currentdict end definefont pop
%!PS-Adobe-3.0 Resource-Font
%%Title: DejaVu Sans
%%Copyright: Copyright (c) 2003 by Bitstream, Inc. All Rights Reserved. Copyright (c) 2006 by Tavmjong Bah. All Rights Reserved. DejaVu changes are in public domain 
%%Creator: Converted from TrueType to type 3 by PPR
25 dict begin
/_d{bind def}bind def
/_m{moveto}_d
/_l{lineto}_d
/_cl{closepath eofill}_d
/_c{curveto}_d
/_sc{7 -1 roll{setcachedevice}{pop pop pop pop pop pop}ifelse}_d
/_e{exec}_d
/FontName /DejaVuSans def
/PaintType 0 def
/FontMatrix[.001 0 0 .001 0 0]def
/FontBBox[-1021 -463 1793 1232]def
/FontType 3 def
/Encoding [ /zero /one /two /three /four /five /six /seven /eight ] def
/FontInfo 10 dict dup begin
/FamilyName (DejaVu Sans) def
/FullName (DejaVu Sans) def
/Notice (Copyright (c) 2003 by Bitstream, Inc. All Rights Reserved. Copyright (c) 2006 by Tavmjong Bah. All Rights Reserved. DejaVu changes are in public domain ) def
/Weight (Book) def
/Version (Version 2.35) def
/ItalicAngle 0.0 def
/isFixedPitch false def
/UnderlinePosition -130 def
/UnderlineThickness 90 def
end readonly def
/CharStrings 10 dict dup begin
/.notdef 0 def
/zero{636 0 66 -13 570 742 _sc
318 664 _m
267 664 229 639 203 589 _c
177 539 165 464 165 364 _c
165 264 177 189 203 139 _c
229 89 267 64 318 64 _c
369 64 407 89 433 139 _c
458 189 471 264 471 364 _c
471 464 458 539 433 589 _c
407 639 369 664 318 664 _c
318 742 _m
399 742 461 709 505 645 _c
548 580 570 486 570 364 _c
570 241 548 147 505 83 _c
461 19 399 -13 318 -13 _c
236 -13 173 19 130 83 _c
87 147 66 241 66 364 _c
66 486 87 580 130 645 _c
173 709 236 742 318 742 _c
_cl}_d
/one{636 0 110 0 544 729 _sc
124 83 _m
285 83 _l
285 639 _l
110 604 _l
110 694 _l
284 729 _l
383 729 _l
383 83 _l
544 83 _l
544 0 _l
124 0 _l
124 83 _l
_cl}_d
/two{{636 0 73 0 536 742 _sc
192 83 _m
536 83 _l
536 0 _l
73 0 _l
73 83 _l
110 121 161 173 226 239 _c
290 304 331 346 348 365 _c
380 400 402 430 414 455 _c
426 479 433 504 433 528 _c
433 566 419 598 392 622 _c
365 646 330 659 286 659 _c
255 659 222 653 188 643 _c
154 632 117 616 78 594 _c
78 694 _l
118 710 155 722 189 730 _c
223 738 255 742 284 742 _c
}_e{359 742 419 723 464 685 _c
509 647 532 597 532 534 _c
532 504 526 475 515 449 _c
504 422 484 390 454 354 _c
446 344 420 317 376 272 _c
332 227 271 164 192 83 _c
_cl}_e}_d
/three{{636 0 76 -13 556 742 _sc
406 393 _m
453 383 490 362 516 330 _c
542 298 556 258 556 212 _c
556 140 531 84 482 45 _c
432 6 362 -13 271 -13 _c
240 -13 208 -10 176 -4 _c
144 1 110 10 76 22 _c
76 117 _l
103 101 133 89 166 81 _c
198 73 232 69 268 69 _c
330 69 377 81 409 105 _c
441 129 458 165 458 212 _c
458 254 443 288 413 312 _c
383 336 341 349 287 349 _c
}_e{202 349 _l
202 430 _l
291 430 _l
339 430 376 439 402 459 _c
428 478 441 506 441 543 _c
441 580 427 609 401 629 _c
374 649 336 659 287 659 _c
260 659 231 656 200 650 _c
169 644 135 635 98 623 _c
98 711 _l
135 721 170 729 203 734 _c
235 739 266 742 296 742 _c
370 742 429 725 473 691 _c
517 657 539 611 539 553 _c
539 513 527 479 504 451 _c
481 423 448 403 406 393 _c
_cl}_e}_d
/four{636 0 49 0 580 729 _sc
378 643 _m
129 254 _l
378 254 _l
378 643 _l
352 729 _m
476 729 _l
476 254 _l
580 254 _l
580 172 _l
476 172 _l
476 0 _l
378 0 _l
378 172 _l
49 172 _l
49 267 _l
352 729 _l
_cl}_d
/five{{636 0 77 -13 549 729 _sc
108 729 _m
495 729 _l
495 646 _l
198 646 _l
198 467 _l
212 472 227 476 241 478 _c
255 480 270 482 284 482 _c
365 482 429 459 477 415 _c
525 370 549 310 549 234 _c
549 155 524 94 475 51 _c
426 8 357 -13 269 -13 _c
238 -13 207 -10 175 -6 _c
143 -1 111 6 77 17 _c
77 116 _l
106 100 136 88 168 80 _c
199 72 232 69 267 69 _c
}_e{323 69 368 83 401 113 _c
433 143 450 183 450 234 _c
450 284 433 324 401 354 _c
368 384 323 399 267 399 _c
241 399 214 396 188 390 _c
162 384 135 375 108 363 _c
108 729 _l
_cl}_e}_d
/six{{636 0 70 -13 573 742 _sc
330 404 _m
286 404 251 388 225 358 _c
199 328 186 286 186 234 _c
186 181 199 139 225 109 _c
251 79 286 64 330 64 _c
374 64 409 79 435 109 _c
461 139 474 181 474 234 _c
474 286 461 328 435 358 _c
409 388 374 404 330 404 _c
526 713 _m
526 623 _l
501 635 476 644 451 650 _c
425 656 400 659 376 659 _c
310 659 260 637 226 593 _c
}_e{192 549 172 482 168 394 _c
187 422 211 444 240 459 _c
269 474 301 482 336 482 _c
409 482 467 459 509 415 _c
551 371 573 310 573 234 _c
573 159 550 99 506 54 _c
462 9 403 -13 330 -13 _c
246 -13 181 19 137 83 _c
92 147 70 241 70 364 _c
70 479 97 571 152 639 _c
206 707 280 742 372 742 _c
396 742 421 739 447 735 _c
472 730 498 723 526 713 _c
_cl}_e}_d
/seven{636 0 82 0 551 729 _sc
82 729 _m
551 729 _l
551 687 _l
286 0 _l
183 0 _l
432 646 _l
82 646 _l
82 729 _l
_cl}_d
/eight{{636 0 68 -13 568 742 _sc
318 346 _m
271 346 234 333 207 308 _c
180 283 167 249 167 205 _c
167 161 180 126 207 101 _c
234 76 271 64 318 64 _c
364 64 401 76 428 102 _c
455 127 469 161 469 205 _c
469 249 455 283 429 308 _c
402 333 365 346 318 346 _c
219 388 _m
177 398 144 418 120 447 _c
96 476 85 511 85 553 _c
85 611 105 657 147 691 _c
188 725 245 742 318 742 _c
}_e{390 742 447 725 489 691 _c
530 657 551 611 551 553 _c
551 511 539 476 515 447 _c
491 418 459 398 417 388 _c
464 377 501 355 528 323 _c
554 291 568 251 568 205 _c
568 134 546 80 503 43 _c
459 5 398 -13 318 -13 _c
237 -13 175 5 132 43 _c
89 80 68 134 68 205 _c
68 251 81 291 108 323 _c
134 355 171 377 219 388 _c
183 544 _m
183 506 194 476 218 455 _c
}_e{242 434 275 424 318 424 _c
360 424 393 434 417 455 _c
441 476 453 506 453 544 _c
453 582 441 611 417 632 _c
393 653 360 664 318 664 _c
275 664 242 653 218 632 _c
194 611 183 582 183 544 _c
_cl}_e}_d
end readonly def

/BuildGlyph
 {exch begin
 CharStrings exch
 2 copy known not{pop /.notdef}if
 true 3 1 roll get exec
 end}_d

/BuildChar {
 1 index /Encoding get exch get
 1 index /BuildGlyph get exec
}_d

FontName currentdict end definefont pop
end
%%EndProlog
mpldict begin
-259.2 62.64 translate
1130.4 666.72 0 0 clipbox
gsave
0 0 m
1130.4 0 l
1130.4 666.72 l
0 666.72 l
cl
1.000 setgray
fill
grestore
gsave
7.2 7.2 m
1123.2 7.2 l
1123.2 659.52 l
7.2 659.52 l
cl
1.000 setgray
fill
grestore
1.000 setlinewidth
0 setlinejoin
0 setlinecap
[] 0 setdash
0.950 setgray
gsave
155.143045 151.339731 m
474.548084 311.273814 l
469.230329 616.881598 l
132.016366 473.184113 l
gsave
fill
grestore
stroke
grestore
0.900 setgray
gsave
991.954218 221.860341 m
474.548084 311.273814 l
469.230329 616.881598 l
1013.601871 536.683603 l
gsave
fill
grestore
stroke
grestore
0.925 setgray
gsave
699.524211 47.203172 m
155.143045 151.339731 l
474.548084 311.273814 l
991.954218 221.860341 l
gsave
fill
grestore
stroke
grestore
2.000 setlinewidth
1 setlinejoin
2 setlinecap
[] 0 setdash
0.000 setgray
gsave
155.143045 151.339731 m
699.524211 47.203172 l
stroke
grestore
/DejaVuSans-Bold findfont
25.000 scalefont
setfont
gsave
227.699314 76.404445 translate
349.170522 rotate
0.000000 0.000000 m /N glyphshow
20.922852 0.000000 m /u glyphshow
38.720703 0.000000 m /m glyphshow
64.770508 0.000000 m /b glyphshow
82.666016 0.000000 m /e glyphshow
99.621582 0.000000 m /r glyphshow
111.950684 0.000000 m /space glyphshow
120.654297 0.000000 m /o glyphshow
137.829590 0.000000 m /f glyphshow
148.706055 0.000000 m /space glyphshow
157.409668 0.000000 m /R glyphshow
176.660156 0.000000 m /a glyphshow
193.530273 0.000000 m /n glyphshow
211.328125 0.000000 m /k glyphshow
227.954102 0.000000 m /s glyphshow
242.834473 0.000000 m /space glyphshow
251.538086 0.000000 m /parenleft glyphshow
262.963867 0.000000 m /M glyphshow
287.841797 0.000000 m /P glyphshow
306.164551 0.000000 m /I glyphshow
315.466309 0.000000 m /parenright glyphshow
grestore
0.800 setlinewidth
0 setlinecap
0.690 setgray
gsave
636.705179 59.220042 m
932.424882 232.147665 l
950.849236 545.928457 l
stroke
grestore
gsave
570.554487 71.874237 m
869.688596 242.989186 l
884.750068 555.66633 l
stroke
grestore
gsave
505.121897 84.391064 m
807.583066 253.721705 l
819.34987 565.301229 l
stroke
grestore
gsave
440.395779 96.772747 m
746.098828 264.346858 l
754.637613 574.834779 l
stroke
grestore
gsave
376.364754 109.021464 m
685.226605 274.866248 l
690.602501 584.26857 l
stroke
grestore
gsave
313.017684 121.139344 m
624.957305 285.281446 l
627.233959 593.604161 l
stroke
grestore
gsave
250.343668 133.128474 m
565.282013 295.593993 l
564.521634 602.843077 l
stroke
grestore
gsave
188.332037 144.990894 m
506.191992 305.805399 l
502.455385 611.986811 l
stroke
grestore
2 setlinecap
0.000 setgray
gsave
639.259943 60.713989 m
631.585754 56.226363 l
stroke
grestore
/DejaVuSans findfont
25.000 scalefont
setfont
gsave
616.184791 36.393831 translate
60.000000 rotate
0.000000 0.000000 m /one glyphshow
grestore
gsave
573.137706 73.351927 m
565.378097 68.913165 l
stroke
grestore
gsave
550.033957 49.124680 translate
60.000000 rotate
0.000000 0.000000 m /two glyphshow
grestore
gsave
507.732805 85.852762 m
499.890078 81.462069 l
stroke
grestore
gsave
484.601704 61.717236 translate
60.000000 rotate
0.000000 0.000000 m /four glyphshow
grestore
gsave
443.033629 98.21871 m
435.110028 93.875311 l
stroke
grestore
gsave
419.876387 74.173741 translate
60.000000 rotate
0.000000 0.000000 m /eight glyphshow
grestore
gsave
379.028818 110.451945 m
371.026529 106.155079 l
stroke
grestore
gsave
347.893484 79.608780 translate
60.000000 rotate
0.000000 0.000000 m /one glyphshow
15.905762 0.000000 m /six glyphshow
grestore
gsave
315.707254 122.554592 m
307.628405 118.303515 l
stroke
grestore
gsave
284.548095 91.799716 translate
60.000000 rotate
0.000000 0.000000 m /two glyphshow
15.905762 0.000000 m /zero glyphshow
grestore
gsave
253.058053 134.528729 m
244.90472 130.322713 l
stroke
grestore
gsave
221.876180 103.861040 translate
60.000000 rotate
0.000000 0.000000 m /two glyphshow
15.905762 0.000000 m /five glyphshow
grestore
gsave
191.070564 146.376393 m
182.844768 142.214726 l
stroke
grestore
gsave
159.867056 115.794809 translate
60.000000 rotate
0.000000 0.000000 m /three glyphshow
15.905762 0.000000 m /zero glyphshow
grestore
2.000 setlinewidth
gsave
991.954218 221.860341 m
699.524211 47.203172 l
stroke
grestore
/DejaVuSans-Bold findfont
25.000 scalefont
setfont
gsave
790.171864 23.620010 translate
30.848244 rotate
0.000000 0.000000 m /N glyphshow
20.922852 0.000000 m /u glyphshow
38.720703 0.000000 m /m glyphshow
64.770508 0.000000 m /b glyphshow
82.666016 0.000000 m /e glyphshow
99.621582 0.000000 m /r glyphshow
111.950684 0.000000 m /space glyphshow
120.654297 0.000000 m /o glyphshow
137.829590 0.000000 m /f glyphshow
148.706055 0.000000 m /space glyphshow
157.409668 0.000000 m /T glyphshow
174.462891 0.000000 m /h glyphshow
192.260742 0.000000 m /r glyphshow
204.589844 0.000000 m /e glyphshow
221.545410 0.000000 m /a glyphshow
238.415527 0.000000 m /d glyphshow
256.311035 0.000000 m /s glyphshow
grestore
0.800 setlinewidth
0 setlinecap
0.690 setgray
gsave
174.709079 491.376822 m
195.443542 171.519196 l
736.529435 69.304966 l
stroke
grestore
gsave
222.967565 511.941282 m
241.045813 194.353393 l
778.365123 94.291809 l
stroke
grestore
gsave
270.185316 532.062252 m
285.713881 216.719811 l
819.304916 118.743569 l
stroke
grestore
gsave
316.395638 551.753925 m
329.476161 238.632677 l
859.377287 142.677251 l
stroke
grestore
gsave
361.630433 571.029895 m
372.359927 260.105651 l
898.609514 166.109148 l
stroke
grestore
gsave
405.920269 589.903188 m
414.391371 281.151845 l
937.027746 189.054877 l
stroke
grestore
gsave
449.29445 608.386293 m
455.595653 301.783858 l
974.657055 211.529413 l
stroke
grestore
2 setlinecap
0.000 setgray
gsave
732.001896 70.160244 m
745.594587 67.592506 l
stroke
grestore
/DejaVuSans findfont
25.000 scalefont
setfont
gsave
748.901784 58.771138 translate
335.000000 rotate
0.000000 0.000000 m /one glyphshow
grestore
gsave
773.871237 95.128677 m
787.362786 92.616231 l
stroke
grestore
gsave
790.621969 83.837461 translate
335.000000 rotate
0.000000 0.000000 m /two glyphshow
grestore
gsave
814.844288 119.562615 m
828.235885 117.103694 l
stroke
grestore
gsave
831.448846 108.367066 translate
335.000000 rotate
0.000000 0.000000 m /four glyphshow
grestore
gsave
854.949523 143.479038 m
868.242353 141.07195 l
stroke
grestore
gsave
871.410802 132.377010 translate
335.000000 rotate
0.000000 0.000000 m /eight glyphshow
grestore
gsave
894.214225 166.894217 m
907.409463 164.537338 l
stroke
grestore
gsave
910.535036 159.244769 translate
335.000000 rotate
0.000000 0.000000 m /one glyphshow
15.905762 0.000000 m /six glyphshow
grestore
gsave
932.664543 189.823744 m
945.763358 187.515521 l
stroke
grestore
gsave
948.847615 182.263734 translate
335.000000 rotate
0.000000 0.000000 m /two glyphshow
15.905762 0.000000 m /zero glyphshow
grestore
gsave
970.325554 212.282574 m
983.329102 210.021516 l
stroke
grestore
gsave
986.373537 204.810059 translate
335.000000 rotate
0.000000 0.000000 m /four glyphshow
15.905762 0.000000 m /zero glyphshow
grestore
2.000 setlinewidth
gsave
991.954218 221.860341 m
1013.601871 536.683603 l
stroke
grestore
/DejaVuSans-Bold findfont
25.000 scalefont
setfont
gsave
1096.737718 319.155706 translate
86.066460 rotate
0.000000 0.000000 m /S glyphshow
18.005371 0.000000 m /p glyphshow
35.900879 0.000000 m /e glyphshow
52.856445 0.000000 m /e glyphshow
69.812012 0.000000 m /d glyphshow
87.707520 0.000000 m /U glyphshow
108.007812 0.000000 m /p glyphshow
grestore
0.800 setlinewidth
0 setlinecap
0.690 setgray
gsave
992.365953 227.848233 m
474.446725 317.098863 l
154.703921 157.450835 l
stroke
grestore
gsave
994.853764 264.028633 m
473.834465 352.285045 l
152.05001 194.384223 l
stroke
grestore
gsave
997.371796 300.648537 m
473.215079 387.880706 l
149.36279 231.781137 l
stroke
grestore
gsave
999.920602 337.716004 m
472.588443 423.893035 l
146.641633 269.650358 l
stroke
grestore
gsave
1002.500752 375.239289 m
471.954429 460.329391 l
143.885889 308.000891 l
stroke
grestore
gsave
1005.112825 413.226852 m
471.312906 497.197309 l
141.094897 346.841971 l
stroke
grestore
gsave
1007.75742 451.687363 m
470.663739 534.504501 l
138.267975 386.183069 l
stroke
grestore
gsave
1010.435146 490.62971 m
470.006791 572.258864 l
135.404425 426.033904 l
stroke
grestore
gsave
1013.14663 530.063004 m
469.341921 610.468487 l
132.503531 466.404447 l
stroke
grestore
2 setlinecap
0.000 setgray
gsave
988.044657 228.592902 m
1001.017535 226.357346 l
stroke
grestore
/DejaVuSans findfont
25.000 scalefont
setfont
gsave
1012.605542 222.650737 translate
0.000000 rotate
0.000000 0.000000 m /zero glyphshow
grestore
gsave
990.505522 264.765189 m
1003.559348 262.553978 l
stroke
grestore
gsave
1015.213465 258.812603 translate
0.000000 rotate
0.000000 0.000000 m /two glyphshow
15.905762 0.000000 m /five glyphshow
grestore
gsave
992.99627 301.376729 m
1006.13206 299.190621 l
stroke
grestore
gsave
1017.853042 295.413396 translate
0.000000 rotate
0.000000 0.000000 m /five glyphshow
15.905762 0.000000 m /zero glyphshow
grestore
gsave
995.517448 338.435571 m
1008.736238 336.275346 l
stroke
grestore
gsave
1020.524854 332.461158 translate
0.000000 rotate
0.000000 0.000000 m /seven glyphshow
15.905762 0.000000 m /five glyphshow
grestore
gsave
998.069619 375.949964 m
1011.372462 373.816426 l
stroke
grestore
gsave
1023.229494 369.964126 translate
0.000000 rotate
0.000000 0.000000 m /one glyphshow
15.905762 0.000000 m /zero glyphshow
31.811523 0.000000 m /zero glyphshow
grestore
gsave
1000.653357 413.928358 m
1014.041327 411.822336 l
stroke
grestore
gsave
1025.967572 407.930742 translate
0.000000 rotate
0.000000 0.000000 m /one glyphshow
15.905762 0.000000 m /two glyphshow
31.811523 0.000000 m /five glyphshow
grestore
gsave
1003.26925 452.379416 m
1016.743444 450.301763 l
stroke
grestore
gsave
1028.739711 446.369658 translate
0.000000 rotate
0.000000 0.000000 m /one glyphshow
15.905762 0.000000 m /five glyphshow
31.811523 0.000000 m /zero glyphshow
grestore
gsave
1005.917904 491.312018 m
1019.479437 489.263612 l
stroke
grestore
gsave
1031.546551 485.289741 translate
0.000000 rotate
0.000000 0.000000 m /one glyphshow
15.905762 0.000000 m /seven glyphshow
31.811523 0.000000 m /five glyphshow
grestore
gsave
1008.599938 530.735265 m
1022.249949 528.717012 l
stroke
grestore
gsave
1034.388748 524.700083 translate
0.000000 rotate
0.000000 0.000000 m /two glyphshow
15.905762 0.000000 m /zero glyphshow
31.811523 0.000000 m /zero glyphshow
grestore
gsave
1116 652.3 7.2 7.2 clipbox
494.649117 289.750316 m
470.926971 293.885508 l
487.245125 302.11794 l
510.90563 298.015386 l
cl
0.625 0.000 0.000 setrgbcolor
fill
grestore
gsave
1116 652.3 7.2 7.2 clipbox
554.368395 279.340185 m
530.409375 283.516668 l
546.572264 291.831059 l
570.468086 287.687702 l
cl
0.625 0.023 0.012 setrgbcolor
fill
grestore
gsave
1116 652.3 7.2 7.2 clipbox
614.686086 268.82574 m
590.486625 273.044136 l
606.490329 281.441715 l
630.624996 277.256945 l
cl
0.625 0.054 0.027 setrgbcolor
fill
grestore
gsave
1116 652.3 7.2 7.2 clipbox
453.436922 268.79738 m
429.559652 273.01589 l
446.205603 281.413693 l
470.020649 277.228811 l
cl
0.625 0.219 0.111 setrgbcolor
fill
grestore
gsave
1116 652.3 7.2 7.2 clipbox
675.611228 258.205406 m
651.167691 262.466349 l
667.008194 270.948371 l
691.385306 266.721562 l
cl
0.625 0.084 0.042 setrgbcolor
fill
grestore
gsave
1116 652.3 7.2 7.2 clipbox
513.550917 258.17676 m
489.432816 262.437817 l
505.922018 270.920068 l
529.976301 266.693146 l
cl
0.625 0.247 0.126 setrgbcolor
fill
grestore
gsave
1116 652.3 7.2 7.2 clipbox
510.90563 298.015386 m
487.245125 302.11794 l
483.704698 533.003385 l
508.260173 529.2181 l
cl
0.500 0.000 0.000 setrgbcolor
fill
grestore
gsave
1116 652.3 7.2 7.2 clipbox
470.926971 293.885508 m
487.245125 302.11794 l
483.704698 533.003385 l
466.748432 525.407029 l
cl
1.000 0.000 0.000 setrgbcolor
fill
grestore
gsave
1116 652.3 7.2 7.2 clipbox
630.624996 277.256945 m
606.490329 281.441715 l
607.025436 404.892951 l
631.654948 400.874026 l
cl
0.500 0.043 0.022 setrgbcolor
fill
grestore
gsave
1116 652.3 7.2 7.2 clipbox
590.486625 273.044136 m
606.490329 281.441715 l
607.025436 404.892951 l
590.695841 396.827843 l
cl
1.000 0.086 0.043 setrgbcolor
fill
grestore
gsave
1116 652.3 7.2 7.2 clipbox
570.468086 287.687702 m
546.572264 291.831059 l
545.441554 495.002383 l
570.138248 491.136854 l
cl
0.500 0.018 0.009 setrgbcolor
fill
grestore
gsave
1116 652.3 7.2 7.2 clipbox
494.649117 289.750316 m
510.90563 298.015386 l
508.260173 529.2181 l
491.370286 521.590477 l
cl
1.000 0.000 0.000 setrgbcolor
fill
grestore
gsave
1116 652.3 7.2 7.2 clipbox
737.153046 247.477574 m
712.46172 251.781711 l
728.134911 260.349456 l
752.758139 256.079973 l
cl
0.625 0.107 0.054 setrgbcolor
fill
grestore
gsave
1116 652.3 7.2 7.2 clipbox
574.273384 247.448637 m
549.910791 251.75289 l
566.23923 260.320867 l
590.536373 256.051269 l
cl
0.625 0.275 0.141 setrgbcolor
fill
grestore
gsave
1116 652.3 7.2 7.2 clipbox
411.389298 247.419699 m
387.355455 251.72407 l
404.339178 260.292278 l
428.310219 256.022564 l
cl
0.625 0.415 0.222 setrgbcolor
fill
grestore
gsave
1116 652.3 7.2 7.2 clipbox
530.409375 283.516668 m
546.572264 291.831059 l
545.441554 495.002383 l
528.729614 487.244982 l
cl
1.000 0.037 0.018 setrgbcolor
fill
grestore
gsave
1116 652.3 7.2 7.2 clipbox
494.649117 289.750316 m
470.926971 293.885508 l
466.748432 525.407029 l
491.370286 521.590477 l
cl
0.500 0.000 0.000 setrgbcolor
fill
grestore
gsave
1116 652.3 7.2 7.2 clipbox
614.686086 268.82574 m
630.624996 277.256945 l
631.654948 400.874026 l
615.392837 392.775962 l
cl
1.000 0.086 0.043 setrgbcolor
fill
grestore
gsave
1116 652.3 7.2 7.2 clipbox
614.686086 268.82574 m
590.486625 273.044136 l
590.695841 396.827843 l
615.392837 392.775962 l
cl
0.500 0.043 0.022 setrgbcolor
fill
grestore
gsave
1116 652.3 7.2 7.2 clipbox
752.758139 256.079973 m
728.134911 260.349456 l
729.452855 314.05956 l
754.298698 309.861199 l
cl
0.500 0.086 0.043 setrgbcolor
fill
grestore
gsave
1116 652.3 7.2 7.2 clipbox
554.368395 279.340185 m
570.468086 287.687702 l
570.138248 491.136854 l
553.493814 483.347503 l
cl
1.000 0.037 0.018 setrgbcolor
fill
grestore
gsave
1116 652.3 7.2 7.2 clipbox
712.46172 251.781711 m
728.134911 260.349456 l
729.452855 314.05956 l
713.644765 305.634386 l
cl
1.000 0.172 0.086 setrgbcolor
fill
grestore
gsave
1116 652.3 7.2 7.2 clipbox
554.368395 279.340185 m
530.409375 283.516668 l
528.729614 487.244982 l
553.493814 483.347503 l
cl
0.500 0.018 0.009 setrgbcolor
fill
grestore
gsave
1116 652.3 7.2 7.2 clipbox
691.385306 266.721562 m
667.008194 270.948371 l
669.072882 414.647585 l
694.035766 410.615093 l
cl
0.500 0.068 0.034 setrgbcolor
fill
grestore
gsave
1116 652.3 7.2 7.2 clipbox
799.320949 236.640604 m
774.378047 240.988595 l
789.879714 249.643369 l
814.752804 245.330562 l
cl
0.625 0.137 0.069 setrgbcolor
fill
grestore
gsave
1116 652.3 7.2 7.2 clipbox
635.61361 236.611372 m
611.002787 240.959481 l
627.166352 249.614491 l
651.710051 245.301567 l
cl
0.625 0.296 0.152 setrgbcolor
fill
grestore
gsave
1116 652.3 7.2 7.2 clipbox
471.901802 236.582139 m
447.623075 240.930367 l
464.448573 249.585612 l
488.662864 245.272571 l
cl
0.625 0.438 0.237 setrgbcolor
fill
grestore
gsave
1116 652.3 7.2 7.2 clipbox
737.153046 247.477574 m
752.758139 256.079973 l
754.298698 309.861199 l
738.559952 301.401644 l
cl
1.000 0.172 0.086 setrgbcolor
fill
grestore
gsave
1116 652.3 7.2 7.2 clipbox
651.167691 262.466349 m
667.008194 270.948371 l
669.072882 414.647585 l
652.862224 406.555113 l
cl
1.000 0.135 0.068 setrgbcolor
fill
grestore
gsave
1116 652.3 7.2 7.2 clipbox
814.752804 245.330562 m
789.879714 249.643369 l
791.215491 287.975659 l
816.250145 283.713483 l
cl
0.500 0.110 0.055 setrgbcolor
fill
grestore
gsave
1116 652.3 7.2 7.2 clipbox
737.153046 247.477574 m
712.46172 251.781711 l
713.644765 305.634386 l
738.559952 301.401644 l
cl
0.500 0.086 0.043 setrgbcolor
fill
grestore
gsave
1116 652.3 7.2 7.2 clipbox
774.378047 240.988595 m
789.879714 249.643369 l
791.215491 287.975659 l
775.620094 279.422378 l
cl
1.000 0.220 0.111 setrgbcolor
fill
grestore
gsave
1116 652.3 7.2 7.2 clipbox
675.611228 258.205406 m
691.385306 266.721562 l
694.035766 410.615093 l
677.894781 402.489275 l
cl
1.000 0.135 0.068 setrgbcolor
fill
grestore
gsave
1116 652.3 7.2 7.2 clipbox
470.020649 277.228811 m
446.205603 281.413693 l
440.634377 532.66514 l
465.429482 528.828408 l
cl
0.500 0.175 0.089 setrgbcolor
fill
grestore
gsave
1116 652.3 7.2 7.2 clipbox
675.611228 258.205406 m
651.167691 262.466349 l
652.862224 406.555113 l
677.894781 402.489275 l
cl
0.500 0.068 0.034 setrgbcolor
fill
grestore
gsave
1116 652.3 7.2 7.2 clipbox
738.559952 301.401644 m
713.644765 305.634386 l
729.452855 314.05956 l
754.298698 309.861199 l
cl
0.625 0.107 0.054 setrgbcolor
fill
grestore
gsave
1116 652.3 7.2 7.2 clipbox
799.320949 236.640604 m
814.752804 245.330562 l
816.250145 283.713483 l
800.725478 275.125208 l
cl
1.000 0.220 0.111 setrgbcolor
fill
grestore
gsave
1116 652.3 7.2 7.2 clipbox
877.378801 234.471683 m
852.252026 238.828478 l
852.939483 254.004591 l
878.131304 249.667749 l
cl
0.500 0.134 0.068 setrgbcolor
fill
grestore
gsave
1116 652.3 7.2 7.2 clipbox
429.559652 273.01589 m
446.205603 281.413693 l
440.634377 532.66514 l
423.270606 524.965327 l
cl
1.000 0.350 0.178 setrgbcolor
fill
grestore
gsave
1116 652.3 7.2 7.2 clipbox
862.12454 225.692823 m
836.926198 230.085341 l
852.252026 238.828478 l
877.378801 234.471683 l
cl
0.625 0.167 0.084 setrgbcolor
fill
grestore
gsave
1116 652.3 7.2 7.2 clipbox
697.581069 225.663291 m
672.718203 230.05593 l
688.71268 238.799305 l
713.506708 234.442392 l
cl
0.625 0.322 0.167 setrgbcolor
fill
grestore
gsave
1116 652.3 7.2 7.2 clipbox
533.033084 225.633758 m
508.505711 230.026518 l
525.168873 238.770132 l
549.630136 234.4131 l
cl
0.609 0.459 0.251 setrgbcolor
fill
grestore
gsave
1116 652.3 7.2 7.2 clipbox
368.480582 225.604225 m
344.288722 229.997105 l
361.620605 238.740958 l
385.749085 234.383807 l
cl
0.501 0.556 0.326 setrgbcolor
fill
grestore
gsave
1116 652.3 7.2 7.2 clipbox
529.976301 266.693146 m
505.922018 270.920068 l
503.335944 480.842982 l
528.22316 476.904555 l
cl
0.500 0.198 0.101 setrgbcolor
fill
grestore
gsave
1116 652.3 7.2 7.2 clipbox
615.392837 392.775962 m
590.695841 396.827843 l
607.025436 404.892951 l
631.654948 400.874026 l
cl
0.625 0.054 0.027 setrgbcolor
fill
grestore
gsave
1116 652.3 7.2 7.2 clipbox
799.320949 236.640604 m
774.378047 240.988595 l
775.620094 279.422378 l
800.725478 275.125208 l
cl
0.500 0.110 0.055 setrgbcolor
fill
grestore
gsave
1116 652.3 7.2 7.2 clipbox
836.926198 230.085341 m
852.252026 238.828478 l
852.939483 254.004591 l
837.577574 245.30145 l
cl
1.000 0.268 0.135 setrgbcolor
fill
grestore
gsave
1116 652.3 7.2 7.2 clipbox
489.432816 262.437817 m
505.922018 270.920068 l
503.335944 480.842982 l
486.260114 472.939105 l
cl
1.000 0.395 0.202 setrgbcolor
fill
grestore
gsave
1116 652.3 7.2 7.2 clipbox
800.725478 275.125208 m
775.620094 279.422378 l
791.215491 287.975659 l
816.250145 283.713483 l
cl
0.625 0.137 0.069 setrgbcolor
fill
grestore
gsave
1116 652.3 7.2 7.2 clipbox
453.436922 268.79738 m
470.020649 277.228811 l
465.429482 528.828408 l
448.133135 521.096475 l
cl
1.000 0.350 0.178 setrgbcolor
fill
grestore
gsave
1116 652.3 7.2 7.2 clipbox
862.12454 225.692823 m
877.378801 234.471683 l
878.131304 249.667749 l
862.841337 240.928958 l
cl
1.000 0.268 0.135 setrgbcolor
fill
grestore
gsave
1116 652.3 7.2 7.2 clipbox
453.436922 268.79738 m
429.559652 273.01589 l
423.270606 524.965327 l
448.133135 521.096475 l
cl
0.500 0.175 0.089 setrgbcolor
fill
grestore
gsave
1116 652.3 7.2 7.2 clipbox
862.841337 240.928958 m
837.577574 245.30145 l
852.939483 254.004591 l
878.131304 249.667749 l
cl
0.625 0.167 0.084 setrgbcolor
fill
grestore
gsave
1116 652.3 7.2 7.2 clipbox
513.550917 258.17676 m
529.976301 266.693146 l
528.22316 476.904555 l
511.215635 468.967758 l
cl
1.000 0.395 0.202 setrgbcolor
fill
grestore
gsave
1116 652.3 7.2 7.2 clipbox
862.12454 225.692823 m
836.926198 230.085341 l
837.577574 245.30145 l
862.841337 240.928958 l
cl
0.500 0.134 0.068 setrgbcolor
fill
grestore
gsave
1116 652.3 7.2 7.2 clipbox
590.536373 256.051269 m
566.23923 260.320867 l
565.788899 453.561006 l
590.865952 449.55633 l
cl
0.500 0.220 0.113 setrgbcolor
fill
grestore
gsave
1116 652.3 7.2 7.2 clipbox
713.506708 234.442392 m
688.71268 238.799305 l
690.017111 311.026536 l
715.112715 306.765984 l
cl
0.500 0.258 0.134 setrgbcolor
fill
grestore
gsave
1116 652.3 7.2 7.2 clipbox
513.550917 258.17676 m
489.432816 262.437817 l
486.260114 472.939105 l
511.215635 468.967758 l
cl
0.500 0.198 0.101 setrgbcolor
fill
grestore
gsave
1116 652.3 7.2 7.2 clipbox
940.645822 223.501656 m
915.261462 227.903114 l
916.295206 246.39751 l
941.760185 242.02042 l
cl
0.500 0.157 0.080 setrgbcolor
fill
grestore
gsave
1116 652.3 7.2 7.2 clipbox
549.910791 251.75289 m
566.23923 260.320867 l
565.788899 453.561006 l
548.932728 445.524137 l
cl
1.000 0.440 0.226 setrgbcolor
fill
grestore
gsave
1116 652.3 7.2 7.2 clipbox
651.710051 245.301567 m
627.166352 249.614491 l
628.301576 395.24837 l
653.443137 391.133079 l
cl
0.500 0.237 0.122 setrgbcolor
fill
grestore
gsave
1116 652.3 7.2 7.2 clipbox
672.718203 230.05593 m
688.71268 238.799305 l
690.017111 311.026536 l
673.834821 302.476325 l
cl
1.000 0.516 0.268 setrgbcolor
fill
grestore
gsave
1116 652.3 7.2 7.2 clipbox
925.57362 214.632521 m
900.115894 219.070255 l
915.261462 227.903114 l
940.645822 223.501656 l
cl
0.625 0.197 0.100 setrgbcolor
fill
grestore
gsave
1116 652.3 7.2 7.2 clipbox
760.185433 214.602685 m
735.066632 219.040541 l
750.887703 227.873643 l
775.935909 223.472064 l
cl
0.625 0.348 0.182 setrgbcolor
fill
grestore
gsave
1116 652.3 7.2 7.2 clipbox
594.792683 214.572848 m
570.012827 219.010827 l
586.509438 227.844171 l
611.221471 223.442471 l
cl
0.594 0.475 0.261 setrgbcolor
fill
grestore
gsave
1116 652.3 7.2 7.2 clipbox
429.395372 214.54301 m
404.954478 218.981111 l
422.126666 227.814698 l
446.502509 223.412878 l
cl
0.482 0.569 0.339 setrgbcolor
fill
grestore
gsave
1116 652.3 7.2 7.2 clipbox
900.115894 219.070255 m
915.261462 227.903114 l
916.295206 246.39751 l
901.106966 237.613496 l
cl
1.000 0.315 0.159 setrgbcolor
fill
grestore
gsave
1116 652.3 7.2 7.2 clipbox
611.002787 240.959481 m
627.166352 249.614491 l
628.301576 395.24837 l
611.749744 386.989556 l
cl
1.000 0.473 0.244 setrgbcolor
fill
grestore
gsave
1116 652.3 7.2 7.2 clipbox
775.935909 223.472064 m
750.887703 227.873643 l
752.012644 267.390154 l
777.228671 263.040925 l
cl
0.500 0.279 0.146 setrgbcolor
fill
grestore
gsave
1116 652.3 7.2 7.2 clipbox
574.273384 247.448637 m
590.536373 256.051269 l
590.865952 449.55633 l
574.079505 441.485906 l
cl
1.000 0.440 0.226 setrgbcolor
fill
grestore
gsave
1116 652.3 7.2 7.2 clipbox
697.581069 225.663291 m
713.506708 234.442392 l
715.112715 306.765984 l
699.000958 298.180414 l
cl
1.000 0.516 0.268 setrgbcolor
fill
grestore
gsave
1116 652.3 7.2 7.2 clipbox
491.370286 521.590477 m
466.748432 525.407029 l
483.704698 533.003385 l
508.260173 529.2181 l
cl
0.625 0.000 0.000 setrgbcolor
fill
grestore
gsave
1116 652.3 7.2 7.2 clipbox
735.066632 219.040541 m
750.887703 227.873643 l
752.012644 267.390154 l
736.091474 258.661988 l
cl
1.000 0.557 0.291 setrgbcolor
fill
grestore
gsave
1116 652.3 7.2 7.2 clipbox
925.57362 214.632521 m
940.645822 223.501656 l
941.760185 242.02042 l
926.645784 233.200218 l
cl
1.000 0.315 0.159 setrgbcolor
fill
grestore
gsave
1116 652.3 7.2 7.2 clipbox
574.273384 247.448637 m
549.910791 251.75289 l
548.932728 445.524137 l
574.079505 441.485906 l
cl
0.500 0.220 0.113 setrgbcolor
fill
grestore
gsave
1116 652.3 7.2 7.2 clipbox
553.493814 483.347503 m
528.729614 487.244982 l
545.441554 495.002383 l
570.138248 491.136854 l
cl
0.625 0.023 0.012 setrgbcolor
fill
grestore
gsave
1116 652.3 7.2 7.2 clipbox
635.61361 236.611372 m
651.710051 245.301567 l
653.443137 391.133079 l
636.961751 382.839874 l
cl
1.000 0.473 0.244 setrgbcolor
fill
grestore
gsave
1116 652.3 7.2 7.2 clipbox
697.581069 225.663291 m
672.718203 230.05593 l
673.834821 302.476325 l
699.000958 298.180414 l
cl
0.500 0.258 0.134 setrgbcolor
fill
grestore
gsave
1116 652.3 7.2 7.2 clipbox
926.645784 233.200218 m
901.106966 237.613496 l
916.295206 246.39751 l
941.760185 242.02042 l
cl
0.625 0.197 0.100 setrgbcolor
fill
grestore
gsave
1116 652.3 7.2 7.2 clipbox
677.894781 402.489275 m
652.862224 406.555113 l
669.072882 414.647585 l
694.035766 410.615093 l
cl
0.625 0.084 0.042 setrgbcolor
fill
grestore
gsave
1116 652.3 7.2 7.2 clipbox
925.57362 214.632521 m
900.115894 219.070255 l
901.106966 237.613496 l
926.645784 233.200218 l
cl
0.500 0.157 0.080 setrgbcolor
fill
grestore
gsave
1116 652.3 7.2 7.2 clipbox
635.61361 236.611372 m
611.002787 240.959481 l
611.749744 386.989556 l
636.961751 382.839874 l
cl
0.500 0.237 0.122 setrgbcolor
fill
grestore
gsave
1116 652.3 7.2 7.2 clipbox
839.007416 212.388867 m
813.701103 216.835801 l
814.274473 231.52981 l
839.644259 227.10224 l
cl
0.500 0.299 0.157 setrgbcolor
fill
grestore
gsave
1116 652.3 7.2 7.2 clipbox
760.185433 214.602685 m
775.935909 223.472064 l
777.228671 263.040925 l
761.379052 254.276675 l
cl
1.000 0.557 0.291 setrgbcolor
fill
grestore
gsave
1116 652.3 7.2 7.2 clipbox
823.43657 203.42781 m
798.057862 207.911586 l
813.701103 216.835801 l
839.007416 212.388867 l
cl
0.625 0.374 0.197 setrgbcolor
fill
grestore
gsave
1116 652.3 7.2 7.2 clipbox
657.190339 203.397665 m
632.154078 207.881564 l
648.479821 216.806026 l
673.446501 212.358969 l
cl
0.575 0.494 0.275 setrgbcolor
fill
grestore
gsave
1116 652.3 7.2 7.2 clipbox
490.939498 203.367518 m
466.245704 207.851541 l
483.253986 216.77625 l
507.881014 212.32907 l
cl
0.467 0.579 0.348 setrgbcolor
fill
grestore
gsave
1116 652.3 7.2 7.2 clipbox
324.684048 203.33737 m
300.33274 207.821518 l
318.023598 216.746473 l
342.310956 212.299171 l
cl
0.354 0.622 0.418 setrgbcolor
fill
grestore
gsave
1116 652.3 7.2 7.2 clipbox
798.057862 207.911586 m
813.701103 216.835801 l
814.274473 231.52981 l
798.59502 222.64441 l
cl
1.000 0.598 0.315 setrgbcolor
fill
grestore
gsave
1116 652.3 7.2 7.2 clipbox
760.185433 214.602685 m
735.066632 219.040541 l
736.091474 258.661988 l
761.379052 254.276675 l
cl
0.500 0.279 0.146 setrgbcolor
fill
grestore
gsave
1116 652.3 7.2 7.2 clipbox
428.310219 256.022564 m
404.339178 260.292278 l
396.13501 541.257592 l
421.208865 537.381329 l
cl
0.500 0.332 0.178 setrgbcolor
fill
grestore
gsave
1116 652.3 7.2 7.2 clipbox
761.379052 254.276675 m
736.091474 258.661988 l
752.012644 267.390154 l
777.228671 263.040925 l
cl
0.625 0.348 0.182 setrgbcolor
fill
grestore
gsave
1116 652.3 7.2 7.2 clipbox
387.355455 251.72407 m
404.339178 260.292278 l
396.13501 541.257592 l
378.321233 533.4782 l
cl
1.000 0.665 0.355 setrgbcolor
fill
grestore
gsave
1116 652.3 7.2 7.2 clipbox
699.000958 298.180414 m
673.834821 302.476325 l
690.017111 311.026536 l
715.112715 306.765984 l
cl
0.625 0.322 0.167 setrgbcolor
fill
grestore
gsave
1116 652.3 7.2 7.2 clipbox
488.662864 245.272571 m
464.448573 249.585612 l
459.867243 487.475609 l
485.031608 483.492804 l
cl
0.500 0.350 0.189 setrgbcolor
fill
grestore
gsave
1116 652.3 7.2 7.2 clipbox
823.43657 203.42781 m
839.007416 212.388867 l
839.644259 227.10224 l
824.037568 218.180069 l
cl
1.000 0.598 0.315 setrgbcolor
fill
grestore
gsave
1116 652.3 7.2 7.2 clipbox
385.749085 234.383807 m
361.620605 238.740958 l
355.173679 415.757422 l
380.00153 411.642738 l
cl
0.401 0.445 0.261 setrgbcolor
fill
grestore
gsave
1116 652.3 7.2 7.2 clipbox
824.037568 218.180069 m
798.59502 222.64441 l
814.274473 231.52981 l
839.644259 227.10224 l
cl
0.625 0.374 0.197 setrgbcolor
fill
grestore
gsave
1116 652.3 7.2 7.2 clipbox
447.623075 240.930367 m
464.448573 249.585612 l
459.867243 487.475609 l
442.35409 479.482425 l
cl
1.000 0.701 0.378 setrgbcolor
fill
grestore
gsave
1116 652.3 7.2 7.2 clipbox
823.43657 203.42781 m
798.057862 207.911586 l
798.59502 222.64441 l
824.037568 218.180069 l
cl
0.500 0.299 0.157 setrgbcolor
fill
grestore
gsave
1116 652.3 7.2 7.2 clipbox
344.288722 229.997105 m
361.620605 238.740958 l
355.173679 415.757422 l
337.301506 407.499648 l
cl
0.802 0.890 0.521 setrgbcolor
fill
grestore
gsave
1116 652.3 7.2 7.2 clipbox
411.389298 247.419699 m
428.310219 256.022564 l
421.208865 537.381329 l
403.463759 529.568996 l
cl
1.000 0.665 0.355 setrgbcolor
fill
grestore
gsave
1116 652.3 7.2 7.2 clipbox
673.446501 212.358969 m
648.479821 216.806026 l
649.350169 293.147056 l
674.637949 288.802227 l
cl
0.460 0.395 0.220 setrgbcolor
fill
grestore
gsave
1116 652.3 7.2 7.2 clipbox
902.731194 201.19105 m
877.162764 205.684045 l
878.020689 222.938436 l
903.664939 218.468222 l
cl
0.500 0.313 0.166 setrgbcolor
fill
grestore
gsave
1116 652.3 7.2 7.2 clipbox
411.389298 247.419699 m
387.355455 251.72407 l
378.321233 533.4782 l
403.463759 529.568996 l
cl
0.500 0.332 0.178 setrgbcolor
fill
grestore
gsave
1116 652.3 7.2 7.2 clipbox
549.630136 234.4131 m
525.168873 238.770132 l
523.248195 448.007858 l
548.55969 443.939717 l
cl
0.487 0.367 0.201 setrgbcolor
fill
grestore
gsave
1116 652.3 7.2 7.2 clipbox
887.344555 192.136887 m
861.701885 196.667298 l
877.162764 205.684045 l
902.731194 201.19105 l
cl
0.625 0.392 0.208 setrgbcolor
fill
grestore
gsave
1116 652.3 7.2 7.2 clipbox
720.235988 192.106428 m
694.939324 196.636964 l
711.089773 205.653962 l
736.315056 201.160842 l
cl
0.555 0.512 0.289 setrgbcolor
fill
grestore
gsave
1116 652.3 7.2 7.2 clipbox
553.122764 192.075967 m
528.172125 196.60663 l
545.012183 205.623877 l
569.894299 201.130634 l
cl
0.447 0.589 0.361 setrgbcolor
fill
grestore
gsave
1116 652.3 7.2 7.2 clipbox
386.004881 192.045506 m
361.400287 196.576295 l
378.929992 205.593792 l
403.468923 201.100424 l
cl
0.339 0.624 0.427 setrgbcolor
fill
grestore
gsave
1116 652.3 7.2 7.2 clipbox
632.154078 207.881564 m
648.479821 216.806026 l
649.350169 293.147056 l
632.818847 284.427516 l
cl
0.920 0.791 0.440 setrgbcolor
fill
grestore
gsave
1116 652.3 7.2 7.2 clipbox
471.901802 236.582139 m
488.662864 245.272571 l
485.031608 483.492804 l
467.588025 475.465833 l
cl
1.000 0.701 0.378 setrgbcolor
fill
grestore
gsave
1116 652.3 7.2 7.2 clipbox
368.480582 225.604225 m
385.749085 234.383807 l
380.00153 411.642738 l
362.196428 403.350221 l
cl
0.802 0.890 0.521 setrgbcolor
fill
grestore
gsave
1116 652.3 7.2 7.2 clipbox
861.701885 196.667298 m
877.162764 205.684045 l
878.020689 222.938436 l
862.518518 213.967352 l
cl
1.000 0.627 0.332 setrgbcolor
fill
grestore
gsave
1116 652.3 7.2 7.2 clipbox
611.221471 223.442471 m
586.509438 227.844171 l
586.669482 381.83965 l
612.018185 377.647986 l
cl
0.475 0.380 0.209 setrgbcolor
fill
grestore
gsave
1116 652.3 7.2 7.2 clipbox
446.502509 223.412878 m
422.126666 227.814698 l
417.998796 384.232053 l
443.003519 380.043701 l
cl
0.385 0.456 0.271 setrgbcolor
fill
grestore
gsave
1116 652.3 7.2 7.2 clipbox
508.505711 230.026518 m
525.168873 238.770132 l
523.248195 448.007858 l
505.993736 439.843402 l
cl
0.975 0.735 0.401 setrgbcolor
fill
grestore
gsave
1116 652.3 7.2 7.2 clipbox
736.315056 201.160842 m
711.089773 205.653962 l
711.928773 243.95026 l
737.317933 239.507982 l
cl
0.444 0.410 0.231 setrgbcolor
fill
grestore
gsave
1116 652.3 7.2 7.2 clipbox
471.901802 236.582139 m
447.623075 240.930367 l
442.35409 479.482425 l
467.588025 475.465833 l
cl
0.500 0.350 0.189 setrgbcolor
fill
grestore
gsave
1116 652.3 7.2 7.2 clipbox
368.480582 225.604225 m
344.288722 229.997105 l
337.301506 407.499648 l
362.196428 403.350221 l
cl
0.401 0.445 0.261 setrgbcolor
fill
grestore
gsave
1116 652.3 7.2 7.2 clipbox
570.012827 219.010827 m
586.509438 227.844171 l
586.669482 381.83965 l
569.747862 373.427359 l
cl
0.951 0.759 0.418 setrgbcolor
fill
grestore
gsave
1116 652.3 7.2 7.2 clipbox
404.954478 218.981111 m
422.126666 227.814698 l
417.998796 384.232053 l
400.359116 375.826403 l
cl
0.771 0.911 0.542 setrgbcolor
fill
grestore
gsave
1116 652.3 7.2 7.2 clipbox
694.939324 196.636964 m
711.089773 205.653962 l
711.928773 243.95026 l
695.677809 235.035175 l
cl
0.888 0.820 0.462 setrgbcolor
fill
grestore
gsave
1116 652.3 7.2 7.2 clipbox
657.190339 203.397665 m
673.446501 212.358969 l
674.637949 288.802227 l
658.178017 280.046229 l
cl
0.920 0.791 0.440 setrgbcolor
fill
grestore
gsave
1116 652.3 7.2 7.2 clipbox
887.344555 192.136887 m
902.731194 201.19105 l
903.664939 218.468222 l
888.237454 209.459804 l
cl
1.000 0.627 0.332 setrgbcolor
fill
grestore
gsave
1116 652.3 7.2 7.2 clipbox
342.310956 212.299171 m
318.023598 216.746473 l
312.729376 337.503297 l
337.49694 333.219548 l
cl
0.283 0.497 0.335 setrgbcolor
fill
grestore
gsave
1116 652.3 7.2 7.2 clipbox
888.237454 209.459804 m
862.518518 213.967352 l
878.020689 222.938436 l
903.664939 218.468222 l
cl
0.625 0.392 0.208 setrgbcolor
fill
grestore
gsave
1116 652.3 7.2 7.2 clipbox
533.033084 225.633758 m
549.630136 234.4131 l
548.55969 443.939717 l
531.37601 435.740732 l
cl
0.975 0.735 0.401 setrgbcolor
fill
grestore
gsave
1116 652.3 7.2 7.2 clipbox
657.190339 203.397665 m
632.154078 207.881564 l
632.818847 284.427516 l
658.178017 280.046229 l
cl
0.460 0.395 0.220 setrgbcolor
fill
grestore
gsave
1116 652.3 7.2 7.2 clipbox
636.961751 382.839874 m
611.749744 386.989556 l
628.301576 395.24837 l
653.443137 391.133079 l
cl
0.625 0.296 0.152 setrgbcolor
fill
grestore
gsave
1116 652.3 7.2 7.2 clipbox
887.344555 192.136887 m
861.701885 196.667298 l
862.518518 213.967352 l
888.237454 209.459804 l
cl
0.500 0.313 0.166 setrgbcolor
fill
grestore
gsave
1116 652.3 7.2 7.2 clipbox
594.792683 214.572848 m
611.221471 223.442471 l
612.018185 377.647986 l
595.167935 369.200253 l
cl
0.951 0.759 0.418 setrgbcolor
fill
grestore
gsave
1116 652.3 7.2 7.2 clipbox
511.215635 468.967758 m
486.260114 472.939105 l
503.335944 480.842982 l
528.22316 476.904555 l
cl
0.625 0.247 0.126 setrgbcolor
fill
grestore
gsave
1116 652.3 7.2 7.2 clipbox
429.395372 214.54301 m
446.502509 223.412878 l
443.003519 380.043701 l
425.43227 371.602623 l
cl
0.771 0.911 0.542 setrgbcolor
fill
grestore
gsave
1116 652.3 7.2 7.2 clipbox
300.33274 207.821518 m
318.023598 216.746473 l
312.729376 337.503297 l
294.657579 328.906205 l
cl
0.567 0.995 0.669 setrgbcolor
fill
grestore
gsave
1116 652.3 7.2 7.2 clipbox
533.033084 225.633758 m
508.505711 230.026518 l
505.993736 439.843402 l
531.37601 435.740732 l
cl
0.487 0.367 0.201 setrgbcolor
fill
grestore
gsave
1116 652.3 7.2 7.2 clipbox
720.235988 192.106428 m
736.315056 201.160842 l
737.317933 239.507982 l
721.139286 230.555664 l
cl
0.888 0.820 0.462 setrgbcolor
fill
grestore
gsave
1116 652.3 7.2 7.2 clipbox
799.83717 189.846304 m
774.349246 194.386205 l
774.838205 209.401338 l
800.391499 204.881272 l
cl
0.432 0.420 0.239 setrgbcolor
fill
grestore
gsave
1116 652.3 7.2 7.2 clipbox
594.792683 214.572848 m
570.012827 219.010827 l
569.747862 373.427359 l
595.167935 369.200253 l
cl
0.475 0.380 0.209 setrgbcolor
fill
grestore
gsave
1116 652.3 7.2 7.2 clipbox
429.395372 214.54301 m
404.954478 218.981111 l
400.359116 375.826403 l
425.43227 371.602623 l
cl
0.385 0.456 0.271 setrgbcolor
fill
grestore
gsave
1116 652.3 7.2 7.2 clipbox
507.881014 212.32907 m
483.253986 216.77625 l
480.862003 364.246556 l
506.092391 360.000467 l
cl
0.374 0.463 0.279 setrgbcolor
fill
grestore
gsave
1116 652.3 7.2 7.2 clipbox
783.939779 180.69732 m
758.378627 185.275226 l
774.349246 194.386205 l
799.83717 189.846304 l
cl
0.540 0.525 0.299 setrgbcolor
fill
grestore
gsave
1116 652.3 7.2 7.2 clipbox
615.955177 180.666541 m
590.743665 185.244574 l
607.411073 194.355808 l
632.552261 189.81578 l
cl
0.428 0.599 0.374 setrgbcolor
fill
grestore
gsave
1116 652.3 7.2 7.2 clipbox
447.965869 180.635761 m
423.104015 185.213922 l
440.468251 194.32541 l
465.262685 189.785256 l
cl
0.320 0.625 0.438 setrgbcolor
fill
grestore
gsave
1116 652.3 7.2 7.2 clipbox
448.133135 521.096475 m
423.270606 524.965327 l
440.634377 532.66514 l
465.429482 528.828408 l
cl
0.625 0.219 0.111 setrgbcolor
fill
grestore
gsave
1116 652.3 7.2 7.2 clipbox
279.971854 180.604979 m
255.459679 185.183269 l
273.520782 194.295011 l
297.968441 189.754731 l
cl
0.212 0.605 0.494 setrgbcolor
fill
grestore
gsave
1116 652.3 7.2 7.2 clipbox
720.235988 192.106428 m
694.939324 196.636964 l
695.677809 235.035175 l
721.139286 230.555664 l
cl
0.444 0.410 0.231 setrgbcolor
fill
grestore
gsave
1116 652.3 7.2 7.2 clipbox
758.378627 185.275226 m
774.349246 194.386205 l
774.838205 209.401338 l
758.829225 200.330117 l
cl
0.865 0.840 0.479 setrgbcolor
fill
grestore
gsave
1116 652.3 7.2 7.2 clipbox
324.684048 203.33737 m
342.310956 212.299171 l
337.49694 333.219548 l
319.491617 324.586244 l
cl
0.567 0.995 0.669 setrgbcolor
fill
grestore
gsave
1116 652.3 7.2 7.2 clipbox
466.245704 207.851541 m
483.253986 216.77625 l
480.862003 364.246556 l
463.422524 355.724965 l
cl
0.747 0.926 0.557 setrgbcolor
fill
grestore
gsave
1116 652.3 7.2 7.2 clipbox
574.079505 441.485906 m
548.932728 445.524137 l
565.788899 453.561006 l
590.865952 449.55633 l
cl
0.625 0.275 0.141 setrgbcolor
fill
grestore
gsave
1116 652.3 7.2 7.2 clipbox
721.139286 230.555664 m
695.677809 235.035175 l
711.928773 243.95026 l
737.317933 239.507982 l
cl
0.555 0.512 0.289 setrgbcolor
fill
grestore
gsave
1116 652.3 7.2 7.2 clipbox
403.468923 201.100424 m
378.929992 205.593792 l
375.278177 313.88215 l
400.255406 309.535174 l
cl
0.272 0.499 0.341 setrgbcolor
fill
grestore
gsave
1116 652.3 7.2 7.2 clipbox
324.684048 203.33737 m
300.33274 207.821518 l
294.657579 328.906205 l
319.491617 324.586244 l
cl
0.283 0.497 0.335 setrgbcolor
fill
grestore
gsave
1116 652.3 7.2 7.2 clipbox
569.894299 201.130634 m
545.012183 205.623877 l
544.335724 320.143076 l
569.69466 315.804895 l
cl
0.358 0.472 0.289 setrgbcolor
fill
grestore
gsave
1116 652.3 7.2 7.2 clipbox
783.939779 180.69732 m
799.83717 189.846304 l
800.391499 204.881272 l
784.456126 195.772117 l
cl
0.865 0.840 0.479 setrgbcolor
fill
grestore
gsave
1116 652.3 7.2 7.2 clipbox
658.178017 280.046229 m
632.818847 284.427516 l
649.350169 293.147056 l
674.637949 288.802227 l
cl
0.575 0.494 0.275 setrgbcolor
fill
grestore
gsave
1116 652.3 7.2 7.2 clipbox
632.552261 189.81578 m
607.411073 194.355808 l
607.654022 247.722974 l
633.021331 243.25416 l
cl
0.342 0.479 0.299 setrgbcolor
fill
grestore
gsave
1116 652.3 7.2 7.2 clipbox
784.456126 195.772117 m
758.829225 200.330117 l
774.838205 209.401338 l
800.391499 204.881272 l
cl
0.540 0.525 0.299 setrgbcolor
fill
grestore
gsave
1116 652.3 7.2 7.2 clipbox
361.400287 196.576295 m
378.929992 205.593792 l
375.278177 313.88215 l
357.413765 305.15811 l
cl
0.543 0.998 0.683 setrgbcolor
fill
grestore
gsave
1116 652.3 7.2 7.2 clipbox
490.939498 203.367518 m
507.881014 212.32907 l
506.092391 360.000467 l
488.72298 351.442824 l
cl
0.747 0.926 0.557 setrgbcolor
fill
grestore
gsave
1116 652.3 7.2 7.2 clipbox
783.939779 180.69732 m
758.378627 185.275226 l
758.829225 200.330117 l
784.456126 195.772117 l
cl
0.432 0.420 0.239 setrgbcolor
fill
grestore
gsave
1116 652.3 7.2 7.2 clipbox
528.172125 196.60663 m
545.012183 205.623877 l
544.335724 320.143076 l
527.168445 311.436668 l
cl
0.716 0.943 0.578 setrgbcolor
fill
grestore
gsave
1116 652.3 7.2 7.2 clipbox
590.743665 185.244574 m
607.411073 194.355808 l
607.654022 247.722974 l
590.837751 238.754488 l
cl
0.684 0.958 0.598 setrgbcolor
fill
grestore
gsave
1116 652.3 7.2 7.2 clipbox
490.939498 203.367518 m
466.245704 207.851541 l
463.422524 355.724965 l
488.72298 351.442824 l
cl
0.374 0.463 0.279 setrgbcolor
fill
grestore
gsave
1116 652.3 7.2 7.2 clipbox
297.968441 189.754731 m
273.520782 194.295011 l
269.61563 270.16029 l
294.366948 265.721842 l
cl
0.170 0.484 0.395 setrgbcolor
fill
grestore
gsave
1116 652.3 7.2 7.2 clipbox
864.023089 178.413529 m
838.2684 183.000946 l
838.918518 197.989996 l
864.739605 193.422401 l
cl
0.417 0.433 0.250 setrgbcolor
fill
grestore
gsave
1116 652.3 7.2 7.2 clipbox
386.004881 192.045506 m
403.468923 201.100424 l
400.255406 309.535174 l
382.459004 300.774272 l
cl
0.543 0.998 0.683 setrgbcolor
fill
grestore
gsave
1116 652.3 7.2 7.2 clipbox
848.31207 169.168487 m
822.482261 173.794508 l
838.2684 183.000946 l
864.023089 178.413529 l
cl
0.521 0.541 0.313 setrgbcolor
fill
grestore
gsave
1116 652.3 7.2 7.2 clipbox
679.446956 169.137384 m
653.970457 173.763535 l
670.460679 182.970231 l
695.865006 178.382686 l
cl
0.413 0.605 0.383 setrgbcolor
fill
grestore
gsave
1116 652.3 7.2 7.2 clipbox
510.577086 169.106279 m
485.453918 173.732561 l
502.648261 182.939515 l
527.702207 178.351841 l
cl
0.300 0.625 0.449 setrgbcolor
fill
grestore
gsave
1116 652.3 7.2 7.2 clipbox
341.70246 169.075174 m
316.932642 173.701586 l
334.831146 182.908798 l
359.534693 178.320996 l
cl
0.192 0.597 0.503 setrgbcolor
fill
grestore
gsave
1116 652.3 7.2 7.2 clipbox
255.459679 185.183269 m
273.520782 194.295011 l
269.61563 270.16029 l
251.307129 261.252674 l
cl
0.339 0.968 0.791 setrgbcolor
fill
grestore
gsave
1116 652.3 7.2 7.2 clipbox
465.262685 189.785256 m
440.468251 194.32541 l
438.370873 283.725163 l
463.533614 279.30543 l
cl
0.256 0.500 0.350 setrgbcolor
fill
grestore
gsave
1116 652.3 7.2 7.2 clipbox
822.482261 173.794508 m
838.2684 183.000946 l
838.918518 197.989996 l
823.095165 188.823289 l
cl
0.833 0.866 0.500 setrgbcolor
fill
grestore
gsave
1116 652.3 7.2 7.2 clipbox
553.122764 192.075967 m
569.894299 201.130634 l
569.69466 315.804895 l
552.598555 307.061662 l
cl
0.716 0.943 0.578 setrgbcolor
fill
grestore
gsave
1116 652.3 7.2 7.2 clipbox
615.955177 180.666541 m
632.552261 189.81578 l
633.021331 243.25416 l
616.276659 234.247926 l
cl
0.684 0.958 0.598 setrgbcolor
fill
grestore
gsave
1116 652.3 7.2 7.2 clipbox
695.865006 178.382686 m
670.460679 182.970231 l
670.909307 212.561027 l
696.441224 208.012766 l
cl
0.330 0.484 0.306 setrgbcolor
fill
grestore
gsave
1116 652.3 7.2 7.2 clipbox
386.004881 192.045506 m
361.400287 196.576295 l
357.413765 305.15811 l
382.459004 300.774272 l
cl
0.272 0.499 0.341 setrgbcolor
fill
grestore
gsave
1116 652.3 7.2 7.2 clipbox
423.104015 185.213922 m
440.468251 194.32541 l
438.370873 283.725163 l
420.736163 274.855066 l
cl
0.512 1.000 0.701 setrgbcolor
fill
grestore
gsave
1116 652.3 7.2 7.2 clipbox
553.122764 192.075967 m
528.172125 196.60663 l
527.168445 311.436668 l
552.598555 307.061662 l
cl
0.358 0.472 0.289 setrgbcolor
fill
grestore
gsave
1116 652.3 7.2 7.2 clipbox
615.955177 180.666541 m
590.743665 185.244574 l
590.837751 238.754488 l
616.276659 234.247926 l
cl
0.342 0.479 0.299 setrgbcolor
fill
grestore
gsave
1116 652.3 7.2 7.2 clipbox
653.970457 173.763535 m
670.460679 182.970231 l
670.909307 212.561027 l
654.338595 203.433073 l
cl
0.661 0.968 0.612 setrgbcolor
fill
grestore
gsave
1116 652.3 7.2 7.2 clipbox
279.971854 180.604979 m
297.968441 189.754731 l
294.366948 265.721842 l
276.124552 256.776592 l
cl
0.339 0.968 0.791 setrgbcolor
fill
grestore
gsave
1116 652.3 7.2 7.2 clipbox
848.31207 169.168487 m
864.023089 178.413529 l
864.739605 193.422401 l
848.991765 184.217159 l
cl
0.833 0.866 0.500 setrgbcolor
fill
grestore
gsave
1116 652.3 7.2 7.2 clipbox
848.991765 184.217159 m
823.095165 188.823289 l
838.918518 197.989996 l
864.739605 193.422401 l
cl
0.521 0.541 0.313 setrgbcolor
fill
grestore
gsave
1116 652.3 7.2 7.2 clipbox
359.534693 178.320996 m
334.831146 182.908798 l
332.263282 245.136365 l
357.220397 240.631888 l
cl
0.154 0.477 0.403 setrgbcolor
fill
grestore
gsave
1116 652.3 7.2 7.2 clipbox
279.971854 180.604979 m
255.459679 185.183269 l
251.307129 261.252674 l
276.124552 256.776592 l
cl
0.170 0.484 0.395 setrgbcolor
fill
grestore
gsave
1116 652.3 7.2 7.2 clipbox
362.196428 403.350221 m
337.301506 407.499648 l
355.173679 415.757422 l
380.00153 411.642738 l
cl
0.501 0.556 0.326 setrgbcolor
fill
grestore
gsave
1116 652.3 7.2 7.2 clipbox
447.965869 180.635761 m
465.262685 189.785256 l
463.533614 279.30543 l
445.968333 270.397774 l
cl
0.512 1.000 0.701 setrgbcolor
fill
grestore
gsave
1116 652.3 7.2 7.2 clipbox
848.31207 169.168487 m
822.482261 173.794508 l
823.095165 188.823289 l
848.991765 184.217159 l
cl
0.417 0.433 0.250 setrgbcolor
fill
grestore
gsave
1116 652.3 7.2 7.2 clipbox
679.446956 169.137384 m
695.865006 178.382686 l
696.441224 208.012766 l
679.943414 198.846345 l
cl
0.661 0.968 0.612 setrgbcolor
fill
grestore
gsave
1116 652.3 7.2 7.2 clipbox
616.276659 234.247926 m
590.837751 238.754488 l
607.654022 247.722974 l
633.021331 243.25416 l
cl
0.428 0.599 0.374 setrgbcolor
fill
grestore
gsave
1116 652.3 7.2 7.2 clipbox
527.702207 178.351841 m
502.648261 182.939515 l
501.741945 252.379541 l
527.087084 247.885027 l
cl
0.240 0.500 0.359 setrgbcolor
fill
grestore
gsave
1116 652.3 7.2 7.2 clipbox
759.842852 166.829486 m
734.171232 171.465299 l
734.479851 183.37085 l
760.203712 178.750784 l
cl
0.315 0.490 0.316 setrgbcolor
fill
grestore
gsave
1116 652.3 7.2 7.2 clipbox
316.932642 173.701586 m
334.831146 182.908798 l
332.263282 245.136365 l
314.165848 236.096179 l
cl
0.308 0.955 0.805 setrgbcolor
fill
grestore
gsave
1116 652.3 7.2 7.2 clipbox
447.965869 180.635761 m
423.104015 185.213922 l
420.736163 274.855066 l
445.968333 270.397774 l
cl
0.256 0.500 0.350 setrgbcolor
fill
grestore
gsave
1116 652.3 7.2 7.2 clipbox
319.491617 324.586244 m
294.657579 328.906205 l
312.729376 337.503297 l
337.49694 333.219548 l
cl
0.354 0.622 0.418 setrgbcolor
fill
grestore
gsave
1116 652.3 7.2 7.2 clipbox
679.446956 169.137384 m
653.970457 173.763535 l
654.338595 203.433073 l
679.943414 198.846345 l
cl
0.330 0.484 0.306 setrgbcolor
fill
grestore
gsave
1116 652.3 7.2 7.2 clipbox
595.167935 369.200253 m
569.747862 373.427359 l
586.669482 381.83965 l
612.018185 377.647986 l
cl
0.594 0.475 0.261 setrgbcolor
fill
grestore
gsave
1116 652.3 7.2 7.2 clipbox
485.453918 173.732561 m
502.648261 182.939515 l
501.741945 252.379541 l
484.342171 243.359326 l
cl
0.480 1.000 0.718 setrgbcolor
fill
grestore
gsave
1116 652.3 7.2 7.2 clipbox
679.943414 198.846345 m
654.338595 203.433073 l
670.909307 212.561027 l
696.441224 208.012766 l
cl
0.413 0.605 0.383 setrgbcolor
fill
grestore
gsave
1116 652.3 7.2 7.2 clipbox
425.43227 371.602623 m
400.359116 375.826403 l
417.998796 384.232053 l
443.003519 380.043701 l
cl
0.482 0.569 0.339 setrgbcolor
fill
grestore
gsave
1116 652.3 7.2 7.2 clipbox
717.86285 162.161632 m
734.171232 171.465299 l
734.479851 183.37085 l
718.13993 174.098746 l
cl
0.629 0.979 0.632 setrgbcolor
fill
grestore
gsave
1116 652.3 7.2 7.2 clipbox
743.608535 157.486601 m
717.86285 162.161632 l
734.171232 171.465299 l
759.842852 166.829486 l
cl
0.393 0.612 0.395 setrgbcolor
fill
grestore
gsave
1116 652.3 7.2 7.2 clipbox
573.848823 157.455168 m
548.460198 162.130331 l
565.480111 171.434261 l
590.797667 166.798317 l
cl
0.281 0.623 0.459 setrgbcolor
fill
grestore
gsave
1116 652.3 7.2 7.2 clipbox
404.084305 157.423734 m
379.05276 162.099029 l
396.784243 171.403221 l
421.747716 166.767147 l
cl
0.173 0.587 0.512 setrgbcolor
fill
grestore
gsave
1116 652.3 7.2 7.2 clipbox
234.314981 157.392299 m
209.640536 162.067726 l
228.08363 171.372181 l
252.692999 166.735976 l
cl
0.065 0.508 0.556 setrgbcolor
fill
grestore
gsave
1116 652.3 7.2 7.2 clipbox
590.797667 166.798317 m
565.480111 171.434261 l
565.396829 204.837927 l
590.856967 200.24642 l
cl
0.225 0.498 0.367 setrgbcolor
fill
grestore
gsave
1116 652.3 7.2 7.2 clipbox
341.70246 169.075174 m
359.534693 178.320996 l
357.220397 240.631888 l
339.190587 231.553395 l
cl
0.308 0.955 0.805 setrgbcolor
fill
grestore
gsave
1116 652.3 7.2 7.2 clipbox
510.577086 169.106279 m
527.702207 178.351841 l
527.087084 247.885027 l
509.758146 238.826544 l
cl
0.480 1.000 0.718 setrgbcolor
fill
grestore
gsave
1116 652.3 7.2 7.2 clipbox
252.692999 166.735976 m
228.08363 171.372181 l
225.391207 216.754593 l
250.183405 212.178954 l
cl
0.052 0.406 0.445 setrgbcolor
fill
grestore
gsave
1116 652.3 7.2 7.2 clipbox
548.460198 162.130331 m
565.480111 171.434261 l
565.396829 204.837927 l
548.280391 195.623069 l
cl
0.449 0.997 0.735 setrgbcolor
fill
grestore
gsave
1116 652.3 7.2 7.2 clipbox
743.938159 169.439517 m
718.13993 174.098746 l
734.479851 183.37085 l
760.203712 178.750784 l
cl
0.393 0.612 0.395 setrgbcolor
fill
grestore
gsave
1116 652.3 7.2 7.2 clipbox
743.608535 157.486601 m
759.842852 166.829486 l
760.203712 178.750784 l
743.938159 169.439517 l
cl
0.629 0.979 0.632 setrgbcolor
fill
grestore
gsave
1116 652.3 7.2 7.2 clipbox
341.70246 169.075174 m
316.932642 173.701586 l
314.165848 236.096179 l
339.190587 231.553395 l
cl
0.154 0.477 0.403 setrgbcolor
fill
grestore
gsave
1116 652.3 7.2 7.2 clipbox
421.747716 166.767147 m
396.784243 171.403221 l
395.206545 222.445278 l
420.381765 217.877425 l
cl
0.138 0.469 0.410 setrgbcolor
fill
grestore
gsave
1116 652.3 7.2 7.2 clipbox
276.124552 256.776592 m
251.307129 261.252674 l
269.61563 270.16029 l
294.366948 265.721842 l
cl
0.212 0.605 0.494 setrgbcolor
fill
grestore
gsave
1116 652.3 7.2 7.2 clipbox
382.459004 300.774272 m
357.413765 305.15811 l
375.278177 313.88215 l
400.255406 309.535174 l
cl
0.339 0.624 0.427 setrgbcolor
fill
grestore
gsave
1116 652.3 7.2 7.2 clipbox
510.577086 169.106279 m
485.453918 173.732561 l
484.342171 243.359326 l
509.758146 238.826544 l
cl
0.240 0.500 0.359 setrgbcolor
fill
grestore
gsave
1116 652.3 7.2 7.2 clipbox
467.588025 475.465833 m
442.35409 479.482425 l
459.867243 487.475609 l
485.031608 483.492804 l
cl
0.625 0.438 0.237 setrgbcolor
fill
grestore
gsave
1116 652.3 7.2 7.2 clipbox
209.640536 162.067726 m
228.08363 171.372181 l
225.391207 216.754593 l
206.795083 207.571541 l
cl
0.104 0.813 0.890 setrgbcolor
fill
grestore
gsave
1116 652.3 7.2 7.2 clipbox
743.608535 157.486601 m
717.86285 162.161632 l
718.13993 174.098746 l
743.938159 169.439517 l
cl
0.315 0.490 0.316 setrgbcolor
fill
grestore
gsave
1116 652.3 7.2 7.2 clipbox
379.05276 162.099029 m
396.784243 171.403221 l
395.206545 222.445278 l
377.315249 213.277833 l
cl
0.276 0.939 0.820 setrgbcolor
fill
grestore
gsave
1116 652.3 7.2 7.2 clipbox
531.37601 435.740732 m
505.993736 439.843402 l
523.248195 448.007858 l
548.55969 443.939717 l
cl
0.609 0.459 0.251 setrgbcolor
fill
grestore
gsave
1116 652.3 7.2 7.2 clipbox
552.598555 307.061662 m
527.168445 311.436668 l
544.335724 320.143076 l
569.69466 315.804895 l
cl
0.447 0.589 0.361 setrgbcolor
fill
grestore
gsave
1116 652.3 7.2 7.2 clipbox
488.72298 351.442824 m
463.422524 355.724965 l
480.862003 364.246556 l
506.092391 360.000467 l
cl
0.467 0.579 0.348 setrgbcolor
fill
grestore
gsave
1116 652.3 7.2 7.2 clipbox
573.848823 157.455168 m
590.797667 166.798317 l
590.856967 200.24642 l
573.8124 190.992499 l
cl
0.449 0.997 0.735 setrgbcolor
fill
grestore
gsave
1116 652.3 7.2 7.2 clipbox
824.496334 155.154279 m
798.553182 159.839126 l
798.906193 169.421572 l
824.892139 164.749404 l
cl
0.299 0.494 0.325 setrgbcolor
fill
grestore
gsave
1116 652.3 7.2 7.2 clipbox
445.968333 270.397774 m
420.736163 274.855066 l
438.370873 283.725163 l
463.533614 279.30543 l
cl
0.320 0.625 0.438 setrgbcolor
fill
grestore
gsave
1116 652.3 7.2 7.2 clipbox
403.463759 529.568996 m
378.321233 533.4782 l
396.13501 541.257592 l
421.208865 537.381329 l
cl
0.625 0.415 0.222 setrgbcolor
fill
grestore
gsave
1116 652.3 7.2 7.2 clipbox
654.559454 155.12278 m
628.974106 159.80776 l
629.114545 176.896291 l
654.77414 172.233968 l
cl
0.213 0.497 0.374 setrgbcolor
fill
grestore
gsave
1116 652.3 7.2 7.2 clipbox
234.314981 157.392299 m
252.692999 166.735976 l
250.183405 212.178954 l
231.65331 202.956893 l
cl
0.104 0.813 0.890 setrgbcolor
fill
grestore
gsave
1116 652.3 7.2 7.2 clipbox
573.848823 157.455168 m
548.460198 162.130331 l
548.280391 195.623069 l
573.8124 190.992499 l
cl
0.225 0.498 0.367 setrgbcolor
fill
grestore
gsave
1116 652.3 7.2 7.2 clipbox
782.431409 150.436947 m
798.553182 159.839126 l
798.906193 169.421572 l
782.759735 160.044807 l
cl
0.598 0.988 0.651 setrgbcolor
fill
grestore
gsave
1116 652.3 7.2 7.2 clipbox
339.190587 231.553395 m
314.165848 236.096179 l
332.263282 245.136365 l
357.220397 240.631888 l
cl
0.192 0.597 0.503 setrgbcolor
fill
grestore
gsave
1116 652.3 7.2 7.2 clipbox
808.450569 145.712257 m
782.431409 150.436947 l
798.553182 159.839126 l
824.496334 155.154279 l
cl
0.374 0.618 0.407 setrgbcolor
fill
grestore
gsave
1116 652.3 7.2 7.2 clipbox
637.791588 145.68049 m
612.133277 150.405314 l
628.974106 159.80776 l
654.559454 155.12278 l
cl
0.266 0.621 0.467 setrgbcolor
fill
grestore
gsave
1116 652.3 7.2 7.2 clipbox
467.12775 145.648722 m
441.830308 150.373681 l
459.390235 159.776392 l
484.617758 155.09128 l
cl
0.153 0.576 0.521 setrgbcolor
fill
grestore
gsave
1116 652.3 7.2 7.2 clipbox
296.459054 145.616953 m
271.522501 150.342046 l
289.801567 159.745024 l
314.671245 155.059779 l
cl
0.045 0.489 0.563 setrgbcolor
fill
grestore
gsave
1116 652.3 7.2 7.2 clipbox
404.084305 157.423734 m
421.747716 166.767147 l
420.381765 217.877425 l
402.559692 208.671001 l
cl
0.276 0.939 0.820 setrgbcolor
fill
grestore
gsave
1116 652.3 7.2 7.2 clipbox
573.8124 190.992499 m
548.280391 195.623069 l
565.396829 204.837927 l
590.856967 200.24642 l
cl
0.281 0.623 0.459 setrgbcolor
fill
grestore
gsave
1116 652.3 7.2 7.2 clipbox
612.133277 150.405314 m
628.974106 159.80776 l
629.114545 176.896291 l
612.225535 167.539259 l
cl
0.425 0.993 0.747 setrgbcolor
fill
grestore
gsave
1116 652.3 7.2 7.2 clipbox
234.314981 157.392299 m
209.640536 162.067726 l
206.795083 207.571541 l
231.65331 202.956893 l
cl
0.052 0.406 0.445 setrgbcolor
fill
grestore
gsave
1116 652.3 7.2 7.2 clipbox
314.671245 155.059779 m
289.801567 159.745024 l
287.990176 196.691743 l
313.011418 192.055746 l
cl
0.036 0.391 0.450 setrgbcolor
fill
grestore
gsave
1116 652.3 7.2 7.2 clipbox
509.758146 238.826544 m
484.342171 243.359326 l
501.741945 252.379541 l
527.087084 247.885027 l
cl
0.300 0.625 0.449 setrgbcolor
fill
grestore
gsave
1116 652.3 7.2 7.2 clipbox
404.084305 157.423734 m
379.05276 162.099029 l
377.315249 213.277833 l
402.559692 208.671001 l
cl
0.138 0.469 0.410 setrgbcolor
fill
grestore
gsave
1116 652.3 7.2 7.2 clipbox
484.617758 155.09128 m
459.390235 159.776392 l
458.548571 201.026622 l
483.950317 196.396557 l
cl
0.123 0.460 0.417 setrgbcolor
fill
grestore
gsave
1116 652.3 7.2 7.2 clipbox
808.821941 155.332839 m
782.759735 160.044807 l
798.906193 169.421572 l
824.892139 164.749404 l
cl
0.374 0.618 0.407 setrgbcolor
fill
grestore
gsave
1116 652.3 7.2 7.2 clipbox
808.450569 145.712257 m
824.496334 155.154279 l
824.892139 164.749404 l
808.821941 155.332839 l
cl
0.598 0.988 0.651 setrgbcolor
fill
grestore
gsave
1116 652.3 7.2 7.2 clipbox
271.522501 150.342046 m
289.801567 159.745024 l
287.990176 196.691743 l
269.588912 187.387478 l
cl
0.073 0.783 0.901 setrgbcolor
fill
grestore
gsave
1116 652.3 7.2 7.2 clipbox
231.65331 202.956893 m
206.795083 207.571541 l
225.391207 216.754593 l
250.183405 212.178954 l
cl
0.065 0.508 0.556 setrgbcolor
fill
grestore
gsave
1116 652.3 7.2 7.2 clipbox
441.830308 150.373681 m
459.390235 159.776392 l
458.548571 201.026622 l
440.862275 191.734248 l
cl
0.245 0.921 0.834 setrgbcolor
fill
grestore
gsave
1116 652.3 7.2 7.2 clipbox
637.791588 145.68049 m
654.559454 155.12278 l
654.77414 172.233968 l
637.958518 162.837169 l
cl
0.425 0.993 0.747 setrgbcolor
fill
grestore
gsave
1116 652.3 7.2 7.2 clipbox
637.958518 162.837169 m
612.225535 167.539259 l
629.114545 176.896291 l
654.77414 172.233968 l
cl
0.266 0.621 0.467 setrgbcolor
fill
grestore
gsave
1116 652.3 7.2 7.2 clipbox
808.450569 145.712257 m
782.431409 150.436947 l
782.759735 160.044807 l
808.821941 155.332839 l
cl
0.299 0.494 0.325 setrgbcolor
fill
grestore
gsave
1116 652.3 7.2 7.2 clipbox
402.559692 208.671001 m
377.315249 213.277833 l
395.206545 222.445278 l
420.381765 217.877425 l
cl
0.173 0.587 0.512 setrgbcolor
fill
grestore
gsave
1116 652.3 7.2 7.2 clipbox
637.791588 145.68049 m
612.133277 150.405314 l
612.225535 167.539259 l
637.958518 162.837169 l
cl
0.213 0.497 0.374 setrgbcolor
fill
grestore
gsave
1116 652.3 7.2 7.2 clipbox
718.99818 143.323287 m
693.140769 148.058085 l
693.287662 155.754409 l
719.179112 151.029799 l
cl
0.197 0.493 0.382 setrgbcolor
fill
grestore
gsave
1116 652.3 7.2 7.2 clipbox
296.459054 145.616953 m
314.671245 155.059779 l
313.011418 192.055746 l
294.677834 182.711803 l
cl
0.073 0.783 0.901 setrgbcolor
fill
grestore
gsave
1116 652.3 7.2 7.2 clipbox
467.12775 145.648722 m
484.617758 155.09128 l
483.950317 196.396557 l
466.334904 187.064528 l
cl
0.245 0.921 0.834 setrgbcolor
fill
grestore
gsave
1116 652.3 7.2 7.2 clipbox
548.155281 143.291452 m
522.659495 148.026385 l
522.470181 167.453843 l
548.049508 162.744708 l
cl
0.111 0.453 0.422 setrgbcolor
fill
grestore
gsave
1116 652.3 7.2 7.2 clipbox
676.483795 138.555552 m
693.140769 148.058085 l
693.287662 155.754409 l
676.609542 146.272295 l
cl
0.394 0.986 0.763 setrgbcolor
fill
grestore
gsave
1116 652.3 7.2 7.2 clipbox
296.459054 145.616953 m
271.522501 150.342046 l
269.588912 187.387478 l
294.677834 182.711803 l
cl
0.036 0.391 0.450 setrgbcolor
fill
grestore
gsave
1116 652.3 7.2 7.2 clipbox
702.416112 133.780271 m
676.483795 138.555552 l
693.140769 148.058085 l
718.99818 143.323287 l
cl
0.246 0.616 0.477 setrgbcolor
fill
grestore
gsave
1116 652.3 7.2 7.2 clipbox
530.843374 133.748163 m
505.275776 138.52358 l
522.659495 148.026385 l
548.155281 143.291452 l
cl
0.138 0.566 0.527 setrgbcolor
fill
grestore
gsave
1116 652.3 7.2 7.2 clipbox
359.265727 133.716054 m
334.062869 138.491608 l
352.173374 147.994683 l
377.307513 143.259616 l
cl
0.026 0.470 0.569 setrgbcolor
fill
grestore
gsave
1116 652.3 7.2 7.2 clipbox
467.12775 145.648722 m
441.830308 150.373681 l
440.862275 191.734248 l
466.334904 187.064528 l
cl
0.123 0.460 0.417 setrgbcolor
fill
grestore
gsave
1116 652.3 7.2 7.2 clipbox
377.307513 143.259616 m
352.173374 147.994683 l
351.044269 177.263915 l
376.300675 172.567818 l
cl
0.021 0.376 0.456 setrgbcolor
fill
grestore
gsave
1116 652.3 7.2 7.2 clipbox
505.275776 138.52358 m
522.659495 148.026385 l
522.470181 167.453843 l
505.028295 158.002747 l
cl
0.222 0.906 0.844 setrgbcolor
fill
grestore
gsave
1116 652.3 7.2 7.2 clipbox
294.677834 182.711803 m
269.588912 187.387478 l
287.990176 196.691743 l
313.011418 192.055746 l
cl
0.045 0.489 0.563 setrgbcolor
fill
grestore
gsave
1116 652.3 7.2 7.2 clipbox
702.576096 141.507236 m
676.609542 146.272295 l
693.287662 155.754409 l
719.179112 151.029799 l
cl
0.246 0.616 0.477 setrgbcolor
fill
grestore
gsave
1116 652.3 7.2 7.2 clipbox
334.062869 138.491608 m
352.173374 147.994683 l
351.044269 177.263915 l
332.8389 167.838952 l
cl
0.041 0.751 0.911 setrgbcolor
fill
grestore
gsave
1116 652.3 7.2 7.2 clipbox
466.334904 187.064528 m
440.862275 191.734248 l
458.548571 201.026622 l
483.950317 196.396557 l
cl
0.153 0.576 0.521 setrgbcolor
fill
grestore
gsave
1116 652.3 7.2 7.2 clipbox
702.416112 133.780271 m
718.99818 143.323287 l
719.179112 151.029799 l
702.576096 141.507236 l
cl
0.394 0.986 0.763 setrgbcolor
fill
grestore
gsave
1116 652.3 7.2 7.2 clipbox
530.843374 133.748163 m
548.155281 143.291452 l
548.049508 162.744708 l
530.679905 153.253215 l
cl
0.222 0.906 0.844 setrgbcolor
fill
grestore
gsave
1116 652.3 7.2 7.2 clipbox
702.416112 133.780271 m
676.483795 138.555552 l
676.609542 146.272295 l
702.576096 141.507236 l
cl
0.197 0.493 0.382 setrgbcolor
fill
grestore
gsave
1116 652.3 7.2 7.2 clipbox
530.679905 153.253215 m
505.028295 158.002747 l
522.470181 167.453843 l
548.049508 162.744708 l
cl
0.138 0.566 0.527 setrgbcolor
fill
grestore
gsave
1116 652.3 7.2 7.2 clipbox
359.265727 133.716054 m
377.307513 143.259616 l
376.300675 172.567818 l
358.164689 163.102501 l
cl
0.041 0.751 0.911 setrgbcolor
fill
grestore
gsave
1116 652.3 7.2 7.2 clipbox
784.124683 131.397855 m
757.990846 136.18327 l
758.145216 141.309527 l
784.302133 136.530899 l
cl
0.181 0.488 0.390 setrgbcolor
fill
grestore
gsave
1116 652.3 7.2 7.2 clipbox
530.843374 133.748163 m
505.275776 138.52358 l
505.028295 158.002747 l
530.679905 153.253215 l
cl
0.111 0.453 0.422 setrgbcolor
fill
grestore
gsave
1116 652.3 7.2 7.2 clipbox
612.37097 131.365679 m
586.602621 136.15123 l
586.612726 145.584832 l
612.422378 140.811785 l
cl
0.095 0.442 0.428 setrgbcolor
fill
grestore
gsave
1116 652.3 7.2 7.2 clipbox
359.265727 133.716054 m
334.062869 138.491608 l
332.8389 167.838952 l
358.164689 163.102501 l
cl
0.021 0.376 0.456 setrgbcolor
fill
grestore
gsave
1116 652.3 7.2 7.2 clipbox
741.522621 126.579041 m
757.990846 136.18327 l
758.145216 141.309527 l
741.663286 131.718901 l
cl
0.363 0.977 0.779 setrgbcolor
fill
grestore
gsave
1116 652.3 7.2 7.2 clipbox
358.164689 163.102501 m
332.8389 167.838952 l
351.044269 177.263915 l
376.300675 172.567818 l
cl
0.026 0.470 0.569 setrgbcolor
fill
grestore
gsave
1116 652.3 7.2 7.2 clipbox
569.399882 126.546727 m
586.602621 136.15123 l
586.612726 145.584832 l
569.382413 136.00539 l
cl
0.190 0.884 0.857 setrgbcolor
fill
grestore
gsave
1116 652.3 7.2 7.2 clipbox
440.612338 131.333502 m
415.209497 136.11919 l
414.552844 159.594319 l
440.055546 154.839865 l
cl
0.009 0.363 0.459 setrgbcolor
fill
grestore
gsave
1116 652.3 7.2 7.2 clipbox
767.733357 121.752491 m
741.522621 126.579041 l
757.990846 136.18327 l
784.124683 131.397855 l
cl
0.227 0.611 0.487 setrgbcolor
fill
grestore
gsave
1116 652.3 7.2 7.2 clipbox
595.241987 121.720038 m
569.399882 126.546727 l
586.602621 136.15123 l
612.37097 131.365679 l
cl
0.119 0.552 0.535 setrgbcolor
fill
grestore
gsave
1116 652.3 7.2 7.2 clipbox
422.745655 121.687584 m
397.272202 126.514411 l
415.209497 136.11919 l
440.612338 131.333502 l
cl
0.011 0.454 0.574 setrgbcolor
fill
grestore
gsave
1116 652.3 7.2 7.2 clipbox
767.897239 126.89916 m
741.663286 131.718901 l
758.145216 141.309527 l
784.302133 136.530899 l
cl
0.227 0.611 0.487 setrgbcolor
fill
grestore
gsave
1116 652.3 7.2 7.2 clipbox
397.272202 126.514411 m
415.209497 136.11919 l
414.552844 159.594319 l
396.541062 150.052146 l
cl
0.018 0.726 0.918 setrgbcolor
fill
grestore
gsave
1116 652.3 7.2 7.2 clipbox
767.733357 121.752491 m
784.124683 131.397855 l
784.302133 136.530899 l
767.897239 126.89916 l
cl
0.363 0.977 0.779 setrgbcolor
fill
grestore
gsave
1116 652.3 7.2 7.2 clipbox
595.266057 131.191246 m
569.382413 136.00539 l
586.612726 145.584832 l
612.422378 140.811785 l
cl
0.119 0.552 0.535 setrgbcolor
fill
grestore
gsave
1116 652.3 7.2 7.2 clipbox
595.241987 121.720038 m
612.37097 131.365679 l
612.422378 140.811785 l
595.266057 131.191246 l
cl
0.190 0.884 0.857 setrgbcolor
fill
grestore
gsave
1116 652.3 7.2 7.2 clipbox
767.733357 121.752491 m
741.522621 126.579041 l
741.663286 131.718901 l
767.897239 126.89916 l
cl
0.181 0.488 0.390 setrgbcolor
fill
grestore
gsave
1116 652.3 7.2 7.2 clipbox
595.241987 121.720038 m
569.399882 126.546727 l
569.382413 136.00539 l
595.266057 131.191246 l
cl
0.095 0.442 0.428 setrgbcolor
fill
grestore
gsave
1116 652.3 7.2 7.2 clipbox
422.745655 121.687584 m
440.612338 131.333502 l
440.055546 154.839865 l
422.11493 145.256657 l
cl
0.018 0.726 0.918 setrgbcolor
fill
grestore
gsave
1116 652.3 7.2 7.2 clipbox
677.275744 119.311933 m
651.230436 124.14892 l
651.2856 128.727892 l
677.35132 123.896972 l
cl
0.079 0.430 0.435 setrgbcolor
fill
grestore
gsave
1116 652.3 7.2 7.2 clipbox
422.11493 145.256657 m
396.541062 150.052146 l
414.552844 159.594319 l
440.055546 154.839865 l
cl
0.011 0.454 0.574 setrgbcolor
fill
grestore
gsave
1116 652.3 7.2 7.2 clipbox
422.745655 121.687584 m
397.272202 126.514411 l
396.541062 150.052146 l
422.11493 145.256657 l
cl
0.009 0.363 0.459 setrgbcolor
fill
grestore
gsave
1116 652.3 7.2 7.2 clipbox
504.596482 119.27941 m
478.920608 124.116536 l
478.727499 135.336527 l
504.45198 130.514292 l
cl
0.007 0.346 0.464 setrgbcolor
fill
grestore
gsave
1116 652.3 7.2 7.2 clipbox
634.213572 114.441075 m
651.230436 124.14892 l
651.2856 128.727892 l
634.255686 119.032205 l
cl
0.159 0.860 0.869 setrgbcolor
fill
grestore
gsave
1116 652.3 7.2 7.2 clipbox
461.161292 114.408411 m
478.920608 124.116536 l
478.727499 135.336527 l
460.93337 125.658249 l
cl
0.014 0.692 0.928 setrgbcolor
fill
grestore
gsave
1116 652.3 7.2 7.2 clipbox
660.334629 109.562285 m
634.213572 114.441075 l
651.230436 124.14892 l
677.275744 119.311933 l
cl
0.099 0.537 0.543 setrgbcolor
fill
grestore
gsave
1116 652.3 7.2 7.2 clipbox
486.909721 109.52948 m
461.161292 114.408411 l
478.920608 124.116536 l
504.596482 119.27941 l
cl
0.009 0.432 0.580 setrgbcolor
fill
grestore
gsave
1116 652.3 7.2 7.2 clipbox
660.397275 114.159501 m
634.255686 119.032205 l
651.2856 128.727892 l
677.35132 123.896972 l
cl
0.099 0.537 0.543 setrgbcolor
fill
grestore
gsave
1116 652.3 7.2 7.2 clipbox
660.334629 109.562285 m
677.275744 119.311933 l
677.35132 123.896972 l
660.397275 114.159501 l
cl
0.159 0.860 0.869 setrgbcolor
fill
grestore
gsave
1116 652.3 7.2 7.2 clipbox
486.73068 120.794257 m
460.93337 125.658249 l
478.727499 135.336527 l
504.45198 130.514292 l
cl
0.009 0.432 0.580 setrgbcolor
fill
grestore
gsave
1116 652.3 7.2 7.2 clipbox
486.909721 109.52948 m
504.596482 119.27941 l
504.45198 130.514292 l
486.73068 120.794257 l
cl
0.014 0.692 0.928 setrgbcolor
fill
grestore
gsave
1116 652.3 7.2 7.2 clipbox
660.334629 109.562285 m
634.213572 114.441075 l
634.255686 119.032205 l
660.397275 114.159501 l
cl
0.079 0.430 0.435 setrgbcolor
fill
grestore
gsave
1116 652.3 7.2 7.2 clipbox
486.909721 109.52948 m
461.161292 114.408411 l
460.93337 125.658249 l
486.73068 120.794257 l
cl
0.007 0.346 0.464 setrgbcolor
fill
grestore
gsave
1116 652.3 7.2 7.2 clipbox
742.880752 107.128144 m
716.553997 112.017399 l
716.617656 114.762882 l
742.956873 109.877265 l
cl
0.064 0.417 0.441 setrgbcolor
fill
grestore
gsave
1116 652.3 7.2 7.2 clipbox
569.270938 107.095269 m
543.317605 111.984666 l
543.28223 117.609178 l
569.260379 112.72724 l
cl
0.023 0.328 0.468 setrgbcolor
fill
grestore
gsave
1116 652.3 7.2 7.2 clipbox
699.728031 102.204537 m
716.553997 112.017399 l
716.617656 114.762882 l
699.784072 104.957311 l
cl
0.127 0.834 0.881 setrgbcolor
fill
grestore
gsave
1116 652.3 7.2 7.2 clipbox
525.741163 102.171519 m
543.317605 111.984666 l
543.28223 117.609178 l
525.688741 107.810981 l
cl
0.045 0.655 0.937 setrgbcolor
fill
grestore
gsave
1116 652.3 7.2 7.2 clipbox
726.132581 97.272796 m
699.728031 102.204537 l
716.553997 112.017399 l
742.880752 107.128144 l
cl
0.080 0.521 0.551 setrgbcolor
fill
grestore
gsave
1116 652.3 7.2 7.2 clipbox
551.769046 97.239635 m
525.741163 102.171519 l
543.317605 111.984666 l
569.270938 107.095269 l
cl
0.028 0.410 0.586 setrgbcolor
fill
grestore
gsave
1116 652.3 7.2 7.2 clipbox
726.201158 100.02922 m
699.784072 104.957311 l
716.617656 114.762882 l
742.956873 109.877265 l
cl
0.080 0.521 0.551 setrgbcolor
fill
grestore
gsave
1116 652.3 7.2 7.2 clipbox
551.741581 102.88658 m
525.688741 107.810981 l
543.28223 117.609178 l
569.260379 112.72724 l
cl
0.028 0.410 0.586 setrgbcolor
fill
grestore
gsave
1116 652.3 7.2 7.2 clipbox
726.132581 97.272796 m
742.880752 107.128144 l
742.956873 109.877265 l
726.201158 100.02922 l
cl
0.127 0.834 0.881 setrgbcolor
fill
grestore
gsave
1116 652.3 7.2 7.2 clipbox
551.769046 97.239635 m
569.270938 107.095269 l
569.260379 112.72724 l
551.741581 102.88658 l
cl
0.045 0.655 0.937 setrgbcolor
fill
grestore
gsave
1116 652.3 7.2 7.2 clipbox
726.132581 97.272796 m
699.728031 102.204537 l
699.784072 104.957311 l
726.201158 100.02922 l
cl
0.064 0.417 0.441 setrgbcolor
fill
grestore
gsave
1116 652.3 7.2 7.2 clipbox
551.769046 97.239635 m
525.741163 102.171519 l
525.688741 107.810981 l
551.741581 102.88658 l
cl
0.023 0.328 0.468 setrgbcolor
fill
grestore
gsave
1116 652.3 7.2 7.2 clipbox
634.646939 94.778962 m
608.411625 99.721482 l
608.424522 102.410401 l
634.671919 97.471446 l
cl
0.038 0.309 0.473 setrgbcolor
fill
grestore
gsave
1116 652.3 7.2 7.2 clipbox
591.02308 89.8016 m
608.411625 99.721482 l
608.424522 102.410401 l
591.028027 92.497664 l
cl
0.076 0.617 0.945 setrgbcolor
fill
grestore
gsave
1116 652.3 7.2 7.2 clipbox
617.33499 84.815897 m
591.02308 89.8016 l
608.411625 99.721482 l
634.646939 94.778962 l
cl
0.048 0.386 0.591 setrgbcolor
fill
grestore
gsave
1116 652.3 7.2 7.2 clipbox
617.352089 87.515538 m
591.028027 92.497664 l
608.424522 102.410401 l
634.671919 97.471446 l
cl
0.048 0.386 0.591 setrgbcolor
fill
grestore
gsave
1116 652.3 7.2 7.2 clipbox
617.33499 84.815897 m
634.646939 94.778962 l
634.671919 97.471446 l
617.352089 87.515538 l
cl
0.076 0.617 0.945 setrgbcolor
fill
grestore
gsave
1116 652.3 7.2 7.2 clipbox
617.33499 84.815897 m
591.02308 89.8016 l
591.028027 92.497664 l
617.352089 87.515538 l
cl
0.038 0.309 0.473 setrgbcolor
fill
grestore
gsave
1116 652.3 7.2 7.2 clipbox
700.735961 82.328328 m
674.214045 87.324842 l
674.238072 88.821838 l
700.76684 83.827311 l
cl
0.050 0.294 0.476 setrgbcolor
fill
grestore
gsave
1116 652.3 7.2 7.2 clipbox
657.018553 77.296472 m
674.214045 87.324842 l
674.238072 88.821838 l
657.038268 78.797448 l
cl
0.100 0.588 0.951 setrgbcolor
fill
grestore
gsave
1116 652.3 7.2 7.2 clipbox
683.619165 72.256066 m
657.018553 77.296472 l
674.214045 87.324842 l
700.735961 82.328328 l
cl
0.062 0.367 0.594 setrgbcolor
fill
grestore
gsave
1116 652.3 7.2 7.2 clipbox
683.645771 73.759033 m
657.038268 78.797448 l
674.238072 88.821838 l
700.76684 83.827311 l
cl
0.062 0.367 0.594 setrgbcolor
fill
grestore
gsave
1116 652.3 7.2 7.2 clipbox
683.619165 72.256066 m
700.735961 82.328328 l
700.76684 83.827311 l
683.645771 73.759033 l
cl
0.100 0.588 0.951 setrgbcolor
fill
grestore
gsave
1116 652.3 7.2 7.2 clipbox
683.619165 72.256066 m
657.018553 77.296472 l
657.038268 78.797448 l
683.645771 73.759033 l
cl
0.050 0.294 0.476 setrgbcolor
fill
grestore

end
showpage
