%!PS-Adobe-3.0 EPSF-3.0
%%Title: /home/doc/Work/Doutorado/thesis/thesis/matplotlib/cap6/../../eps/cap6/CDL-Linear_Multiplicate_OpenMP_SpeedUp.eps
%%Creator: matplotlib version 3.0.3, http://matplotlib.org/
%%CreationDate: Wed Apr 24 22:03:42 2019
%%Orientation: portrait
%%BoundingBox: 38 144 573 647
%%EndComments
%%BeginProlog
/mpldict 9 dict def
mpldict begin
/m { moveto } bind def
/l { lineto } bind def
/r { rlineto } bind def
/c { curveto } bind def
/cl { closepath } bind def
/box {
m
1 index 0 r
0 exch r
neg 0 r
cl
} bind def
/clipbox {
box
clip
newpath
} bind def
%!PS-Adobe-3.0 Resource-Font
%%Title: DejaVu Sans
%%Copyright: Copyright (c) 2003 by Bitstream, Inc. All Rights Reserved. Copyright (c) 2006 by Tavmjong Bah. All Rights Reserved. DejaVu changes are in public domain 
%%Creator: Converted from TrueType to type 3 by PPR
25 dict begin
/_d{bind def}bind def
/_m{moveto}_d
/_l{lineto}_d
/_cl{closepath eofill}_d
/_c{curveto}_d
/_sc{7 -1 roll{setcachedevice}{pop pop pop pop pop pop}ifelse}_d
/_e{exec}_d
/FontName /DejaVuSans def
/PaintType 0 def
/FontMatrix[.001 0 0 .001 0 0]def
/FontBBox[-1021 -463 1793 1232]def
/FontType 3 def
/Encoding [ /space /zero /one /two /three /four /five /six /seven /eight /nine /D /F /O /s ] def
/FontInfo 10 dict dup begin
/FamilyName (DejaVu Sans) def
/FullName (DejaVu Sans) def
/Notice (Copyright (c) 2003 by Bitstream, Inc. All Rights Reserved. Copyright (c) 2006 by Tavmjong Bah. All Rights Reserved. DejaVu changes are in public domain ) def
/Weight (Book) def
/Version (Version 2.35) def
/ItalicAngle 0.0 def
/isFixedPitch false def
/UnderlinePosition -130 def
/UnderlineThickness 90 def
end readonly def
/CharStrings 16 dict dup begin
/.notdef 0 def
/space{318 0 0 0 0 0 _sc
}_d
/zero{636 0 66 -13 570 742 _sc
318 664 _m
267 664 229 639 203 589 _c
177 539 165 464 165 364 _c
165 264 177 189 203 139 _c
229 89 267 64 318 64 _c
369 64 407 89 433 139 _c
458 189 471 264 471 364 _c
471 464 458 539 433 589 _c
407 639 369 664 318 664 _c
318 742 _m
399 742 461 709 505 645 _c
548 580 570 486 570 364 _c
570 241 548 147 505 83 _c
461 19 399 -13 318 -13 _c
236 -13 173 19 130 83 _c
87 147 66 241 66 364 _c
66 486 87 580 130 645 _c
173 709 236 742 318 742 _c
_cl}_d
/one{636 0 110 0 544 729 _sc
124 83 _m
285 83 _l
285 639 _l
110 604 _l
110 694 _l
284 729 _l
383 729 _l
383 83 _l
544 83 _l
544 0 _l
124 0 _l
124 83 _l
_cl}_d
/two{{636 0 73 0 536 742 _sc
192 83 _m
536 83 _l
536 0 _l
73 0 _l
73 83 _l
110 121 161 173 226 239 _c
290 304 331 346 348 365 _c
380 400 402 430 414 455 _c
426 479 433 504 433 528 _c
433 566 419 598 392 622 _c
365 646 330 659 286 659 _c
255 659 222 653 188 643 _c
154 632 117 616 78 594 _c
78 694 _l
118 710 155 722 189 730 _c
223 738 255 742 284 742 _c
}_e{359 742 419 723 464 685 _c
509 647 532 597 532 534 _c
532 504 526 475 515 449 _c
504 422 484 390 454 354 _c
446 344 420 317 376 272 _c
332 227 271 164 192 83 _c
_cl}_e}_d
/three{{636 0 76 -13 556 742 _sc
406 393 _m
453 383 490 362 516 330 _c
542 298 556 258 556 212 _c
556 140 531 84 482 45 _c
432 6 362 -13 271 -13 _c
240 -13 208 -10 176 -4 _c
144 1 110 10 76 22 _c
76 117 _l
103 101 133 89 166 81 _c
198 73 232 69 268 69 _c
330 69 377 81 409 105 _c
441 129 458 165 458 212 _c
458 254 443 288 413 312 _c
383 336 341 349 287 349 _c
}_e{202 349 _l
202 430 _l
291 430 _l
339 430 376 439 402 459 _c
428 478 441 506 441 543 _c
441 580 427 609 401 629 _c
374 649 336 659 287 659 _c
260 659 231 656 200 650 _c
169 644 135 635 98 623 _c
98 711 _l
135 721 170 729 203 734 _c
235 739 266 742 296 742 _c
370 742 429 725 473 691 _c
517 657 539 611 539 553 _c
539 513 527 479 504 451 _c
481 423 448 403 406 393 _c
_cl}_e}_d
/four{636 0 49 0 580 729 _sc
378 643 _m
129 254 _l
378 254 _l
378 643 _l
352 729 _m
476 729 _l
476 254 _l
580 254 _l
580 172 _l
476 172 _l
476 0 _l
378 0 _l
378 172 _l
49 172 _l
49 267 _l
352 729 _l
_cl}_d
/five{{636 0 77 -13 549 729 _sc
108 729 _m
495 729 _l
495 646 _l
198 646 _l
198 467 _l
212 472 227 476 241 478 _c
255 480 270 482 284 482 _c
365 482 429 459 477 415 _c
525 370 549 310 549 234 _c
549 155 524 94 475 51 _c
426 8 357 -13 269 -13 _c
238 -13 207 -10 175 -6 _c
143 -1 111 6 77 17 _c
77 116 _l
106 100 136 88 168 80 _c
199 72 232 69 267 69 _c
}_e{323 69 368 83 401 113 _c
433 143 450 183 450 234 _c
450 284 433 324 401 354 _c
368 384 323 399 267 399 _c
241 399 214 396 188 390 _c
162 384 135 375 108 363 _c
108 729 _l
_cl}_e}_d
/six{{636 0 70 -13 573 742 _sc
330 404 _m
286 404 251 388 225 358 _c
199 328 186 286 186 234 _c
186 181 199 139 225 109 _c
251 79 286 64 330 64 _c
374 64 409 79 435 109 _c
461 139 474 181 474 234 _c
474 286 461 328 435 358 _c
409 388 374 404 330 404 _c
526 713 _m
526 623 _l
501 635 476 644 451 650 _c
425 656 400 659 376 659 _c
310 659 260 637 226 593 _c
}_e{192 549 172 482 168 394 _c
187 422 211 444 240 459 _c
269 474 301 482 336 482 _c
409 482 467 459 509 415 _c
551 371 573 310 573 234 _c
573 159 550 99 506 54 _c
462 9 403 -13 330 -13 _c
246 -13 181 19 137 83 _c
92 147 70 241 70 364 _c
70 479 97 571 152 639 _c
206 707 280 742 372 742 _c
396 742 421 739 447 735 _c
472 730 498 723 526 713 _c
_cl}_e}_d
/seven{636 0 82 0 551 729 _sc
82 729 _m
551 729 _l
551 687 _l
286 0 _l
183 0 _l
432 646 _l
82 646 _l
82 729 _l
_cl}_d
/eight{{636 0 68 -13 568 742 _sc
318 346 _m
271 346 234 333 207 308 _c
180 283 167 249 167 205 _c
167 161 180 126 207 101 _c
234 76 271 64 318 64 _c
364 64 401 76 428 102 _c
455 127 469 161 469 205 _c
469 249 455 283 429 308 _c
402 333 365 346 318 346 _c
219 388 _m
177 398 144 418 120 447 _c
96 476 85 511 85 553 _c
85 611 105 657 147 691 _c
188 725 245 742 318 742 _c
}_e{390 742 447 725 489 691 _c
530 657 551 611 551 553 _c
551 511 539 476 515 447 _c
491 418 459 398 417 388 _c
464 377 501 355 528 323 _c
554 291 568 251 568 205 _c
568 134 546 80 503 43 _c
459 5 398 -13 318 -13 _c
237 -13 175 5 132 43 _c
89 80 68 134 68 205 _c
68 251 81 291 108 323 _c
134 355 171 377 219 388 _c
183 544 _m
183 506 194 476 218 455 _c
}_e{242 434 275 424 318 424 _c
360 424 393 434 417 455 _c
441 476 453 506 453 544 _c
453 582 441 611 417 632 _c
393 653 360 664 318 664 _c
275 664 242 653 218 632 _c
194 611 183 582 183 544 _c
_cl}_e}_d
/nine{{636 0 63 -13 566 742 _sc
110 15 _m
110 105 _l
134 93 159 84 185 78 _c
210 72 235 69 260 69 _c
324 69 374 90 408 134 _c
442 178 462 244 468 334 _c
448 306 424 284 396 269 _c
367 254 335 247 300 247 _c
226 247 168 269 126 313 _c
84 357 63 417 63 494 _c
63 568 85 628 129 674 _c
173 719 232 742 306 742 _c
390 742 455 709 499 645 _c
543 580 566 486 566 364 _c
}_e{566 248 538 157 484 89 _c
429 21 356 -13 264 -13 _c
239 -13 214 -10 189 -6 _c
163 -2 137 5 110 15 _c
306 324 _m
350 324 385 339 411 369 _c
437 399 450 441 450 494 _c
450 546 437 588 411 618 _c
385 648 350 664 306 664 _c
262 664 227 648 201 618 _c
175 588 162 546 162 494 _c
162 441 175 399 201 369 _c
227 339 262 324 306 324 _c
_cl}_e}_d
/D{770 0 98 0 711 729 _sc
197 648 _m
197 81 _l
316 81 _l
416 81 490 103 537 149 _c
583 195 607 267 607 365 _c
607 463 583 534 537 580 _c
490 625 416 648 316 648 _c
197 648 _l
98 729 _m
301 729 _l
442 729 546 699 612 641 _c
678 582 711 490 711 365 _c
711 239 677 147 611 88 _c
545 29 441 0 301 0 _c
98 0 _l
98 729 _l
_cl}_d
/F{575 0 98 0 517 729 _sc
98 729 _m
517 729 _l
517 646 _l
197 646 _l
197 431 _l
486 431 _l
486 348 _l
197 348 _l
197 0 _l
98 0 _l
98 729 _l
_cl}_d
/O{787 0 56 -13 731 742 _sc
394 662 _m
322 662 265 635 223 582 _c
181 528 160 456 160 364 _c
160 272 181 199 223 146 _c
265 92 322 66 394 66 _c
465 66 522 92 564 146 _c
606 199 627 272 627 364 _c
627 456 606 528 564 582 _c
522 635 465 662 394 662 _c
394 742 _m
496 742 577 707 639 639 _c
700 571 731 479 731 364 _c
731 248 700 157 639 89 _c
577 21 496 -13 394 -13 _c
291 -13 209 21 148 89 _c
86 157 56 248 56 364 _c
56 479 86 571 148 639 _c
209 707 291 742 394 742 _c
_cl}_d
/s{{521 0 54 -13 472 560 _sc
443 531 _m
443 446 _l
417 458 391 468 364 475 _c
336 481 308 485 279 485 _c
234 485 200 478 178 464 _c
156 450 145 430 145 403 _c
145 382 153 366 169 354 _c
185 342 217 330 265 320 _c
296 313 _l
360 299 405 279 432 255 _c
458 230 472 195 472 151 _c
472 100 452 60 412 31 _c
372 1 316 -13 246 -13 _c
216 -13 186 -10 154 -5 _c
}_e{122 0 89 8 54 20 _c
54 113 _l
87 95 120 82 152 74 _c
184 65 216 61 248 61 _c
290 61 323 68 346 82 _c
368 96 380 117 380 144 _c
380 168 371 187 355 200 _c
339 213 303 226 247 238 _c
216 245 _l
160 257 119 275 95 299 _c
70 323 58 356 58 399 _c
58 450 76 490 112 518 _c
148 546 200 560 268 560 _c
301 560 332 557 362 552 _c
391 547 418 540 443 531 _c
}_e{_cl}_e}_d
end readonly def

/BuildGlyph
 {exch begin
 CharStrings exch
 2 copy known not{pop /.notdef}if
 true 3 1 roll get exec
 end}_d

/BuildChar {
 1 index /Encoding get exch get
 1 index /BuildGlyph get exec
}_d

FontName currentdict end definefont pop
%!PS-Adobe-3.0 Resource-Font
%%Title: DejaVu Sans Bold
%%Copyright: Copyright (c) 2003 by Bitstream, Inc. All Rights Reserved. Copyright (c) 2006 by Tavmjong Bah. All Rights Reserved. DejaVu changes are in public domain 
%%Creator: Converted from TrueType to type 3 by PPR
25 dict begin
/_d{bind def}bind def
/_m{moveto}_d
/_l{lineto}_d
/_cl{closepath eofill}_d
/_c{curveto}_d
/_sc{7 -1 roll{setcachedevice}{pop pop pop pop pop pop}ifelse}_d
/_e{exec}_d
/FontName /DejaVuSans-Bold def
/PaintType 0 def
/FontMatrix[.001 0 0 .001 0 0]def
/FontBBox[-1069 -415 1975 1174]def
/FontType 3 def
/Encoding [ /space /N /S /T /U /a /b /d /e /f /h /m /o /p /r /s /u ] def
/FontInfo 10 dict dup begin
/FamilyName (DejaVu Sans) def
/FullName (DejaVu Sans Bold) def
/Notice (Copyright (c) 2003 by Bitstream, Inc. All Rights Reserved. Copyright (c) 2006 by Tavmjong Bah. All Rights Reserved. DejaVu changes are in public domain ) def
/Weight (Bold) def
/Version (Version 2.35) def
/ItalicAngle 0.0 def
/isFixedPitch false def
/UnderlinePosition -130 def
/UnderlineThickness 90 def
end readonly def
/CharStrings 18 dict dup begin
/.notdef 0 def
/space{348 0 0 0 0 0 _sc
}_d
/N{837 0 92 0 745 729 _sc
92 729 _m
302 729 _l
567 229 _l
567 729 _l
745 729 _l
745 0 _l
535 0 _l
270 500 _l
270 0 _l
92 0 _l
92 729 _l
_cl}_d
/S{{720 0 72 -13 647 742 _sc
599 706 _m
599 552 _l
559 570 520 583 482 592 _c
444 601 408 606 374 606 _c
329 606 296 599 274 587 _c
252 575 242 556 242 530 _c
242 510 249 494 264 484 _c
278 473 305 464 343 456 _c
423 440 _l
503 424 561 399 595 366 _c
629 332 647 285 647 224 _c
647 144 623 84 575 45 _c
527 6 455 -13 357 -13 _c
311 -13 264 -8 218 0 _c
}_e{171 8 124 20 78 38 _c
78 197 _l
124 172 169 153 213 141 _c
256 128 298 122 339 122 _c
379 122 411 128 433 142 _c
455 156 466 175 466 201 _c
466 223 458 241 443 253 _c
428 265 399 277 355 287 _c
282 303 _l
209 319 156 344 122 378 _c
88 412 72 458 72 516 _c
72 588 95 644 142 683 _c
188 722 256 742 344 742 _c
384 742 425 739 467 733 _c
509 727 553 718 599 706 _c
}_e{_cl}_e}_d
/T{682 0 5 0 677 729 _sc
5 729 _m
677 729 _l
677 587 _l
435 587 _l
435 0 _l
247 0 _l
247 587 _l
5 587 _l
5 729 _l
_cl}_d
/U{812 0 92 -13 720 729 _sc
92 729 _m
280 729 _l
280 292 _l
280 232 289 189 309 163 _c
329 137 361 124 406 124 _c
450 124 482 137 502 163 _c
522 189 532 232 532 292 _c
532 729 _l
720 729 _l
720 292 _l
720 188 694 112 642 62 _c
590 12 512 -13 406 -13 _c
300 -13 221 12 169 62 _c
117 112 92 188 92 292 _c
92 729 _l
_cl}_d
/a{{675 0 43 -13 596 560 _sc
329 246 _m
292 246 264 239 246 227 _c
228 215 219 197 219 173 _c
219 151 226 133 241 121 _c
256 108 277 102 303 102 _c
336 102 364 113 386 137 _c
408 161 420 190 420 226 _c
420 246 _l
329 246 _l
596 312 _m
596 0 _l
420 0 _l
420 81 _l
396 47 370 23 341 9 _c
311 -5 276 -13 234 -13 _c
177 -13 131 3 96 36 _c
60 68 43 111 43 164 _c
}_e{43 228 65 275 109 305 _c
153 335 222 350 317 350 _c
420 350 _l
420 364 _l
420 391 409 411 387 424 _c
365 437 331 444 285 444 _c
247 444 212 440 180 432 _c
148 424 118 413 91 399 _c
91 532 _l
128 541 165 548 203 553 _c
241 557 279 560 317 560 _c
415 560 486 540 530 501 _c
574 462 596 399 596 312 _c
_cl}_e}_d
/b{{716 0 84 -13 671 760 _sc
375 113 _m
412 113 440 126 460 154 _c
480 181 490 221 490 273 _c
490 325 480 364 460 392 _c
440 419 412 433 375 433 _c
337 433 309 419 289 392 _c
269 364 259 325 259 273 _c
259 221 269 181 289 154 _c
309 126 337 113 375 113 _c
259 467 _m
283 499 309 522 339 537 _c
368 552 402 560 440 560 _c
507 560 562 533 606 479 _c
649 425 671 357 671 273 _c
}_e{671 188 649 119 606 66 _c
562 13 507 -13 440 -13 _c
402 -13 368 -5 339 9 _c
309 23 283 47 259 79 _c
259 0 _l
84 0 _l
84 760 _l
259 760 _l
259 467 _l
_cl}_e}_d
/d{{716 0 45 -13 632 760 _sc
456 467 _m
456 760 _l
632 760 _l
632 0 _l
456 0 _l
456 79 _l
432 47 405 23 376 9 _c
347 -5 314 -13 276 -13 _c
208 -13 153 13 110 66 _c
66 119 45 188 45 273 _c
45 357 66 425 110 479 _c
153 533 208 560 276 560 _c
314 560 347 552 376 537 _c
405 522 432 499 456 467 _c
341 113 _m
378 113 406 126 426 154 _c
446 181 456 221 456 273 _c
}_e{456 325 446 364 426 392 _c
406 419 378 433 341 433 _c
303 433 275 419 255 392 _c
235 364 226 325 226 273 _c
226 221 235 181 255 154 _c
275 126 303 113 341 113 _c
_cl}_e}_d
/e{{678 0 43 -13 630 560 _sc
630 275 _m
630 225 _l
221 225 _l
225 184 240 153 266 133 _c
291 112 326 102 372 102 _c
408 102 446 107 485 118 _c
523 129 563 146 604 168 _c
604 33 _l
562 17 521 6 480 -1 _c
438 -9 397 -13 356 -13 _c
257 -13 180 12 125 62 _c
70 112 43 182 43 273 _c
43 362 70 432 124 483 _c
178 534 252 560 346 560 _c
432 560 500 534 552 482 _c
}_e{604 430 630 361 630 275 _c
450 333 _m
450 366 440 393 421 413 _c
401 433 376 444 345 444 _c
311 444 283 434 262 415 _c
241 396 228 369 223 333 _c
450 333 _l
_cl}_e}_d
/f{435 0 19 0 444 760 _sc
444 760 _m
444 645 _l
347 645 _l
322 645 305 640 295 631 _c
285 622 281 607 281 585 _c
281 547 _l
430 547 _l
430 422 _l
281 422 _l
281 0 _l
106 0 _l
106 422 _l
19 422 _l
19 547 _l
106 547 _l
106 585 _l
106 644 122 688 156 717 _c
189 745 240 760 310 760 _c
444 760 _l
_cl}_d
/h{712 0 84 0 634 760 _sc
634 333 _m
634 0 _l
458 0 _l
458 54 _l
458 254 _l
458 302 457 334 455 352 _c
453 370 449 383 444 392 _c
437 403 428 412 416 418 _c
404 424 390 428 376 428 _c
339 428 310 414 290 386 _c
269 358 259 319 259 269 _c
259 0 _l
84 0 _l
84 760 _l
259 760 _l
259 467 _l
285 499 312 522 342 537 _c
372 552 405 560 441 560 _c
504 560 552 540 585 502 _c
617 463 634 407 634 333 _c
_cl}_d
/m{{1042 0 83 0 963 560 _sc
591 456 _m
613 490 639 515 669 533 _c
699 551 733 560 770 560 _c
832 560 880 540 913 502 _c
946 463 963 407 963 333 _c
963 0 _l
787 0 _l
787 285 _l
787 289 788 294 788 298 _c
788 302 788 309 788 318 _c
788 356 782 384 771 402 _c
759 419 741 428 716 428 _c
682 428 657 414 639 387 _c
621 359 611 320 611 269 _c
611 0 _l
435 0 _l
435 285 _l
}_e{435 345 429 384 419 402 _c
409 419 390 428 364 428 _c
330 428 304 414 286 387 _c
268 359 259 320 259 269 _c
259 0 _l
83 0 _l
83 547 _l
259 547 _l
259 467 _l
280 497 305 520 333 536 _c
361 552 391 560 425 560 _c
462 560 495 550 524 532 _c
553 514 575 488 591 456 _c
_cl}_e}_d
/o{687 0 43 -13 644 560 _sc
344 435 _m
305 435 275 421 255 393 _c
235 365 225 325 225 273 _c
225 220 235 180 255 152 _c
275 124 305 111 344 111 _c
382 111 411 124 431 152 _c
451 180 462 220 462 273 _c
462 325 451 365 431 393 _c
411 421 382 435 344 435 _c
344 560 _m
438 560 511 534 564 484 _c
617 433 644 363 644 273 _c
644 183 617 112 564 62 _c
511 12 438 -13 344 -13 _c
250 -13 176 12 123 62 _c
69 112 43 183 43 273 _c
43 363 69 433 123 484 _c
176 534 250 560 344 560 _c
_cl}_d
/p{{716 0 84 -207 671 560 _sc
259 79 _m
259 -207 _l
84 -207 _l
84 547 _l
259 547 _l
259 467 _l
283 499 309 522 339 537 _c
368 552 402 560 440 560 _c
507 560 562 533 606 479 _c
649 425 671 357 671 273 _c
671 188 649 119 606 66 _c
562 13 507 -13 440 -13 _c
402 -13 368 -5 339 9 _c
309 23 283 47 259 79 _c
375 433 _m
337 433 309 419 289 392 _c
269 364 259 325 259 273 _c
}_e{259 221 269 181 289 154 _c
309 126 337 113 375 113 _c
412 113 440 126 460 154 _c
480 181 490 221 490 273 _c
490 325 480 364 460 392 _c
440 419 412 433 375 433 _c
_cl}_e}_d
/r{493 0 84 0 490 560 _sc
490 398 _m
474 405 459 410 444 414 _c
429 417 414 419 399 419 _c
354 419 319 404 295 376 _c
271 347 259 306 259 252 _c
259 0 _l
84 0 _l
84 547 _l
259 547 _l
259 457 _l
281 493 306 519 336 535 _c
365 551 400 560 441 560 _c
447 560 453 559 460 559 _c
466 559 476 558 490 556 _c
490 398 _l
_cl}_d
/s{{595 0 52 -13 548 560 _sc
511 530 _m
511 397 _l
473 412 437 424 403 432 _c
368 440 335 444 304 444 _c
270 444 246 439 230 431 _c
214 423 206 410 206 393 _c
206 379 212 368 224 361 _c
236 353 258 348 290 344 _c
321 340 _l
410 328 470 310 501 284 _c
532 258 548 217 548 161 _c
548 103 526 59 483 30 _c
440 1 376 -13 291 -13 _c
255 -13 217 -10 179 -5 _c
}_e{140 0 100 8 60 20 _c
60 153 _l
94 135 130 122 167 114 _c
203 106 241 102 279 102 _c
313 102 338 106 356 116 _c
373 125 382 139 382 158 _c
382 174 376 185 364 193 _c
352 201 328 207 293 211 _c
262 215 _l
184 224 130 242 99 269 _c
67 295 52 335 52 389 _c
52 447 71 490 111 518 _c
151 546 212 560 294 560 _c
326 560 359 557 395 552 _c
431 547 469 540 511 530 _c
}_e{_cl}_e}_d
/u{{712 0 78 -13 628 547 _sc
78 213 _m
78 547 _l
254 547 _l
254 492 _l
254 462 253 425 253 380 _c
253 335 253 305 253 291 _c
253 247 254 215 256 196 _c
258 176 262 162 268 154 _c
275 142 284 133 296 127 _c
307 121 320 118 336 118 _c
372 118 401 132 422 160 _c
442 188 453 227 453 277 _c
453 547 _l
628 547 _l
628 0 _l
453 0 _l
453 79 _l
427 47 399 23 369 9 _c
}_e{339 -5 307 -13 272 -13 _c
208 -13 160 6 127 44 _c
94 82 78 139 78 213 _c
_cl}_e}_d
end readonly def

/BuildGlyph
 {exch begin
 CharStrings exch
 2 copy known not{pop /.notdef}if
 true 3 1 roll get exec
 end}_d

/BuildChar {
 1 index /Encoding get exch get
 1 index /BuildGlyph get exec
}_d

FontName currentdict end definefont pop
end
%%EndProlog
mpldict begin
38.948 144.222 translate
534.103 503.555 0 0 clipbox
gsave
0 0 m
534.103125 0 l
534.103125 503.555417 l
0 503.555417 l
cl
1.000 setgray
fill
grestore
gsave
58.528125 53.04375 m
523.403125 53.04375 l
523.403125 492.855417 l
58.528125 492.855417 l
cl
1.000 setgray
fill
grestore
0.500 setlinewidth
1 setlinejoin
0 setlinecap
[1.85 0.8] 0 setdash
0.000 setgray
gsave
464.9 439.8 58.53 53.04 clipbox
79.658807 53.04375 m
79.658807 492.855417 l
stroke
grestore
0.800 setlinewidth
[] 0 setdash
gsave
/o {
gsave
newpath
translate
0.8 setlinewidth
1 setlinejoin
0 setlinecap
0 0 m
0 -3.5 l

gsave
0.000 setgray
fill
grestore
stroke
grestore
} bind def
79.6588 53.0438 o
grestore
/DejaVuSans findfont
18.000 scalefont
setfont
gsave
73.932244 32.371875 translate
0.000000 rotate
0.000000 0.000000 m /one glyphshow
grestore
0.500 setlinewidth
[1.85 0.8] 0 setdash
gsave
464.9 439.8 58.53 53.04 clipbox
164.181534 53.04375 m
164.181534 492.855417 l
stroke
grestore
0.800 setlinewidth
[] 0 setdash
gsave
/o {
gsave
newpath
translate
0.8 setlinewidth
1 setlinejoin
0 setlinecap
0 0 m
0 -3.5 l

gsave
0.000 setgray
fill
grestore
stroke
grestore
} bind def
164.182 53.0438 o
grestore
gsave
158.454972 32.371875 translate
0.000000 rotate
0.000000 0.000000 m /two glyphshow
grestore
0.500 setlinewidth
[1.85 0.8] 0 setdash
gsave
464.9 439.8 58.53 53.04 clipbox
248.704261 53.04375 m
248.704261 492.855417 l
stroke
grestore
0.800 setlinewidth
[] 0 setdash
gsave
/o {
gsave
newpath
translate
0.8 setlinewidth
1 setlinejoin
0 setlinecap
0 0 m
0 -3.5 l

gsave
0.000 setgray
fill
grestore
stroke
grestore
} bind def
248.704 53.0438 o
grestore
gsave
242.977699 32.371875 translate
0.000000 rotate
0.000000 0.000000 m /four glyphshow
grestore
0.500 setlinewidth
[1.85 0.8] 0 setdash
gsave
464.9 439.8 58.53 53.04 clipbox
333.226989 53.04375 m
333.226989 492.855417 l
stroke
grestore
0.800 setlinewidth
[] 0 setdash
gsave
/o {
gsave
newpath
translate
0.8 setlinewidth
1 setlinejoin
0 setlinecap
0 0 m
0 -3.5 l

gsave
0.000 setgray
fill
grestore
stroke
grestore
} bind def
333.227 53.0438 o
grestore
gsave
327.500426 32.371875 translate
0.000000 rotate
0.000000 0.000000 m /eight glyphshow
grestore
0.500 setlinewidth
[1.85 0.8] 0 setdash
gsave
464.9 439.8 58.53 53.04 clipbox
417.749716 53.04375 m
417.749716 492.855417 l
stroke
grestore
0.800 setlinewidth
[] 0 setdash
gsave
/o {
gsave
newpath
translate
0.8 setlinewidth
1 setlinejoin
0 setlinecap
0 0 m
0 -3.5 l

gsave
0.000 setgray
fill
grestore
stroke
grestore
} bind def
417.75 53.0438 o
grestore
gsave
406.296591 32.371875 translate
0.000000 rotate
0.000000 0.000000 m /one glyphshow
11.452148 0.000000 m /six glyphshow
grestore
0.500 setlinewidth
[1.85 0.8] 0 setdash
gsave
464.9 439.8 58.53 53.04 clipbox
502.272443 53.04375 m
502.272443 492.855417 l
stroke
grestore
0.800 setlinewidth
[] 0 setdash
gsave
/o {
gsave
newpath
translate
0.8 setlinewidth
1 setlinejoin
0 setlinecap
0 0 m
0 -3.5 l

gsave
0.000 setgray
fill
grestore
stroke
grestore
} bind def
502.272 53.0438 o
grestore
gsave
490.819318 32.371875 translate
0.000000 rotate
0.000000 0.000000 m /three glyphshow
11.452148 0.000000 m /two glyphshow
grestore
/DejaVuSans-Bold findfont
18.000 scalefont
setfont
gsave
193.340625 10.950000 translate
0.000000 rotate
0.000000 0.000000 m /N glyphshow
15.064453 0.000000 m /u glyphshow
27.878906 0.000000 m /m glyphshow
46.634766 0.000000 m /b glyphshow
59.519531 0.000000 m /e glyphshow
71.727539 0.000000 m /r glyphshow
80.604492 0.000000 m /space glyphshow
86.871094 0.000000 m /o glyphshow
99.237305 0.000000 m /f glyphshow
107.068359 0.000000 m /space glyphshow
113.334961 0.000000 m /T glyphshow
125.613281 0.000000 m /h glyphshow
138.427734 0.000000 m /r glyphshow
147.304688 0.000000 m /e glyphshow
159.512695 0.000000 m /a glyphshow
171.659180 0.000000 m /d glyphshow
184.543945 0.000000 m /s glyphshow
grestore
gsave
/o {
gsave
newpath
translate
0.8 setlinewidth
1 setlinejoin
0 setlinecap
0 0 m
-3.5 0 l

gsave
0.000 setgray
fill
grestore
stroke
grestore
} bind def
58.5281 73.0352 o
grestore
/DejaVuSans findfont
18.000 scalefont
setfont
gsave
40.075000 66.199252 translate
0.000000 rotate
0.000000 0.000000 m /one glyphshow
grestore
gsave
/o {
gsave
newpath
translate
0.8 setlinewidth
1 setlinejoin
0 setlinecap
0 0 m
-3.5 0 l

gsave
0.000 setgray
fill
grestore
stroke
grestore
} bind def
58.5281 152.297 o
grestore
gsave
40.075000 145.461256 translate
0.000000 rotate
0.000000 0.000000 m /two glyphshow
grestore
gsave
/o {
gsave
newpath
translate
0.8 setlinewidth
1 setlinejoin
0 setlinecap
0 0 m
-3.5 0 l

gsave
0.000 setgray
fill
grestore
stroke
grestore
} bind def
58.5281 231.559 o
grestore
gsave
40.075000 224.723260 translate
0.000000 rotate
0.000000 0.000000 m /four glyphshow
grestore
gsave
/o {
gsave
newpath
translate
0.8 setlinewidth
1 setlinejoin
0 setlinecap
0 0 m
-3.5 0 l

gsave
0.000 setgray
fill
grestore
stroke
grestore
} bind def
58.5281 310.821 o
grestore
gsave
40.075000 303.985264 translate
0.000000 rotate
0.000000 0.000000 m /eight glyphshow
grestore
gsave
/o {
gsave
newpath
translate
0.8 setlinewidth
1 setlinejoin
0 setlinecap
0 0 m
-3.5 0 l

gsave
0.000 setgray
fill
grestore
stroke
grestore
} bind def
58.5281 390.083 o
grestore
gsave
28.621875 383.247269 translate
0.000000 rotate
0.000000 0.000000 m /one glyphshow
11.452148 0.000000 m /six glyphshow
grestore
gsave
/o {
gsave
newpath
translate
0.8 setlinewidth
1 setlinejoin
0 setlinecap
0 0 m
-3.5 0 l

gsave
0.000 setgray
fill
grestore
stroke
grestore
} bind def
58.5281 469.345 o
grestore
gsave
28.621875 462.509273 translate
0.000000 rotate
0.000000 0.000000 m /three glyphshow
11.452148 0.000000 m /two glyphshow
grestore
/DejaVuSans-Bold findfont
18.000 scalefont
setfont
gsave
20.871875 224.480833 translate
90.000000 rotate
0.000000 0.000000 m /S glyphshow
12.963867 0.000000 m /p glyphshow
25.848633 0.000000 m /e glyphshow
38.056641 0.000000 m /e glyphshow
50.264648 0.000000 m /d glyphshow
63.149414 0.000000 m /space glyphshow
69.416016 0.000000 m /U glyphshow
84.032227 0.000000 m /p glyphshow
grestore
1.500 setlinewidth
2 setlinecap
1.000 0.000 0.000 setrgbcolor
gsave
464.9 439.8 58.53 53.04 clipbox
79.658807 73.035189 m
164.181534 149.536875 l
248.704261 228.614228 l
333.226989 263.978205 l
417.749716 316.940927 l
502.272443 372.83398 l
stroke
grestore
1.000 setlinewidth
0 setlinecap
gsave
464.9 439.8 58.53 53.04 clipbox
/o {
gsave
newpath
translate
1.0 setlinewidth
1 setlinejoin
0 setlinecap
0 -7 m
1.856422 -7 3.637059 -6.262436 4.949747 -4.949747 c
6.262436 -3.637059 7 -1.856422 7 0 c
7 1.856422 6.262436 3.637059 4.949747 4.949747 c
3.637059 6.262436 1.856422 7 0 7 c
-1.856422 7 -3.637059 6.262436 -4.949747 4.949747 c
-6.262436 3.637059 -7 1.856422 -7 0 c
-7 -1.856422 -6.262436 -3.637059 -4.949747 -4.949747 c
-3.637059 -6.262436 -1.856422 -7 0 -7 c
cl

gsave
1.000 0.000 0.000 setrgbcolor
fill
grestore
stroke
grestore
} bind def
79.6588 73.0352 o
164.182 149.537 o
248.704 228.614 o
333.227 263.978 o
417.75 316.941 o
502.272 372.834 o
grestore
1.500 setlinewidth
2 setlinecap
0.750 0.750 0.000 setrgbcolor
gsave
464.9 439.8 58.53 53.04 clipbox
79.658807 73.035189 m
164.181534 151.562996 l
248.704261 230.340608 l
333.226989 303.585917 l
417.749716 341.4664 l
502.272443 417.905233 l
stroke
grestore
1.000 setlinewidth
0 setlinecap
gsave
464.9 439.8 58.53 53.04 clipbox
/o {
gsave
newpath
translate
1.0 setlinewidth
1 setlinejoin
0 setlinecap
0 -7 m
1.856422 -7 3.637059 -6.262436 4.949747 -4.949747 c
6.262436 -3.637059 7 -1.856422 7 0 c
7 1.856422 6.262436 3.637059 4.949747 4.949747 c
3.637059 6.262436 1.856422 7 0 7 c
-1.856422 7 -3.637059 6.262436 -4.949747 4.949747 c
-6.262436 3.637059 -7 1.856422 -7 0 c
-7 -1.856422 -6.262436 -3.637059 -4.949747 -4.949747 c
-3.637059 -6.262436 -1.856422 -7 0 -7 c
cl

gsave
0.750 0.750 0.000 setrgbcolor
fill
grestore
stroke
grestore
} bind def
79.6588 73.0352 o
164.182 151.563 o
248.704 230.341 o
333.227 303.586 o
417.75 341.466 o
502.272 417.905 o
grestore
1.500 setlinewidth
2 setlinecap
0.000 0.500 0.000 setrgbcolor
gsave
464.9 439.8 58.53 53.04 clipbox
79.658807 73.035189 m
164.181534 153.389726 l
248.704261 232.886511 l
333.226989 310.786892 l
417.749716 373.784899 l
502.272443 432.588591 l
stroke
grestore
1.000 setlinewidth
0 setlinecap
gsave
464.9 439.8 58.53 53.04 clipbox
/o {
gsave
newpath
translate
1.0 setlinewidth
1 setlinejoin
0 setlinecap
0 -7 m
1.856422 -7 3.637059 -6.262436 4.949747 -4.949747 c
6.262436 -3.637059 7 -1.856422 7 0 c
7 1.856422 6.262436 3.637059 4.949747 4.949747 c
3.637059 6.262436 1.856422 7 0 7 c
-1.856422 7 -3.637059 6.262436 -4.949747 4.949747 c
-6.262436 3.637059 -7 1.856422 -7 0 c
-7 -1.856422 -6.262436 -3.637059 -4.949747 -4.949747 c
-3.637059 -6.262436 -1.856422 -7 0 -7 c
cl

gsave
0.000 0.500 0.000 setrgbcolor
fill
grestore
stroke
grestore
} bind def
79.6588 73.0352 o
164.182 153.39 o
248.704 232.887 o
333.227 310.787 o
417.75 373.785 o
502.272 432.589 o
grestore
1.200 setlinewidth
2 setlinecap
0.000 setgray
gsave
464.9 439.8 58.53 53.04 clipbox
58.528125 73.035189 m
523.403125 73.035189 l
stroke
grestore
gsave
464.9 439.8 58.53 53.04 clipbox
58.528125 152.297194 m
523.403125 152.297194 l
stroke
grestore
0.500 setlinewidth
0 setlinecap
[1.85 0.8] 0 setdash
gsave
464.9 439.8 58.53 53.04 clipbox
58.528125 198.662494 m
523.403125 198.662494 l
stroke
grestore
1.200 setlinewidth
2 setlinecap
[] 0 setdash
gsave
464.9 439.8 58.53 53.04 clipbox
58.528125 231.559198 m
523.403125 231.559198 l
stroke
grestore
0.500 setlinewidth
0 setlinecap
[1.85 0.8] 0 setdash
gsave
464.9 439.8 58.53 53.04 clipbox
58.528125 257.075864 m
523.403125 257.075864 l
stroke
grestore
gsave
464.9 439.8 58.53 53.04 clipbox
58.528125 277.924498 m
523.403125 277.924498 l
stroke
grestore
gsave
464.9 439.8 58.53 53.04 clipbox
58.528125 295.551767 m
523.403125 295.551767 l
stroke
grestore
1.200 setlinewidth
2 setlinecap
[] 0 setdash
gsave
464.9 439.8 58.53 53.04 clipbox
58.528125 310.821202 m
523.403125 310.821202 l
stroke
grestore
0.500 setlinewidth
0 setlinecap
[1.85 0.8] 0 setdash
gsave
464.9 439.8 58.53 53.04 clipbox
58.528125 324.289798 m
523.403125 324.289798 l
stroke
grestore
gsave
464.9 439.8 58.53 53.04 clipbox
58.528125 336.337868 m
523.403125 336.337868 l
stroke
grestore
gsave
464.9 439.8 58.53 53.04 clipbox
58.528125 347.236673 m
523.403125 347.236673 l
stroke
grestore
gsave
464.9 439.8 58.53 53.04 clipbox
58.528125 357.186502 m
523.403125 357.186502 l
stroke
grestore
gsave
464.9 439.8 58.53 53.04 clipbox
58.528125 366.339458 m
523.403125 366.339458 l
stroke
grestore
gsave
464.9 439.8 58.53 53.04 clipbox
58.528125 374.813771 m
523.403125 374.813771 l
stroke
grestore
gsave
464.9 439.8 58.53 53.04 clipbox
58.528125 382.703168 m
523.403125 382.703168 l
stroke
grestore
1.200 setlinewidth
2 setlinecap
[] 0 setdash
gsave
464.9 439.8 58.53 53.04 clipbox
58.528125 390.083206 m
523.403125 390.083206 l
stroke
grestore
0.500 setlinewidth
0 setlinecap
[1.85 0.8] 0 setdash
gsave
464.9 439.8 58.53 53.04 clipbox
58.528125 397.015686 m
523.403125 397.015686 l
stroke
grestore
gsave
464.9 439.8 58.53 53.04 clipbox
58.528125 403.551802 m
523.403125 403.551802 l
stroke
grestore
gsave
464.9 439.8 58.53 53.04 clipbox
58.528125 409.734438 m
523.403125 409.734438 l
stroke
grestore
gsave
464.9 439.8 58.53 53.04 clipbox
58.528125 415.599872 m
523.403125 415.599872 l
stroke
grestore
gsave
464.9 439.8 58.53 53.04 clipbox
58.528125 421.179071 m
523.403125 421.179071 l
stroke
grestore
gsave
464.9 439.8 58.53 53.04 clipbox
58.528125 426.498677 m
523.403125 426.498677 l
stroke
grestore
gsave
464.9 439.8 58.53 53.04 clipbox
58.528125 431.581776 m
523.403125 431.581776 l
stroke
grestore
gsave
464.9 439.8 58.53 53.04 clipbox
58.528125 436.448506 m
523.403125 436.448506 l
stroke
grestore
gsave
464.9 439.8 58.53 53.04 clipbox
58.528125 441.116538 m
523.403125 441.116538 l
stroke
grestore
gsave
464.9 439.8 58.53 53.04 clipbox
58.528125 445.601462 m
523.403125 445.601462 l
stroke
grestore
gsave
464.9 439.8 58.53 53.04 clipbox
58.528125 449.917103 m
523.403125 449.917103 l
stroke
grestore
gsave
464.9 439.8 58.53 53.04 clipbox
58.528125 454.075775 m
523.403125 454.075775 l
stroke
grestore
gsave
464.9 439.8 58.53 53.04 clipbox
58.528125 458.088499 m
523.403125 458.088499 l
stroke
grestore
gsave
464.9 439.8 58.53 53.04 clipbox
58.528125 461.965172 m
523.403125 461.965172 l
stroke
grestore
gsave
464.9 439.8 58.53 53.04 clipbox
58.528125 465.714718 m
523.403125 465.714718 l
stroke
grestore
1.200 setlinewidth
2 setlinecap
[] 0 setdash
gsave
464.9 439.8 58.53 53.04 clipbox
58.528125 469.34521 m
523.403125 469.34521 l
stroke
grestore
0.500 setlinewidth
0 setlinecap
[1.85 0.8] 0 setdash
gsave
464.9 439.8 58.53 53.04 clipbox
58.528125 472.863977 m
523.403125 472.863977 l
stroke
grestore
gsave
464.9 439.8 58.53 53.04 clipbox
58.528125 476.27769 m
523.403125 476.27769 l
stroke
grestore
gsave
464.9 439.8 58.53 53.04 clipbox
58.528125 479.592441 m
523.403125 479.592441 l
stroke
grestore
gsave
464.9 439.8 58.53 53.04 clipbox
58.528125 482.813807 m
523.403125 482.813807 l
stroke
grestore
gsave
464.9 439.8 58.53 53.04 clipbox
58.528125 485.946904 m
523.403125 485.946904 l
stroke
grestore
gsave
464.9 439.8 58.53 53.04 clipbox
58.528125 488.996442 m
523.403125 488.996442 l
stroke
grestore
gsave
464.9 439.8 58.53 53.04 clipbox
58.528125 491.966762 m
523.403125 491.966762 l
stroke
grestore
2.000 setlinewidth
0 setlinejoin
2 setlinecap
[] 0 setdash
gsave
58.528125 53.04375 m
58.528125 492.855417 l
stroke
grestore
gsave
523.403125 53.04375 m
523.403125 492.855417 l
stroke
grestore
gsave
58.528125 53.04375 m
523.403125 53.04375 l
stroke
grestore
gsave
58.528125 492.855417 m
523.403125 492.855417 l
stroke
grestore
1.000 setlinewidth
0 setlinecap
0.800 setgray
gsave
319.546875 62.04375 m
510.803125 62.04375 l
513.203125 62.04375 514.403125 63.24375 514.403125 65.64375 c
514.403125 143.109375 l
514.403125 145.509375 513.203125 146.709375 510.803125 146.709375 c
319.546875 146.709375 l
317.146875 146.709375 315.946875 145.509375 315.946875 143.109375 c
315.946875 65.64375 l
315.946875 63.24375 317.146875 62.04375 319.546875 62.04375 c
cl
gsave
1.000 setgray
fill
grestore
stroke
grestore
1.500 setlinewidth
1 setlinejoin
2 setlinecap
[] 0 setdash
1.000 0.000 0.000 setrgbcolor
gsave
323.146875 132.1375 m
359.146875 132.1375 l
stroke
grestore
1.000 setlinewidth
0 setlinecap
gsave
/o {
gsave
newpath
translate
1.0 setlinewidth
1 setlinejoin
0 setlinecap
0 -7 m
1.856422 -7 3.637059 -6.262436 4.949747 -4.949747 c
6.262436 -3.637059 7 -1.856422 7 0 c
7 1.856422 6.262436 3.637059 4.949747 4.949747 c
3.637059 6.262436 1.856422 7 0 7 c
-1.856422 7 -3.637059 6.262436 -4.949747 4.949747 c
-6.262436 3.637059 -7 1.856422 -7 0 c
-7 -1.856422 -6.262436 -3.637059 -4.949747 -4.949747 c
-3.637059 -6.262436 -1.856422 -7 0 -7 c
cl

gsave
1.000 0.000 0.000 setrgbcolor
fill
grestore
stroke
grestore
} bind def
341.147 132.138 o
grestore
0.000 setgray
/DejaVuSans findfont
18.000 scalefont
setfont
gsave
373.546875 125.837500 translate
0.000000 rotate
0.000000 0.000000 m /three glyphshow
11.452148 0.000000 m /one glyphshow
22.904297 0.000000 m /one glyphshow
34.356445 0.000000 m /zero glyphshow
45.808594 0.000000 m /four glyphshow
57.260742 0.000000 m /space glyphshow
62.982422 0.000000 m /D glyphshow
76.842773 0.000000 m /O glyphshow
91.010742 0.000000 m /F glyphshow
101.364258 0.000000 m /s glyphshow
grestore
1.500 setlinewidth
2 setlinecap
0.750 0.750 0.000 setrgbcolor
gsave
323.146875 105.715625 m
359.146875 105.715625 l
stroke
grestore
1.000 setlinewidth
0 setlinecap
gsave
/o {
gsave
newpath
translate
1.0 setlinewidth
1 setlinejoin
0 setlinecap
0 -7 m
1.856422 -7 3.637059 -6.262436 4.949747 -4.949747 c
6.262436 -3.637059 7 -1.856422 7 0 c
7 1.856422 6.262436 3.637059 4.949747 4.949747 c
3.637059 6.262436 1.856422 7 0 7 c
-1.856422 7 -3.637059 6.262436 -4.949747 4.949747 c
-6.262436 3.637059 -7 1.856422 -7 0 c
-7 -1.856422 -6.262436 -3.637059 -4.949747 -4.949747 c
-3.637059 -6.262436 -1.856422 -7 0 -7 c
cl

gsave
0.750 0.750 0.000 setrgbcolor
fill
grestore
stroke
grestore
} bind def
341.147 105.716 o
grestore
0.000 setgray
gsave
373.546875 99.415625 translate
0.000000 rotate
0.000000 0.000000 m /two glyphshow
11.452148 0.000000 m /two glyphshow
22.904297 0.000000 m /one glyphshow
34.356445 0.000000 m /nine glyphshow
45.808594 0.000000 m /five glyphshow
57.260742 0.000000 m /two glyphshow
68.712891 0.000000 m /space glyphshow
74.434570 0.000000 m /D glyphshow
88.294922 0.000000 m /O glyphshow
102.462891 0.000000 m /F glyphshow
112.816406 0.000000 m /s glyphshow
grestore
1.500 setlinewidth
2 setlinecap
0.000 0.500 0.000 setrgbcolor
gsave
323.146875 79.29375 m
359.146875 79.29375 l
stroke
grestore
1.000 setlinewidth
0 setlinecap
gsave
/o {
gsave
newpath
translate
1.0 setlinewidth
1 setlinejoin
0 setlinecap
0 -7 m
1.856422 -7 3.637059 -6.262436 4.949747 -4.949747 c
6.262436 -3.637059 7 -1.856422 7 0 c
7 1.856422 6.262436 3.637059 4.949747 4.949747 c
3.637059 6.262436 1.856422 7 0 7 c
-1.856422 7 -3.637059 6.262436 -4.949747 4.949747 c
-6.262436 3.637059 -7 1.856422 -7 0 c
-7 -1.856422 -6.262436 -3.637059 -4.949747 -4.949747 c
-3.637059 -6.262436 -1.856422 -7 0 -7 c
cl

gsave
0.000 0.500 0.000 setrgbcolor
fill
grestore
stroke
grestore
} bind def
341.147 79.2938 o
grestore
0.000 setgray
gsave
373.546875 72.993750 translate
0.000000 rotate
0.000000 0.000000 m /one glyphshow
11.452148 0.000000 m /six glyphshow
22.904297 0.000000 m /seven glyphshow
34.356445 0.000000 m /two glyphshow
45.808594 0.000000 m /seven glyphshow
57.260742 0.000000 m /zero glyphshow
68.712891 0.000000 m /four glyphshow
80.165039 0.000000 m /space glyphshow
85.886719 0.000000 m /D glyphshow
99.747070 0.000000 m /O glyphshow
113.915039 0.000000 m /F glyphshow
124.268555 0.000000 m /s glyphshow
grestore

end
showpage
