%!PS-Adobe-3.0 EPSF-3.0
%%Creator: MATLAB, The MathWorks, Inc. Version 8.3.0.532 (R2014a). Operating System: Linux 4.15.0-106-generic #107-Ubuntu SMP Thu Jun 4 11:27:52 UTC 2020 x86_64.
%%Title: /home/doc/Work/Doutorado/thesis/thesis/eps/cap6/L2NormVsDOFs_Distorted_NonDistorted_Squa.eps
%%CreationDate: 06/25/2020  11:24:15
%%DocumentNeededFonts: Helvetica
%%+ Helvetica-Bold
%%DocumentProcessColors: Cyan Magenta Yellow Black
%%LanguageLevel: 2
%%Pages: 1
%%BoundingBox:   -72   154   684   637
%%EndComments

%%BeginProlog
% MathWorks dictionary
/MathWorks 160 dict begin
% definition operators
/bdef {bind def} bind def
/ldef {load def} bind def
/xdef {exch def} bdef
/xstore {exch store} bdef
% operator abbreviations
/c  /clip ldef
/cc /concat ldef
/cp /closepath ldef
/gr /grestore ldef
/gs /gsave ldef
/mt /moveto ldef
/np /newpath ldef
/cm /currentmatrix ldef
/sm /setmatrix ldef
/rm /rmoveto ldef
/rl /rlineto ldef
/s {show newpath} bdef
/sc {setcmykcolor} bdef
/sr /setrgbcolor ldef
/sg /setgray ldef
/w /setlinewidth ldef
/j /setlinejoin ldef
/cap /setlinecap ldef
/rc {rectclip} bdef
/rf {rectfill} bdef
% page state control
/pgsv () def
/bpage {/pgsv save def} bdef
/epage {pgsv restore} bdef
/bplot /gsave ldef
/eplot {stroke grestore} bdef
% orientation switch
/portraitMode 0 def /landscapeMode 1 def /rotateMode 2 def
% coordinate system mappings
/dpi2point 0 def
% font control
/FontSize 0 def
/FMS {/FontSize xstore findfont [FontSize 0 0 FontSize neg 0 0]
  makefont setfont} bdef
/reencode {exch dup where {pop load} {pop StandardEncoding} ifelse
  exch dup 3 1 roll findfont dup length dict begin
  { 1 index /FID ne {def}{pop pop} ifelse } forall
  /Encoding exch def currentdict end definefont pop} bdef
/isroman {findfont /CharStrings get /Agrave known} bdef
/FMSR {3 1 roll 1 index dup isroman {reencode} {pop pop} ifelse
  exch FMS} bdef
/csm {1 dpi2point div -1 dpi2point div scale neg translate
 dup landscapeMode eq {pop -90 rotate}
  {rotateMode eq {90 rotate} if} ifelse} bdef
% line types: solid, dotted, dashed, dotdash
/SO { [] 0 setdash } bdef
/DO { [.5 dpi2point mul 4 dpi2point mul] 0 setdash } bdef
/DA { [6 dpi2point mul] 0 setdash } bdef
/DD { [.5 dpi2point mul 4 dpi2point mul 6 dpi2point mul 4
  dpi2point mul] 0 setdash } bdef
% macros for lines and objects
/L {lineto stroke} bdef
/MP {3 1 roll moveto 1 sub {rlineto} repeat} bdef
/AP {{rlineto} repeat} bdef
/PDlw -1 def
/W {/PDlw currentlinewidth def setlinewidth} def
/PP {closepath eofill} bdef
/DP {closepath stroke} bdef
/MR {4 -2 roll moveto dup  0 exch rlineto exch 0 rlineto
  neg 0 exch rlineto closepath} bdef
/FR {MR stroke} bdef
/PR {MR fill} bdef
/L1i {{currentfile picstr readhexstring pop} image} bdef
/tMatrix matrix def
/MakeOval {newpath tMatrix currentmatrix pop translate scale
0 0 1 0 360 arc tMatrix setmatrix} bdef
/FO {MakeOval stroke} bdef
/PO {MakeOval fill} bdef
/PD {currentlinewidth 2 div 0 360 arc fill
   PDlw -1 eq not {PDlw w /PDlw -1 def} if} def
/FA {newpath tMatrix currentmatrix pop translate scale
  0 0 1 5 -2 roll arc tMatrix setmatrix stroke} bdef
/PA {newpath tMatrix currentmatrix pop	translate 0 0 moveto scale
  0 0 1 5 -2 roll arc closepath tMatrix setmatrix fill} bdef
/FAn {newpath tMatrix currentmatrix pop translate scale
  0 0 1 5 -2 roll arcn tMatrix setmatrix stroke} bdef
/PAn {newpath tMatrix currentmatrix pop translate 0 0 moveto scale
  0 0 1 5 -2 roll arcn closepath tMatrix setmatrix fill} bdef
/vradius 0 def /hradius 0 def /lry 0 def
/lrx 0 def /uly 0 def /ulx 0 def /rad 0 def
/MRR {/vradius xdef /hradius xdef /lry xdef /lrx xdef /uly xdef
  /ulx xdef newpath tMatrix currentmatrix pop ulx hradius add uly
  vradius add translate hradius vradius scale 0 0 1 180 270 arc 
  tMatrix setmatrix lrx hradius sub uly vradius add translate
  hradius vradius scale 0 0 1 270 360 arc tMatrix setmatrix
  lrx hradius sub lry vradius sub translate hradius vradius scale
  0 0 1 0 90 arc tMatrix setmatrix ulx hradius add lry vradius sub
  translate hradius vradius scale 0 0 1 90 180 arc tMatrix setmatrix
  closepath} bdef
/FRR {MRR stroke } bdef
/PRR {MRR fill } bdef
/MlrRR {/lry xdef /lrx xdef /uly xdef /ulx xdef /rad lry uly sub 2 div def
  newpath tMatrix currentmatrix pop ulx rad add uly rad add translate
  rad rad scale 0 0 1 90 270 arc tMatrix setmatrix lrx rad sub lry rad
  sub translate rad rad scale 0 0 1 270 90 arc tMatrix setmatrix
  closepath} bdef
/FlrRR {MlrRR stroke } bdef
/PlrRR {MlrRR fill } bdef
/MtbRR {/lry xdef /lrx xdef /uly xdef /ulx xdef /rad lrx ulx sub 2 div def
  newpath tMatrix currentmatrix pop ulx rad add uly rad add translate
  rad rad scale 0 0 1 180 360 arc tMatrix setmatrix lrx rad sub lry rad
  sub translate rad rad scale 0 0 1 0 180 arc tMatrix setmatrix
  closepath} bdef
/FtbRR {MtbRR stroke } bdef
/PtbRR {MtbRR fill } bdef
/stri 6 array def /dtri 6 array def
/smat 6 array def /dmat 6 array def
/tmat1 6 array def /tmat2 6 array def /dif 3 array def
/asub {/ind2 exch def /ind1 exch def dup dup
  ind1 get exch ind2 get sub exch } bdef
/tri_to_matrix {
  2 0 asub 3 1 asub 4 0 asub 5 1 asub
  dup 0 get exch 1 get 7 -1 roll astore } bdef
/compute_transform {
  dmat dtri tri_to_matrix tmat1 invertmatrix 
  smat stri tri_to_matrix tmat2 concatmatrix } bdef
/ds {stri astore pop} bdef
/dt {dtri astore pop} bdef
/db {2 copy /cols xdef /rows xdef mul dup 3 mul string
  currentfile 
  3 index 0 eq {/ASCIIHexDecode filter}
  {/ASCII85Decode filter 3 index 2 eq {/RunLengthDecode filter} if }
  ifelse exch readstring pop
  dup 0 3 index getinterval /rbmap xdef
  dup 2 index dup getinterval /gbmap xdef
  1 index dup 2 mul exch getinterval /bbmap xdef pop pop}bdef
/it {gs np dtri aload pop moveto lineto lineto cp c
  cols rows 8 compute_transform 
  rbmap gbmap bbmap true 3 colorimage gr}bdef
/il {newpath moveto lineto stroke}bdef
currentdict end def
%%EndProlog

%%BeginSetup
MathWorks begin

0 cap

end
%%EndSetup

%%Page: 1 1
%%BeginPageSetup
%%PageBoundingBox:   -72   154   684   637
MathWorks begin
bpage
%%EndPageSetup

%%BeginObject: obj1
bplot

/dpi2point 12 def
portraitMode -0864 7644 csm

    0     0  9081  5789 rc
87 dict begin %Colortable dictionary
/c0 { 0.000000 0.000000 0.000000 sr} bdef
/c1 { 1.000000 1.000000 1.000000 sr} bdef
/c2 { 0.900000 0.000000 0.000000 sr} bdef
/c3 { 0.000000 0.820000 0.000000 sr} bdef
/c4 { 0.000000 0.000000 0.800000 sr} bdef
/c5 { 0.910000 0.820000 0.320000 sr} bdef
/c6 { 1.000000 0.260000 0.820000 sr} bdef
/c7 { 0.000000 0.820000 0.820000 sr} bdef
c0
1 j
1 sg
   0    0 9082 5790 rf
6 w
0 4718 7037 0 0 -4718 1181 5152 4 MP
PP
-7037 0 0 4718 7037 0 0 -4718 1181 5152 5 MP stroke
4 w
DO
0 sg
2101 5152 mt 2101  434 L
2101  434 mt 2101  434 L
5159 5152 mt 5159  434 L
5159  434 mt 5159  434 L
8218 5152 mt 8218  434 L
8218  434 mt 8218  434 L
1181 5152 mt 8218 5152 L
8218 5152 mt 8218 5152 L
1181 4208 mt 8218 4208 L
8218 4208 mt 8218 4208 L
1181 3264 mt 8218 3264 L
8218 3264 mt 8218 3264 L
1181 2321 mt 8218 2321 L
8218 2321 mt 8218 2321 L
1181 1377 mt 8218 1377 L
8218 1377 mt 8218 1377 L
1181  434 mt 8218  434 L
8218  434 mt 8218  434 L
SO
6 w
1181 5152 mt 8218 5152 L
1181  434 mt 8218  434 L
1181 5152 mt 1181  434 L
8218 5152 mt 8218  434 L
1181 5152 mt 8218 5152 L
1181 5152 mt 1181  434 L
2101 5152 mt 2101 5116 L
2101  434 mt 2101  469 L
DO
2101 5152 mt 2101  434 L
2101  434 mt 2101  434 L
SO
1961 5152 mt 1961 5116 L
1961  434 mt 1961  469 L
DO
1961 5152 mt 1961  434 L
1961  434 mt 1961  434 L
SO
1805 5152 mt 1805 5116 L
1805  434 mt 1805  469 L
DO
1805 5152 mt 1805  434 L
1805  434 mt 1805  434 L
SO
1627 5152 mt 1627 5116 L
1627  434 mt 1627  469 L
DO
1627 5152 mt 1627  434 L
1627  434 mt 1627  434 L
SO
1423 5152 mt 1423 5116 L
1423  434 mt 1423  469 L
DO
1423 5152 mt 1423  434 L
1423  434 mt 1423  434 L
SO
2101 5152 mt 2101 5081 L
2101  434 mt 2101  504 L
%%IncludeResource: font Helvetica
/Helvetica /ISOLatin1Encoding 240 FMSR

1924 5482 mt 
(10) s
%%IncludeResource: font Helvetica
/Helvetica /ISOLatin1Encoding 160 FMSR

2190 5334 mt 
(1) s
3022 5152 mt 3022 5116 L
3022  434 mt 3022  469 L
DO
3022 5152 mt 3022  434 L
3022  434 mt 3022  434 L
SO
3560 5152 mt 3560 5116 L
3560  434 mt 3560  469 L
DO
3560 5152 mt 3560  434 L
3560  434 mt 3560  434 L
SO
3942 5152 mt 3942 5116 L
3942  434 mt 3942  469 L
DO
3942 5152 mt 3942  434 L
3942  434 mt 3942  434 L
SO
4239 5152 mt 4239 5116 L
4239  434 mt 4239  469 L
DO
4239 5152 mt 4239  434 L
4239  434 mt 4239  434 L
SO
4481 5152 mt 4481 5116 L
4481  434 mt 4481  469 L
DO
4481 5152 mt 4481  434 L
4481  434 mt 4481  434 L
SO
4686 5152 mt 4686 5116 L
4686  434 mt 4686  469 L
DO
4686 5152 mt 4686  434 L
4686  434 mt 4686  434 L
SO
4863 5152 mt 4863 5116 L
4863  434 mt 4863  469 L
DO
4863 5152 mt 4863  434 L
4863  434 mt 4863  434 L
SO
5019 5152 mt 5019 5116 L
5019  434 mt 5019  469 L
DO
5019 5152 mt 5019  434 L
5019  434 mt 5019  434 L
SO
5159 5152 mt 5159 5116 L
5159  434 mt 5159  469 L
DO
5159 5152 mt 5159  434 L
5159  434 mt 5159  434 L
SO
5159 5152 mt 5159 5081 L
5159  434 mt 5159  504 L
%%IncludeResource: font Helvetica
/Helvetica /ISOLatin1Encoding 240 FMSR

4982 5482 mt 
(10) s
%%IncludeResource: font Helvetica
/Helvetica /ISOLatin1Encoding 160 FMSR

5248 5334 mt 
(2) s
6080 5152 mt 6080 5116 L
6080  434 mt 6080  469 L
DO
6080 5152 mt 6080  434 L
6080  434 mt 6080  434 L
SO
6618 5152 mt 6618 5116 L
6618  434 mt 6618  469 L
DO
6618 5152 mt 6618  434 L
6618  434 mt 6618  434 L
SO
7001 5152 mt 7001 5116 L
7001  434 mt 7001  469 L
DO
7001 5152 mt 7001  434 L
7001  434 mt 7001  434 L
SO
7297 5152 mt 7297 5116 L
7297  434 mt 7297  469 L
DO
7297 5152 mt 7297  434 L
7297  434 mt 7297  434 L
SO
7539 5152 mt 7539 5116 L
7539  434 mt 7539  469 L
DO
7539 5152 mt 7539  434 L
7539  434 mt 7539  434 L
SO
7744 5152 mt 7744 5116 L
7744  434 mt 7744  469 L
DO
7744 5152 mt 7744  434 L
7744  434 mt 7744  434 L
SO
7921 5152 mt 7921 5116 L
7921  434 mt 7921  469 L
DO
7921 5152 mt 7921  434 L
7921  434 mt 7921  434 L
SO
8078 5152 mt 8078 5116 L
8078  434 mt 8078  469 L
DO
8078 5152 mt 8078  434 L
8078  434 mt 8078  434 L
SO
8218 5152 mt 8218 5116 L
8218  434 mt 8218  469 L
DO
8218 5152 mt 8218  434 L
8218  434 mt 8218  434 L
SO
8218 5152 mt 8218 5081 L
8218  434 mt 8218  504 L
%%IncludeResource: font Helvetica
/Helvetica /ISOLatin1Encoding 240 FMSR

8041 5482 mt 
(10) s
%%IncludeResource: font Helvetica
/Helvetica /ISOLatin1Encoding 160 FMSR

8307 5334 mt 
(3) s
1181 5152 mt 1181 5152 L
1181 5152 mt 1181 5152 L
DO
1181 5152 mt 1181 5152 L
1181 5152 mt 1181 5152 L
SO
1181 5152 mt 1181 5152 L
1181 5152 mt 1181 5152 L
DO
1181 5152 mt 1181 5152 L
1181 5152 mt 1181 5152 L
SO
1181 5152 mt 1181 5152 L
1181 5152 mt 1181 5152 L
DO
1181 5152 mt 1181 5152 L
1181 5152 mt 1181 5152 L
SO
1181 5152 mt 1181 5152 L
1181 5152 mt 1181 5152 L
DO
1181 5152 mt 1181 5152 L
1181 5152 mt 1181 5152 L
SO
1181 5152 mt 1181 5152 L
1181 5152 mt 1181 5152 L
DO
1181 5152 mt 1181 5152 L
1181 5152 mt 1181 5152 L
SO
1181 5152 mt 1181 5152 L
1181 5152 mt 1181 5152 L
DO
1181 5152 mt 1181 5152 L
1181 5152 mt 1181 5152 L
SO
1181 5152 mt 1181 5152 L
1181 5152 mt 1181 5152 L
DO
1181 5152 mt 1181 5152 L
1181 5152 mt 1181 5152 L
SO
1181 5152 mt 1181 5152 L
1181 5152 mt 1181 5152 L
DO
1181 5152 mt 1181 5152 L
1181 5152 mt 1181 5152 L
SO
1181 5152 mt 1181 5152 L
1181 5152 mt 1181 5152 L
DO
1181 5152 mt 1181 5152 L
1181 5152 mt 1181 5152 L
SO
1181 5152 mt 1251 5152 L
8218 5152 mt 8147 5152 L
%%IncludeResource: font Helvetica
/Helvetica /ISOLatin1Encoding 240 FMSR

 698 5241 mt 
(10) s
%%IncludeResource: font Helvetica
/Helvetica /ISOLatin1Encoding 160 FMSR

 964 5093 mt 
(-8) s
1181 5152 mt 1181 5152 L
1181 5152 mt 1181 5152 L
DO
1181 5152 mt 1181 5152 L
1181 5152 mt 1181 5152 L
SO
1181 5152 mt 1181 5152 L
1181 5152 mt 1181 5152 L
DO
1181 5152 mt 1181 5152 L
1181 5152 mt 1181 5152 L
SO
1181 5152 mt 1181 5152 L
1181 5152 mt 1181 5152 L
DO
1181 5152 mt 1181 5152 L
1181 5152 mt 1181 5152 L
SO
1181 5152 mt 1181 5152 L
1181 5152 mt 1181 5152 L
DO
1181 5152 mt 1181 5152 L
1181 5152 mt 1181 5152 L
SO
1181 5152 mt 1181 5152 L
1181 5152 mt 1181 5152 L
DO
1181 5152 mt 1181 5152 L
1181 5152 mt 1181 5152 L
SO
1181 5152 mt 1181 5152 L
1181 5152 mt 1181 5152 L
DO
1181 5152 mt 1181 5152 L
1181 5152 mt 1181 5152 L
SO
1181 5152 mt 1181 5152 L
1181 5152 mt 1181 5152 L
DO
1181 5152 mt 1181 5152 L
1181 5152 mt 1181 5152 L
SO
1181 5152 mt 1181 5152 L
1181 5152 mt 1181 5152 L
DO
1181 5152 mt 1181 5152 L
1181 5152 mt 1181 5152 L
SO
1181 5152 mt 1181 5152 L
1181 5152 mt 1181 5152 L
DO
1181 5152 mt 1181 5152 L
1181 5152 mt 1181 5152 L
SO
1181 4208 mt 1251 4208 L
8218 4208 mt 8147 4208 L
%%IncludeResource: font Helvetica
/Helvetica /ISOLatin1Encoding 240 FMSR

 698 4297 mt 
(10) s
%%IncludeResource: font Helvetica
/Helvetica /ISOLatin1Encoding 160 FMSR

 964 4149 mt 
(-6) s
1181 5152 mt 1181 5152 L
1181 5152 mt 1181 5152 L
DO
1181 5152 mt 1181 5152 L
1181 5152 mt 1181 5152 L
SO
1181 5152 mt 1181 5152 L
1181 5152 mt 1181 5152 L
DO
1181 5152 mt 1181 5152 L
1181 5152 mt 1181 5152 L
SO
1181 5152 mt 1181 5152 L
1181 5152 mt 1181 5152 L
DO
1181 5152 mt 1181 5152 L
1181 5152 mt 1181 5152 L
SO
1181 5152 mt 1181 5152 L
1181 5152 mt 1181 5152 L
DO
1181 5152 mt 1181 5152 L
1181 5152 mt 1181 5152 L
SO
1181 5152 mt 1181 5152 L
1181 5152 mt 1181 5152 L
DO
1181 5152 mt 1181 5152 L
1181 5152 mt 1181 5152 L
SO
1181 5152 mt 1181 5152 L
1181 5152 mt 1181 5152 L
DO
1181 5152 mt 1181 5152 L
1181 5152 mt 1181 5152 L
SO
1181 5152 mt 1181 5152 L
1181 5152 mt 1181 5152 L
DO
1181 5152 mt 1181 5152 L
1181 5152 mt 1181 5152 L
SO
1181 5152 mt 1181 5152 L
1181 5152 mt 1181 5152 L
DO
1181 5152 mt 1181 5152 L
1181 5152 mt 1181 5152 L
SO
1181 5152 mt 1181 5152 L
1181 5152 mt 1181 5152 L
DO
1181 5152 mt 1181 5152 L
1181 5152 mt 1181 5152 L
SO
1181 3264 mt 1251 3264 L
8218 3264 mt 8147 3264 L
%%IncludeResource: font Helvetica
/Helvetica /ISOLatin1Encoding 240 FMSR

 698 3353 mt 
(10) s
%%IncludeResource: font Helvetica
/Helvetica /ISOLatin1Encoding 160 FMSR

 964 3205 mt 
(-4) s
1181 5152 mt 1181 5152 L
1181 5152 mt 1181 5152 L
DO
1181 5152 mt 1181 5152 L
1181 5152 mt 1181 5152 L
SO
1181 5152 mt 1181 5152 L
1181 5152 mt 1181 5152 L
DO
1181 5152 mt 1181 5152 L
1181 5152 mt 1181 5152 L
SO
1181 5152 mt 1181 5152 L
1181 5152 mt 1181 5152 L
DO
1181 5152 mt 1181 5152 L
1181 5152 mt 1181 5152 L
SO
1181 5152 mt 1181 5152 L
1181 5152 mt 1181 5152 L
DO
1181 5152 mt 1181 5152 L
1181 5152 mt 1181 5152 L
SO
1181 5152 mt 1181 5152 L
1181 5152 mt 1181 5152 L
DO
1181 5152 mt 1181 5152 L
1181 5152 mt 1181 5152 L
SO
1181 5152 mt 1181 5152 L
1181 5152 mt 1181 5152 L
DO
1181 5152 mt 1181 5152 L
1181 5152 mt 1181 5152 L
SO
1181 5152 mt 1181 5152 L
1181 5152 mt 1181 5152 L
DO
1181 5152 mt 1181 5152 L
1181 5152 mt 1181 5152 L
SO
1181 5152 mt 1181 5152 L
1181 5152 mt 1181 5152 L
DO
1181 5152 mt 1181 5152 L
1181 5152 mt 1181 5152 L
SO
1181 5152 mt 1181 5152 L
1181 5152 mt 1181 5152 L
DO
1181 5152 mt 1181 5152 L
1181 5152 mt 1181 5152 L
SO
1181 2321 mt 1251 2321 L
8218 2321 mt 8147 2321 L
%%IncludeResource: font Helvetica
/Helvetica /ISOLatin1Encoding 240 FMSR

 698 2410 mt 
(10) s
%%IncludeResource: font Helvetica
/Helvetica /ISOLatin1Encoding 160 FMSR

 964 2262 mt 
(-2) s
1181 5152 mt 1181 5152 L
1181 5152 mt 1181 5152 L
DO
1181 5152 mt 1181 5152 L
1181 5152 mt 1181 5152 L
SO
1181 5152 mt 1181 5152 L
1181 5152 mt 1181 5152 L
DO
1181 5152 mt 1181 5152 L
1181 5152 mt 1181 5152 L
SO
1181 5152 mt 1181 5152 L
1181 5152 mt 1181 5152 L
DO
1181 5152 mt 1181 5152 L
1181 5152 mt 1181 5152 L
SO
1181 5152 mt 1181 5152 L
1181 5152 mt 1181 5152 L
DO
1181 5152 mt 1181 5152 L
1181 5152 mt 1181 5152 L
SO
1181 5152 mt 1181 5152 L
1181 5152 mt 1181 5152 L
DO
1181 5152 mt 1181 5152 L
1181 5152 mt 1181 5152 L
SO
1181 5152 mt 1181 5152 L
1181 5152 mt 1181 5152 L
DO
1181 5152 mt 1181 5152 L
1181 5152 mt 1181 5152 L
SO
1181 5152 mt 1181 5152 L
1181 5152 mt 1181 5152 L
DO
1181 5152 mt 1181 5152 L
1181 5152 mt 1181 5152 L
SO
1181 5152 mt 1181 5152 L
1181 5152 mt 1181 5152 L
DO
1181 5152 mt 1181 5152 L
1181 5152 mt 1181 5152 L
SO
1181 5152 mt 1181 5152 L
1181 5152 mt 1181 5152 L
DO
1181 5152 mt 1181 5152 L
1181 5152 mt 1181 5152 L
SO
1181 1377 mt 1251 1377 L
8218 1377 mt 8147 1377 L
%%IncludeResource: font Helvetica
/Helvetica /ISOLatin1Encoding 240 FMSR

 698 1466 mt 
(10) s
%%IncludeResource: font Helvetica
/Helvetica /ISOLatin1Encoding 160 FMSR

 964 1318 mt 
(0) s
1181 5152 mt 1181 5152 L
1181 5152 mt 1181 5152 L
DO
1181 5152 mt 1181 5152 L
1181 5152 mt 1181 5152 L
SO
1181 5152 mt 1181 5152 L
1181 5152 mt 1181 5152 L
DO
1181 5152 mt 1181 5152 L
1181 5152 mt 1181 5152 L
SO
1181 5152 mt 1181 5152 L
1181 5152 mt 1181 5152 L
DO
1181 5152 mt 1181 5152 L
1181 5152 mt 1181 5152 L
SO
1181 5152 mt 1181 5152 L
1181 5152 mt 1181 5152 L
DO
1181 5152 mt 1181 5152 L
1181 5152 mt 1181 5152 L
SO
1181 5152 mt 1181 5152 L
1181 5152 mt 1181 5152 L
DO
1181 5152 mt 1181 5152 L
1181 5152 mt 1181 5152 L
SO
1181 5152 mt 1181 5152 L
1181 5152 mt 1181 5152 L
DO
1181 5152 mt 1181 5152 L
1181 5152 mt 1181 5152 L
SO
1181 5152 mt 1181 5152 L
1181 5152 mt 1181 5152 L
DO
1181 5152 mt 1181 5152 L
1181 5152 mt 1181 5152 L
SO
1181 5152 mt 1181 5152 L
1181 5152 mt 1181 5152 L
DO
1181 5152 mt 1181 5152 L
1181 5152 mt 1181 5152 L
SO
1181 5152 mt 1181 5152 L
1181 5152 mt 1181 5152 L
DO
1181 5152 mt 1181 5152 L
1181 5152 mt 1181 5152 L
SO
1181  434 mt 1251  434 L
8218  434 mt 8147  434 L
%%IncludeResource: font Helvetica
/Helvetica /ISOLatin1Encoding 240 FMSR

 698  523 mt 
(10) s
%%IncludeResource: font Helvetica
/Helvetica /ISOLatin1Encoding 160 FMSR

 964  375 mt 
(2) s
1181 5152 mt 1181 5152 L
1181 5152 mt 1181 5152 L
DO
1181 5152 mt 1181 5152 L
1181 5152 mt 1181 5152 L
SO
1181 5152 mt 1181 5152 L
1181 5152 mt 1181 5152 L
DO
1181 5152 mt 1181 5152 L
1181 5152 mt 1181 5152 L
SO
1181 5152 mt 1181 5152 L
1181 5152 mt 1181 5152 L
DO
1181 5152 mt 1181 5152 L
1181 5152 mt 1181 5152 L
SO
1181 5152 mt 1181 5152 L
1181 5152 mt 1181 5152 L
DO
1181 5152 mt 1181 5152 L
1181 5152 mt 1181 5152 L
SO
1181 5152 mt 1181 5152 L
1181 5152 mt 1181 5152 L
DO
1181 5152 mt 1181 5152 L
1181 5152 mt 1181 5152 L
SO
1181 5152 mt 1181 5152 L
1181 5152 mt 1181 5152 L
DO
1181 5152 mt 1181 5152 L
1181 5152 mt 1181 5152 L
SO
1181 5152 mt 1181 5152 L
1181 5152 mt 1181 5152 L
DO
1181 5152 mt 1181 5152 L
1181 5152 mt 1181 5152 L
SO
1181 5152 mt 1181 5152 L
1181 5152 mt 1181 5152 L
DO
1181 5152 mt 1181 5152 L
1181 5152 mt 1181 5152 L
SO
1181 5152 mt 1181 5152 L
1181 5152 mt 1181 5152 L
DO
1181 5152 mt 1181 5152 L
1181 5152 mt 1181 5152 L
SO
1181 5152 mt 8218 5152 L
1181  434 mt 8218  434 L
1181 5152 mt 1181  434 L
8218 5152 mt 8218  434 L
gs 1181 433 7038 4720 rc
48 w
/c8 { 0.000000 0.247059 0.360784 sr} bdef
c8
221 529 242 542 266 495 295 498 333 449 380 443 444 390 533 371 
667 310 894 267 1357 189 1961 541 12 MP stroke
gr

48 w
c8
gs 1815 395 5925 4776 rc
  48   48 1961  541 FO
  48   48 3318  730 FO
  48   48 4212  997 FO
  48   48 4879 1307 FO
  48   48 5412 1678 FO
  48   48 5856 2068 FO
  48   48 6236 2511 FO
  48   48 6569 2960 FO
  48   48 6864 3458 FO
  48   48 7130 3953 FO
  48   48 7372 4495 FO
  48   48 7593 5024 FO
gr

gs 1181 433 7038 4720 rc
/c9 { 1.000000 0.650980 0.000000 sr} bdef
c9
221 527 242 535 266 488 295 489 333 441 380 432 444 378 533 356 
667 292 894 247 1357 144 1961 541 12 MP stroke
gr

c9
gs 1815 395 5925 4622 rc
0 j
0 -76 -76 0 0 76 76 0 1923 503 5 MP
DP
0 -76 -76 0 0 76 76 0 3280 647 5 MP
DP
0 -76 -76 0 0 76 76 0 4174 894 5 MP
DP
0 -76 -76 0 0 76 76 0 4841 1186 5 MP
DP
0 -76 -76 0 0 76 76 0 5374 1542 5 MP
DP
0 -76 -76 0 0 76 76 0 5818 1920 5 MP
DP
0 -76 -76 0 0 76 76 0 6198 2352 5 MP
DP
0 -76 -76 0 0 76 76 0 6531 2793 5 MP
DP
0 -76 -76 0 0 76 76 0 6826 3282 5 MP
DP
0 -76 -76 0 0 76 76 0 7092 3770 5 MP
DP
0 -76 -76 0 0 76 76 0 7334 4305 5 MP
DP
0 -76 -76 0 0 76 76 0 7555 4832 5 MP
DP
gr

gs 1181 433 7038 4720 rc
gr

/c10 { 0.000000 0.000000 1.000000 sr} bdef
c10
%%IncludeResource: font Helvetica
/Helvetica /ISOLatin1Encoding 240 FMSR

3573 5658 mt 
(Degrees of freedom) s
 642 2926 mt  -90 rotate
(||E||) s
90 rotate
0 sg
%%IncludeResource: font Helvetica
/Helvetica /ISOLatin1Encoding 120 FMSR

1164 5195 mt 
( ) s
8202  475 mt 
( ) s
6 w
1 sg
0 668 1876 0 0 -668 6252 1242 4 MP
PP
-1876 0 0 668 1876 0 0 -668 6252 1242 5 MP stroke
4 w
DO
SO
6 w
0 sg
6252 1242 mt 8128 1242 L
6252  574 mt 8128  574 L
6252 1242 mt 6252  574 L
8128 1242 mt 8128  574 L
6252 1242 mt 8128 1242 L
6252 1242 mt 6252  574 L
6252 1242 mt 8128 1242 L
6252  574 mt 8128  574 L
6252 1242 mt 6252  574 L
8128 1242 mt 8128  574 L
%%IncludeResource: font Helvetica-Bold
/Helvetica-Bold /ISOLatin1Encoding 240 FMSR

6720  840 mt 
(Standard) s
gs 6252 574 1877 669 rc
48 w
c8
360 0 6323 751 2 MP stroke
gs 6357 605 293 293 rc
  48   48 6503  751 FO
gr

gr

48 w
c8
0 sg
6720 1153 mt 
(D1 Matrices) s
gs 6252 574 1877 669 rc
c9
360 0 6323 1064 2 MP stroke
gs 6357 918 293 293 rc
0 j
0 -76 -76 0 0 76 76 0 6465 1026 5 MP
DP
gr

6 w
gr

6 w
c9

end %%Color Dict

eplot
%%EndObject

epage
end

showpage

%%Trailer
%%EOF
