%!PS-Adobe-3.0 EPSF-3.0
%%Creator: MATLAB, The MathWorks, Inc. Version 8.3.0.532 (R2014a). Operating System: Linux 4.15.0-106-generic #107-Ubuntu SMP Thu Jun 4 11:27:52 UTC 2020 x86_64.
%%Title: /home/doc/Work/Doutorado/thesis/thesis/eps/cap6/L2NormVsDOFs_Distorted_NonDistorted_Hexa.eps
%%CreationDate: 06/25/2020  11:30:22
%%DocumentNeededFonts: Helvetica
%%+ Helvetica-Bold
%%DocumentProcessColors: Cyan Magenta Yellow Black
%%LanguageLevel: 2
%%Pages: 1
%%BoundingBox:   -72   142   684   650
%%EndComments

%%BeginProlog
% MathWorks dictionary
/MathWorks 160 dict begin
% definition operators
/bdef {bind def} bind def
/ldef {load def} bind def
/xdef {exch def} bdef
/xstore {exch store} bdef
% operator abbreviations
/c  /clip ldef
/cc /concat ldef
/cp /closepath ldef
/gr /grestore ldef
/gs /gsave ldef
/mt /moveto ldef
/np /newpath ldef
/cm /currentmatrix ldef
/sm /setmatrix ldef
/rm /rmoveto ldef
/rl /rlineto ldef
/s {show newpath} bdef
/sc {setcmykcolor} bdef
/sr /setrgbcolor ldef
/sg /setgray ldef
/w /setlinewidth ldef
/j /setlinejoin ldef
/cap /setlinecap ldef
/rc {rectclip} bdef
/rf {rectfill} bdef
% page state control
/pgsv () def
/bpage {/pgsv save def} bdef
/epage {pgsv restore} bdef
/bplot /gsave ldef
/eplot {stroke grestore} bdef
% orientation switch
/portraitMode 0 def /landscapeMode 1 def /rotateMode 2 def
% coordinate system mappings
/dpi2point 0 def
% font control
/FontSize 0 def
/FMS {/FontSize xstore findfont [FontSize 0 0 FontSize neg 0 0]
  makefont setfont} bdef
/reencode {exch dup where {pop load} {pop StandardEncoding} ifelse
  exch dup 3 1 roll findfont dup length dict begin
  { 1 index /FID ne {def}{pop pop} ifelse } forall
  /Encoding exch def currentdict end definefont pop} bdef
/isroman {findfont /CharStrings get /Agrave known} bdef
/FMSR {3 1 roll 1 index dup isroman {reencode} {pop pop} ifelse
  exch FMS} bdef
/csm {1 dpi2point div -1 dpi2point div scale neg translate
 dup landscapeMode eq {pop -90 rotate}
  {rotateMode eq {90 rotate} if} ifelse} bdef
% line types: solid, dotted, dashed, dotdash
/SO { [] 0 setdash } bdef
/DO { [.5 dpi2point mul 4 dpi2point mul] 0 setdash } bdef
/DA { [6 dpi2point mul] 0 setdash } bdef
/DD { [.5 dpi2point mul 4 dpi2point mul 6 dpi2point mul 4
  dpi2point mul] 0 setdash } bdef
% macros for lines and objects
/L {lineto stroke} bdef
/MP {3 1 roll moveto 1 sub {rlineto} repeat} bdef
/AP {{rlineto} repeat} bdef
/PDlw -1 def
/W {/PDlw currentlinewidth def setlinewidth} def
/PP {closepath eofill} bdef
/DP {closepath stroke} bdef
/MR {4 -2 roll moveto dup  0 exch rlineto exch 0 rlineto
  neg 0 exch rlineto closepath} bdef
/FR {MR stroke} bdef
/PR {MR fill} bdef
/L1i {{currentfile picstr readhexstring pop} image} bdef
/tMatrix matrix def
/MakeOval {newpath tMatrix currentmatrix pop translate scale
0 0 1 0 360 arc tMatrix setmatrix} bdef
/FO {MakeOval stroke} bdef
/PO {MakeOval fill} bdef
/PD {currentlinewidth 2 div 0 360 arc fill
   PDlw -1 eq not {PDlw w /PDlw -1 def} if} def
/FA {newpath tMatrix currentmatrix pop translate scale
  0 0 1 5 -2 roll arc tMatrix setmatrix stroke} bdef
/PA {newpath tMatrix currentmatrix pop	translate 0 0 moveto scale
  0 0 1 5 -2 roll arc closepath tMatrix setmatrix fill} bdef
/FAn {newpath tMatrix currentmatrix pop translate scale
  0 0 1 5 -2 roll arcn tMatrix setmatrix stroke} bdef
/PAn {newpath tMatrix currentmatrix pop translate 0 0 moveto scale
  0 0 1 5 -2 roll arcn closepath tMatrix setmatrix fill} bdef
/vradius 0 def /hradius 0 def /lry 0 def
/lrx 0 def /uly 0 def /ulx 0 def /rad 0 def
/MRR {/vradius xdef /hradius xdef /lry xdef /lrx xdef /uly xdef
  /ulx xdef newpath tMatrix currentmatrix pop ulx hradius add uly
  vradius add translate hradius vradius scale 0 0 1 180 270 arc 
  tMatrix setmatrix lrx hradius sub uly vradius add translate
  hradius vradius scale 0 0 1 270 360 arc tMatrix setmatrix
  lrx hradius sub lry vradius sub translate hradius vradius scale
  0 0 1 0 90 arc tMatrix setmatrix ulx hradius add lry vradius sub
  translate hradius vradius scale 0 0 1 90 180 arc tMatrix setmatrix
  closepath} bdef
/FRR {MRR stroke } bdef
/PRR {MRR fill } bdef
/MlrRR {/lry xdef /lrx xdef /uly xdef /ulx xdef /rad lry uly sub 2 div def
  newpath tMatrix currentmatrix pop ulx rad add uly rad add translate
  rad rad scale 0 0 1 90 270 arc tMatrix setmatrix lrx rad sub lry rad
  sub translate rad rad scale 0 0 1 270 90 arc tMatrix setmatrix
  closepath} bdef
/FlrRR {MlrRR stroke } bdef
/PlrRR {MlrRR fill } bdef
/MtbRR {/lry xdef /lrx xdef /uly xdef /ulx xdef /rad lrx ulx sub 2 div def
  newpath tMatrix currentmatrix pop ulx rad add uly rad add translate
  rad rad scale 0 0 1 180 360 arc tMatrix setmatrix lrx rad sub lry rad
  sub translate rad rad scale 0 0 1 0 180 arc tMatrix setmatrix
  closepath} bdef
/FtbRR {MtbRR stroke } bdef
/PtbRR {MtbRR fill } bdef
/stri 6 array def /dtri 6 array def
/smat 6 array def /dmat 6 array def
/tmat1 6 array def /tmat2 6 array def /dif 3 array def
/asub {/ind2 exch def /ind1 exch def dup dup
  ind1 get exch ind2 get sub exch } bdef
/tri_to_matrix {
  2 0 asub 3 1 asub 4 0 asub 5 1 asub
  dup 0 get exch 1 get 7 -1 roll astore } bdef
/compute_transform {
  dmat dtri tri_to_matrix tmat1 invertmatrix 
  smat stri tri_to_matrix tmat2 concatmatrix } bdef
/ds {stri astore pop} bdef
/dt {dtri astore pop} bdef
/db {2 copy /cols xdef /rows xdef mul dup 3 mul string
  currentfile 
  3 index 0 eq {/ASCIIHexDecode filter}
  {/ASCII85Decode filter 3 index 2 eq {/RunLengthDecode filter} if }
  ifelse exch readstring pop
  dup 0 3 index getinterval /rbmap xdef
  dup 2 index dup getinterval /gbmap xdef
  1 index dup 2 mul exch getinterval /bbmap xdef pop pop}bdef
/it {gs np dtri aload pop moveto lineto lineto cp c
  cols rows 8 compute_transform 
  rbmap gbmap bbmap true 3 colorimage gr}bdef
/il {newpath moveto lineto stroke}bdef
currentdict end def
%%EndProlog

%%BeginSetup
MathWorks begin

0 cap

end
%%EndSetup

%%Page: 1 1
%%BeginPageSetup
%%PageBoundingBox:   -72   142   684   650
MathWorks begin
bpage
%%EndPageSetup

%%BeginObject: obj1
bplot

/dpi2point 12 def
portraitMode -0864 7800 csm

    0     0  9081  6096 rc
87 dict begin %Colortable dictionary
/c0 { 0.000000 0.000000 0.000000 sr} bdef
/c1 { 1.000000 1.000000 1.000000 sr} bdef
/c2 { 0.900000 0.000000 0.000000 sr} bdef
/c3 { 0.000000 0.820000 0.000000 sr} bdef
/c4 { 0.000000 0.000000 0.800000 sr} bdef
/c5 { 0.910000 0.820000 0.320000 sr} bdef
/c6 { 1.000000 0.260000 0.820000 sr} bdef
/c7 { 0.000000 0.820000 0.820000 sr} bdef
c0
1 j
1 sg
   0    0 9082 6097 rf
6 w
0 4968 7037 0 0 -4968 1181 5425 4 MP
PP
-7037 0 0 4968 7037 0 0 -4968 1181 5425 5 MP stroke
4 w
DO
0 sg
1181 5425 mt 1181  457 L
1181  457 mt 1181  457 L
3526 5425 mt 3526  457 L
3526  457 mt 3526  457 L
5872 5425 mt 5872  457 L
5872  457 mt 5872  457 L
8218 5425 mt 8218  457 L
8218  457 mt 8218  457 L
1181 5425 mt 8218 5425 L
8218 5425 mt 8218 5425 L
1181 4431 mt 8218 4431 L
8218 4431 mt 8218 4431 L
1181 3437 mt 8218 3437 L
8218 3437 mt 8218 3437 L
1181 2444 mt 8218 2444 L
8218 2444 mt 8218 2444 L
1181 1450 mt 8218 1450 L
8218 1450 mt 8218 1450 L
1181  457 mt 8218  457 L
8218  457 mt 8218  457 L
SO
6 w
1181 5425 mt 8218 5425 L
1181  457 mt 8218  457 L
1181 5425 mt 1181  457 L
8218 5425 mt 8218  457 L
1181 5425 mt 8218 5425 L
1181 5425 mt 1181  457 L
1181 5425 mt 1181 5389 L
1181  457 mt 1181  492 L
DO
1181 5425 mt 1181  457 L
1181  457 mt 1181  457 L
SO
1181 5425 mt 1181 5354 L
1181  457 mt 1181  527 L
%%IncludeResource: font Helvetica
/Helvetica /ISOLatin1Encoding 240 FMSR

1004 5755 mt 
(10) s
%%IncludeResource: font Helvetica
/Helvetica /ISOLatin1Encoding 160 FMSR

1270 5607 mt 
(1) s
1887 5425 mt 1887 5389 L
1887  457 mt 1887  492 L
DO
1887 5425 mt 1887  457 L
1887  457 mt 1887  457 L
SO
2300 5425 mt 2300 5389 L
2300  457 mt 2300  492 L
DO
2300 5425 mt 2300  457 L
2300  457 mt 2300  457 L
SO
2593 5425 mt 2593 5389 L
2593  457 mt 2593  492 L
DO
2593 5425 mt 2593  457 L
2593  457 mt 2593  457 L
SO
2820 5425 mt 2820 5389 L
2820  457 mt 2820  492 L
DO
2820 5425 mt 2820  457 L
2820  457 mt 2820  457 L
SO
3006 5425 mt 3006 5389 L
3006  457 mt 3006  492 L
DO
3006 5425 mt 3006  457 L
3006  457 mt 3006  457 L
SO
3163 5425 mt 3163 5389 L
3163  457 mt 3163  492 L
DO
3163 5425 mt 3163  457 L
3163  457 mt 3163  457 L
SO
3299 5425 mt 3299 5389 L
3299  457 mt 3299  492 L
DO
3299 5425 mt 3299  457 L
3299  457 mt 3299  457 L
SO
3419 5425 mt 3419 5389 L
3419  457 mt 3419  492 L
DO
3419 5425 mt 3419  457 L
3419  457 mt 3419  457 L
SO
3526 5425 mt 3526 5389 L
3526  457 mt 3526  492 L
DO
3526 5425 mt 3526  457 L
3526  457 mt 3526  457 L
SO
3526 5425 mt 3526 5354 L
3526  457 mt 3526  527 L
%%IncludeResource: font Helvetica
/Helvetica /ISOLatin1Encoding 240 FMSR

3349 5755 mt 
(10) s
%%IncludeResource: font Helvetica
/Helvetica /ISOLatin1Encoding 160 FMSR

3615 5607 mt 
(2) s
4232 5425 mt 4232 5389 L
4232  457 mt 4232  492 L
DO
4232 5425 mt 4232  457 L
4232  457 mt 4232  457 L
SO
4645 5425 mt 4645 5389 L
4645  457 mt 4645  492 L
DO
4645 5425 mt 4645  457 L
4645  457 mt 4645  457 L
SO
4938 5425 mt 4938 5389 L
4938  457 mt 4938  492 L
DO
4938 5425 mt 4938  457 L
4938  457 mt 4938  457 L
SO
5166 5425 mt 5166 5389 L
5166  457 mt 5166  492 L
DO
5166 5425 mt 5166  457 L
5166  457 mt 5166  457 L
SO
5351 5425 mt 5351 5389 L
5351  457 mt 5351  492 L
DO
5351 5425 mt 5351  457 L
5351  457 mt 5351  457 L
SO
5508 5425 mt 5508 5389 L
5508  457 mt 5508  492 L
DO
5508 5425 mt 5508  457 L
5508  457 mt 5508  457 L
SO
5645 5425 mt 5645 5389 L
5645  457 mt 5645  492 L
DO
5645 5425 mt 5645  457 L
5645  457 mt 5645  457 L
SO
5765 5425 mt 5765 5389 L
5765  457 mt 5765  492 L
DO
5765 5425 mt 5765  457 L
5765  457 mt 5765  457 L
SO
5872 5425 mt 5872 5389 L
5872  457 mt 5872  492 L
DO
5872 5425 mt 5872  457 L
5872  457 mt 5872  457 L
SO
5872 5425 mt 5872 5354 L
5872  457 mt 5872  527 L
%%IncludeResource: font Helvetica
/Helvetica /ISOLatin1Encoding 240 FMSR

5695 5755 mt 
(10) s
%%IncludeResource: font Helvetica
/Helvetica /ISOLatin1Encoding 160 FMSR

5961 5607 mt 
(3) s
6578 5425 mt 6578 5389 L
6578  457 mt 6578  492 L
DO
6578 5425 mt 6578  457 L
6578  457 mt 6578  457 L
SO
6991 5425 mt 6991 5389 L
6991  457 mt 6991  492 L
DO
6991 5425 mt 6991  457 L
6991  457 mt 6991  457 L
SO
7284 5425 mt 7284 5389 L
7284  457 mt 7284  492 L
DO
7284 5425 mt 7284  457 L
7284  457 mt 7284  457 L
SO
7511 5425 mt 7511 5389 L
7511  457 mt 7511  492 L
DO
7511 5425 mt 7511  457 L
7511  457 mt 7511  457 L
SO
7697 5425 mt 7697 5389 L
7697  457 mt 7697  492 L
DO
7697 5425 mt 7697  457 L
7697  457 mt 7697  457 L
SO
7854 5425 mt 7854 5389 L
7854  457 mt 7854  492 L
DO
7854 5425 mt 7854  457 L
7854  457 mt 7854  457 L
SO
7990 5425 mt 7990 5389 L
7990  457 mt 7990  492 L
DO
7990 5425 mt 7990  457 L
7990  457 mt 7990  457 L
SO
8110 5425 mt 8110 5389 L
8110  457 mt 8110  492 L
DO
8110 5425 mt 8110  457 L
8110  457 mt 8110  457 L
SO
8218 5425 mt 8218 5389 L
8218  457 mt 8218  492 L
DO
8218 5425 mt 8218  457 L
8218  457 mt 8218  457 L
SO
8218 5425 mt 8218 5354 L
8218  457 mt 8218  527 L
%%IncludeResource: font Helvetica
/Helvetica /ISOLatin1Encoding 240 FMSR

8041 5755 mt 
(10) s
%%IncludeResource: font Helvetica
/Helvetica /ISOLatin1Encoding 160 FMSR

8307 5607 mt 
(4) s
1181 5425 mt 1181 5425 L
1181 5425 mt 1181 5425 L
DO
1181 5425 mt 1181 5425 L
1181 5425 mt 1181 5425 L
SO
1181 5425 mt 1181 5425 L
1181 5425 mt 1181 5425 L
DO
1181 5425 mt 1181 5425 L
1181 5425 mt 1181 5425 L
SO
1181 5425 mt 1181 5425 L
1181 5425 mt 1181 5425 L
DO
1181 5425 mt 1181 5425 L
1181 5425 mt 1181 5425 L
SO
1181 5425 mt 1181 5425 L
1181 5425 mt 1181 5425 L
DO
1181 5425 mt 1181 5425 L
1181 5425 mt 1181 5425 L
SO
1181 5425 mt 1181 5425 L
1181 5425 mt 1181 5425 L
DO
1181 5425 mt 1181 5425 L
1181 5425 mt 1181 5425 L
SO
1181 5425 mt 1181 5425 L
1181 5425 mt 1181 5425 L
DO
1181 5425 mt 1181 5425 L
1181 5425 mt 1181 5425 L
SO
1181 5425 mt 1181 5425 L
1181 5425 mt 1181 5425 L
DO
1181 5425 mt 1181 5425 L
1181 5425 mt 1181 5425 L
SO
1181 5425 mt 1181 5425 L
1181 5425 mt 1181 5425 L
DO
1181 5425 mt 1181 5425 L
1181 5425 mt 1181 5425 L
SO
1181 5425 mt 1181 5425 L
1181 5425 mt 1181 5425 L
DO
1181 5425 mt 1181 5425 L
1181 5425 mt 1181 5425 L
SO
1181 5425 mt 1251 5425 L
8218 5425 mt 8147 5425 L
%%IncludeResource: font Helvetica
/Helvetica /ISOLatin1Encoding 240 FMSR

 698 5514 mt 
(10) s
%%IncludeResource: font Helvetica
/Helvetica /ISOLatin1Encoding 160 FMSR

 964 5366 mt 
(-8) s
1181 5425 mt 1181 5425 L
1181 5425 mt 1181 5425 L
DO
1181 5425 mt 1181 5425 L
1181 5425 mt 1181 5425 L
SO
1181 5425 mt 1181 5425 L
1181 5425 mt 1181 5425 L
DO
1181 5425 mt 1181 5425 L
1181 5425 mt 1181 5425 L
SO
1181 5425 mt 1181 5425 L
1181 5425 mt 1181 5425 L
DO
1181 5425 mt 1181 5425 L
1181 5425 mt 1181 5425 L
SO
1181 5425 mt 1181 5425 L
1181 5425 mt 1181 5425 L
DO
1181 5425 mt 1181 5425 L
1181 5425 mt 1181 5425 L
SO
1181 5425 mt 1181 5425 L
1181 5425 mt 1181 5425 L
DO
1181 5425 mt 1181 5425 L
1181 5425 mt 1181 5425 L
SO
1181 5425 mt 1181 5425 L
1181 5425 mt 1181 5425 L
DO
1181 5425 mt 1181 5425 L
1181 5425 mt 1181 5425 L
SO
1181 5425 mt 1181 5425 L
1181 5425 mt 1181 5425 L
DO
1181 5425 mt 1181 5425 L
1181 5425 mt 1181 5425 L
SO
1181 5425 mt 1181 5425 L
1181 5425 mt 1181 5425 L
DO
1181 5425 mt 1181 5425 L
1181 5425 mt 1181 5425 L
SO
1181 5425 mt 1181 5425 L
1181 5425 mt 1181 5425 L
DO
1181 5425 mt 1181 5425 L
1181 5425 mt 1181 5425 L
SO
1181 4431 mt 1251 4431 L
8218 4431 mt 8147 4431 L
%%IncludeResource: font Helvetica
/Helvetica /ISOLatin1Encoding 240 FMSR

 698 4520 mt 
(10) s
%%IncludeResource: font Helvetica
/Helvetica /ISOLatin1Encoding 160 FMSR

 964 4372 mt 
(-6) s
1181 5425 mt 1181 5425 L
1181 5425 mt 1181 5425 L
DO
1181 5425 mt 1181 5425 L
1181 5425 mt 1181 5425 L
SO
1181 5425 mt 1181 5425 L
1181 5425 mt 1181 5425 L
DO
1181 5425 mt 1181 5425 L
1181 5425 mt 1181 5425 L
SO
1181 5425 mt 1181 5425 L
1181 5425 mt 1181 5425 L
DO
1181 5425 mt 1181 5425 L
1181 5425 mt 1181 5425 L
SO
1181 5425 mt 1181 5425 L
1181 5425 mt 1181 5425 L
DO
1181 5425 mt 1181 5425 L
1181 5425 mt 1181 5425 L
SO
1181 5425 mt 1181 5425 L
1181 5425 mt 1181 5425 L
DO
1181 5425 mt 1181 5425 L
1181 5425 mt 1181 5425 L
SO
1181 5425 mt 1181 5425 L
1181 5425 mt 1181 5425 L
DO
1181 5425 mt 1181 5425 L
1181 5425 mt 1181 5425 L
SO
1181 5425 mt 1181 5425 L
1181 5425 mt 1181 5425 L
DO
1181 5425 mt 1181 5425 L
1181 5425 mt 1181 5425 L
SO
1181 5425 mt 1181 5425 L
1181 5425 mt 1181 5425 L
DO
1181 5425 mt 1181 5425 L
1181 5425 mt 1181 5425 L
SO
1181 5425 mt 1181 5425 L
1181 5425 mt 1181 5425 L
DO
1181 5425 mt 1181 5425 L
1181 5425 mt 1181 5425 L
SO
1181 3437 mt 1251 3437 L
8218 3437 mt 8147 3437 L
%%IncludeResource: font Helvetica
/Helvetica /ISOLatin1Encoding 240 FMSR

 698 3526 mt 
(10) s
%%IncludeResource: font Helvetica
/Helvetica /ISOLatin1Encoding 160 FMSR

 964 3378 mt 
(-4) s
1181 5425 mt 1181 5425 L
1181 5425 mt 1181 5425 L
DO
1181 5425 mt 1181 5425 L
1181 5425 mt 1181 5425 L
SO
1181 5425 mt 1181 5425 L
1181 5425 mt 1181 5425 L
DO
1181 5425 mt 1181 5425 L
1181 5425 mt 1181 5425 L
SO
1181 5425 mt 1181 5425 L
1181 5425 mt 1181 5425 L
DO
1181 5425 mt 1181 5425 L
1181 5425 mt 1181 5425 L
SO
1181 5425 mt 1181 5425 L
1181 5425 mt 1181 5425 L
DO
1181 5425 mt 1181 5425 L
1181 5425 mt 1181 5425 L
SO
1181 5425 mt 1181 5425 L
1181 5425 mt 1181 5425 L
DO
1181 5425 mt 1181 5425 L
1181 5425 mt 1181 5425 L
SO
1181 5425 mt 1181 5425 L
1181 5425 mt 1181 5425 L
DO
1181 5425 mt 1181 5425 L
1181 5425 mt 1181 5425 L
SO
1181 5425 mt 1181 5425 L
1181 5425 mt 1181 5425 L
DO
1181 5425 mt 1181 5425 L
1181 5425 mt 1181 5425 L
SO
1181 5425 mt 1181 5425 L
1181 5425 mt 1181 5425 L
DO
1181 5425 mt 1181 5425 L
1181 5425 mt 1181 5425 L
SO
1181 5425 mt 1181 5425 L
1181 5425 mt 1181 5425 L
DO
1181 5425 mt 1181 5425 L
1181 5425 mt 1181 5425 L
SO
1181 2444 mt 1251 2444 L
8218 2444 mt 8147 2444 L
%%IncludeResource: font Helvetica
/Helvetica /ISOLatin1Encoding 240 FMSR

 698 2533 mt 
(10) s
%%IncludeResource: font Helvetica
/Helvetica /ISOLatin1Encoding 160 FMSR

 964 2385 mt 
(-2) s
1181 5425 mt 1181 5425 L
1181 5425 mt 1181 5425 L
DO
1181 5425 mt 1181 5425 L
1181 5425 mt 1181 5425 L
SO
1181 5425 mt 1181 5425 L
1181 5425 mt 1181 5425 L
DO
1181 5425 mt 1181 5425 L
1181 5425 mt 1181 5425 L
SO
1181 5425 mt 1181 5425 L
1181 5425 mt 1181 5425 L
DO
1181 5425 mt 1181 5425 L
1181 5425 mt 1181 5425 L
SO
1181 5425 mt 1181 5425 L
1181 5425 mt 1181 5425 L
DO
1181 5425 mt 1181 5425 L
1181 5425 mt 1181 5425 L
SO
1181 5425 mt 1181 5425 L
1181 5425 mt 1181 5425 L
DO
1181 5425 mt 1181 5425 L
1181 5425 mt 1181 5425 L
SO
1181 5425 mt 1181 5425 L
1181 5425 mt 1181 5425 L
DO
1181 5425 mt 1181 5425 L
1181 5425 mt 1181 5425 L
SO
1181 5425 mt 1181 5425 L
1181 5425 mt 1181 5425 L
DO
1181 5425 mt 1181 5425 L
1181 5425 mt 1181 5425 L
SO
1181 5425 mt 1181 5425 L
1181 5425 mt 1181 5425 L
DO
1181 5425 mt 1181 5425 L
1181 5425 mt 1181 5425 L
SO
1181 5425 mt 1181 5425 L
1181 5425 mt 1181 5425 L
DO
1181 5425 mt 1181 5425 L
1181 5425 mt 1181 5425 L
SO
1181 1450 mt 1251 1450 L
8218 1450 mt 8147 1450 L
%%IncludeResource: font Helvetica
/Helvetica /ISOLatin1Encoding 240 FMSR

 698 1539 mt 
(10) s
%%IncludeResource: font Helvetica
/Helvetica /ISOLatin1Encoding 160 FMSR

 964 1391 mt 
(0) s
1181 5425 mt 1181 5425 L
1181 5425 mt 1181 5425 L
DO
1181 5425 mt 1181 5425 L
1181 5425 mt 1181 5425 L
SO
1181 5425 mt 1181 5425 L
1181 5425 mt 1181 5425 L
DO
1181 5425 mt 1181 5425 L
1181 5425 mt 1181 5425 L
SO
1181 5425 mt 1181 5425 L
1181 5425 mt 1181 5425 L
DO
1181 5425 mt 1181 5425 L
1181 5425 mt 1181 5425 L
SO
1181 5425 mt 1181 5425 L
1181 5425 mt 1181 5425 L
DO
1181 5425 mt 1181 5425 L
1181 5425 mt 1181 5425 L
SO
1181 5425 mt 1181 5425 L
1181 5425 mt 1181 5425 L
DO
1181 5425 mt 1181 5425 L
1181 5425 mt 1181 5425 L
SO
1181 5425 mt 1181 5425 L
1181 5425 mt 1181 5425 L
DO
1181 5425 mt 1181 5425 L
1181 5425 mt 1181 5425 L
SO
1181 5425 mt 1181 5425 L
1181 5425 mt 1181 5425 L
DO
1181 5425 mt 1181 5425 L
1181 5425 mt 1181 5425 L
SO
1181 5425 mt 1181 5425 L
1181 5425 mt 1181 5425 L
DO
1181 5425 mt 1181 5425 L
1181 5425 mt 1181 5425 L
SO
1181 5425 mt 1181 5425 L
1181 5425 mt 1181 5425 L
DO
1181 5425 mt 1181 5425 L
1181 5425 mt 1181 5425 L
SO
1181  457 mt 1251  457 L
8218  457 mt 8147  457 L
%%IncludeResource: font Helvetica
/Helvetica /ISOLatin1Encoding 240 FMSR

 698  546 mt 
(10) s
%%IncludeResource: font Helvetica
/Helvetica /ISOLatin1Encoding 160 FMSR

 964  398 mt 
(2) s
1181 5425 mt 1181 5425 L
1181 5425 mt 1181 5425 L
DO
1181 5425 mt 1181 5425 L
1181 5425 mt 1181 5425 L
SO
1181 5425 mt 1181 5425 L
1181 5425 mt 1181 5425 L
DO
1181 5425 mt 1181 5425 L
1181 5425 mt 1181 5425 L
SO
1181 5425 mt 1181 5425 L
1181 5425 mt 1181 5425 L
DO
1181 5425 mt 1181 5425 L
1181 5425 mt 1181 5425 L
SO
1181 5425 mt 1181 5425 L
1181 5425 mt 1181 5425 L
DO
1181 5425 mt 1181 5425 L
1181 5425 mt 1181 5425 L
SO
1181 5425 mt 1181 5425 L
1181 5425 mt 1181 5425 L
DO
1181 5425 mt 1181 5425 L
1181 5425 mt 1181 5425 L
SO
1181 5425 mt 1181 5425 L
1181 5425 mt 1181 5425 L
DO
1181 5425 mt 1181 5425 L
1181 5425 mt 1181 5425 L
SO
1181 5425 mt 1181 5425 L
1181 5425 mt 1181 5425 L
DO
1181 5425 mt 1181 5425 L
1181 5425 mt 1181 5425 L
SO
1181 5425 mt 1181 5425 L
1181 5425 mt 1181 5425 L
DO
1181 5425 mt 1181 5425 L
1181 5425 mt 1181 5425 L
SO
1181 5425 mt 1181 5425 L
1181 5425 mt 1181 5425 L
DO
1181 5425 mt 1181 5425 L
1181 5425 mt 1181 5425 L
SO
1181 5425 mt 8218 5425 L
1181  457 mt 8218  457 L
1181 5425 mt 1181  457 L
8218 5425 mt 8218  457 L
gs 1181 456 7038 4970 rc
48 w
/c8 { 0.000000 0.247059 0.360784 sr} bdef
c8
274 475 301 524 334 529 375 476 428 474 497 416 595 402 739 336 
979 304 1454 231 1779 464 11 MP stroke
gr

48 w
c8
gs 1633 318 6269 4460 rc
  48   48 1779  464 FO
  48   48 3233  695 FO
  48   48 4212  999 FO
  48   48 4951 1335 FO
  48   48 5546 1737 FO
  48   48 6043 2153 FO
  48   48 6471 2627 FO
  48   48 6846 3103 FO
  48   48 7180 3632 FO
  48   48 7481 4156 FO
  48   48 7755 4631 FO
gr

gs 1181 456 7038 4970 rc
/c9 { 1.000000 0.650980 0.000000 sr} bdef
c9
274 577 301 507 334 519 375 480 428 452 497 401 595 406 739 310 
979 267 1454 233 1779 464 11 MP stroke
gr

c9
gs 1633 318 6269 4445 rc
0 j
0 -76 -76 0 0 76 76 0 1741 426 5 MP
DP
0 -76 -76 0 0 76 76 0 3195 659 5 MP
DP
0 -76 -76 0 0 76 76 0 4174 926 5 MP
DP
0 -76 -76 0 0 76 76 0 4913 1236 5 MP
DP
0 -76 -76 0 0 76 76 0 5508 1642 5 MP
DP
0 -76 -76 0 0 76 76 0 6005 2043 5 MP
DP
0 -76 -76 0 0 76 76 0 6433 2495 5 MP
DP
0 -76 -76 0 0 76 76 0 6808 2975 5 MP
DP
0 -76 -76 0 0 76 76 0 7142 3494 5 MP
DP
0 -76 -76 0 0 76 76 0 7443 4001 5 MP
DP
0 -76 -76 0 0 76 76 0 7717 4578 5 MP
DP
gr

gs 1181 456 7038 4970 rc
gr

/c10 { 0.000000 0.000000 1.000000 sr} bdef
c10
%%IncludeResource: font Helvetica
/Helvetica /ISOLatin1Encoding 240 FMSR

3650 5980 mt 
(Degrees of freedom) s
 651 3097 mt  -90 rotate
(||E||) s
90 rotate
0 sg
%%IncludeResource: font Helvetica
/Helvetica /ISOLatin1Encoding 120 FMSR

1164 5468 mt 
( ) s
8202  498 mt 
( ) s
6 w
1 sg
0 668 1877 0 0 -668 6237 1261 4 MP
PP
-1877 0 0 668 1877 0 0 -668 6237 1261 5 MP stroke
4 w
DO
SO
6 w
0 sg
6237 1261 mt 8114 1261 L
6237  593 mt 8114  593 L
6237 1261 mt 6237  593 L
8114 1261 mt 8114  593 L
6237 1261 mt 8114 1261 L
6237 1261 mt 6237  593 L
6237 1261 mt 8114 1261 L
6237  593 mt 8114  593 L
6237 1261 mt 6237  593 L
8114 1261 mt 8114  593 L
%%IncludeResource: font Helvetica-Bold
/Helvetica-Bold /ISOLatin1Encoding 240 FMSR

6705  859 mt 
(Standard) s
gs 6237 593 1878 669 rc
48 w
c8
360 0 6309 770 2 MP stroke
gs 6343 624 293 293 rc
  48   48 6489  770 FO
gr

gr

48 w
c8
0 sg
6705 1172 mt 
(D1 Matrices) s
gs 6237 593 1878 669 rc
c9
360 0 6309 1083 2 MP stroke
gs 6343 937 293 293 rc
0 j
0 -76 -76 0 0 76 76 0 6451 1045 5 MP
DP
gr

6 w
gr

6 w
c9

end %%Color Dict

eplot
%%EndObject

epage
end

showpage

%%Trailer
%%EOF
