%!PS-Adobe-3.0 EPSF-3.0
%%Creator: MATLAB, The MathWorks, Inc. Version 8.3.0.532 (R2014a). Operating System: Linux 4.15.0-106-generic #107-Ubuntu SMP Thu Jun 4 11:27:52 UTC 2020 x86_64.
%%Title: /home/doc/Work/Doutorado/thesis/thesis/eps/cap6/PUniform_PNonUniform_Squa.eps
%%CreationDate: 06/25/2020  13:43:30
%%DocumentNeededFonts: Helvetica
%%+ Helvetica-Bold
%%DocumentProcessColors: Cyan Magenta Yellow Black
%%LanguageLevel: 2
%%Pages: 1
%%BoundingBox:   -72   142   684   650
%%EndComments

%%BeginProlog
% MathWorks dictionary
/MathWorks 160 dict begin
% definition operators
/bdef {bind def} bind def
/ldef {load def} bind def
/xdef {exch def} bdef
/xstore {exch store} bdef
% operator abbreviations
/c  /clip ldef
/cc /concat ldef
/cp /closepath ldef
/gr /grestore ldef
/gs /gsave ldef
/mt /moveto ldef
/np /newpath ldef
/cm /currentmatrix ldef
/sm /setmatrix ldef
/rm /rmoveto ldef
/rl /rlineto ldef
/s {show newpath} bdef
/sc {setcmykcolor} bdef
/sr /setrgbcolor ldef
/sg /setgray ldef
/w /setlinewidth ldef
/j /setlinejoin ldef
/cap /setlinecap ldef
/rc {rectclip} bdef
/rf {rectfill} bdef
% page state control
/pgsv () def
/bpage {/pgsv save def} bdef
/epage {pgsv restore} bdef
/bplot /gsave ldef
/eplot {stroke grestore} bdef
% orientation switch
/portraitMode 0 def /landscapeMode 1 def /rotateMode 2 def
% coordinate system mappings
/dpi2point 0 def
% font control
/FontSize 0 def
/FMS {/FontSize xstore findfont [FontSize 0 0 FontSize neg 0 0]
  makefont setfont} bdef
/reencode {exch dup where {pop load} {pop StandardEncoding} ifelse
  exch dup 3 1 roll findfont dup length dict begin
  { 1 index /FID ne {def}{pop pop} ifelse } forall
  /Encoding exch def currentdict end definefont pop} bdef
/isroman {findfont /CharStrings get /Agrave known} bdef
/FMSR {3 1 roll 1 index dup isroman {reencode} {pop pop} ifelse
  exch FMS} bdef
/csm {1 dpi2point div -1 dpi2point div scale neg translate
 dup landscapeMode eq {pop -90 rotate}
  {rotateMode eq {90 rotate} if} ifelse} bdef
% line types: solid, dotted, dashed, dotdash
/SO { [] 0 setdash } bdef
/DO { [.5 dpi2point mul 4 dpi2point mul] 0 setdash } bdef
/DA { [6 dpi2point mul] 0 setdash } bdef
/DD { [.5 dpi2point mul 4 dpi2point mul 6 dpi2point mul 4
  dpi2point mul] 0 setdash } bdef
% macros for lines and objects
/L {lineto stroke} bdef
/MP {3 1 roll moveto 1 sub {rlineto} repeat} bdef
/AP {{rlineto} repeat} bdef
/PDlw -1 def
/W {/PDlw currentlinewidth def setlinewidth} def
/PP {closepath eofill} bdef
/DP {closepath stroke} bdef
/MR {4 -2 roll moveto dup  0 exch rlineto exch 0 rlineto
  neg 0 exch rlineto closepath} bdef
/FR {MR stroke} bdef
/PR {MR fill} bdef
/L1i {{currentfile picstr readhexstring pop} image} bdef
/tMatrix matrix def
/MakeOval {newpath tMatrix currentmatrix pop translate scale
0 0 1 0 360 arc tMatrix setmatrix} bdef
/FO {MakeOval stroke} bdef
/PO {MakeOval fill} bdef
/PD {currentlinewidth 2 div 0 360 arc fill
   PDlw -1 eq not {PDlw w /PDlw -1 def} if} def
/FA {newpath tMatrix currentmatrix pop translate scale
  0 0 1 5 -2 roll arc tMatrix setmatrix stroke} bdef
/PA {newpath tMatrix currentmatrix pop	translate 0 0 moveto scale
  0 0 1 5 -2 roll arc closepath tMatrix setmatrix fill} bdef
/FAn {newpath tMatrix currentmatrix pop translate scale
  0 0 1 5 -2 roll arcn tMatrix setmatrix stroke} bdef
/PAn {newpath tMatrix currentmatrix pop translate 0 0 moveto scale
  0 0 1 5 -2 roll arcn closepath tMatrix setmatrix fill} bdef
/vradius 0 def /hradius 0 def /lry 0 def
/lrx 0 def /uly 0 def /ulx 0 def /rad 0 def
/MRR {/vradius xdef /hradius xdef /lry xdef /lrx xdef /uly xdef
  /ulx xdef newpath tMatrix currentmatrix pop ulx hradius add uly
  vradius add translate hradius vradius scale 0 0 1 180 270 arc 
  tMatrix setmatrix lrx hradius sub uly vradius add translate
  hradius vradius scale 0 0 1 270 360 arc tMatrix setmatrix
  lrx hradius sub lry vradius sub translate hradius vradius scale
  0 0 1 0 90 arc tMatrix setmatrix ulx hradius add lry vradius sub
  translate hradius vradius scale 0 0 1 90 180 arc tMatrix setmatrix
  closepath} bdef
/FRR {MRR stroke } bdef
/PRR {MRR fill } bdef
/MlrRR {/lry xdef /lrx xdef /uly xdef /ulx xdef /rad lry uly sub 2 div def
  newpath tMatrix currentmatrix pop ulx rad add uly rad add translate
  rad rad scale 0 0 1 90 270 arc tMatrix setmatrix lrx rad sub lry rad
  sub translate rad rad scale 0 0 1 270 90 arc tMatrix setmatrix
  closepath} bdef
/FlrRR {MlrRR stroke } bdef
/PlrRR {MlrRR fill } bdef
/MtbRR {/lry xdef /lrx xdef /uly xdef /ulx xdef /rad lrx ulx sub 2 div def
  newpath tMatrix currentmatrix pop ulx rad add uly rad add translate
  rad rad scale 0 0 1 180 360 arc tMatrix setmatrix lrx rad sub lry rad
  sub translate rad rad scale 0 0 1 0 180 arc tMatrix setmatrix
  closepath} bdef
/FtbRR {MtbRR stroke } bdef
/PtbRR {MtbRR fill } bdef
/stri 6 array def /dtri 6 array def
/smat 6 array def /dmat 6 array def
/tmat1 6 array def /tmat2 6 array def /dif 3 array def
/asub {/ind2 exch def /ind1 exch def dup dup
  ind1 get exch ind2 get sub exch } bdef
/tri_to_matrix {
  2 0 asub 3 1 asub 4 0 asub 5 1 asub
  dup 0 get exch 1 get 7 -1 roll astore } bdef
/compute_transform {
  dmat dtri tri_to_matrix tmat1 invertmatrix 
  smat stri tri_to_matrix tmat2 concatmatrix } bdef
/ds {stri astore pop} bdef
/dt {dtri astore pop} bdef
/db {2 copy /cols xdef /rows xdef mul dup 3 mul string
  currentfile 
  3 index 0 eq {/ASCIIHexDecode filter}
  {/ASCII85Decode filter 3 index 2 eq {/RunLengthDecode filter} if }
  ifelse exch readstring pop
  dup 0 3 index getinterval /rbmap xdef
  dup 2 index dup getinterval /gbmap xdef
  1 index dup 2 mul exch getinterval /bbmap xdef pop pop}bdef
/it {gs np dtri aload pop moveto lineto lineto cp c
  cols rows 8 compute_transform 
  rbmap gbmap bbmap true 3 colorimage gr}bdef
/il {newpath moveto lineto stroke}bdef
currentdict end def
%%EndProlog

%%BeginSetup
MathWorks begin

0 cap

end
%%EndSetup

%%Page: 1 1
%%BeginPageSetup
%%PageBoundingBox:   -72   142   684   650
MathWorks begin
bpage
%%EndPageSetup

%%BeginObject: obj1
bplot

/dpi2point 12 def
portraitMode -0864 7800 csm

    0     0  9081  6096 rc
87 dict begin %Colortable dictionary
/c0 { 0.000000 0.000000 0.000000 sr} bdef
/c1 { 1.000000 1.000000 1.000000 sr} bdef
/c2 { 0.900000 0.000000 0.000000 sr} bdef
/c3 { 0.000000 0.820000 0.000000 sr} bdef
/c4 { 0.000000 0.000000 0.800000 sr} bdef
/c5 { 0.910000 0.820000 0.320000 sr} bdef
/c6 { 1.000000 0.260000 0.820000 sr} bdef
/c7 { 0.000000 0.820000 0.820000 sr} bdef
c0
1 j
1 sg
   0    0 9082 6097 rf
6 w
0 4968 7038 0 0 -4968 1180 5425 4 MP
PP
-7038 0 0 4968 7038 0 0 -4968 1180 5425 5 MP stroke
4 w
DO
0 sg
1962 5425 mt 1962  457 L
1962  457 mt 1962  457 L
2744 5425 mt 2744  457 L
2744  457 mt 2744  457 L
3526 5425 mt 3526  457 L
3526  457 mt 3526  457 L
4308 5425 mt 4308  457 L
4308  457 mt 4308  457 L
5090 5425 mt 5090  457 L
5090  457 mt 5090  457 L
5872 5425 mt 5872  457 L
5872  457 mt 5872  457 L
6654 5425 mt 6654  457 L
6654  457 mt 6654  457 L
7436 5425 mt 7436  457 L
7436  457 mt 7436  457 L
1180 5425 mt 8218 5425 L
8218 5425 mt 8218 5425 L
1180 4183 mt 8218 4183 L
8218 4183 mt 8218 4183 L
1180 2941 mt 8218 2941 L
8218 2941 mt 8218 2941 L
1180 1699 mt 8218 1699 L
8218 1699 mt 8218 1699 L
1180  457 mt 8218  457 L
8218  457 mt 8218  457 L
SO
6 w
1180 5425 mt 8218 5425 L
1180  457 mt 8218  457 L
1180 5425 mt 1180  457 L
8218 5425 mt 8218  457 L
1180 5425 mt 8218 5425 L
1180 5425 mt 1180  457 L
1962 5425 mt 1962 5354 L
1962  457 mt 1962  527 L
%%IncludeResource: font Helvetica
/Helvetica /ISOLatin1Encoding 240 FMSR

1896 5682 mt 
(1) s
2744 5425 mt 2744 5354 L
2744  457 mt 2744  527 L
2678 5682 mt 
(2) s
3526 5425 mt 3526 5354 L
3526  457 mt 3526  527 L
3460 5682 mt 
(3) s
4308 5425 mt 4308 5354 L
4308  457 mt 4308  527 L
4242 5682 mt 
(4) s
5090 5425 mt 5090 5354 L
5090  457 mt 5090  527 L
5024 5682 mt 
(5) s
5872 5425 mt 5872 5354 L
5872  457 mt 5872  527 L
5806 5682 mt 
(6) s
6654 5425 mt 6654 5354 L
6654  457 mt 6654  527 L
6588 5682 mt 
(7) s
7436 5425 mt 7436 5354 L
7436  457 mt 7436  527 L
7370 5682 mt 
(8) s
1180 5425 mt 1180 5425 L
1180 5425 mt 1180 5425 L
DO
1180 5425 mt 1180 5425 L
1180 5425 mt 1180 5425 L
SO
1180 5425 mt 1180 5425 L
1180 5425 mt 1180 5425 L
DO
1180 5425 mt 1180 5425 L
1180 5425 mt 1180 5425 L
SO
1180 5425 mt 1180 5425 L
1180 5425 mt 1180 5425 L
DO
1180 5425 mt 1180 5425 L
1180 5425 mt 1180 5425 L
SO
1180 5425 mt 1180 5425 L
1180 5425 mt 1180 5425 L
DO
1180 5425 mt 1180 5425 L
1180 5425 mt 1180 5425 L
SO
1180 5425 mt 1180 5425 L
1180 5425 mt 1180 5425 L
DO
1180 5425 mt 1180 5425 L
1180 5425 mt 1180 5425 L
SO
1180 5425 mt 1180 5425 L
1180 5425 mt 1180 5425 L
DO
1180 5425 mt 1180 5425 L
1180 5425 mt 1180 5425 L
SO
1180 5425 mt 1180 5425 L
1180 5425 mt 1180 5425 L
DO
1180 5425 mt 1180 5425 L
1180 5425 mt 1180 5425 L
SO
1180 5425 mt 1180 5425 L
1180 5425 mt 1180 5425 L
DO
1180 5425 mt 1180 5425 L
1180 5425 mt 1180 5425 L
SO
1180 5425 mt 1180 5425 L
1180 5425 mt 1180 5425 L
DO
1180 5425 mt 1180 5425 L
1180 5425 mt 1180 5425 L
SO
1180 5425 mt 1251 5425 L
8218 5425 mt 8147 5425 L
 698 5514 mt 
(10) s
%%IncludeResource: font Helvetica
/Helvetica /ISOLatin1Encoding 160 FMSR

 964 5366 mt 
(-8) s
1180 5425 mt 1180 5425 L
1180 5425 mt 1180 5425 L
DO
1180 5425 mt 1180 5425 L
1180 5425 mt 1180 5425 L
SO
1180 5425 mt 1180 5425 L
1180 5425 mt 1180 5425 L
DO
1180 5425 mt 1180 5425 L
1180 5425 mt 1180 5425 L
SO
1180 5425 mt 1180 5425 L
1180 5425 mt 1180 5425 L
DO
1180 5425 mt 1180 5425 L
1180 5425 mt 1180 5425 L
SO
1180 5425 mt 1180 5425 L
1180 5425 mt 1180 5425 L
DO
1180 5425 mt 1180 5425 L
1180 5425 mt 1180 5425 L
SO
1180 5425 mt 1180 5425 L
1180 5425 mt 1180 5425 L
DO
1180 5425 mt 1180 5425 L
1180 5425 mt 1180 5425 L
SO
1180 5425 mt 1180 5425 L
1180 5425 mt 1180 5425 L
DO
1180 5425 mt 1180 5425 L
1180 5425 mt 1180 5425 L
SO
1180 5425 mt 1180 5425 L
1180 5425 mt 1180 5425 L
DO
1180 5425 mt 1180 5425 L
1180 5425 mt 1180 5425 L
SO
1180 5425 mt 1180 5425 L
1180 5425 mt 1180 5425 L
DO
1180 5425 mt 1180 5425 L
1180 5425 mt 1180 5425 L
SO
1180 5425 mt 1180 5425 L
1180 5425 mt 1180 5425 L
DO
1180 5425 mt 1180 5425 L
1180 5425 mt 1180 5425 L
SO
1180 4183 mt 1251 4183 L
8218 4183 mt 8147 4183 L
%%IncludeResource: font Helvetica
/Helvetica /ISOLatin1Encoding 240 FMSR

 698 4272 mt 
(10) s
%%IncludeResource: font Helvetica
/Helvetica /ISOLatin1Encoding 160 FMSR

 964 4124 mt 
(-6) s
1180 5425 mt 1180 5425 L
1180 5425 mt 1180 5425 L
DO
1180 5425 mt 1180 5425 L
1180 5425 mt 1180 5425 L
SO
1180 5425 mt 1180 5425 L
1180 5425 mt 1180 5425 L
DO
1180 5425 mt 1180 5425 L
1180 5425 mt 1180 5425 L
SO
1180 5425 mt 1180 5425 L
1180 5425 mt 1180 5425 L
DO
1180 5425 mt 1180 5425 L
1180 5425 mt 1180 5425 L
SO
1180 5425 mt 1180 5425 L
1180 5425 mt 1180 5425 L
DO
1180 5425 mt 1180 5425 L
1180 5425 mt 1180 5425 L
SO
1180 5425 mt 1180 5425 L
1180 5425 mt 1180 5425 L
DO
1180 5425 mt 1180 5425 L
1180 5425 mt 1180 5425 L
SO
1180 5425 mt 1180 5425 L
1180 5425 mt 1180 5425 L
DO
1180 5425 mt 1180 5425 L
1180 5425 mt 1180 5425 L
SO
1180 5425 mt 1180 5425 L
1180 5425 mt 1180 5425 L
DO
1180 5425 mt 1180 5425 L
1180 5425 mt 1180 5425 L
SO
1180 5425 mt 1180 5425 L
1180 5425 mt 1180 5425 L
DO
1180 5425 mt 1180 5425 L
1180 5425 mt 1180 5425 L
SO
1180 5425 mt 1180 5425 L
1180 5425 mt 1180 5425 L
DO
1180 5425 mt 1180 5425 L
1180 5425 mt 1180 5425 L
SO
1180 2941 mt 1251 2941 L
8218 2941 mt 8147 2941 L
%%IncludeResource: font Helvetica
/Helvetica /ISOLatin1Encoding 240 FMSR

 698 3030 mt 
(10) s
%%IncludeResource: font Helvetica
/Helvetica /ISOLatin1Encoding 160 FMSR

 964 2882 mt 
(-4) s
1180 5425 mt 1180 5425 L
1180 5425 mt 1180 5425 L
DO
1180 5425 mt 1180 5425 L
1180 5425 mt 1180 5425 L
SO
1180 5425 mt 1180 5425 L
1180 5425 mt 1180 5425 L
DO
1180 5425 mt 1180 5425 L
1180 5425 mt 1180 5425 L
SO
1180 5425 mt 1180 5425 L
1180 5425 mt 1180 5425 L
DO
1180 5425 mt 1180 5425 L
1180 5425 mt 1180 5425 L
SO
1180 5425 mt 1180 5425 L
1180 5425 mt 1180 5425 L
DO
1180 5425 mt 1180 5425 L
1180 5425 mt 1180 5425 L
SO
1180 5425 mt 1180 5425 L
1180 5425 mt 1180 5425 L
DO
1180 5425 mt 1180 5425 L
1180 5425 mt 1180 5425 L
SO
1180 5425 mt 1180 5425 L
1180 5425 mt 1180 5425 L
DO
1180 5425 mt 1180 5425 L
1180 5425 mt 1180 5425 L
SO
1180 5425 mt 1180 5425 L
1180 5425 mt 1180 5425 L
DO
1180 5425 mt 1180 5425 L
1180 5425 mt 1180 5425 L
SO
1180 5425 mt 1180 5425 L
1180 5425 mt 1180 5425 L
DO
1180 5425 mt 1180 5425 L
1180 5425 mt 1180 5425 L
SO
1180 5425 mt 1180 5425 L
1180 5425 mt 1180 5425 L
DO
1180 5425 mt 1180 5425 L
1180 5425 mt 1180 5425 L
SO
1180 1699 mt 1251 1699 L
8218 1699 mt 8147 1699 L
%%IncludeResource: font Helvetica
/Helvetica /ISOLatin1Encoding 240 FMSR

 698 1788 mt 
(10) s
%%IncludeResource: font Helvetica
/Helvetica /ISOLatin1Encoding 160 FMSR

 964 1640 mt 
(-2) s
1180 5425 mt 1180 5425 L
1180 5425 mt 1180 5425 L
DO
1180 5425 mt 1180 5425 L
1180 5425 mt 1180 5425 L
SO
1180 5425 mt 1180 5425 L
1180 5425 mt 1180 5425 L
DO
1180 5425 mt 1180 5425 L
1180 5425 mt 1180 5425 L
SO
1180 5425 mt 1180 5425 L
1180 5425 mt 1180 5425 L
DO
1180 5425 mt 1180 5425 L
1180 5425 mt 1180 5425 L
SO
1180 5425 mt 1180 5425 L
1180 5425 mt 1180 5425 L
DO
1180 5425 mt 1180 5425 L
1180 5425 mt 1180 5425 L
SO
1180 5425 mt 1180 5425 L
1180 5425 mt 1180 5425 L
DO
1180 5425 mt 1180 5425 L
1180 5425 mt 1180 5425 L
SO
1180 5425 mt 1180 5425 L
1180 5425 mt 1180 5425 L
DO
1180 5425 mt 1180 5425 L
1180 5425 mt 1180 5425 L
SO
1180 5425 mt 1180 5425 L
1180 5425 mt 1180 5425 L
DO
1180 5425 mt 1180 5425 L
1180 5425 mt 1180 5425 L
SO
1180 5425 mt 1180 5425 L
1180 5425 mt 1180 5425 L
DO
1180 5425 mt 1180 5425 L
1180 5425 mt 1180 5425 L
SO
1180 5425 mt 1180 5425 L
1180 5425 mt 1180 5425 L
DO
1180 5425 mt 1180 5425 L
1180 5425 mt 1180 5425 L
SO
1180  457 mt 1251  457 L
8218  457 mt 8147  457 L
%%IncludeResource: font Helvetica
/Helvetica /ISOLatin1Encoding 240 FMSR

 698  546 mt 
(10) s
%%IncludeResource: font Helvetica
/Helvetica /ISOLatin1Encoding 160 FMSR

 964  398 mt 
(0) s
1180 5425 mt 1180 5425 L
1180 5425 mt 1180 5425 L
DO
1180 5425 mt 1180 5425 L
1180 5425 mt 1180 5425 L
SO
1180 5425 mt 1180 5425 L
1180 5425 mt 1180 5425 L
DO
1180 5425 mt 1180 5425 L
1180 5425 mt 1180 5425 L
SO
1180 5425 mt 1180 5425 L
1180 5425 mt 1180 5425 L
DO
1180 5425 mt 1180 5425 L
1180 5425 mt 1180 5425 L
SO
1180 5425 mt 1180 5425 L
1180 5425 mt 1180 5425 L
DO
1180 5425 mt 1180 5425 L
1180 5425 mt 1180 5425 L
SO
1180 5425 mt 1180 5425 L
1180 5425 mt 1180 5425 L
DO
1180 5425 mt 1180 5425 L
1180 5425 mt 1180 5425 L
SO
1180 5425 mt 1180 5425 L
1180 5425 mt 1180 5425 L
DO
1180 5425 mt 1180 5425 L
1180 5425 mt 1180 5425 L
SO
1180 5425 mt 1180 5425 L
1180 5425 mt 1180 5425 L
DO
1180 5425 mt 1180 5425 L
1180 5425 mt 1180 5425 L
SO
1180 5425 mt 1180 5425 L
1180 5425 mt 1180 5425 L
DO
1180 5425 mt 1180 5425 L
1180 5425 mt 1180 5425 L
SO
1180 5425 mt 1180 5425 L
1180 5425 mt 1180 5425 L
DO
1180 5425 mt 1180 5425 L
1180 5425 mt 1180 5425 L
SO
1180 5425 mt 8218 5425 L
1180  457 mt 8218  457 L
1180 5425 mt 1180  457 L
8218 5425 mt 8218  457 L
gs 1181 457 7038 4969 rc
/c8 { 0.231373 0.443137 0.337255 sr} bdef
c8
0 -4797 625 0 0 4797 1650 457 4 MP
PP
-625 0 0 -4797 625 0 0 4797 1650 457 5 MP stroke
0 -4785 625 0 0 4785 2432 457 4 MP
PP
-625 0 0 -4785 625 0 0 4785 2432 457 5 MP stroke
0 -4397 626 0 0 4397 3213 457 4 MP
PP
-626 0 0 -4397 626 0 0 4397 3213 457 5 MP stroke
0 -4785 626 0 0 4785 3995 457 4 MP
PP
-626 0 0 -4785 626 0 0 4785 3995 457 5 MP stroke
0 -4391 626 0 0 4391 4777 457 4 MP
PP
-626 0 0 -4391 626 0 0 4391 4777 457 5 MP stroke
0 -4397 626 0 0 4397 5559 457 4 MP
PP
-626 0 0 -4397 626 0 0 4397 5559 457 5 MP stroke
0 -4782 625 0 0 4782 6341 457 4 MP
PP
-625 0 0 -4782 625 0 0 4782 6341 457 5 MP stroke
0 -4393 625 0 0 4393 7123 457 4 MP
PP
-625 0 0 -4393 625 0 0 4393 7123 457 5 MP stroke
0 sg
7037 0 1181 457 2 MP stroke
gr

/c9 { 0.000000 0.000000 1.000000 sr} bdef
c9
%%IncludeResource: font Helvetica
/Helvetica /ISOLatin1Encoding 240 FMSR

3123 5951 mt 
(p-non-uniform combinations) s
 603 3351 mt  -90 rotate
(||Error||) s
90 rotate
0 sg
%%IncludeResource: font Helvetica
/Helvetica /ISOLatin1Encoding 120 FMSR

1164 5468 mt 
( ) s
8202  499 mt 
( ) s
gs 1181 457 7038 4969 rc
84 w
/c10 { 0.203922 0.301961 0.494118 sr} bdef
c10
782 0 782 0 782 0 782 0 782 0 782 0 782 0 1962 5294 8 MP stroke
gr

84 w
c10
gs 1732 5064 5935 461 rc
0 j
-83 143 -83 -143 166 0 1879 5342 4 MP
DP
-83 143 -83 -143 166 0 2661 5342 4 MP
DP
-83 143 -83 -143 166 0 3443 5342 4 MP
DP
-83 143 -83 -143 166 0 4225 5342 4 MP
DP
-83 143 -83 -143 166 0 5007 5342 4 MP
DP
-83 143 -83 -143 166 0 5789 5342 4 MP
DP
-83 143 -83 -143 166 0 6571 5342 4 MP
DP
-83 143 -83 -143 166 0 7353 5342 4 MP
DP
gr

gs 1181 457 7038 4969 rc
6 w
gr

6 w
1 sg
0 668 2261 0 0 -668 5781 1338 4 MP
PP
-2261 0 0 668 2261 0 0 -668 5781 1338 5 MP stroke
4 w
DO
SO
6 w
0 sg
5781 1338 mt 8042 1338 L
5781  670 mt 8042  670 L
5781 1338 mt 5781  670 L
8042 1338 mt 8042  670 L
5781 1338 mt 8042 1338 L
5781 1338 mt 5781  670 L
5781 1338 mt 8042 1338 L
5781  670 mt 8042  670 L
5781 1338 mt 5781  670 L
8042 1338 mt 8042  670 L
%%IncludeResource: font Helvetica-Bold
/Helvetica-Bold /ISOLatin1Encoding 240 FMSR

6277  936 mt 
(p-non-uniform) s
gs 5781 670 2262 669 rc
c8
-381 0 0 240 381 0 0 -240 5857 967 5 MP
PP
0 0 -381 0 0 240 381 0 0 -240 5857 967 6 MP stroke
gr

c8
0 sg
6277 1249 mt 
(p-uniform) s
gs 5781 670 2262 669 rc
84 w
c10
381 0 5857 1160 2 MP stroke
gr

84 w
c10
gs 5817 930 461 461 rc
0 j
-83 143 -83 -143 166 0 5964 1208 4 MP
DP
gr

gs 5781 670 2262 669 rc
6 w
gr

6 w

end %%Color Dict

eplot
%%EndObject

epage
end

showpage

%%Trailer
%%EOF
