%!PS-Adobe-3.0 EPSF-3.0
%%Title: /home/doc/Work/Doutorado/thesis/thesis/matplotlib/cap6/projection/optimize/../../../../eps/cap6/runtime_optimization.eps
%%Creator: matplotlib version 3.0.3, http://matplotlib.org/
%%CreationDate: Sun Aug 23 14:52:59 2020
%%Orientation: portrait
%%BoundingBox: -26 103 638 688
%%EndComments
%%BeginProlog
/mpldict 8 dict def
mpldict begin
/m { moveto } bind def
/l { lineto } bind def
/r { rlineto } bind def
/c { curveto } bind def
/cl { closepath } bind def
/box {
m
1 index 0 r
0 exch r
neg 0 r
cl
} bind def
/clipbox {
box
clip
newpath
} bind def
%!PS-Adobe-3.0 Resource-Font
%%Title: DejaVu Sans
%%Copyright: Copyright (c) 2003 by Bitstream, Inc. All Rights Reserved. Copyright (c) 2006 by Tavmjong Bah. All Rights Reserved. DejaVu changes are in public domain 
%%Creator: Converted from TrueType to type 3 by PPR
25 dict begin
/_d{bind def}bind def
/_m{moveto}_d
/_l{lineto}_d
/_cl{closepath eofill}_d
/_c{curveto}_d
/_sc{7 -1 roll{setcachedevice}{pop pop pop pop pop pop}ifelse}_d
/_e{exec}_d
/FontName /DejaVuSans def
/PaintType 0 def
/FontMatrix[.001 0 0 .001 0 0]def
/FontBBox[-1021 -463 1793 1232]def
/FontType 3 def
/Encoding [ /space /parenleft /parenright /hyphen /period /zero /one /two /three /four /five /six /seven /A /B /C /D /I /K /L /M /O /P /R /S /a /c /e /h /i /l /m /n /o /q /r /s /t /u ] def
/FontInfo 10 dict dup begin
/FamilyName (DejaVu Sans) def
/FullName (DejaVu Sans) def
/Notice (Copyright (c) 2003 by Bitstream, Inc. All Rights Reserved. Copyright (c) 2006 by Tavmjong Bah. All Rights Reserved. DejaVu changes are in public domain ) def
/Weight (Book) def
/Version (Version 2.35) def
/ItalicAngle 0.0 def
/isFixedPitch false def
/UnderlinePosition -130 def
/UnderlineThickness 90 def
end readonly def
/CharStrings 40 dict dup begin
/.notdef 0 def
/space{318 0 0 0 0 0 _sc
}_d
/parenleft{390 0 86 -131 310 759 _sc
310 759 _m
266 683 234 609 213 536 _c
191 463 181 389 181 314 _c
181 238 191 164 213 91 _c
234 17 266 -56 310 -131 _c
232 -131 _l
183 -54 146 20 122 94 _c
98 168 86 241 86 314 _c
86 386 98 459 122 533 _c
146 607 182 682 232 759 _c
310 759 _l
_cl}_d
/parenright{390 0 80 -131 304 759 _sc
80 759 _m
158 759 _l
206 682 243 607 267 533 _c
291 459 304 386 304 314 _c
304 241 291 168 267 94 _c
243 20 206 -54 158 -131 _c
80 -131 _l
123 -56 155 17 177 91 _c
198 164 209 238 209 314 _c
209 389 198 463 177 536 _c
155 609 123 683 80 759 _c
_cl}_d
/hyphen{361 0 49 234 312 314 _sc
49 314 _m
312 314 _l
312 234 _l
49 234 _l
49 314 _l
_cl}_d
/period{318 0 107 0 210 124 _sc
107 124 _m
210 124 _l
210 0 _l
107 0 _l
107 124 _l
_cl}_d
/zero{636 0 66 -13 570 742 _sc
318 664 _m
267 664 229 639 203 589 _c
177 539 165 464 165 364 _c
165 264 177 189 203 139 _c
229 89 267 64 318 64 _c
369 64 407 89 433 139 _c
458 189 471 264 471 364 _c
471 464 458 539 433 589 _c
407 639 369 664 318 664 _c
318 742 _m
399 742 461 709 505 645 _c
548 580 570 486 570 364 _c
570 241 548 147 505 83 _c
461 19 399 -13 318 -13 _c
236 -13 173 19 130 83 _c
87 147 66 241 66 364 _c
66 486 87 580 130 645 _c
173 709 236 742 318 742 _c
_cl}_d
/one{636 0 110 0 544 729 _sc
124 83 _m
285 83 _l
285 639 _l
110 604 _l
110 694 _l
284 729 _l
383 729 _l
383 83 _l
544 83 _l
544 0 _l
124 0 _l
124 83 _l
_cl}_d
/two{{636 0 73 0 536 742 _sc
192 83 _m
536 83 _l
536 0 _l
73 0 _l
73 83 _l
110 121 161 173 226 239 _c
290 304 331 346 348 365 _c
380 400 402 430 414 455 _c
426 479 433 504 433 528 _c
433 566 419 598 392 622 _c
365 646 330 659 286 659 _c
255 659 222 653 188 643 _c
154 632 117 616 78 594 _c
78 694 _l
118 710 155 722 189 730 _c
223 738 255 742 284 742 _c
}_e{359 742 419 723 464 685 _c
509 647 532 597 532 534 _c
532 504 526 475 515 449 _c
504 422 484 390 454 354 _c
446 344 420 317 376 272 _c
332 227 271 164 192 83 _c
_cl}_e}_d
/three{{636 0 76 -13 556 742 _sc
406 393 _m
453 383 490 362 516 330 _c
542 298 556 258 556 212 _c
556 140 531 84 482 45 _c
432 6 362 -13 271 -13 _c
240 -13 208 -10 176 -4 _c
144 1 110 10 76 22 _c
76 117 _l
103 101 133 89 166 81 _c
198 73 232 69 268 69 _c
330 69 377 81 409 105 _c
441 129 458 165 458 212 _c
458 254 443 288 413 312 _c
383 336 341 349 287 349 _c
}_e{202 349 _l
202 430 _l
291 430 _l
339 430 376 439 402 459 _c
428 478 441 506 441 543 _c
441 580 427 609 401 629 _c
374 649 336 659 287 659 _c
260 659 231 656 200 650 _c
169 644 135 635 98 623 _c
98 711 _l
135 721 170 729 203 734 _c
235 739 266 742 296 742 _c
370 742 429 725 473 691 _c
517 657 539 611 539 553 _c
539 513 527 479 504 451 _c
481 423 448 403 406 393 _c
_cl}_e}_d
/four{636 0 49 0 580 729 _sc
378 643 _m
129 254 _l
378 254 _l
378 643 _l
352 729 _m
476 729 _l
476 254 _l
580 254 _l
580 172 _l
476 172 _l
476 0 _l
378 0 _l
378 172 _l
49 172 _l
49 267 _l
352 729 _l
_cl}_d
/five{{636 0 77 -13 549 729 _sc
108 729 _m
495 729 _l
495 646 _l
198 646 _l
198 467 _l
212 472 227 476 241 478 _c
255 480 270 482 284 482 _c
365 482 429 459 477 415 _c
525 370 549 310 549 234 _c
549 155 524 94 475 51 _c
426 8 357 -13 269 -13 _c
238 -13 207 -10 175 -6 _c
143 -1 111 6 77 17 _c
77 116 _l
106 100 136 88 168 80 _c
199 72 232 69 267 69 _c
}_e{323 69 368 83 401 113 _c
433 143 450 183 450 234 _c
450 284 433 324 401 354 _c
368 384 323 399 267 399 _c
241 399 214 396 188 390 _c
162 384 135 375 108 363 _c
108 729 _l
_cl}_e}_d
/six{{636 0 70 -13 573 742 _sc
330 404 _m
286 404 251 388 225 358 _c
199 328 186 286 186 234 _c
186 181 199 139 225 109 _c
251 79 286 64 330 64 _c
374 64 409 79 435 109 _c
461 139 474 181 474 234 _c
474 286 461 328 435 358 _c
409 388 374 404 330 404 _c
526 713 _m
526 623 _l
501 635 476 644 451 650 _c
425 656 400 659 376 659 _c
310 659 260 637 226 593 _c
}_e{192 549 172 482 168 394 _c
187 422 211 444 240 459 _c
269 474 301 482 336 482 _c
409 482 467 459 509 415 _c
551 371 573 310 573 234 _c
573 159 550 99 506 54 _c
462 9 403 -13 330 -13 _c
246 -13 181 19 137 83 _c
92 147 70 241 70 364 _c
70 479 97 571 152 639 _c
206 707 280 742 372 742 _c
396 742 421 739 447 735 _c
472 730 498 723 526 713 _c
_cl}_e}_d
/seven{636 0 82 0 551 729 _sc
82 729 _m
551 729 _l
551 687 _l
286 0 _l
183 0 _l
432 646 _l
82 646 _l
82 729 _l
_cl}_d
/A{684 0 8 0 676 729 _sc
342 632 _m
208 269 _l
476 269 _l
342 632 _l
286 729 _m
398 729 _l
676 0 _l
573 0 _l
507 187 _l
178 187 _l
112 0 _l
8 0 _l
286 729 _l
_cl}_d
/B{{686 0 98 0 615 729 _sc
197 348 _m
197 81 _l
355 81 _l
408 81 447 92 473 114 _c
498 136 511 169 511 215 _c
511 260 498 293 473 315 _c
447 337 408 348 355 348 _c
197 348 _l
197 648 _m
197 428 _l
343 428 _l
391 428 426 437 450 455 _c
474 473 486 500 486 538 _c
486 574 474 602 450 620 _c
426 638 391 648 343 648 _c
197 648 _l
98 729 _m
350 729 _l
}_e{425 729 483 713 524 682 _c
564 650 585 606 585 549 _c
585 504 574 468 553 442 _c
532 416 502 399 462 393 _c
510 382 548 360 575 327 _c
601 294 615 253 615 204 _c
615 138 592 88 548 53 _c
504 17 441 0 360 0 _c
98 0 _l
98 729 _l
_cl}_e}_d
/C{{698 0 56 -13 644 742 _sc
644 673 _m
644 569 _l
610 599 575 622 537 638 _c
499 653 460 661 418 661 _c
334 661 270 635 226 584 _c
182 533 160 460 160 364 _c
160 268 182 194 226 143 _c
270 92 334 67 418 67 _c
460 67 499 74 537 90 _c
575 105 610 128 644 159 _c
644 56 _l
609 32 572 15 534 4 _c
496 -7 455 -13 412 -13 _c
302 -13 215 20 151 87 _c
}_e{87 154 56 246 56 364 _c
56 481 87 573 151 641 _c
215 708 302 742 412 742 _c
456 742 497 736 535 725 _c
573 713 610 696 644 673 _c
_cl}_e}_d
/D{770 0 98 0 711 729 _sc
197 648 _m
197 81 _l
316 81 _l
416 81 490 103 537 149 _c
583 195 607 267 607 365 _c
607 463 583 534 537 580 _c
490 625 416 648 316 648 _c
197 648 _l
98 729 _m
301 729 _l
442 729 546 699 612 641 _c
678 582 711 490 711 365 _c
711 239 677 147 611 88 _c
545 29 441 0 301 0 _c
98 0 _l
98 729 _l
_cl}_d
/I{295 0 98 0 197 729 _sc
98 729 _m
197 729 _l
197 0 _l
98 0 _l
98 729 _l
_cl}_d
/K{656 0 98 0 677 729 _sc
98 729 _m
197 729 _l
197 421 _l
524 729 _l
651 729 _l
289 389 _l
677 0 _l
547 0 _l
197 351 _l
197 0 _l
98 0 _l
98 729 _l
_cl}_d
/L{557 0 98 0 552 729 _sc
98 729 _m
197 729 _l
197 83 _l
552 83 _l
552 0 _l
98 0 _l
98 729 _l
_cl}_d
/M{863 0 98 0 765 729 _sc
98 729 _m
245 729 _l
431 233 _l
618 729 _l
765 729 _l
765 0 _l
669 0 _l
669 640 _l
481 140 _l
382 140 _l
194 640 _l
194 0 _l
98 0 _l
98 729 _l
_cl}_d
/O{787 0 56 -13 731 742 _sc
394 662 _m
322 662 265 635 223 582 _c
181 528 160 456 160 364 _c
160 272 181 199 223 146 _c
265 92 322 66 394 66 _c
465 66 522 92 564 146 _c
606 199 627 272 627 364 _c
627 456 606 528 564 582 _c
522 635 465 662 394 662 _c
394 742 _m
496 742 577 707 639 639 _c
700 571 731 479 731 364 _c
731 248 700 157 639 89 _c
577 21 496 -13 394 -13 _c
291 -13 209 21 148 89 _c
86 157 56 248 56 364 _c
56 479 86 571 148 639 _c
209 707 291 742 394 742 _c
_cl}_d
/P{603 0 98 0 569 729 _sc
197 648 _m
197 374 _l
321 374 _l
367 374 402 385 427 409 _c
452 433 465 467 465 511 _c
465 555 452 588 427 612 _c
402 636 367 648 321 648 _c
197 648 _l
98 729 _m
321 729 _l
402 729 464 710 506 673 _c
548 636 569 582 569 511 _c
569 439 548 384 506 348 _c
464 311 402 293 321 293 _c
197 293 _l
197 0 _l
98 0 _l
98 729 _l
_cl}_d
/R{{695 0 98 0 666 729 _sc
444 342 _m
465 334 486 319 506 296 _c
526 272 546 240 566 199 _c
666 0 _l
560 0 _l
467 187 _l
443 235 419 268 397 284 _c
374 300 343 308 304 308 _c
197 308 _l
197 0 _l
98 0 _l
98 729 _l
321 729 _l
404 729 466 711 507 677 _c
548 642 569 589 569 519 _c
569 473 558 434 537 404 _c
515 374 484 353 444 342 _c
197 648 _m
197 389 _l
321 389 _l
}_e{368 389 404 400 428 422 _c
452 444 465 476 465 519 _c
465 561 452 593 428 615 _c
404 637 368 648 321 648 _c
197 648 _l
_cl}_e}_d
/S{{635 0 66 -13 579 742 _sc
535 705 _m
535 609 _l
497 627 462 640 429 649 _c
395 657 363 662 333 662 _c
279 662 237 651 208 631 _c
179 610 165 580 165 542 _c
165 510 174 485 194 469 _c
213 452 250 439 304 429 _c
364 417 _l
437 403 491 378 526 343 _c
561 307 579 260 579 201 _c
579 130 555 77 508 41 _c
460 5 391 -13 300 -13 _c
265 -13 228 -9 189 -2 _c
}_e{150 5 110 16 69 32 _c
69 134 _l
109 111 148 94 186 83 _c
224 71 262 66 300 66 _c
356 66 399 77 430 99 _c
460 121 476 152 476 194 _c
476 230 465 258 443 278 _c
421 298 385 313 335 323 _c
275 335 _l
201 349 148 372 115 404 _c
82 435 66 478 66 534 _c
66 598 88 649 134 686 _c
179 723 242 742 322 742 _c
356 742 390 739 426 733 _c
461 727 497 717 535 705 _c
}_e{_cl}_e}_d
/a{{613 0 60 -13 522 560 _sc
343 275 _m
270 275 220 266 192 250 _c
164 233 150 205 150 165 _c
150 133 160 107 181 89 _c
202 70 231 61 267 61 _c
317 61 357 78 387 114 _c
417 149 432 196 432 255 _c
432 275 _l
343 275 _l
522 312 _m
522 0 _l
432 0 _l
432 83 _l
411 49 385 25 355 10 _c
325 -5 287 -13 243 -13 _c
187 -13 142 2 109 33 _c
76 64 60 106 60 159 _c
}_e{60 220 80 266 122 298 _c
163 329 224 345 306 345 _c
432 345 _l
432 354 _l
432 395 418 427 391 450 _c
364 472 326 484 277 484 _c
245 484 215 480 185 472 _c
155 464 127 453 100 439 _c
100 522 _l
132 534 164 544 195 550 _c
226 556 256 560 286 560 _c
365 560 424 539 463 498 _c
502 457 522 395 522 312 _c
_cl}_e}_d
/c{{550 0 55 -13 488 560 _sc
488 526 _m
488 442 _l
462 456 437 466 411 473 _c
385 480 360 484 334 484 _c
276 484 230 465 198 428 _c
166 391 150 339 150 273 _c
150 206 166 154 198 117 _c
230 80 276 62 334 62 _c
360 62 385 65 411 72 _c
437 79 462 90 488 104 _c
488 21 _l
462 9 436 0 410 -5 _c
383 -10 354 -13 324 -13 _c
242 -13 176 12 128 64 _c
}_e{79 115 55 185 55 273 _c
55 362 79 432 128 483 _c
177 534 244 560 330 560 _c
358 560 385 557 411 551 _c
437 545 463 537 488 526 _c
_cl}_e}_d
/e{{615 0 55 -13 562 560 _sc
562 296 _m
562 252 _l
149 252 _l
153 190 171 142 205 110 _c
238 78 284 62 344 62 _c
378 62 412 66 444 74 _c
476 82 509 95 541 113 _c
541 28 _l
509 14 476 3 442 -3 _c
408 -9 373 -13 339 -13 _c
251 -13 182 12 131 62 _c
80 112 55 181 55 268 _c
55 357 79 428 127 481 _c
175 533 241 560 323 560 _c
397 560 455 536 498 489 _c
}_e{540 441 562 377 562 296 _c
472 322 _m
471 371 457 410 431 440 _c
404 469 368 484 324 484 _c
274 484 234 469 204 441 _c
174 413 156 373 152 322 _c
472 322 _l
_cl}_e}_d
/h{634 0 91 0 549 760 _sc
549 330 _m
549 0 _l
459 0 _l
459 327 _l
459 379 448 417 428 443 _c
408 469 378 482 338 482 _c
289 482 251 466 223 435 _c
195 404 181 362 181 309 _c
181 0 _l
91 0 _l
91 760 _l
181 760 _l
181 462 _l
202 494 227 519 257 535 _c
286 551 320 560 358 560 _c
420 560 468 540 500 501 _c
532 462 549 405 549 330 _c
_cl}_d
/i{278 0 94 0 184 760 _sc
94 547 _m
184 547 _l
184 0 _l
94 0 _l
94 547 _l
94 760 _m
184 760 _l
184 646 _l
94 646 _l
94 760 _l
_cl}_d
/l{278 0 94 0 184 760 _sc
94 760 _m
184 760 _l
184 0 _l
94 0 _l
94 760 _l
_cl}_d
/m{{974 0 91 0 889 560 _sc
520 442 _m
542 482 569 511 600 531 _c
631 550 668 560 711 560 _c
767 560 811 540 842 500 _c
873 460 889 403 889 330 _c
889 0 _l
799 0 _l
799 327 _l
799 379 789 418 771 444 _c
752 469 724 482 686 482 _c
639 482 602 466 575 435 _c
548 404 535 362 535 309 _c
535 0 _l
445 0 _l
445 327 _l
445 379 435 418 417 444 _c
398 469 369 482 331 482 _c
}_e{285 482 248 466 221 435 _c
194 404 181 362 181 309 _c
181 0 _l
91 0 _l
91 547 _l
181 547 _l
181 462 _l
201 495 226 520 255 536 _c
283 552 317 560 357 560 _c
397 560 430 550 458 530 _c
486 510 506 480 520 442 _c
_cl}_e}_d
/n{634 0 91 0 549 560 _sc
549 330 _m
549 0 _l
459 0 _l
459 327 _l
459 379 448 417 428 443 _c
408 469 378 482 338 482 _c
289 482 251 466 223 435 _c
195 404 181 362 181 309 _c
181 0 _l
91 0 _l
91 547 _l
181 547 _l
181 462 _l
202 494 227 519 257 535 _c
286 551 320 560 358 560 _c
420 560 468 540 500 501 _c
532 462 549 405 549 330 _c
_cl}_d
/o{612 0 55 -13 557 560 _sc
306 484 _m
258 484 220 465 192 427 _c
164 389 150 338 150 273 _c
150 207 163 156 191 118 _c
219 80 257 62 306 62 _c
354 62 392 80 420 118 _c
448 156 462 207 462 273 _c
462 337 448 389 420 427 _c
392 465 354 484 306 484 _c
306 560 _m
384 560 445 534 490 484 _c
534 433 557 363 557 273 _c
557 183 534 113 490 63 _c
445 12 384 -13 306 -13 _c
227 -13 165 12 121 63 _c
77 113 55 183 55 273 _c
55 363 77 433 121 484 _c
165 534 227 560 306 560 _c
_cl}_d
/q{{635 0 55 -207 544 560 _sc
148 273 _m
148 207 161 155 188 117 _c
215 79 253 61 301 61 _c
348 61 385 79 413 117 _c
440 155 454 207 454 273 _c
454 339 440 390 413 428 _c
385 466 348 485 301 485 _c
253 485 215 466 188 428 _c
161 390 148 339 148 273 _c
454 82 _m
435 49 411 25 382 10 _c
353 -5 319 -13 279 -13 _c
213 -13 159 13 117 65 _c
75 117 55 187 55 273 _c
}_e{55 359 75 428 117 481 _c
159 533 213 560 279 560 _c
319 560 353 552 382 536 _c
411 520 435 496 454 464 _c
454 547 _l
544 547 _l
544 -207 _l
454 -207 _l
454 82 _l
_cl}_e}_d
/r{411 0 91 0 411 560 _sc
411 463 _m
401 469 390 473 378 476 _c
366 478 353 480 339 480 _c
288 480 249 463 222 430 _c
194 397 181 350 181 288 _c
181 0 _l
91 0 _l
91 547 _l
181 547 _l
181 462 _l
199 495 224 520 254 536 _c
284 552 321 560 365 560 _c
371 560 378 559 386 559 _c
393 558 401 557 411 555 _c
411 463 _l
_cl}_d
/s{{521 0 54 -13 472 560 _sc
443 531 _m
443 446 _l
417 458 391 468 364 475 _c
336 481 308 485 279 485 _c
234 485 200 478 178 464 _c
156 450 145 430 145 403 _c
145 382 153 366 169 354 _c
185 342 217 330 265 320 _c
296 313 _l
360 299 405 279 432 255 _c
458 230 472 195 472 151 _c
472 100 452 60 412 31 _c
372 1 316 -13 246 -13 _c
216 -13 186 -10 154 -5 _c
}_e{122 0 89 8 54 20 _c
54 113 _l
87 95 120 82 152 74 _c
184 65 216 61 248 61 _c
290 61 323 68 346 82 _c
368 96 380 117 380 144 _c
380 168 371 187 355 200 _c
339 213 303 226 247 238 _c
216 245 _l
160 257 119 275 95 299 _c
70 323 58 356 58 399 _c
58 450 76 490 112 518 _c
148 546 200 560 268 560 _c
301 560 332 557 362 552 _c
391 547 418 540 443 531 _c
}_e{_cl}_e}_d
/t{392 0 27 0 368 702 _sc
183 702 _m
183 547 _l
368 547 _l
368 477 _l
183 477 _l
183 180 _l
183 135 189 106 201 94 _c
213 81 238 75 276 75 _c
368 75 _l
368 0 _l
276 0 _l
206 0 158 13 132 39 _c
106 65 93 112 93 180 _c
93 477 _l
27 477 _l
27 547 _l
93 547 _l
93 702 _l
183 702 _l
_cl}_d
/u{634 0 85 -13 543 560 _sc
85 216 _m
85 547 _l
175 547 _l
175 219 _l
175 167 185 129 205 103 _c
225 77 255 64 296 64 _c
344 64 383 79 411 110 _c
439 141 453 183 453 237 _c
453 547 _l
543 547 _l
543 0 _l
453 0 _l
453 84 _l
431 50 405 26 377 10 _c
348 -5 315 -13 277 -13 _c
214 -13 166 6 134 45 _c
101 83 85 140 85 216 _c
311 560 _m
311 560 _l
_cl}_d
end readonly def

/BuildGlyph
 {exch begin
 CharStrings exch
 2 copy known not{pop /.notdef}if
 true 3 1 roll get exec
 end}_d

/BuildChar {
 1 index /Encoding get exch get
 1 index /BuildGlyph get exec
}_d

FontName currentdict end definefont pop
end
%%EndProlog
mpldict begin
-26.552 103.201 translate
665.103 585.599 0 0 clipbox
gsave
-0 0 m
665.103125 0 l
665.103125 585.598903 l
-0 585.598903 l
cl
1.000 setgray
fill
grestore
gsave
96.403125 135.159528 m
654.403125 135.159528 l
654.403125 570.039528 l
96.403125 570.039528 l
cl
1.000 setgray
fill
grestore
gsave
558 434.9 96.4 135.2 clipbox
121.766761 135.159528 m
191.735413 135.159528 l
191.735413 532.267094 l
121.766761 532.267094 l
cl
0.122 0.467 0.706 setrgbcolor
fill
grestore
gsave
558 434.9 96.4 135.2 clipbox
209.227576 135.159528 m
279.196228 135.159528 l
279.196228 419.508923 l
209.227576 419.508923 l
cl
0.122 0.467 0.706 setrgbcolor
fill
grestore
gsave
558 434.9 96.4 135.2 clipbox
296.688391 135.159528 m
366.657043 135.159528 l
366.657043 342.783665 l
296.688391 342.783665 l
cl
0.122 0.467 0.706 setrgbcolor
fill
grestore
gsave
558 434.9 96.4 135.2 clipbox
384.149207 135.159528 m
454.117859 135.159528 l
454.117859 289.728305 l
384.149207 289.728305 l
cl
0.122 0.467 0.706 setrgbcolor
fill
grestore
gsave
558 434.9 96.4 135.2 clipbox
471.610022 135.159528 m
541.578674 135.159528 l
541.578674 281.651963 l
471.610022 281.651963 l
cl
0.122 0.467 0.706 setrgbcolor
fill
grestore
gsave
558 434.9 96.4 135.2 clipbox
559.070837 135.159528 m
629.039489 135.159528 l
629.039489 222.943163 l
559.070837 222.943163 l
cl
0.122 0.467 0.706 setrgbcolor
fill
grestore
0.800 setlinewidth
1 setlinejoin
0 setlinecap
[] 0 setdash
0.000 setgray
gsave
/o {
gsave
newpath
translate
0.8 setlinewidth
1 setlinejoin
0 setlinecap
0 0 m
0 -3.5 l

gsave
0.000 setgray
fill
grestore
stroke
grestore
} bind def
156.751 135.16 o
grestore
0.000 0.000 0.545 setrgbcolor
/DejaVuSans findfont
22.000 scalefont
setfont
gsave
148.786510 87.345679 translate
50.000000 rotate
0.000000 0.000000 m /hyphen glyphshow
7.938477 0.000000 m /O glyphshow
25.254883 0.000000 m /three glyphshow
grestore
0.000 setgray
gsave
/o {
gsave
newpath
translate
0.8 setlinewidth
1 setlinejoin
0 setlinecap
0 0 m
0 -3.5 l

gsave
0.000 setgray
fill
grestore
stroke
grestore
} bind def
244.212 135.16 o
grestore
0.000 0.000 0.545 setrgbcolor
gsave
230.743456 74.227167 translate
50.000000 rotate
0.000000 0.000000 m /B glyphshow
15.092773 0.000000 m /L glyphshow
27.349609 0.000000 m /A glyphshow
42.399414 0.000000 m /S glyphshow
grestore
0.000 setgray
gsave
/o {
gsave
newpath
translate
0.8 setlinewidth
1 setlinejoin
0 setlinecap
0 0 m
0 -3.5 l

gsave
0.000 setgray
fill
grestore
stroke
grestore
} bind def
331.673 135.16 o
grestore
0.000 0.000 0.545 setrgbcolor
gsave
317.702093 73.030223 translate
50.000000 rotate
0.000000 0.000000 m /hyphen glyphshow
7.938477 0.000000 m /q glyphshow
21.903320 0.000000 m /h glyphshow
35.846680 0.000000 m /o glyphshow
49.306641 0.000000 m /t glyphshow
grestore
0.000 setgray
gsave
/o {
gsave
newpath
translate
0.8 setlinewidth
1 setlinejoin
0 setlinecap
0 0 m
0 -3.5 l

gsave
0.000 setgray
fill
grestore
stroke
grestore
} bind def
419.134 135.16 o
grestore
0.000 0.000 0.545 setrgbcolor
gsave
378.778485 10.142762 translate
50.000000 rotate
0.000000 0.000000 m /M glyphshow
18.981445 0.000000 m /a glyphshow
32.462891 0.000000 m /n glyphshow
46.406250 0.000000 m /u glyphshow
60.349609 0.000000 m /a glyphshow
73.831055 0.000000 m /l glyphshow
79.943359 0.000000 m /space glyphshow
86.936523 0.000000 m /L glyphshow
99.193359 0.000000 m /I glyphshow
105.681641 0.000000 m /C glyphshow
121.042969 0.000000 m /M glyphshow
grestore
0.000 setgray
gsave
/o {
gsave
newpath
translate
0.8 setlinewidth
1 setlinejoin
0 setlinecap
0 0 m
0 -3.5 l

gsave
0.000 setgray
fill
grestore
stroke
grestore
} bind def
506.594 135.16 o
grestore
0.000 0.000 0.545 setrgbcolor
gsave
483.800459 51.999909 translate
50.000000 rotate
0.000000 0.000000 m /L glyphshow
12.256836 0.000000 m /A glyphshow
27.306641 0.000000 m /P glyphshow
40.557617 0.000000 m /A glyphshow
55.607422 0.000000 m /C glyphshow
70.968750 0.000000 m /K glyphshow
grestore
0.000 setgray
gsave
/o {
gsave
newpath
translate
0.8 setlinewidth
1 setlinejoin
0 setlinecap
0 0 m
0 -3.5 l

gsave
0.000 setgray
fill
grestore
stroke
grestore
} bind def
594.055 135.16 o
grestore
0.000 0.000 0.545 setrgbcolor
gsave
556.211005 16.127484 translate
50.000000 rotate
0.000000 0.000000 m /D glyphshow
16.940430 0.000000 m /one glyphshow
30.937500 0.000000 m /hyphen glyphshow
38.875977 0.000000 m /M glyphshow
57.857422 0.000000 m /a glyphshow
71.338867 0.000000 m /t glyphshow
79.964844 0.000000 m /r glyphshow
89.009766 0.000000 m /i glyphshow
95.122070 0.000000 m /c glyphshow
107.217773 0.000000 m /e glyphshow
120.752930 0.000000 m /s glyphshow
grestore
0.000 setgray
gsave
/o {
gsave
newpath
translate
0.8 setlinewidth
1 setlinejoin
0 setlinecap
0 0 m
-3.5 0 l

gsave
0.000 setgray
fill
grestore
stroke
grestore
} bind def
96.4031 135.16 o
grestore
gsave
54.403125 126.800153 translate
0.000000 rotate
0.000000 0.000000 m /zero glyphshow
13.997070 0.000000 m /period glyphshow
20.990234 0.000000 m /zero glyphshow
grestore
gsave
/o {
gsave
newpath
translate
0.8 setlinewidth
1 setlinejoin
0 setlinecap
0 0 m
-3.5 0 l

gsave
0.000 setgray
fill
grestore
stroke
grestore
} bind def
96.4031 197.285 o
grestore
gsave
40.403125 188.925868 translate
0.000000 rotate
0.000000 0.000000 m /one glyphshow
13.997070 0.000000 m /zero glyphshow
27.994141 0.000000 m /period glyphshow
34.987305 0.000000 m /zero glyphshow
grestore
gsave
/o {
gsave
newpath
translate
0.8 setlinewidth
1 setlinejoin
0 setlinecap
0 0 m
-3.5 0 l

gsave
0.000 setgray
fill
grestore
stroke
grestore
} bind def
96.4031 259.411 o
grestore
gsave
40.403125 251.051582 translate
0.000000 rotate
0.000000 0.000000 m /two glyphshow
13.997070 0.000000 m /zero glyphshow
27.994141 0.000000 m /period glyphshow
34.987305 0.000000 m /zero glyphshow
grestore
gsave
/o {
gsave
newpath
translate
0.8 setlinewidth
1 setlinejoin
0 setlinecap
0 0 m
-3.5 0 l

gsave
0.000 setgray
fill
grestore
stroke
grestore
} bind def
96.4031 321.537 o
grestore
gsave
40.403125 313.177296 translate
0.000000 rotate
0.000000 0.000000 m /three glyphshow
13.997070 0.000000 m /zero glyphshow
27.994141 0.000000 m /period glyphshow
34.987305 0.000000 m /zero glyphshow
grestore
gsave
/o {
gsave
newpath
translate
0.8 setlinewidth
1 setlinejoin
0 setlinecap
0 0 m
-3.5 0 l

gsave
0.000 setgray
fill
grestore
stroke
grestore
} bind def
96.4031 383.662 o
grestore
gsave
40.403125 375.303010 translate
0.000000 rotate
0.000000 0.000000 m /four glyphshow
13.997070 0.000000 m /zero glyphshow
27.994141 0.000000 m /period glyphshow
34.987305 0.000000 m /zero glyphshow
grestore
gsave
/o {
gsave
newpath
translate
0.8 setlinewidth
1 setlinejoin
0 setlinecap
0 0 m
-3.5 0 l

gsave
0.000 setgray
fill
grestore
stroke
grestore
} bind def
96.4031 445.788 o
grestore
gsave
40.403125 437.428725 translate
0.000000 rotate
0.000000 0.000000 m /five glyphshow
13.997070 0.000000 m /zero glyphshow
27.994141 0.000000 m /period glyphshow
34.987305 0.000000 m /zero glyphshow
grestore
gsave
/o {
gsave
newpath
translate
0.8 setlinewidth
1 setlinejoin
0 setlinecap
0 0 m
-3.5 0 l

gsave
0.000 setgray
fill
grestore
stroke
grestore
} bind def
96.4031 507.914 o
grestore
gsave
40.403125 499.554439 translate
0.000000 rotate
0.000000 0.000000 m /six glyphshow
13.997070 0.000000 m /zero glyphshow
27.994141 0.000000 m /period glyphshow
34.987305 0.000000 m /zero glyphshow
grestore
gsave
/o {
gsave
newpath
translate
0.8 setlinewidth
1 setlinejoin
0 setlinecap
0 0 m
-3.5 0 l

gsave
0.000 setgray
fill
grestore
stroke
grestore
} bind def
96.4031 570.04 o
grestore
gsave
40.403125 561.680153 translate
0.000000 rotate
0.000000 0.000000 m /seven glyphshow
13.997070 0.000000 m /zero glyphshow
27.994141 0.000000 m /period glyphshow
34.987305 0.000000 m /zero glyphshow
grestore
0.000 0.000 0.545 setrgbcolor
/DejaVuSans findfont
25.000 scalefont
setfont
gsave
26.200000 279.591716 translate
90.000000 rotate
0.000000 0.000000 m /R glyphshow
17.354980 0.000000 m /u glyphshow
33.199707 0.000000 m /n glyphshow
49.044434 0.000000 m /t glyphshow
58.846680 0.000000 m /i glyphshow
65.792480 0.000000 m /m glyphshow
90.145508 0.000000 m /e glyphshow
105.526367 0.000000 m /space glyphshow
113.473145 0.000000 m /parenleft glyphshow
123.226562 0.000000 m /s glyphshow
136.251465 0.000000 m /parenright glyphshow
grestore
1.300 setlinewidth
[4.81 2.08] 0 setdash
0.000 setgray
gsave
558 434.9 96.4 135.2 clipbox
96.403125 532.267094 m
654.403125 532.267094 l
stroke
grestore
gsave
558 434.9 96.4 135.2 clipbox
96.403125 419.508923 m
654.403125 419.508923 l
stroke
grestore
gsave
558 434.9 96.4 135.2 clipbox
96.403125 342.783665 m
654.403125 342.783665 l
stroke
grestore
gsave
558 434.9 96.4 135.2 clipbox
96.403125 289.728305 m
654.403125 289.728305 l
stroke
grestore
gsave
558 434.9 96.4 135.2 clipbox
96.403125 281.651963 m
654.403125 281.651963 l
stroke
grestore
gsave
558 434.9 96.4 135.2 clipbox
96.403125 222.943163 m
654.403125 222.943163 l
stroke
grestore
0.800 setlinewidth
[2.96 1.28] 0 setdash
0.412 setgray
gsave
558 434.9 96.4 135.2 clipbox
96.403125 135.159528 m
654.403125 135.159528 l
stroke
grestore
gsave
558 434.9 96.4 135.2 clipbox
96.403125 197.285243 m
654.403125 197.285243 l
stroke
grestore
gsave
558 434.9 96.4 135.2 clipbox
96.403125 259.410957 m
654.403125 259.410957 l
stroke
grestore
gsave
558 434.9 96.4 135.2 clipbox
96.403125 321.536671 m
654.403125 321.536671 l
stroke
grestore
gsave
558 434.9 96.4 135.2 clipbox
96.403125 383.662385 m
654.403125 383.662385 l
stroke
grestore
gsave
558 434.9 96.4 135.2 clipbox
96.403125 445.7881 m
654.403125 445.7881 l
stroke
grestore
gsave
558 434.9 96.4 135.2 clipbox
96.403125 507.913814 m
654.403125 507.913814 l
stroke
grestore
gsave
558 434.9 96.4 135.2 clipbox
96.403125 570.039528 m
654.403125 570.039528 l
stroke
grestore
2.000 setlinewidth
0 setlinejoin
2 setlinecap
[] 0 setdash
0.000 setgray
gsave
96.403125 135.159528 m
96.403125 570.039528 l
stroke
grestore
gsave
654.403125 135.159528 m
654.403125 570.039528 l
stroke
grestore
gsave
96.403125 135.159528 m
654.403125 135.159528 l
stroke
grestore
gsave
96.403125 570.039528 m
654.403125 570.039528 l
stroke
grestore

end
showpage
