Num. Nodes,Num. Threads,Num. Procs. MPI x OpenMP,Runtime (s) - P1,Runtime (s) - P2,Runtime (s) - P4,SpeedUp - Pure MPI (P1),SpeedUp - MPI + OpenMP (P1),SpeedUp - Pure MPI (P2),SpeedUp - MPI + OpenMP (P2),SpeedUp - Pure MPI (P4),SpeedUp - MPI + OpenMP (P4),Efficiency - Pure MPI (P1),Efficiency - MPI + OpenMP (P1),Efficiency - Pure MPI (P2),Efficiency - MPI + OpenMP (P2),Efficiency - Pure MPI (P4),Efficiency - MPI + OpenMP (P4)
1,1,1,3.4375,24.3476,505.9082,1.0000,1.0000,1.0000,1.0000,1.0000,1.0000,1.0000,1.0000,1.0000,1.0000,1.0000,1.0000
1,2,2,1.7608,12.2524,250.5481,,1.9523,,1.9872,,2.0192,,0.9762,,0.9936,,1.0096
1,4,4,0.8818,6.1521,125.0179,,3.8983,,3.9576,,4.0467,,0.9746,,0.9894,,1.0117
1,8,8,0.6472,3.2422,63.2576,,5.3111,,7.5095,,7.9976,,0.6639,,0.9387,,0.9997
1,16,16,0.4073,2.3280,36.4629,,8.4398,,10.4587,,13.8746,,0.5275,,0.6537,,0.8672
1,32,32,0.2498,1.1931,21.8032,,13.7597,,20.4073,,23.2034,,0.4300,,0.6377,,0.7251
2,1,2,1.6510,11.6818,244.3565,2.0821,2.0821,2.0842,2.0842,2.0704,2.0704,1.0411,1.0411,1.0421,1.0421,1.0352,1.0352
2,2,4,0.8576,5.8521,122.7194,,4.0082,,4.1605,,4.1225,,1.0021,,1.0401,,1.0306
2,4,8,0.5332,3.0011,61.1866,,6.4465,,8.1128,,8.2683,,0.8058,,1.0141,,1.0335
2,8,16,0.3439,2.3133,33.6058,,9.9950,,10.5249,,15.0542,,0.6247,,0.6578,,0.9409
2,16,32,0.1855,1.2214,17.7102,,18.5285,,19.9344,,28.5659,,0.5790,,0.6230,,0.8927
2,32,64,0.1255,0.7122,10.0174,,27.3851,,34.1857,,50.5030,,0.4279,,0.5342,,0.7891
4,1,4,0.8211,5.8252,121.3815,4.1867,4.1867,4.1797,4.1797,4.1679,4.1679,1.0467,1.0467,1.0449,1.0449,1.0420,1.0420
4,2,8,0.4185,2.9372,61.2767,,8.2139,,8.2895,,8.2561,,1.0267,,1.0362,,1.0320
4,4,16,0.3328,1.9219,32.9655,,10.3279,,12.6686,,15.3466,,0.6455,,0.7918,,0.9592
4,8,32,0.1796,0.9658,16.7494,,19.1353,,25.2102,,30.2045,,0.5980,,0.7878,,0.9439
4,16,64,0.0971,0.5590,9.4477,,35.3978,,43.5564,,53.5482,,0.5531,,0.6806,,0.8367
4,32,128,0.0644,0.2721,6.2405,,53.4091,,89.4859,,81.0682,,0.4173,,0.6991,,0.6333
8,1,8,0.4300,2.9796,61.1697,7.9937,7.9937,8.1714,8.1714,8.2706,8.2706,0.9992,0.9992,1.0214,1.0214,1.0338,1.0338
8,2,16,0.2779,2.0179,32.9757,,12.3711,,12.0657,,15.3419,,0.7732,,0.7541,,0.9589
8,4,32,0.1602,1.0410,16.5138,,21.4524,,23.3896,,30.6355,,0.6704,,0.7309,,0.9574
8,8,64,0.0935,0.6522,8.6101,,36.7818,,37.3321,,58.7574,,0.5747,,0.5833,,0.9181
8,16,128,0.0499,0.9150,5.8499,,68.8978,,26.6090,,86.4811,,0.5383,,0.2079,,0.6756
8,32,256,0.0362,0.1309,3.2065,,94.9249,,185.9490,,157.7752,,0.3708,,0.7264,,0.6163
16,1,16,0.3038,2.1436,31.2209,11.3163,11.3163,11.3583,11.3583,16.2041,16.2041,0.7073,0.7073,0.7099,0.7099,1.0128,1.0128
16,2,32,0.1315,0.9178,16.8754,,26.1456,,26.5294,,29.9790,,0.8171,,0.8290,,0.9368
16,4,64,0.0832,0.5002,8.8495,,41.3337,,48.6800,,57.1678,,0.6458,,0.7606,,0.8932
16,8,128,0.0690,0.7871,4.8029,,49.7931,,30.9344,,105.3336,,0.3890,,0.2417,,0.8229
16,16,256,0.0720,0.4422,2.4055,,47.7393,,55.0611,,210.3123,,0.1865,,0.2151,,0.8215
