<?xml version="1.0" encoding="UTF-8" standalone="no"?>
<!-- Created with Inkscape (http://www.inkscape.org/) -->

<svg
   xmlns:dc="http://purl.org/dc/elements/1.1/"
   xmlns:cc="http://creativecommons.org/ns#"
   xmlns:rdf="http://www.w3.org/1999/02/22-rdf-syntax-ns#"
   xmlns:svg="http://www.w3.org/2000/svg"
   xmlns="http://www.w3.org/2000/svg"
   xmlns:sodipodi="http://sodipodi.sourceforge.net/DTD/sodipodi-0.dtd"
   xmlns:inkscape="http://www.inkscape.org/namespaces/inkscape"
   version="1.1"
   id="svg2"
   xml:space="preserve"
   width="892"
   height="536.08667"
   viewBox="0 0 892.00003 536.08667"
   sodipodi:docname="SizeupByDofs.svg"
   inkscape:version="0.92.5 (2060ec1f9f, 2020-04-08)"><metadata
     id="metadata8"><rdf:RDF><cc:Work
         rdf:about=""><dc:format>image/svg+xml</dc:format><dc:type
           rdf:resource="http://purl.org/dc/dcmitype/StillImage" /><dc:title></dc:title></cc:Work></rdf:RDF></metadata><defs
     id="defs6"><clipPath
       clipPathUnits="userSpaceOnUse"
       id="clipPath18"><path
         d="M 1.2546e-5,0 H 841.92001 V 595.2 H 1.2546e-5 Z"
         id="path16"
         inkscape:connector-curvature="0"
         style="clip-rule:evenodd" /></clipPath><clipPath
       clipPathUnits="userSpaceOnUse"
       id="clipPath42"><path
         d="M 70.8,108.72 H 738.96 V 510.24 H 70.8 Z"
         id="path40"
         inkscape:connector-curvature="0"
         style="clip-rule:evenodd" /></clipPath><clipPath
       clipPathUnits="userSpaceOnUse"
       id="clipPath54"><path
         d="M 70.8,108.72 H 738.96 V 510.24 H 70.8 Z"
         id="path52"
         inkscape:connector-curvature="0"
         style="clip-rule:evenodd" /></clipPath><clipPath
       clipPathUnits="userSpaceOnUse"
       id="clipPath66"><path
         d="M 70.8,108.72 H 738.96 V 510.24 H 70.8 Z"
         id="path64"
         inkscape:connector-curvature="0"
         style="clip-rule:evenodd" /></clipPath><clipPath
       clipPathUnits="userSpaceOnUse"
       id="clipPath78"><path
         d="M 70.8,108.72 H 738.96 V 510.24 H 70.8 Z"
         id="path76"
         inkscape:connector-curvature="0"
         style="clip-rule:evenodd" /></clipPath><clipPath
       clipPathUnits="userSpaceOnUse"
       id="clipPath90"><path
         d="M 70.8,108.72 H 738.96 V 510.24 H 70.8 Z"
         id="path88"
         inkscape:connector-curvature="0"
         style="clip-rule:evenodd" /></clipPath><clipPath
       clipPathUnits="userSpaceOnUse"
       id="clipPath102"><path
         d="M 70.8,108.72 H 738.96 V 510.24 H 70.8 Z"
         id="path100"
         inkscape:connector-curvature="0"
         style="clip-rule:evenodd" /></clipPath><clipPath
       clipPathUnits="userSpaceOnUse"
       id="clipPath114"><path
         d="M 70.8,108.72 H 738.96 V 510.24 H 70.8 Z"
         id="path112"
         inkscape:connector-curvature="0"
         style="clip-rule:evenodd" /></clipPath><clipPath
       clipPathUnits="userSpaceOnUse"
       id="clipPath126"><path
         d="M 70.8,108.72 H 738.96 V 510.24 H 70.8 Z"
         id="path124"
         inkscape:connector-curvature="0"
         style="clip-rule:evenodd" /></clipPath><clipPath
       clipPathUnits="userSpaceOnUse"
       id="clipPath138"><path
         d="M 70.8,108.72 H 738.96 V 510.24 H 70.8 Z"
         id="path136"
         inkscape:connector-curvature="0"
         style="clip-rule:evenodd" /></clipPath><clipPath
       clipPathUnits="userSpaceOnUse"
       id="clipPath150"><path
         d="M 70.8,108.72 H 738.96 V 510.24 H 70.8 Z"
         id="path148"
         inkscape:connector-curvature="0"
         style="clip-rule:evenodd" /></clipPath><clipPath
       clipPathUnits="userSpaceOnUse"
       id="clipPath162"><path
         d="M 70.8,108.72 H 738.96 V 510.24 H 70.8 Z"
         id="path160"
         inkscape:connector-curvature="0"
         style="clip-rule:evenodd" /></clipPath><clipPath
       clipPathUnits="userSpaceOnUse"
       id="clipPath174"><path
         d="M 70.8,108.72 H 738.96 V 510.24 H 70.8 Z"
         id="path172"
         inkscape:connector-curvature="0"
         style="clip-rule:evenodd" /></clipPath><clipPath
       clipPathUnits="userSpaceOnUse"
       id="clipPath186"><path
         d="M 70.8,108.72 H 738.96 V 510.24 H 70.8 Z"
         id="path184"
         inkscape:connector-curvature="0"
         style="clip-rule:evenodd" /></clipPath><clipPath
       clipPathUnits="userSpaceOnUse"
       id="clipPath198"><path
         d="M 70.8,108.72 H 738.96 V 510.24 H 70.8 Z"
         id="path196"
         inkscape:connector-curvature="0"
         style="clip-rule:evenodd" /></clipPath><clipPath
       clipPathUnits="userSpaceOnUse"
       id="clipPath210"><path
         d="M 70.8,108.72 H 738.96 V 510.24 H 70.8 Z"
         id="path208"
         inkscape:connector-curvature="0"
         style="clip-rule:evenodd" /></clipPath><clipPath
       clipPathUnits="userSpaceOnUse"
       id="clipPath222"><path
         d="M 70.8,108.72 H 738.96 V 510.24 H 70.8 Z"
         id="path220"
         inkscape:connector-curvature="0"
         style="clip-rule:evenodd" /></clipPath><clipPath
       clipPathUnits="userSpaceOnUse"
       id="clipPath234"><path
         d="M 70.8,108.72 H 738.96 V 510.24 H 70.8 Z"
         id="path232"
         inkscape:connector-curvature="0"
         style="clip-rule:evenodd" /></clipPath><clipPath
       clipPathUnits="userSpaceOnUse"
       id="clipPath246"><path
         d="M 70.8,108.72 H 738.96 V 510.24 H 70.8 Z"
         id="path244"
         inkscape:connector-curvature="0"
         style="clip-rule:evenodd" /></clipPath><clipPath
       clipPathUnits="userSpaceOnUse"
       id="clipPath258"><path
         d="M 70.8,108.72 H 738.96 V 510.24 H 70.8 Z"
         id="path256"
         inkscape:connector-curvature="0"
         style="clip-rule:evenodd" /></clipPath><clipPath
       clipPathUnits="userSpaceOnUse"
       id="clipPath270"><path
         d="M 70.8,108.72 H 738.96 V 510.24 H 70.8 Z"
         id="path268"
         inkscape:connector-curvature="0"
         style="clip-rule:evenodd" /></clipPath><clipPath
       clipPathUnits="userSpaceOnUse"
       id="clipPath282"><path
         d="M 70.8,108.72 H 738.96 V 510.24 H 70.8 Z"
         id="path280"
         inkscape:connector-curvature="0"
         style="clip-rule:evenodd" /></clipPath><clipPath
       clipPathUnits="userSpaceOnUse"
       id="clipPath294"><path
         d="M 70.8,108.72 H 738.96 V 510.24 H 70.8 Z"
         id="path292"
         inkscape:connector-curvature="0"
         style="clip-rule:evenodd" /></clipPath><clipPath
       clipPathUnits="userSpaceOnUse"
       id="clipPath306"><path
         d="M 70.8,108.72 H 738.96 V 510.24 H 70.8 Z"
         id="path304"
         inkscape:connector-curvature="0"
         style="clip-rule:evenodd" /></clipPath><clipPath
       clipPathUnits="userSpaceOnUse"
       id="clipPath318"><path
         d="M 70.8,108.72 H 738.96 V 510.24 H 70.8 Z"
         id="path316"
         inkscape:connector-curvature="0"
         style="clip-rule:evenodd" /></clipPath><clipPath
       clipPathUnits="userSpaceOnUse"
       id="clipPath330"><path
         d="M 70.8,108.72 H 738.96 V 510.24 H 70.8 Z"
         id="path328"
         inkscape:connector-curvature="0"
         style="clip-rule:evenodd" /></clipPath><clipPath
       clipPathUnits="userSpaceOnUse"
       id="clipPath342"><path
         d="M 70.8,108.72 H 738.96 V 510.24 H 70.8 Z"
         id="path340"
         inkscape:connector-curvature="0"
         style="clip-rule:evenodd" /></clipPath><clipPath
       clipPathUnits="userSpaceOnUse"
       id="clipPath354"><path
         d="M 70.8,108.72 H 738.96 V 510.24 H 70.8 Z"
         id="path352"
         inkscape:connector-curvature="0"
         style="clip-rule:evenodd" /></clipPath><clipPath
       clipPathUnits="userSpaceOnUse"
       id="clipPath366"><path
         d="M 70.8,108.72 H 738.96 V 510.24 H 70.8 Z"
         id="path364"
         inkscape:connector-curvature="0"
         style="clip-rule:evenodd" /></clipPath><clipPath
       clipPathUnits="userSpaceOnUse"
       id="clipPath378"><path
         d="M 70.8,108.72 H 738.96 V 510.24 H 70.8 Z"
         id="path376"
         inkscape:connector-curvature="0"
         style="clip-rule:evenodd" /></clipPath><clipPath
       clipPathUnits="userSpaceOnUse"
       id="clipPath390"><path
         d="M 70.8,108.72 H 738.96 V 510.24 H 70.8 Z"
         id="path388"
         inkscape:connector-curvature="0"
         style="clip-rule:evenodd" /></clipPath><clipPath
       clipPathUnits="userSpaceOnUse"
       id="clipPath402"><path
         d="M 70.8,108.72 H 738.96 V 510.24 H 70.8 Z"
         id="path400"
         inkscape:connector-curvature="0"
         style="clip-rule:evenodd" /></clipPath><clipPath
       clipPathUnits="userSpaceOnUse"
       id="clipPath414"><path
         d="M 70.8,108.72 H 738.96 V 510.24 H 70.8 Z"
         id="path412"
         inkscape:connector-curvature="0"
         style="clip-rule:evenodd" /></clipPath><clipPath
       clipPathUnits="userSpaceOnUse"
       id="clipPath426"><path
         d="M 70.8,108.72 H 738.96 V 510.24 H 70.8 Z"
         id="path424"
         inkscape:connector-curvature="0"
         style="clip-rule:evenodd" /></clipPath><clipPath
       clipPathUnits="userSpaceOnUse"
       id="clipPath438"><path
         d="M 70.8,108.72 H 738.96 V 510.24 H 70.8 Z"
         id="path436"
         inkscape:connector-curvature="0"
         style="clip-rule:evenodd" /></clipPath><clipPath
       clipPathUnits="userSpaceOnUse"
       id="clipPath450"><path
         d="M 70.8,108.72 H 738.96 V 510.24 H 70.8 Z"
         id="path448"
         inkscape:connector-curvature="0"
         style="clip-rule:evenodd" /></clipPath><clipPath
       clipPathUnits="userSpaceOnUse"
       id="clipPath462"><path
         d="M 70.8,108.72 H 738.96 V 510.24 H 70.8 Z"
         id="path460"
         inkscape:connector-curvature="0"
         style="clip-rule:evenodd" /></clipPath><clipPath
       clipPathUnits="userSpaceOnUse"
       id="clipPath474"><path
         d="M 70.8,108.72 H 738.96 V 510.24 H 70.8 Z"
         id="path472"
         inkscape:connector-curvature="0"
         style="clip-rule:evenodd" /></clipPath><clipPath
       clipPathUnits="userSpaceOnUse"
       id="clipPath486"><path
         d="M 70.8,108.72 H 738.96 V 510.24 H 70.8 Z"
         id="path484"
         inkscape:connector-curvature="0"
         style="clip-rule:evenodd" /></clipPath><clipPath
       clipPathUnits="userSpaceOnUse"
       id="clipPath498"><path
         d="M 70.8,108.72 H 738.96 V 510.24 H 70.8 Z"
         id="path496"
         inkscape:connector-curvature="0"
         style="clip-rule:evenodd" /></clipPath><clipPath
       clipPathUnits="userSpaceOnUse"
       id="clipPath510"><path
         d="M 70.8,108.72 H 738.96 V 510.24 H 70.8 Z"
         id="path508"
         inkscape:connector-curvature="0"
         style="clip-rule:evenodd" /></clipPath><clipPath
       clipPathUnits="userSpaceOnUse"
       id="clipPath522"><path
         d="M 70.8,108.72 H 738.96 V 510.24 H 70.8 Z"
         id="path520"
         inkscape:connector-curvature="0"
         style="clip-rule:evenodd" /></clipPath><clipPath
       clipPathUnits="userSpaceOnUse"
       id="clipPath534"><path
         d="M 70.8,108.72 H 738.96 V 510.24 H 70.8 Z"
         id="path532"
         inkscape:connector-curvature="0"
         style="clip-rule:evenodd" /></clipPath><clipPath
       clipPathUnits="userSpaceOnUse"
       id="clipPath546"><path
         d="M 70.8,108.72 H 738.96 V 510.24 H 70.8 Z"
         id="path544"
         inkscape:connector-curvature="0"
         style="clip-rule:evenodd" /></clipPath><clipPath
       clipPathUnits="userSpaceOnUse"
       id="clipPath558"><path
         d="M 70.8,108.72 H 738.96 V 510.24 H 70.8 Z"
         id="path556"
         inkscape:connector-curvature="0"
         style="clip-rule:evenodd" /></clipPath><clipPath
       clipPathUnits="userSpaceOnUse"
       id="clipPath570"><path
         d="M 70.8,108.72 H 738.96 V 510.24 H 70.8 Z"
         id="path568"
         inkscape:connector-curvature="0"
         style="clip-rule:evenodd" /></clipPath><clipPath
       clipPathUnits="userSpaceOnUse"
       id="clipPath582"><path
         d="M 70.8,108.72 H 738.96 V 510.24 H 70.8 Z"
         id="path580"
         inkscape:connector-curvature="0"
         style="clip-rule:evenodd" /></clipPath><clipPath
       clipPathUnits="userSpaceOnUse"
       id="clipPath594"><path
         d="M 70.8,108.72 H 738.96 V 510.24 H 70.8 Z"
         id="path592"
         inkscape:connector-curvature="0"
         style="clip-rule:evenodd" /></clipPath><clipPath
       clipPathUnits="userSpaceOnUse"
       id="clipPath606"><path
         d="M 70.8,108.72 H 738.96 V 510.24 H 70.8 Z"
         id="path604"
         inkscape:connector-curvature="0"
         style="clip-rule:evenodd" /></clipPath><clipPath
       clipPathUnits="userSpaceOnUse"
       id="clipPath618"><path
         d="M 70.8,108.72 H 738.96 V 510.24 H 70.8 Z"
         id="path616"
         inkscape:connector-curvature="0"
         style="clip-rule:evenodd" /></clipPath><clipPath
       clipPathUnits="userSpaceOnUse"
       id="clipPath630"><path
         d="M 70.8,108.72 H 738.96 V 510.24 H 70.8 Z"
         id="path628"
         inkscape:connector-curvature="0"
         style="clip-rule:evenodd" /></clipPath><clipPath
       clipPathUnits="userSpaceOnUse"
       id="clipPath642"><path
         d="M 70.8,108.72 H 738.96 V 510.24 H 70.8 Z"
         id="path640"
         inkscape:connector-curvature="0"
         style="clip-rule:evenodd" /></clipPath><clipPath
       clipPathUnits="userSpaceOnUse"
       id="clipPath654"><path
         d="M 70.8,108.72 H 738.96 V 510.24 H 70.8 Z"
         id="path652"
         inkscape:connector-curvature="0"
         style="clip-rule:evenodd" /></clipPath><clipPath
       clipPathUnits="userSpaceOnUse"
       id="clipPath666"><path
         d="M 70.8,108.72 H 738.96 V 510.24 H 70.8 Z"
         id="path664"
         inkscape:connector-curvature="0"
         style="clip-rule:evenodd" /></clipPath><clipPath
       clipPathUnits="userSpaceOnUse"
       id="clipPath678"><path
         d="M 70.8,108.72 H 738.96 V 510.24 H 70.8 Z"
         id="path676"
         inkscape:connector-curvature="0"
         style="clip-rule:evenodd" /></clipPath><clipPath
       clipPathUnits="userSpaceOnUse"
       id="clipPath690"><path
         d="M 70.8,108.72 H 738.96 V 510.24 H 70.8 Z"
         id="path688"
         inkscape:connector-curvature="0"
         style="clip-rule:evenodd" /></clipPath><clipPath
       clipPathUnits="userSpaceOnUse"
       id="clipPath702"><path
         d="M 70.8,108.72 H 738.96 V 510.24 H 70.8 Z"
         id="path700"
         inkscape:connector-curvature="0"
         style="clip-rule:evenodd" /></clipPath><clipPath
       clipPathUnits="userSpaceOnUse"
       id="clipPath714"><path
         d="M 70.8,108.72 H 738.96 V 510.24 H 70.8 Z"
         id="path712"
         inkscape:connector-curvature="0"
         style="clip-rule:evenodd" /></clipPath><clipPath
       clipPathUnits="userSpaceOnUse"
       id="clipPath726"><path
         d="M 70.8,108.72 H 738.96 V 510.24 H 70.8 Z"
         id="path724"
         inkscape:connector-curvature="0"
         style="clip-rule:evenodd" /></clipPath><clipPath
       clipPathUnits="userSpaceOnUse"
       id="clipPath738"><path
         d="M 70.8,108.72 H 738.96 V 510.24 H 70.8 Z"
         id="path736"
         inkscape:connector-curvature="0"
         style="clip-rule:evenodd" /></clipPath><clipPath
       clipPathUnits="userSpaceOnUse"
       id="clipPath750"><path
         d="M 70.8,108.72 H 738.96 V 510.24 H 70.8 Z"
         id="path748"
         inkscape:connector-curvature="0"
         style="clip-rule:evenodd" /></clipPath><clipPath
       clipPathUnits="userSpaceOnUse"
       id="clipPath762"><path
         d="M 70.8,108.72 H 738.96 V 510.24 H 70.8 Z"
         id="path760"
         inkscape:connector-curvature="0"
         style="clip-rule:evenodd" /></clipPath><clipPath
       clipPathUnits="userSpaceOnUse"
       id="clipPath774"><path
         d="M 70.8,108.72 H 738.96 V 510.24 H 70.8 Z"
         id="path772"
         inkscape:connector-curvature="0"
         style="clip-rule:evenodd" /></clipPath><clipPath
       clipPathUnits="userSpaceOnUse"
       id="clipPath786"><path
         d="M 70.8,108.72 H 738.96 V 510.24 H 70.8 Z"
         id="path784"
         inkscape:connector-curvature="0"
         style="clip-rule:evenodd" /></clipPath><clipPath
       clipPathUnits="userSpaceOnUse"
       id="clipPath798"><path
         d="M 70.8,108.72 H 738.96 V 510.24 H 70.8 Z"
         id="path796"
         inkscape:connector-curvature="0"
         style="clip-rule:evenodd" /></clipPath><clipPath
       clipPathUnits="userSpaceOnUse"
       id="clipPath810"><path
         d="M 70.8,108.72 H 738.96 V 510.24 H 70.8 Z"
         id="path808"
         inkscape:connector-curvature="0"
         style="clip-rule:evenodd" /></clipPath><clipPath
       clipPathUnits="userSpaceOnUse"
       id="clipPath822"><path
         d="M 70.8,108.72 H 738.96 V 510.24 H 70.8 Z"
         id="path820"
         inkscape:connector-curvature="0"
         style="clip-rule:evenodd" /></clipPath><clipPath
       clipPathUnits="userSpaceOnUse"
       id="clipPath834"><path
         d="M 70.8,108.72 H 738.96 V 510.24 H 70.8 Z"
         id="path832"
         inkscape:connector-curvature="0"
         style="clip-rule:evenodd" /></clipPath><clipPath
       clipPathUnits="userSpaceOnUse"
       id="clipPath846"><path
         d="M 70.8,108.72 H 738.96 V 510.24 H 70.8 Z"
         id="path844"
         inkscape:connector-curvature="0"
         style="clip-rule:evenodd" /></clipPath><clipPath
       clipPathUnits="userSpaceOnUse"
       id="clipPath858"><path
         d="M 70.8,108.72 H 738.96 V 510.24 H 70.8 Z"
         id="path856"
         inkscape:connector-curvature="0"
         style="clip-rule:evenodd" /></clipPath><clipPath
       clipPathUnits="userSpaceOnUse"
       id="clipPath870"><path
         d="M 70.8,108.72 H 738.96 V 510.24 H 70.8 Z"
         id="path868"
         inkscape:connector-curvature="0"
         style="clip-rule:evenodd" /></clipPath><clipPath
       clipPathUnits="userSpaceOnUse"
       id="clipPath882"><path
         d="M 70.8,108.72 H 738.96 V 510.24 H 70.8 Z"
         id="path880"
         inkscape:connector-curvature="0"
         style="clip-rule:evenodd" /></clipPath><clipPath
       clipPathUnits="userSpaceOnUse"
       id="clipPath894"><path
         d="M 70.8,108.72 H 738.96 V 510.24 H 70.8 Z"
         id="path892"
         inkscape:connector-curvature="0"
         style="clip-rule:evenodd" /></clipPath><clipPath
       clipPathUnits="userSpaceOnUse"
       id="clipPath906"><path
         d="M 70.8,108.72 H 738.96 V 510.24 H 70.8 Z"
         id="path904"
         inkscape:connector-curvature="0"
         style="clip-rule:evenodd" /></clipPath><clipPath
       clipPathUnits="userSpaceOnUse"
       id="clipPath918"><path
         d="M 70.8,108.72 H 738.96 V 510.24 H 70.8 Z"
         id="path916"
         inkscape:connector-curvature="0"
         style="clip-rule:evenodd" /></clipPath><clipPath
       clipPathUnits="userSpaceOnUse"
       id="clipPath930"><path
         d="M 70.8,108.72 H 738.96 V 510.24 H 70.8 Z"
         id="path928"
         inkscape:connector-curvature="0"
         style="clip-rule:evenodd" /></clipPath><clipPath
       clipPathUnits="userSpaceOnUse"
       id="clipPath944"><path
         d="M 70.8,108.72 H 738.96 V 510.24 H 70.8 Z"
         id="path942"
         inkscape:connector-curvature="0"
         style="clip-rule:evenodd" /></clipPath><clipPath
       clipPathUnits="userSpaceOnUse"
       id="clipPath956"><path
         d="M 0,99.12 H 841.92 V 510.24 H 0 Z"
         id="path954"
         inkscape:connector-curvature="0"
         style="clip-rule:evenodd" /></clipPath></defs><sodipodi:namedview
     pagecolor="#ffffff"
     bordercolor="#666666"
     borderopacity="1"
     objecttolerance="10"
     gridtolerance="10"
     guidetolerance="10"
     inkscape:pageopacity="0"
     inkscape:pageshadow="2"
     inkscape:window-width="958"
     inkscape:window-height="1008"
     id="namedview4"
     showgrid="false"
     fit-margin-top="0"
     fit-margin-left="0"
     fit-margin-right="0"
     fit-margin-bottom="0"
     inkscape:zoom="1.1895162"
     inkscape:cx="394.12117"
     inkscape:cy="464.87824"
     inkscape:window-x="-7"
     inkscape:window-y="0"
     inkscape:window-maximized="0"
     inkscape:current-layer="g10" /><g
     id="g10"
     inkscape:groupmode="layer"
     inkscape:label="SizeupByDofs"
     transform="matrix(1.3333333,0,0,-1.3333333,-93.966664,680.31998)"><g
       id="g12"><g
         id="g14"
         clip-path="url(#clipPath18)" /></g><path
       d="M 70.85,108.55 H 739.1 v 401.6 H 70.85 Z"
       style="fill:#ffffff;fill-opacity:1;fill-rule:evenodd;stroke:none"
       id="path20"
       inkscape:connector-curvature="0" /><path
       d="M 111.94,235.68 H 728.1 M 111.94,244.8 H 728.1 m -616.16,9.12 H 728.1 m -616.16,9.12 H 728.1 M 111.94,281.28 H 728.1 m -616.16,8.88 H 728.1 m -616.16,9.12 H 728.1 M 111.94,308.4 H 728.1 M 111.94,326.64 H 728.1 m -616.16,9.12 H 728.1 m -616.16,8.88 H 728.1 m -616.16,9.12 H 728.1 M 111.94,372 H 728.1 m -616.16,9.12 H 728.1 m -616.16,9.12 H 728.1 m -616.16,9.12 H 728.1 m -616.16,18 H 728.1 m -616.16,9.12 H 728.1 M 111.94,435.6 H 728.1 m -616.16,9.12 H 728.1 m -616.16,18 H 728.1 m -616.16,9.12 H 728.1 m -616.16,9.12 H 728.1 m -616.16,9.12 H 728.1"
       style="fill:none;stroke:#f2f2f2;stroke-width:0.75;stroke-linecap:butt;stroke-linejoin:round;stroke-miterlimit:10;stroke-dasharray:none;stroke-opacity:1"
       id="path22"
       inkscape:connector-curvature="0" /><path
       d="M 111.94,272.16 H 728.1 M 111.94,317.52 H 728.1 M 111.94,362.88 H 728.1 M 111.94,408.24 H 728.1 m -616.16,45.6 H 728.1 M 111.94,499.15 H 728.1"
       style="fill:none;stroke:#f2f2f2;stroke-width:0.75;stroke-linecap:butt;stroke-linejoin:round;stroke-miterlimit:10;stroke-dasharray:none;stroke-opacity:1"
       id="path24"
       inkscape:connector-curvature="0" /><path
       d="m 120,317.52 h 20.16 V 226.67 H 120 Z m 36.24,65.76 H 176.4 V 226.67 h -20.16 z m 36.24,45.12 h 20.16 V 226.67 h -20.16 z m 36.24,-45.84 h 20.16 V 226.67 h -20.16 z m 36.24,9.36 h 20.16 V 226.67 h -20.16 z m 36.24,74.16 h 20.16 V 226.67 H 301.2 Z M 337.44,354.24 H 357.6 V 226.67 h -20.16 z m 36.24,-33.84 h 20.16 v -93.73 h -20.16 z m 36.24,124.08 h 20.16 V 226.67 H 409.92 Z M 446.16,302.4 h 20.16 v -75.73 h -20.16 z m 36.24,135.12 h 20.16 V 226.67 H 482.4 Z m 36.24,-91.44 H 538.8 V 226.67 h -20.16 z m 36.24,69.12 h 20.16 V 226.67 H 554.88 Z M 591.12,282 h 20.16 v -55.33 h -20.16 z m 36.24,68.88 h 20.16 V 226.67 h -20.16 z m 36.24,-20.64 h 20.16 V 226.67 H 663.6 Z m 36.24,25.2 H 720 V 226.67 h -20.16 z"
       style="fill:#255e91;fill-opacity:0.70196001;fill-rule:nonzero;stroke:none"
       id="path26"
       inkscape:connector-curvature="0" /><path
       d="M 111.94,226.67 H 728.1"
       style="fill:none;stroke:#bfbfbf;stroke-width:1.25;stroke-linecap:butt;stroke-linejoin:round;stroke-miterlimit:10;stroke-dasharray:none;stroke-opacity:1"
       id="path28"
       inkscape:connector-curvature="0" /><path
       d="m 111.94,226.67 v -49.3 m 36.14,49.3 v -49.3 m 36.24,49.3 v -49.3 m 36.24,49.3 v -49.3 m 36.48,49.3 v -49.3 m 36.24,49.3 v -49.3 m 36.24,49.3 v -49.3 m 36.24,49.3 v -49.3 m 36.24,49.3 v -49.3 m 36.24,49.3 v -49.3 m 36.24,49.3 v -49.3 m 36.24,49.3 v -49.3 m 36.24,49.3 v -49.3 m 36.24,49.3 v -49.3 m 36.24,49.3 v -49.3 m 36.24,49.3 v -49.3 m 36.24,49.3 v -49.3 m 36.18,49.3 v -49.3"
       style="fill:none;stroke:#bfbfbf;stroke-width:1.25;stroke-linecap:butt;stroke-linejoin:round;stroke-miterlimit:10;stroke-dasharray:none;stroke-opacity:1"
       id="path30"
       inkscape:connector-curvature="0" /><path
       d="m 111.94,177.37 v -17.45 m 36.14,17.45 v -17.45 m 36.24,17.45 v -17.45 m 36.24,17.45 v -17.45 m 36.48,17.45 v -17.45 m 36.24,17.45 v -17.45 m 36.24,17.45 v -17.45 m 36.24,17.45 V 159.92 M 402,177.37 v -17.45 m 36.24,17.45 v -17.45 m 36.24,17.45 v -17.45 m 36.24,17.45 v -17.45 m 36.24,17.45 v -17.45 m 36.24,17.45 v -17.45 m 36.24,17.45 v -17.45 m 36.24,17.45 v -17.45 m 36.24,17.45 v -17.45 m 36.18,17.45 v -17.45"
       style="fill:none;stroke:#bfbfbf;stroke-width:1.25;stroke-linecap:butt;stroke-linejoin:round;stroke-miterlimit:10;stroke-dasharray:none;stroke-opacity:1"
       id="path32"
       inkscape:connector-curvature="0" /><path
       d="m 111.94,159.92 v -17.45 m 36.14,17.45 v -17.45 m 36.24,17.45 v -17.45 m 36.24,17.45 v -17.45 m 36.48,17.45 v -17.45 m 36.24,17.45 v -17.45 m 36.24,17.45 v -17.45 m 36.24,17.45 V 142.47 M 402,159.92 v -17.45 m 36.24,17.45 v -17.45 m 36.24,17.45 v -17.45 m 36.24,17.45 v -17.45 m 36.24,17.45 v -17.45 m 36.24,17.45 v -17.45 m 36.24,17.45 v -17.45 m 36.24,17.45 v -17.45 m 36.24,17.45 v -17.45 m 36.18,17.45 v -17.45"
       style="fill:none;stroke:#bfbfbf;stroke-width:1.25;stroke-linecap:butt;stroke-linejoin:round;stroke-miterlimit:10;stroke-dasharray:none;stroke-opacity:1"
       id="path34"
       inkscape:connector-curvature="0" /><g
       id="g36"><g
         id="g38"
         clip-path="url(#clipPath42)"><text
           transform="matrix(1,0,0,-1,117.65,324.22)"
           style="font-variant:normal;font-weight:normal;font-size:9.11999989px;font-family:Calibri;-inkscape-font-specification:Calibri;writing-mode:lr-tb;fill:#404040;fill-opacity:1;fill-rule:nonzero;stroke:none"
           id="text46"><tspan
             x="0 4.5599999 6.7214398 11.28144 15.84144 20.40144"
             y="0"
             sodipodi:role="line"
             id="tspan44">1,0000</tspan></text>
</g></g><g
       id="g48"><g
         id="g50"
         clip-path="url(#clipPath54)"><text
           transform="matrix(1,0,0,-1,153.89,390.14)"
           style="font-variant:normal;font-weight:normal;font-size:9.14400005px;font-family:Calibri;-inkscape-font-specification:Calibri;writing-mode:lr-tb;fill:#404040;fill-opacity:1;fill-rule:nonzero;stroke:none"
           id="text58"><tspan
             x="0 4.5628562 6.72084 11.283696 15.846552 20.409409"
             y="0"
             sodipodi:role="line"
             id="tspan56">1,7254</tspan></text>
</g></g><g
       id="g60"><g
         id="g62"
         clip-path="url(#clipPath66)"><text
           transform="matrix(1,0,0,-1,190.15,435.17)"
           style="font-variant:normal;font-weight:normal;font-size:9.11999989px;font-family:Calibri;-inkscape-font-specification:Calibri;writing-mode:lr-tb;fill:#404040;fill-opacity:1;fill-rule:nonzero;stroke:none"
           id="text70"><tspan
             x="0 4.5599999 6.7214398 11.28144 15.84144 20.40144"
             y="0"
             sodipodi:role="line"
             id="tspan68">2,2209</tspan></text>
</g></g><g
       id="g72"><g
         id="g74"
         clip-path="url(#clipPath78)"><text
           transform="matrix(1,0,0,-1,226.39,389.3)"
           style="font-variant:normal;font-weight:normal;font-size:9.11999989px;font-family:Calibri;-inkscape-font-specification:Calibri;writing-mode:lr-tb;fill:#404040;fill-opacity:1;fill-rule:nonzero;stroke:none"
           id="text82"><tspan
             x="0 4.5873599 6.7487998 11.33616 15.92352 20.51088"
             y="0"
             sodipodi:role="line"
             id="tspan80">1,7162</tspan></text>
</g></g><g
       id="g84"><g
         id="g86"
         clip-path="url(#clipPath90)"><text
           transform="matrix(1,0,0,-1,262.66,398.62)"
           style="font-variant:normal;font-weight:normal;font-size:9.14400005px;font-family:Calibri;-inkscape-font-specification:Calibri;writing-mode:lr-tb;fill:#404040;fill-opacity:1;fill-rule:nonzero;stroke:none"
           id="text94"><tspan
             x="0 4.5628562 6.72084 11.283696 15.846552 20.409409"
             y="0"
             sodipodi:role="line"
             id="tspan92">1,8186</tspan></text>
</g></g><g
       id="g96"><g
         id="g98"
         clip-path="url(#clipPath102)"><text
           transform="matrix(1,0,0,-1,298.92,472.92)"
           style="font-variant:normal;font-weight:normal;font-size:9.11999989px;font-family:Calibri;-inkscape-font-specification:Calibri;writing-mode:lr-tb;fill:#404040;fill-opacity:1;fill-rule:nonzero;stroke:none"
           id="text106"><tspan
             x="0 4.5599999 6.7214398 11.28144 15.84144 20.40144"
             y="0"
             sodipodi:role="line"
             id="tspan104">2,6365</tspan></text>
</g></g><g
       id="g108"><g
         id="g110"
         clip-path="url(#clipPath114)"><text
           transform="matrix(1,0,0,-1,335.16,360.98)"
           style="font-variant:normal;font-weight:normal;font-size:9.11999989px;font-family:Calibri;-inkscape-font-specification:Calibri;writing-mode:lr-tb;fill:#404040;fill-opacity:1;fill-rule:nonzero;stroke:none"
           id="text118"><tspan
             x="0 4.5599999 6.7214398 11.28144 15.84144 20.40144"
             y="0"
             sodipodi:role="line"
             id="tspan116">1,4046</tspan></text>
</g></g><g
       id="g120"><g
         id="g122"
         clip-path="url(#clipPath126)"><text
           transform="matrix(1,0,0,-1,371.42,327.19)"
           style="font-variant:normal;font-weight:normal;font-size:9.11999989px;font-family:Calibri;-inkscape-font-specification:Calibri;writing-mode:lr-tb;fill:#404040;fill-opacity:1;fill-rule:nonzero;stroke:none"
           id="text130"><tspan
             x="0 4.5599999 6.7214398 11.28144 15.84144 20.40144"
             y="0"
             sodipodi:role="line"
             id="tspan128">1,0326</tspan></text>
</g></g><g
       id="g132"><g
         id="g134"
         clip-path="url(#clipPath138)"><text
           transform="matrix(1,0,0,-1,407.69,451.25)"
           style="font-variant:normal;font-weight:normal;font-size:9.11999989px;font-family:Calibri;-inkscape-font-specification:Calibri;writing-mode:lr-tb;fill:#404040;fill-opacity:1;fill-rule:nonzero;stroke:none"
           id="text142"><tspan
             x="0 4.5599999 6.7214398 11.28144 15.84144 20.40144"
             y="0"
             sodipodi:role="line"
             id="tspan140">2,3979</tspan></text>
</g></g><g
       id="g144"><g
         id="g146"
         clip-path="url(#clipPath150)"><text
           transform="matrix(1,0,0,-1,443.93,309.14)"
           style="font-variant:normal;font-weight:normal;font-size:9.11999989px;font-family:Calibri;-inkscape-font-specification:Calibri;writing-mode:lr-tb;fill:#404040;fill-opacity:1;fill-rule:nonzero;stroke:none"
           id="text154"><tspan
             x="0 4.5599999 6.7214398 11.28144 15.84144 20.40144"
             y="0"
             sodipodi:role="line"
             id="tspan152">0,8340</tspan></text>
</g></g><g
       id="g156"><g
         id="g158"
         clip-path="url(#clipPath162)"><text
           transform="matrix(1,0,0,-1,480.19,444.41)"
           style="font-variant:normal;font-weight:normal;font-size:9.11999989px;font-family:Calibri;-inkscape-font-specification:Calibri;writing-mode:lr-tb;fill:#404040;fill-opacity:1;fill-rule:nonzero;stroke:none"
           id="text166"><tspan
             x="0 4.5599999 6.7214398 11.28144 15.84144 20.40144"
             y="0"
             sodipodi:role="line"
             id="tspan164">2,3227</tspan></text>
</g></g><g
       id="g168"><g
         id="g170"
         clip-path="url(#clipPath174)"><text
           transform="matrix(1,0,0,-1,516.43,352.73)"
           style="font-variant:normal;font-weight:normal;font-size:9.11999989px;font-family:Calibri;-inkscape-font-specification:Calibri;writing-mode:lr-tb;fill:#404040;fill-opacity:1;fill-rule:nonzero;stroke:none"
           id="text178"><tspan
             x="0 4.5873599 6.7487998 11.33616 15.92352 20.51088"
             y="0"
             sodipodi:role="line"
             id="tspan176">1,3138</tspan></text>
</g></g><g
       id="g180"><g
         id="g182"
         clip-path="url(#clipPath186)"><text
           transform="matrix(1,0,0,-1,552.7,422.09)"
           style="font-variant:normal;font-weight:normal;font-size:9.11999989px;font-family:Calibri;-inkscape-font-specification:Calibri;writing-mode:lr-tb;fill:#404040;fill-opacity:1;fill-rule:nonzero;stroke:none"
           id="text190"><tspan
             x="0 4.5599999 6.7214398 11.28144 15.84144 20.40144"
             y="0"
             sodipodi:role="line"
             id="tspan188">2,0770</tspan></text>
</g></g><g
       id="g192"><g
         id="g194"
         clip-path="url(#clipPath198)"><text
           transform="matrix(1,0,0,-1,588.96,288.79)"
           style="font-variant:normal;font-weight:normal;font-size:9.11999989px;font-family:Calibri;-inkscape-font-specification:Calibri;writing-mode:lr-tb;fill:#404040;fill-opacity:1;fill-rule:nonzero;stroke:none"
           id="text202"><tspan
             x="0 4.5599999 6.7214398 11.28144 15.84144 20.40144"
             y="0"
             sodipodi:role="line"
             id="tspan200">0,6100</tspan></text>
</g></g><g
       id="g204"><g
         id="g206"
         clip-path="url(#clipPath210)"><text
           transform="matrix(1,0,0,-1,625.2,357.72)"
           style="font-variant:normal;font-weight:normal;font-size:9.11999989px;font-family:Calibri;-inkscape-font-specification:Calibri;writing-mode:lr-tb;fill:#404040;fill-opacity:1;fill-rule:nonzero;stroke:none"
           id="text214"><tspan
             x="0 4.5599999 6.7214398 11.28144 15.84144 20.40144"
             y="0"
             sodipodi:role="line"
             id="tspan212">1,3687</tspan></text>
</g></g><g
       id="g216"><g
         id="g218"
         clip-path="url(#clipPath222)"><text
           transform="matrix(1,0,0,-1,661.46,336.96)"
           style="font-variant:normal;font-weight:normal;font-size:9.11999989px;font-family:Calibri;-inkscape-font-specification:Calibri;writing-mode:lr-tb;fill:#404040;fill-opacity:1;fill-rule:nonzero;stroke:none"
           id="text226"><tspan
             x="0 4.5599999 6.7214398 11.28144 15.84144 20.40144"
             y="0"
             sodipodi:role="line"
             id="tspan224">1,1401</tspan></text>
</g></g><g
       id="g228"><g
         id="g230"
         clip-path="url(#clipPath234)"><text
           transform="matrix(1,0,0,-1,697.73,362.26)"
           style="font-variant:normal;font-weight:normal;font-size:9.14400005px;font-family:Calibri;-inkscape-font-specification:Calibri;writing-mode:lr-tb;fill:#404040;fill-opacity:1;fill-rule:nonzero;stroke:none"
           id="text238"><tspan
             x="0 4.5628562 6.72084 11.283696 15.846552 20.409409"
             y="0"
             sodipodi:role="line"
             id="tspan236">1,4184</tspan></text>
</g></g><g
       id="g240"><g
         id="g242"
         clip-path="url(#clipPath246)"><text
           transform="matrix(1,0,0,-1,77.256,223.87)"
           style="font-variant:normal;font-weight:normal;font-size:9.14400005px;font-family:Calibri;-inkscape-font-specification:Calibri;writing-mode:lr-tb;fill:#595959;fill-opacity:1;fill-rule:nonzero;stroke:none"
           id="text250"><tspan
             x="0 4.7914562 7.17804 11.969496 16.760952 21.552408"
             y="0"
             sodipodi:role="line"
             id="tspan248">0,0000</tspan></text>
</g></g><g
       id="g252"><g
         id="g254"
         clip-path="url(#clipPath258)"><text
           transform="matrix(1,0,0,-1,77.256,269.3)"
           style="font-variant:normal;font-weight:normal;font-size:9.14400005px;font-family:Calibri;-inkscape-font-specification:Calibri;writing-mode:lr-tb;fill:#595959;fill-opacity:1;fill-rule:nonzero;stroke:none"
           id="text262"><tspan
             x="0 4.7914562 7.17804 11.969496 16.760952 21.552408"
             y="0"
             sodipodi:role="line"
             id="tspan260">0,5000</tspan></text>
</g></g><g
       id="g264"><g
         id="g266"
         clip-path="url(#clipPath270)"><text
           transform="matrix(1,0,0,-1,77.256,314.74)"
           style="font-variant:normal;font-weight:normal;font-size:9.14400005px;font-family:Calibri;-inkscape-font-specification:Calibri;writing-mode:lr-tb;fill:#595959;fill-opacity:1;fill-rule:nonzero;stroke:none"
           id="text274"><tspan
             x="0 4.7914562 7.17804 11.969496 16.760952 21.552408"
             y="0"
             sodipodi:role="line"
             id="tspan272">1,0000</tspan></text>
</g></g><g
       id="g276"><g
         id="g278"
         clip-path="url(#clipPath282)"><text
           transform="matrix(1,0,0,-1,77.256,360.17)"
           style="font-variant:normal;font-weight:normal;font-size:9.14400005px;font-family:Calibri;-inkscape-font-specification:Calibri;writing-mode:lr-tb;fill:#595959;fill-opacity:1;fill-rule:nonzero;stroke:none"
           id="text286"><tspan
             x="0 4.7914562 7.17804 11.969496 16.760952 21.552408"
             y="0"
             sodipodi:role="line"
             id="tspan284">1,5000</tspan></text>
</g></g><g
       id="g288"><g
         id="g290"
         clip-path="url(#clipPath294)"><text
           transform="matrix(1,0,0,-1,77.256,405.6)"
           style="font-variant:normal;font-weight:normal;font-size:9.14400005px;font-family:Calibri;-inkscape-font-specification:Calibri;writing-mode:lr-tb;fill:#595959;fill-opacity:1;fill-rule:nonzero;stroke:none"
           id="text298"><tspan
             x="0 4.7914562 7.17804 11.969496 16.760952 21.552408"
             y="0"
             sodipodi:role="line"
             id="tspan296">2,0000</tspan></text>
</g></g><g
       id="g300"><g
         id="g302"
         clip-path="url(#clipPath306)"><text
           transform="matrix(1,0,0,-1,77.256,451.03)"
           style="font-variant:normal;font-weight:normal;font-size:9.14400005px;font-family:Calibri;-inkscape-font-specification:Calibri;writing-mode:lr-tb;fill:#595959;fill-opacity:1;fill-rule:nonzero;stroke:none"
           id="text310"><tspan
             x="0 4.7914562 7.17804 11.969496 16.760952 21.552408"
             y="0"
             sodipodi:role="line"
             id="tspan308">2,5000</tspan></text>
</g></g><g
       id="g312"><g
         id="g314"
         clip-path="url(#clipPath318)"><text
           transform="matrix(1,0,0,-1,77.256,496.46)"
           style="font-variant:normal;font-weight:normal;font-size:9.14400005px;font-family:Calibri;-inkscape-font-specification:Calibri;writing-mode:lr-tb;fill:#595959;fill-opacity:1;fill-rule:nonzero;stroke:none"
           id="text322"><tspan
             x="0 4.7914562 7.17804 11.969496 16.760952 21.552408"
             y="0"
             sodipodi:role="line"
             id="tspan320">3,0000</tspan></text>
</g></g><g
       id="g324"><g
         id="g326"
         clip-path="url(#clipPath330)"><text
           transform="matrix(-4.4e-8,1,1,4.4e-8,133.25,196.82)"
           style="font-variant:normal;font-weight:normal;font-size:9.11999989px;font-family:Calibri;-inkscape-font-specification:Calibri;writing-mode:lr-tb;fill:#595959;fill-opacity:1;fill-rule:nonzero;stroke:none"
           id="text334"><tspan
             x="0 4.79984 9.5996799 14.39952 19.19936"
             y="0"
             sodipodi:role="line"
             id="tspan332">75559</tspan></text>
</g></g><g
       id="g336"><g
         id="g338"
         clip-path="url(#clipPath342)"><text
           transform="matrix(-4.4e-8,1,1,4.4e-8,169.51,192.02)"
           style="font-variant:normal;font-weight:normal;font-size:9.11999989px;font-family:Calibri;-inkscape-font-specification:Calibri;writing-mode:lr-tb;fill:#595959;fill-opacity:1;fill-rule:nonzero;stroke:none"
           id="text346"><tspan
             x="0 4.8238401 9.6476803 14.47152 19.295361 24.1192"
             y="0"
             sodipodi:role="line"
             id="tspan344">276097</tspan></text>
</g></g><g
       id="g348"><g
         id="g350"
         clip-path="url(#clipPath354)"><text
           transform="matrix(-4.4e-8,1,1,4.4e-8,205.75,192.02)"
           style="font-variant:normal;font-weight:normal;font-size:9.14400005px;font-family:Calibri;-inkscape-font-specification:Calibri;writing-mode:lr-tb;fill:#595959;fill-opacity:1;fill-rule:nonzero;stroke:none"
           id="text358"><tspan
             x="0 4.824008 9.648016 14.472024 19.296032 24.120041"
             y="0"
             sodipodi:role="line"
             id="tspan356">512328</tspan></text>
</g></g><g
       id="g360"><g
         id="g362"
         clip-path="url(#clipPath366)"><text
           transform="matrix(-4.4e-8,1,1,4.4e-8,242.02,187.25)"
           style="font-variant:normal;font-weight:normal;font-size:9.11999989px;font-family:Calibri;-inkscape-font-specification:Calibri;writing-mode:lr-tb;fill:#595959;fill-opacity:1;fill-rule:nonzero;stroke:none"
           id="text370"><tspan
             x="0 4.79984 9.5996799 14.39952 19.19936 23.999201 28.79904"
             y="0"
             sodipodi:role="line"
             id="tspan368">1126440</tspan></text>
</g></g><g
       id="g372"><g
         id="g374"
         clip-path="url(#clipPath378)"><text
           transform="matrix(-4.4e-8,1,1,4.4e-8,278.28,187.25)"
           style="font-variant:normal;font-weight:normal;font-size:9.11999989px;font-family:Calibri;-inkscape-font-specification:Calibri;writing-mode:lr-tb;fill:#595959;fill-opacity:1;fill-rule:nonzero;stroke:none"
           id="text382"><tspan
             x="0 4.79984 9.5996799 14.39952 19.19936 23.999201 28.79904"
             y="0"
             sodipodi:role="line"
             id="tspan380">1957140</tspan></text>
</g></g><g
       id="g384"><g
         id="g386"
         clip-path="url(#clipPath390)"><text
           transform="matrix(-4.4e-8,1,1,4.4e-8,314.52,187.25)"
           style="font-variant:normal;font-weight:normal;font-size:9.11999989px;font-family:Calibri;-inkscape-font-specification:Calibri;writing-mode:lr-tb;fill:#595959;fill-opacity:1;fill-rule:nonzero;stroke:none"
           id="text394"><tspan
             x="0 4.79984 9.5996799 14.39952 19.19936 23.999201 28.79904"
             y="0"
             sodipodi:role="line"
             id="tspan392">1984444</tspan></text>
</g></g><g
       id="g396"><g
         id="g398"
         clip-path="url(#clipPath402)"><text
           transform="matrix(-4.4e-8,1,1,4.4e-8,350.78,187.25)"
           style="font-variant:normal;font-weight:normal;font-size:9.11999989px;font-family:Calibri;-inkscape-font-specification:Calibri;writing-mode:lr-tb;fill:#595959;fill-opacity:1;fill-rule:nonzero;stroke:none"
           id="text406"><tspan
             x="0 4.79984 9.5996799 14.39952 19.19936 23.999201 28.79904"
             y="0"
             sodipodi:role="line"
             id="tspan404">3751846</tspan></text>
</g></g><g
       id="g408"><g
         id="g410"
         clip-path="url(#clipPath414)"><text
           transform="matrix(-4.4e-8,1,1,4.4e-8,387.05,187.25)"
           style="font-variant:normal;font-weight:normal;font-size:9.11999989px;font-family:Calibri;-inkscape-font-specification:Calibri;writing-mode:lr-tb;fill:#595959;fill-opacity:1;fill-rule:nonzero;stroke:none"
           id="text418"><tspan
             x="0 4.79984 9.5996799 14.39952 19.19936 23.999201 28.79904"
             y="0"
             sodipodi:role="line"
             id="tspan416">5860099</tspan></text>
</g></g><g
       id="g420"><g
         id="g422"
         clip-path="url(#clipPath426)"><text
           transform="matrix(-4.4e-8,1,1,4.4e-8,423.29,187.25)"
           style="font-variant:normal;font-weight:normal;font-size:9.11999989px;font-family:Calibri;-inkscape-font-specification:Calibri;writing-mode:lr-tb;fill:#595959;fill-opacity:1;fill-rule:nonzero;stroke:none"
           id="text430"><tspan
             x="0 4.79984 9.5996799 14.39952 19.19936 23.999201 28.79904"
             y="0"
             sodipodi:role="line"
             id="tspan428">8423351</tspan></text>
</g></g><g
       id="g432"><g
         id="g434"
         clip-path="url(#clipPath438)"><text
           transform="matrix(-4.4e-8,1,1,4.4e-8,459.55,182.47)"
           style="font-variant:normal;font-weight:normal;font-size:9.11999989px;font-family:Calibri;-inkscape-font-specification:Calibri;writing-mode:lr-tb;fill:#595959;fill-opacity:1;fill-rule:nonzero;stroke:none"
           id="text442"><tspan
             x="0 4.79984 9.5996799 14.39952 19.19936 23.999201 28.79904 33.598881"
             y="0"
             sodipodi:role="line"
             id="tspan440">12283204</tspan></text>
</g></g><g
       id="g444"><g
         id="g446"
         clip-path="url(#clipPath450)"><text
           transform="matrix(-4.4e-8,1,1,4.4e-8,495.79,182.47)"
           style="font-variant:normal;font-weight:normal;font-size:9.14400005px;font-family:Calibri;-inkscape-font-specification:Calibri;writing-mode:lr-tb;fill:#595959;fill-opacity:1;fill-rule:nonzero;stroke:none"
           id="text454"><tspan
             x="0 4.8000078 9.6000156 14.400024 19.200031 24.00004 28.800049 33.600056"
             y="0"
             sodipodi:role="line"
             id="tspan452">14786716</tspan></text>
</g></g><g
       id="g456"><g
         id="g458"
         clip-path="url(#clipPath462)"><text
           transform="matrix(-4.4e-8,1,1,4.4e-8,532.06,182.47)"
           style="font-variant:normal;font-weight:normal;font-size:9.11999989px;font-family:Calibri;-inkscape-font-specification:Calibri;writing-mode:lr-tb;fill:#595959;fill-opacity:1;fill-rule:nonzero;stroke:none"
           id="text466"><tspan
             x="0 4.79984 9.5996799 14.39952 19.19936 23.999201 28.79904 33.598881"
             y="0"
             sodipodi:role="line"
             id="tspan464">15010750</tspan></text>
</g></g><g
       id="g468"><g
         id="g470"
         clip-path="url(#clipPath474)"><text
           transform="matrix(-4.4e-8,1,1,4.4e-8,568.32,182.47)"
           style="font-variant:normal;font-weight:normal;font-size:9.11999989px;font-family:Calibri;-inkscape-font-specification:Calibri;writing-mode:lr-tb;fill:#595959;fill-opacity:1;fill-rule:nonzero;stroke:none"
           id="text478"><tspan
             x="0 4.79984 9.5996799 14.39952 19.19936 23.999201 28.79904 33.598881"
             y="0"
             sodipodi:role="line"
             id="tspan476">44903317</tspan></text>
</g></g><g
       id="g480"><g
         id="g482"
         clip-path="url(#clipPath486)"><text
           transform="matrix(-4.4e-8,1,1,4.4e-8,604.56,182.47)"
           style="font-variant:normal;font-weight:normal;font-size:9.11999989px;font-family:Calibri;-inkscape-font-specification:Calibri;writing-mode:lr-tb;fill:#595959;fill-opacity:1;fill-rule:nonzero;stroke:none"
           id="text490"><tspan
             x="0 4.79984 9.5996799 14.39952 19.19936 23.999201 28.79904 33.598881"
             y="0"
             sodipodi:role="line"
             id="tspan488">49705872</tspan></text>
</g></g><g
       id="g492"><g
         id="g494"
         clip-path="url(#clipPath498)"><text
           transform="matrix(-4.4e-8,1,1,4.4e-8,640.82,182.47)"
           style="font-variant:normal;font-weight:normal;font-size:9.11999989px;font-family:Calibri;-inkscape-font-specification:Calibri;writing-mode:lr-tb;fill:#595959;fill-opacity:1;fill-rule:nonzero;stroke:none"
           id="text502"><tspan
             x="0 4.79984 9.5996799 14.39952 19.19936 23.999201 28.79904 33.598881"
             y="0"
             sodipodi:role="line"
             id="tspan500">65083533</tspan></text>
</g></g><g
       id="g504"><g
         id="g506"
         clip-path="url(#clipPath510)"><text
           transform="matrix(-4.4e-8,1,1,4.4e-8,677.09,177.7)"
           style="font-variant:normal;font-weight:normal;font-size:9.11999989px;font-family:Calibri;-inkscape-font-specification:Calibri;writing-mode:lr-tb;fill:#595959;fill-opacity:1;fill-rule:nonzero;stroke:none"
           id="text514"><tspan
             x="0 4.79984 9.5996799 14.39952 19.19936 23.999201 28.79904 33.598881 38.39872"
             y="0"
             sodipodi:role="line"
             id="tspan512">114878382</tspan></text>
</g></g><g
       id="g516"><g
         id="g518"
         clip-path="url(#clipPath522)"><text
           transform="matrix(-4.4e-8,1,1,4.4e-8,713.33,177.7)"
           style="font-variant:normal;font-weight:normal;font-size:9.11999989px;font-family:Calibri;-inkscape-font-specification:Calibri;writing-mode:lr-tb;fill:#595959;fill-opacity:1;fill-rule:nonzero;stroke:none"
           id="text526"><tspan
             x="0 4.79984 9.5996799 14.39952 19.19936 23.999201 28.79904 33.598881 38.39872"
             y="0"
             sodipodi:role="line"
             id="tspan524">351394243</tspan></text>
</g></g><g
       id="g528"><g
         id="g530"
         clip-path="url(#clipPath534)"><text
           transform="matrix(1,0,0,-1,125.18,162.84)"
           style="font-variant:normal;font-weight:normal;font-size:9.14400005px;font-family:Calibri;-inkscape-font-specification:Calibri;writing-mode:lr-tb;fill:#595959;fill-opacity:1;fill-rule:nonzero;stroke:none"
           id="text538"><tspan
             x="0 5.0404482"
             y="0"
             sodipodi:role="line"
             id="tspan536">P1</tspan></text>
</g></g><g
       id="g540"><g
         id="g542"
         clip-path="url(#clipPath546)"><text
           transform="matrix(1,0,0,-1,161.45,162.84)"
           style="font-variant:normal;font-weight:normal;font-size:9.14400005px;font-family:Calibri;-inkscape-font-specification:Calibri;writing-mode:lr-tb;fill:#595959;fill-opacity:1;fill-rule:nonzero;stroke:none"
           id="text550"><tspan
             x="0 5.0404482"
             y="0"
             sodipodi:role="line"
             id="tspan548">P1</tspan></text>
</g></g><g
       id="g552"><g
         id="g554"
         clip-path="url(#clipPath558)"><text
           transform="matrix(1,0,0,-1,197.69,162.84)"
           style="font-variant:normal;font-weight:normal;font-size:9.14400005px;font-family:Calibri;-inkscape-font-specification:Calibri;writing-mode:lr-tb;fill:#595959;fill-opacity:1;fill-rule:nonzero;stroke:none"
           id="text562"><tspan
             x="0 5.0404482"
             y="0"
             sodipodi:role="line"
             id="tspan560">P2</tspan></text>
</g></g><g
       id="g564"><g
         id="g566"
         clip-path="url(#clipPath570)"><text
           transform="matrix(1,0,0,-1,233.95,162.84)"
           style="font-variant:normal;font-weight:normal;font-size:9.14400005px;font-family:Calibri;-inkscape-font-specification:Calibri;writing-mode:lr-tb;fill:#595959;fill-opacity:1;fill-rule:nonzero;stroke:none"
           id="text574"><tspan
             x="0 5.0404482"
             y="0"
             sodipodi:role="line"
             id="tspan572">P1</tspan></text>
</g></g><g
       id="g576"><g
         id="g578"
         clip-path="url(#clipPath582)"><text
           transform="matrix(1,0,0,-1,270.19,162.84)"
           style="font-variant:normal;font-weight:normal;font-size:9.14400005px;font-family:Calibri;-inkscape-font-specification:Calibri;writing-mode:lr-tb;fill:#595959;fill-opacity:1;fill-rule:nonzero;stroke:none"
           id="text586"><tspan
             x="0 5.0644479"
             y="0"
             sodipodi:role="line"
             id="tspan584">P1</tspan></text>
</g></g><g
       id="g588"><g
         id="g590"
         clip-path="url(#clipPath594)"><text
           transform="matrix(1,0,0,-1,306.46,162.84)"
           style="font-variant:normal;font-weight:normal;font-size:9.14400005px;font-family:Calibri;-inkscape-font-specification:Calibri;writing-mode:lr-tb;fill:#595959;fill-opacity:1;fill-rule:nonzero;stroke:none"
           id="text598"><tspan
             x="0 5.0404482"
             y="0"
             sodipodi:role="line"
             id="tspan596">P2</tspan></text>
</g></g><g
       id="g600"><g
         id="g602"
         clip-path="url(#clipPath606)"><text
           transform="matrix(1,0,0,-1,342.72,162.84)"
           style="font-variant:normal;font-weight:normal;font-size:9.14400005px;font-family:Calibri;-inkscape-font-specification:Calibri;writing-mode:lr-tb;fill:#595959;fill-opacity:1;fill-rule:nonzero;stroke:none"
           id="text610"><tspan
             x="0 5.0404482"
             y="0"
             sodipodi:role="line"
             id="tspan608">P4</tspan></text>
</g></g><g
       id="g612"><g
         id="g614"
         clip-path="url(#clipPath618)"><text
           transform="matrix(1,0,0,-1,378.96,162.84)"
           style="font-variant:normal;font-weight:normal;font-size:9.14400005px;font-family:Calibri;-inkscape-font-specification:Calibri;writing-mode:lr-tb;fill:#595959;fill-opacity:1;fill-rule:nonzero;stroke:none"
           id="text622"><tspan
             x="0 5.0404482"
             y="0"
             sodipodi:role="line"
             id="tspan620">P1</tspan></text>
</g></g><g
       id="g624"><g
         id="g626"
         clip-path="url(#clipPath630)"><text
           transform="matrix(1,0,0,-1,415.22,162.84)"
           style="font-variant:normal;font-weight:normal;font-size:9.14400005px;font-family:Calibri;-inkscape-font-specification:Calibri;writing-mode:lr-tb;fill:#595959;fill-opacity:1;fill-rule:nonzero;stroke:none"
           id="text634"><tspan
             x="0 5.0404482"
             y="0"
             sodipodi:role="line"
             id="tspan632">P2</tspan></text>
</g></g><g
       id="g636"><g
         id="g638"
         clip-path="url(#clipPath642)"><text
           transform="matrix(1,0,0,-1,451.49,162.84)"
           style="font-variant:normal;font-weight:normal;font-size:9.14400005px;font-family:Calibri;-inkscape-font-specification:Calibri;writing-mode:lr-tb;fill:#595959;fill-opacity:1;fill-rule:nonzero;stroke:none"
           id="text646"><tspan
             x="0 5.0404482"
             y="0"
             sodipodi:role="line"
             id="tspan644">P6</tspan></text>
</g></g><g
       id="g648"><g
         id="g650"
         clip-path="url(#clipPath654)"><text
           transform="matrix(1,0,0,-1,487.73,162.84)"
           style="font-variant:normal;font-weight:normal;font-size:9.14400005px;font-family:Calibri;-inkscape-font-specification:Calibri;writing-mode:lr-tb;fill:#595959;fill-opacity:1;fill-rule:nonzero;stroke:none"
           id="text658"><tspan
             x="0 5.0404482"
             y="0"
             sodipodi:role="line"
             id="tspan656">P2</tspan></text>
</g></g><g
       id="g660"><g
         id="g662"
         clip-path="url(#clipPath666)"><text
           transform="matrix(1,0,0,-1,523.99,162.84)"
           style="font-variant:normal;font-weight:normal;font-size:9.14400005px;font-family:Calibri;-inkscape-font-specification:Calibri;writing-mode:lr-tb;fill:#595959;fill-opacity:1;fill-rule:nonzero;stroke:none"
           id="text670"><tspan
             x="0 5.0404482"
             y="0"
             sodipodi:role="line"
             id="tspan668">P4</tspan></text>
</g></g><g
       id="g672"><g
         id="g674"
         clip-path="url(#clipPath678)"><text
           transform="matrix(1,0,0,-1,560.23,162.84)"
           style="font-variant:normal;font-weight:normal;font-size:9.14400005px;font-family:Calibri;-inkscape-font-specification:Calibri;writing-mode:lr-tb;fill:#595959;fill-opacity:1;fill-rule:nonzero;stroke:none"
           id="text682"><tspan
             x="0 5.0644479"
             y="0"
             sodipodi:role="line"
             id="tspan680">P2</tspan></text>
</g></g><g
       id="g684"><g
         id="g686"
         clip-path="url(#clipPath690)"><text
           transform="matrix(1,0,0,-1,596.5,162.84)"
           style="font-variant:normal;font-weight:normal;font-size:9.14400005px;font-family:Calibri;-inkscape-font-specification:Calibri;writing-mode:lr-tb;fill:#595959;fill-opacity:1;fill-rule:nonzero;stroke:none"
           id="text694"><tspan
             x="0 5.0404482"
             y="0"
             sodipodi:role="line"
             id="tspan692">P6</tspan></text>
</g></g><g
       id="g696"><g
         id="g698"
         clip-path="url(#clipPath702)"><text
           transform="matrix(1,0,0,-1,632.76,162.84)"
           style="font-variant:normal;font-weight:normal;font-size:9.14400005px;font-family:Calibri;-inkscape-font-specification:Calibri;writing-mode:lr-tb;fill:#595959;fill-opacity:1;fill-rule:nonzero;stroke:none"
           id="text706"><tspan
             x="0 5.0404482"
             y="0"
             sodipodi:role="line"
             id="tspan704">P4</tspan></text>
</g></g><g
       id="g708"><g
         id="g710"
         clip-path="url(#clipPath714)"><text
           transform="matrix(1,0,0,-1,669,162.84)"
           style="font-variant:normal;font-weight:normal;font-size:9.14400005px;font-family:Calibri;-inkscape-font-specification:Calibri;writing-mode:lr-tb;fill:#595959;fill-opacity:1;fill-rule:nonzero;stroke:none"
           id="text718"><tspan
             x="0 5.0404482"
             y="0"
             sodipodi:role="line"
             id="tspan716">P4</tspan></text>
</g></g><g
       id="g720"><g
         id="g722"
         clip-path="url(#clipPath726)"><text
           transform="matrix(1,0,0,-1,705.26,162.84)"
           style="font-variant:normal;font-weight:normal;font-size:9.14400005px;font-family:Calibri;-inkscape-font-specification:Calibri;writing-mode:lr-tb;fill:#595959;fill-opacity:1;fill-rule:nonzero;stroke:none"
           id="text730"><tspan
             x="0 5.0404482"
             y="0"
             sodipodi:role="line"
             id="tspan728">P4</tspan></text>
</g></g><g
       id="g732"><g
         id="g734"
         clip-path="url(#clipPath738)"><text
           transform="matrix(1,0,0,-1,117.98,145.37)"
           style="font-variant:normal;font-weight:normal;font-size:9.11999989px;font-family:Calibri;-inkscape-font-specification:Calibri;writing-mode:lr-tb;fill:#595959;fill-opacity:1;fill-rule:nonzero;stroke:none"
           id="text742"><tspan
             x="0 4.79984 9.5996799 14.39952 19.19936"
             y="0"
             sodipodi:role="line"
             id="tspan740">17810</tspan></text>
</g></g><g
       id="g744"><g
         id="g746"
         clip-path="url(#clipPath750)"><text
           transform="matrix(1,0,0,-1,154.25,145.37)"
           style="font-variant:normal;font-weight:normal;font-size:9.11999989px;font-family:Calibri;-inkscape-font-specification:Calibri;writing-mode:lr-tb;fill:#595959;fill-opacity:1;fill-rule:nonzero;stroke:none"
           id="text754"><tspan
             x="0 4.79984 9.5996799 14.39952 19.19936"
             y="0"
             sodipodi:role="line"
             id="tspan752">73800</tspan></text>
</g></g><g
       id="g756"><g
         id="g758"
         clip-path="url(#clipPath762)"><text
           transform="matrix(1,0,0,-1,190.49,145.37)"
           style="font-variant:normal;font-weight:normal;font-size:9.11999989px;font-family:Calibri;-inkscape-font-specification:Calibri;writing-mode:lr-tb;fill:#595959;fill-opacity:1;fill-rule:nonzero;stroke:none"
           id="text766"><tspan
             x="0 4.79984 9.5996799 14.39952 19.19936"
             y="0"
             sodipodi:role="line"
             id="tspan764">17810</tspan></text>
</g></g><g
       id="g768"><g
         id="g770"
         clip-path="url(#clipPath774)"><text
           transform="matrix(1,0,0,-1,224.35,145.37)"
           style="font-variant:normal;font-weight:normal;font-size:9.11999989px;font-family:Calibri;-inkscape-font-specification:Calibri;writing-mode:lr-tb;fill:#595959;fill-opacity:1;fill-rule:nonzero;stroke:none"
           id="text778"><tspan
             x="0 4.79984 9.5996799 14.39952 19.19936 23.999201"
             y="0"
             sodipodi:role="line"
             id="tspan776">327181</tspan></text>
</g></g><g
       id="g780"><g
         id="g782"
         clip-path="url(#clipPath786)"><text
           transform="matrix(1,0,0,-1,260.59,145.37)"
           style="font-variant:normal;font-weight:normal;font-size:9.11999989px;font-family:Calibri;-inkscape-font-specification:Calibri;writing-mode:lr-tb;fill:#595959;fill-opacity:1;fill-rule:nonzero;stroke:none"
           id="text790"><tspan
             x="0 4.79984 9.5996799 14.39952 19.19936 23.999201"
             y="0"
             sodipodi:role="line"
             id="tspan788">580781</tspan></text>
</g></g><g
       id="g792"><g
         id="g794"
         clip-path="url(#clipPath798)"><text
           transform="matrix(1,0,0,-1,299.26,145.37)"
           style="font-variant:normal;font-weight:normal;font-size:9.11999989px;font-family:Calibri;-inkscape-font-specification:Calibri;writing-mode:lr-tb;fill:#595959;fill-opacity:1;fill-rule:nonzero;stroke:none"
           id="text802"><tspan
             x="0 4.79984 9.5996799 14.39952 19.19936"
             y="0"
             sodipodi:role="line"
             id="tspan800">73800</tspan></text>
</g></g><g
       id="g804"><g
         id="g806"
         clip-path="url(#clipPath810)"><text
           transform="matrix(1,0,0,-1,335.52,145.37)"
           style="font-variant:normal;font-weight:normal;font-size:9.11999989px;font-family:Calibri;-inkscape-font-specification:Calibri;writing-mode:lr-tb;fill:#595959;fill-opacity:1;fill-rule:nonzero;stroke:none"
           id="text814"><tspan
             x="0 4.79984 9.5996799 14.39952 19.19936"
             y="0"
             sodipodi:role="line"
             id="tspan812">17810</tspan></text>
</g></g><g
       id="g816"><g
         id="g818"
         clip-path="url(#clipPath822)"><text
           transform="matrix(1,0,0,-1,366.96,145.37)"
           style="font-variant:normal;font-weight:normal;font-size:9.11999989px;font-family:Calibri;-inkscape-font-specification:Calibri;writing-mode:lr-tb;fill:#595959;fill-opacity:1;fill-rule:nonzero;stroke:none"
           id="text826"><tspan
             x="0 4.79984 9.5996799 14.39952 19.19936 23.999201 28.79904"
             y="0"
             sodipodi:role="line"
             id="tspan824">1789811</tspan></text>
</g></g><g
       id="g828"><g
         id="g830"
         clip-path="url(#clipPath834)"><text
           transform="matrix(1,0,0,-1,405.62,145.37)"
           style="font-variant:normal;font-weight:normal;font-size:9.11999989px;font-family:Calibri;-inkscape-font-specification:Calibri;writing-mode:lr-tb;fill:#595959;fill-opacity:1;fill-rule:nonzero;stroke:none"
           id="text838"><tspan
             x="0 4.79984 9.5996799 14.39952 19.19936 23.999201"
             y="0"
             sodipodi:role="line"
             id="tspan836">327181</tspan></text>
</g></g><g
       id="g840"><g
         id="g842"
         clip-path="url(#clipPath846)"><text
           transform="matrix(1,0,0,-1,444.29,145.37)"
           style="font-variant:normal;font-weight:normal;font-size:9.11999989px;font-family:Calibri;-inkscape-font-specification:Calibri;writing-mode:lr-tb;fill:#595959;fill-opacity:1;fill-rule:nonzero;stroke:none"
           id="text850"><tspan
             x="0 4.79984 9.5996799 14.39952 19.19936"
             y="0"
             sodipodi:role="line"
             id="tspan848">17810</tspan></text>
</g></g><g
       id="g852"><g
         id="g854"
         clip-path="url(#clipPath858)"><text
           transform="matrix(1,0,0,-1,478.13,145.37)"
           style="font-variant:normal;font-weight:normal;font-size:9.11999989px;font-family:Calibri;-inkscape-font-specification:Calibri;writing-mode:lr-tb;fill:#595959;fill-opacity:1;fill-rule:nonzero;stroke:none"
           id="text862"><tspan
             x="0 4.79984 9.5996799 14.39952 19.19936 23.999201"
             y="0"
             sodipodi:role="line"
             id="tspan860">580781</tspan></text>
</g></g><g
       id="g864"><g
         id="g866"
         clip-path="url(#clipPath870)"><text
           transform="matrix(1,0,0,-1,516.79,145.37)"
           style="font-variant:normal;font-weight:normal;font-size:9.11999989px;font-family:Calibri;-inkscape-font-specification:Calibri;writing-mode:lr-tb;fill:#595959;fill-opacity:1;fill-rule:nonzero;stroke:none"
           id="text874"><tspan
             x="0 4.79984 9.5996799 14.39952 19.19936"
             y="0"
             sodipodi:role="line"
             id="tspan872">73800</tspan></text>
</g></g><g
       id="g876"><g
         id="g878"
         clip-path="url(#clipPath882)"><text
           transform="matrix(1,0,0,-1,548.23,145.37)"
           style="font-variant:normal;font-weight:normal;font-size:9.11999989px;font-family:Calibri;-inkscape-font-specification:Calibri;writing-mode:lr-tb;fill:#595959;fill-opacity:1;fill-rule:nonzero;stroke:none"
           id="text886"><tspan
             x="0 4.79984 9.5996799 14.39952 19.19936 23.999201 28.79904"
             y="0"
             sodipodi:role="line"
             id="tspan884">1789811</tspan></text>
</g></g><g
       id="g888"><g
         id="g890"
         clip-path="url(#clipPath894)"><text
           transform="matrix(1,0,0,-1,589.3,145.37)"
           style="font-variant:normal;font-weight:normal;font-size:9.11999989px;font-family:Calibri;-inkscape-font-specification:Calibri;writing-mode:lr-tb;fill:#595959;fill-opacity:1;fill-rule:nonzero;stroke:none"
           id="text898"><tspan
             x="0 4.79984 9.5996799 14.39952 19.19936"
             y="0"
             sodipodi:role="line"
             id="tspan896">73800</tspan></text>
</g></g><g
       id="g900"><g
         id="g902"
         clip-path="url(#clipPath906)"><text
           transform="matrix(1,0,0,-1,623.16,145.37)"
           style="font-variant:normal;font-weight:normal;font-size:9.11999989px;font-family:Calibri;-inkscape-font-specification:Calibri;writing-mode:lr-tb;fill:#595959;fill-opacity:1;fill-rule:nonzero;stroke:none"
           id="text910"><tspan
             x="0 4.79984 9.5996799 14.39952 19.19936 23.999201"
             y="0"
             sodipodi:role="line"
             id="tspan908">327181</tspan></text>
</g></g><g
       id="g912"><g
         id="g914"
         clip-path="url(#clipPath918)"><text
           transform="matrix(1,0,0,-1,659.4,145.37)"
           style="font-variant:normal;font-weight:normal;font-size:9.11999989px;font-family:Calibri;-inkscape-font-specification:Calibri;writing-mode:lr-tb;fill:#595959;fill-opacity:1;fill-rule:nonzero;stroke:none"
           id="text922"><tspan
             x="0 4.79984 9.5996799 14.39952 19.19936 23.999201"
             y="0"
             sodipodi:role="line"
             id="tspan920">580781</tspan></text>
</g></g><g
       id="g924"><g
         id="g926"
         clip-path="url(#clipPath930)"><text
           transform="matrix(1,0,0,-1,693.26,145.37)"
           style="font-variant:normal;font-weight:normal;font-size:9.11999989px;font-family:Calibri;-inkscape-font-specification:Calibri;writing-mode:lr-tb;fill:#595959;fill-opacity:1;fill-rule:nonzero;stroke:none"
           id="text934"><tspan
             x="0 4.79984 9.5996799 14.39952 19.19936 23.999201 28.79904"
             y="0"
             sodipodi:role="line"
             id="tspan932">1789811</tspan></text>
</g></g><path
       d="m 358.63,122.16 h 7.6905 v 7.6905 H 358.63 Z"
       style="fill:#255e91;fill-opacity:0.70196001;fill-rule:evenodd;stroke:none"
       id="path936"
       inkscape:connector-curvature="0" /><g
       id="g938"><g
         id="g940"
         clip-path="url(#clipPath944)"><text
           transform="matrix(1,0,0,-1,369.89,121.68)"
           style="font-variant:normal;font-weight:bold;font-size:13.92000008px;font-family:Calibri;-inkscape-font-specification:Calibri-Bold;writing-mode:lr-tb;fill:#595959;fill-opacity:1;fill-rule:nonzero;stroke:none"
           id="text948"><tspan
             x="0 6.7233601 10.14768 15.67392 22.67568 32.002079 39.477119 42.623039 50.543522 57.044159 60.4128 69.071037 76.754883 81.097923"
             y="0"
             sodipodi:role="line"
             id="tspan946">SizeUp By Dofs</tspan></text>
</g></g><g
       id="g950"><g
         id="g952"
         clip-path="url(#clipPath956)"><path
           d="M 70.85,108.55 H 739.1 v 401.6 H 70.85 Z"
           style="fill:none;stroke:#d9d9d9;stroke-width:0.75;stroke-linecap:butt;stroke-linejoin:round;stroke-miterlimit:10;stroke-dasharray:none;stroke-opacity:1"
           id="path958"
           inkscape:connector-curvature="0" /></g></g></g></svg>