%!PS-Adobe-3.0 EPSF-3.0
%%Title: /home/doc/Work/Doutorado/thesis/thesis/matplotlib/cap6/dynamic-linear/crankshaft/mpi_only/../../../../../presentation/images/results/crankshaft/speedup_mpi-vs-openmp_lumped_73800_p1-p4.eps
%%Creator: matplotlib version 3.0.3, http://matplotlib.org/
%%CreationDate: Mon Aug 24 23:01:26 2020
%%Orientation: portrait
%%BoundingBox: -467 33 1079 758
%%EndComments
%%BeginProlog
/mpldict 9 dict def
mpldict begin
/m { moveto } bind def
/l { lineto } bind def
/r { rlineto } bind def
/c { curveto } bind def
/cl { closepath } bind def
/box {
m
1 index 0 r
0 exch r
neg 0 r
cl
} bind def
/clipbox {
box
clip
newpath
} bind def
%!PS-Adobe-3.0 Resource-Font
%%Title: DejaVu Sans
%%Copyright: Copyright (c) 2003 by Bitstream, Inc. All Rights Reserved. Copyright (c) 2006 by Tavmjong Bah. All Rights Reserved. DejaVu changes are in public domain 
%%Creator: Converted from TrueType to type 3 by PPR
25 dict begin
/_d{bind def}bind def
/_m{moveto}_d
/_l{lineto}_d
/_cl{closepath eofill}_d
/_c{curveto}_d
/_sc{7 -1 roll{setcachedevice}{pop pop pop pop pop pop}ifelse}_d
/_e{exec}_d
/FontName /DejaVuSans def
/PaintType 0 def
/FontMatrix[.001 0 0 .001 0 0]def
/FontBBox[-1021 -463 1793 1232]def
/FontType 3 def
/Encoding [ /plus /hyphen /zero /one /two /four /six /eight /C /I /M /O /P /underscore /e /n /o /p /r ] def
/FontInfo 10 dict dup begin
/FamilyName (DejaVu Sans) def
/FullName (DejaVu Sans) def
/Notice (Copyright (c) 2003 by Bitstream, Inc. All Rights Reserved. Copyright (c) 2006 by Tavmjong Bah. All Rights Reserved. DejaVu changes are in public domain ) def
/Weight (Book) def
/Version (Version 2.35) def
/ItalicAngle 0.0 def
/isFixedPitch false def
/UnderlinePosition -130 def
/UnderlineThickness 90 def
end readonly def
/CharStrings 20 dict dup begin
/.notdef 0 def
/plus{838 0 106 0 732 627 _sc
460 627 _m
460 355 _l
732 355 _l
732 272 _l
460 272 _l
460 0 _l
378 0 _l
378 272 _l
106 272 _l
106 355 _l
378 355 _l
378 627 _l
460 627 _l
_cl}_d
/hyphen{361 0 49 234 312 314 _sc
49 314 _m
312 314 _l
312 234 _l
49 234 _l
49 314 _l
_cl}_d
/zero{636 0 66 -13 570 742 _sc
318 664 _m
267 664 229 639 203 589 _c
177 539 165 464 165 364 _c
165 264 177 189 203 139 _c
229 89 267 64 318 64 _c
369 64 407 89 433 139 _c
458 189 471 264 471 364 _c
471 464 458 539 433 589 _c
407 639 369 664 318 664 _c
318 742 _m
399 742 461 709 505 645 _c
548 580 570 486 570 364 _c
570 241 548 147 505 83 _c
461 19 399 -13 318 -13 _c
236 -13 173 19 130 83 _c
87 147 66 241 66 364 _c
66 486 87 580 130 645 _c
173 709 236 742 318 742 _c
_cl}_d
/one{636 0 110 0 544 729 _sc
124 83 _m
285 83 _l
285 639 _l
110 604 _l
110 694 _l
284 729 _l
383 729 _l
383 83 _l
544 83 _l
544 0 _l
124 0 _l
124 83 _l
_cl}_d
/two{{636 0 73 0 536 742 _sc
192 83 _m
536 83 _l
536 0 _l
73 0 _l
73 83 _l
110 121 161 173 226 239 _c
290 304 331 346 348 365 _c
380 400 402 430 414 455 _c
426 479 433 504 433 528 _c
433 566 419 598 392 622 _c
365 646 330 659 286 659 _c
255 659 222 653 188 643 _c
154 632 117 616 78 594 _c
78 694 _l
118 710 155 722 189 730 _c
223 738 255 742 284 742 _c
}_e{359 742 419 723 464 685 _c
509 647 532 597 532 534 _c
532 504 526 475 515 449 _c
504 422 484 390 454 354 _c
446 344 420 317 376 272 _c
332 227 271 164 192 83 _c
_cl}_e}_d
/four{636 0 49 0 580 729 _sc
378 643 _m
129 254 _l
378 254 _l
378 643 _l
352 729 _m
476 729 _l
476 254 _l
580 254 _l
580 172 _l
476 172 _l
476 0 _l
378 0 _l
378 172 _l
49 172 _l
49 267 _l
352 729 _l
_cl}_d
/six{{636 0 70 -13 573 742 _sc
330 404 _m
286 404 251 388 225 358 _c
199 328 186 286 186 234 _c
186 181 199 139 225 109 _c
251 79 286 64 330 64 _c
374 64 409 79 435 109 _c
461 139 474 181 474 234 _c
474 286 461 328 435 358 _c
409 388 374 404 330 404 _c
526 713 _m
526 623 _l
501 635 476 644 451 650 _c
425 656 400 659 376 659 _c
310 659 260 637 226 593 _c
}_e{192 549 172 482 168 394 _c
187 422 211 444 240 459 _c
269 474 301 482 336 482 _c
409 482 467 459 509 415 _c
551 371 573 310 573 234 _c
573 159 550 99 506 54 _c
462 9 403 -13 330 -13 _c
246 -13 181 19 137 83 _c
92 147 70 241 70 364 _c
70 479 97 571 152 639 _c
206 707 280 742 372 742 _c
396 742 421 739 447 735 _c
472 730 498 723 526 713 _c
_cl}_e}_d
/eight{{636 0 68 -13 568 742 _sc
318 346 _m
271 346 234 333 207 308 _c
180 283 167 249 167 205 _c
167 161 180 126 207 101 _c
234 76 271 64 318 64 _c
364 64 401 76 428 102 _c
455 127 469 161 469 205 _c
469 249 455 283 429 308 _c
402 333 365 346 318 346 _c
219 388 _m
177 398 144 418 120 447 _c
96 476 85 511 85 553 _c
85 611 105 657 147 691 _c
188 725 245 742 318 742 _c
}_e{390 742 447 725 489 691 _c
530 657 551 611 551 553 _c
551 511 539 476 515 447 _c
491 418 459 398 417 388 _c
464 377 501 355 528 323 _c
554 291 568 251 568 205 _c
568 134 546 80 503 43 _c
459 5 398 -13 318 -13 _c
237 -13 175 5 132 43 _c
89 80 68 134 68 205 _c
68 251 81 291 108 323 _c
134 355 171 377 219 388 _c
183 544 _m
183 506 194 476 218 455 _c
}_e{242 434 275 424 318 424 _c
360 424 393 434 417 455 _c
441 476 453 506 453 544 _c
453 582 441 611 417 632 _c
393 653 360 664 318 664 _c
275 664 242 653 218 632 _c
194 611 183 582 183 544 _c
_cl}_e}_d
/C{{698 0 56 -13 644 742 _sc
644 673 _m
644 569 _l
610 599 575 622 537 638 _c
499 653 460 661 418 661 _c
334 661 270 635 226 584 _c
182 533 160 460 160 364 _c
160 268 182 194 226 143 _c
270 92 334 67 418 67 _c
460 67 499 74 537 90 _c
575 105 610 128 644 159 _c
644 56 _l
609 32 572 15 534 4 _c
496 -7 455 -13 412 -13 _c
302 -13 215 20 151 87 _c
}_e{87 154 56 246 56 364 _c
56 481 87 573 151 641 _c
215 708 302 742 412 742 _c
456 742 497 736 535 725 _c
573 713 610 696 644 673 _c
_cl}_e}_d
/I{295 0 98 0 197 729 _sc
98 729 _m
197 729 _l
197 0 _l
98 0 _l
98 729 _l
_cl}_d
/M{863 0 98 0 765 729 _sc
98 729 _m
245 729 _l
431 233 _l
618 729 _l
765 729 _l
765 0 _l
669 0 _l
669 640 _l
481 140 _l
382 140 _l
194 640 _l
194 0 _l
98 0 _l
98 729 _l
_cl}_d
/O{787 0 56 -13 731 742 _sc
394 662 _m
322 662 265 635 223 582 _c
181 528 160 456 160 364 _c
160 272 181 199 223 146 _c
265 92 322 66 394 66 _c
465 66 522 92 564 146 _c
606 199 627 272 627 364 _c
627 456 606 528 564 582 _c
522 635 465 662 394 662 _c
394 742 _m
496 742 577 707 639 639 _c
700 571 731 479 731 364 _c
731 248 700 157 639 89 _c
577 21 496 -13 394 -13 _c
291 -13 209 21 148 89 _c
86 157 56 248 56 364 _c
56 479 86 571 148 639 _c
209 707 291 742 394 742 _c
_cl}_d
/P{603 0 98 0 569 729 _sc
197 648 _m
197 374 _l
321 374 _l
367 374 402 385 427 409 _c
452 433 465 467 465 511 _c
465 555 452 588 427 612 _c
402 636 367 648 321 648 _c
197 648 _l
98 729 _m
321 729 _l
402 729 464 710 506 673 _c
548 636 569 582 569 511 _c
569 439 548 384 506 348 _c
464 311 402 293 321 293 _c
197 293 _l
197 0 _l
98 0 _l
98 729 _l
_cl}_d
/underscore{500 0 -9 -235 510 -165 _sc
510 -165 _m
510 -235 _l
-9 -235 _l
-9 -165 _l
510 -165 _l
_cl}_d
/e{{615 0 55 -13 562 560 _sc
562 296 _m
562 252 _l
149 252 _l
153 190 171 142 205 110 _c
238 78 284 62 344 62 _c
378 62 412 66 444 74 _c
476 82 509 95 541 113 _c
541 28 _l
509 14 476 3 442 -3 _c
408 -9 373 -13 339 -13 _c
251 -13 182 12 131 62 _c
80 112 55 181 55 268 _c
55 357 79 428 127 481 _c
175 533 241 560 323 560 _c
397 560 455 536 498 489 _c
}_e{540 441 562 377 562 296 _c
472 322 _m
471 371 457 410 431 440 _c
404 469 368 484 324 484 _c
274 484 234 469 204 441 _c
174 413 156 373 152 322 _c
472 322 _l
_cl}_e}_d
/n{634 0 91 0 549 560 _sc
549 330 _m
549 0 _l
459 0 _l
459 327 _l
459 379 448 417 428 443 _c
408 469 378 482 338 482 _c
289 482 251 466 223 435 _c
195 404 181 362 181 309 _c
181 0 _l
91 0 _l
91 547 _l
181 547 _l
181 462 _l
202 494 227 519 257 535 _c
286 551 320 560 358 560 _c
420 560 468 540 500 501 _c
532 462 549 405 549 330 _c
_cl}_d
/o{612 0 55 -13 557 560 _sc
306 484 _m
258 484 220 465 192 427 _c
164 389 150 338 150 273 _c
150 207 163 156 191 118 _c
219 80 257 62 306 62 _c
354 62 392 80 420 118 _c
448 156 462 207 462 273 _c
462 337 448 389 420 427 _c
392 465 354 484 306 484 _c
306 560 _m
384 560 445 534 490 484 _c
534 433 557 363 557 273 _c
557 183 534 113 490 63 _c
445 12 384 -13 306 -13 _c
227 -13 165 12 121 63 _c
77 113 55 183 55 273 _c
55 363 77 433 121 484 _c
165 534 227 560 306 560 _c
_cl}_d
/p{{635 0 91 -207 580 560 _sc
181 82 _m
181 -207 _l
91 -207 _l
91 547 _l
181 547 _l
181 464 _l
199 496 223 520 252 536 _c
281 552 316 560 356 560 _c
422 560 476 533 518 481 _c
559 428 580 359 580 273 _c
580 187 559 117 518 65 _c
476 13 422 -13 356 -13 _c
316 -13 281 -5 252 10 _c
223 25 199 49 181 82 _c
487 273 _m
487 339 473 390 446 428 _c
418 466 381 485 334 485 _c
}_e{286 485 249 466 222 428 _c
194 390 181 339 181 273 _c
181 207 194 155 222 117 _c
249 79 286 61 334 61 _c
381 61 418 79 446 117 _c
473 155 487 207 487 273 _c
_cl}_e}_d
/r{411 0 91 0 411 560 _sc
411 463 _m
401 469 390 473 378 476 _c
366 478 353 480 339 480 _c
288 480 249 463 222 430 _c
194 397 181 350 181 288 _c
181 0 _l
91 0 _l
91 547 _l
181 547 _l
181 462 _l
199 495 224 520 254 536 _c
284 552 321 560 365 560 _c
371 560 378 559 386 559 _c
393 558 401 557 411 555 _c
411 463 _l
_cl}_d
end readonly def

/BuildGlyph
 {exch begin
 CharStrings exch
 2 copy known not{pop /.notdef}if
 true 3 1 roll get exec
 end}_d

/BuildChar {
 1 index /Encoding get exch get
 1 index /BuildGlyph get exec
}_d

FontName currentdict end definefont pop
%!PS-Adobe-3.0 Resource-Font
%%Title: DejaVu Sans Bold
%%Copyright: Copyright (c) 2003 by Bitstream, Inc. All Rights Reserved. Copyright (c) 2006 by Tavmjong Bah. All Rights Reserved. DejaVu changes are in public domain 
%%Creator: Converted from TrueType to type 3 by PPR
25 dict begin
/_d{bind def}bind def
/_m{moveto}_d
/_l{lineto}_d
/_cl{closepath eofill}_d
/_c{curveto}_d
/_sc{7 -1 roll{setcachedevice}{pop pop pop pop pop pop}ifelse}_d
/_e{exec}_d
/FontName /DejaVuSans-Bold def
/PaintType 0 def
/FontMatrix[.001 0 0 .001 0 0]def
/FontBBox[-1069 -415 1975 1174]def
/FontType 3 def
/Encoding [ /space /plus /C /N /S /d /e /o /p /r /s /u ] def
/FontInfo 10 dict dup begin
/FamilyName (DejaVu Sans) def
/FullName (DejaVu Sans Bold) def
/Notice (Copyright (c) 2003 by Bitstream, Inc. All Rights Reserved. Copyright (c) 2006 by Tavmjong Bah. All Rights Reserved. DejaVu changes are in public domain ) def
/Weight (Bold) def
/Version (Version 2.35) def
/ItalicAngle 0.0 def
/isFixedPitch false def
/UnderlinePosition -130 def
/UnderlineThickness 90 def
end readonly def
/CharStrings 13 dict dup begin
/.notdef 0 def
/space{348 0 0 0 0 0 _sc
}_d
/plus{838 0 106 0 732 627 _sc
477 627 _m
477 371 _l
732 371 _l
732 256 _l
477 256 _l
477 0 _l
361 0 _l
361 256 _l
106 256 _l
106 371 _l
361 371 _l
361 627 _l
477 627 _l
_cl}_d
/C{{734 0 50 -13 670 742 _sc
670 40 _m
635 22 599 8 562 0 _c
524 -8 485 -13 445 -13 _c
323 -13 227 20 156 88 _c
85 155 50 247 50 364 _c
50 480 85 572 156 640 _c
227 708 323 742 445 742 _c
485 742 524 737 562 728 _c
599 719 635 706 670 688 _c
670 537 _l
635 561 601 578 567 589 _c
533 600 497 606 460 606 _c
392 606 339 584 301 541 _c
263 498 244 439 244 364 _c
}_e{244 288 263 229 301 186 _c
339 143 392 122 460 122 _c
497 122 533 127 567 138 _c
601 149 635 167 670 191 _c
670 40 _l
_cl}_e}_d
/N{837 0 92 0 745 729 _sc
92 729 _m
302 729 _l
567 229 _l
567 729 _l
745 729 _l
745 0 _l
535 0 _l
270 500 _l
270 0 _l
92 0 _l
92 729 _l
_cl}_d
/S{{720 0 72 -13 647 742 _sc
599 706 _m
599 552 _l
559 570 520 583 482 592 _c
444 601 408 606 374 606 _c
329 606 296 599 274 587 _c
252 575 242 556 242 530 _c
242 510 249 494 264 484 _c
278 473 305 464 343 456 _c
423 440 _l
503 424 561 399 595 366 _c
629 332 647 285 647 224 _c
647 144 623 84 575 45 _c
527 6 455 -13 357 -13 _c
311 -13 264 -8 218 0 _c
}_e{171 8 124 20 78 38 _c
78 197 _l
124 172 169 153 213 141 _c
256 128 298 122 339 122 _c
379 122 411 128 433 142 _c
455 156 466 175 466 201 _c
466 223 458 241 443 253 _c
428 265 399 277 355 287 _c
282 303 _l
209 319 156 344 122 378 _c
88 412 72 458 72 516 _c
72 588 95 644 142 683 _c
188 722 256 742 344 742 _c
384 742 425 739 467 733 _c
509 727 553 718 599 706 _c
}_e{_cl}_e}_d
/d{{716 0 45 -13 632 760 _sc
456 467 _m
456 760 _l
632 760 _l
632 0 _l
456 0 _l
456 79 _l
432 47 405 23 376 9 _c
347 -5 314 -13 276 -13 _c
208 -13 153 13 110 66 _c
66 119 45 188 45 273 _c
45 357 66 425 110 479 _c
153 533 208 560 276 560 _c
314 560 347 552 376 537 _c
405 522 432 499 456 467 _c
341 113 _m
378 113 406 126 426 154 _c
446 181 456 221 456 273 _c
}_e{456 325 446 364 426 392 _c
406 419 378 433 341 433 _c
303 433 275 419 255 392 _c
235 364 226 325 226 273 _c
226 221 235 181 255 154 _c
275 126 303 113 341 113 _c
_cl}_e}_d
/e{{678 0 43 -13 630 560 _sc
630 275 _m
630 225 _l
221 225 _l
225 184 240 153 266 133 _c
291 112 326 102 372 102 _c
408 102 446 107 485 118 _c
523 129 563 146 604 168 _c
604 33 _l
562 17 521 6 480 -1 _c
438 -9 397 -13 356 -13 _c
257 -13 180 12 125 62 _c
70 112 43 182 43 273 _c
43 362 70 432 124 483 _c
178 534 252 560 346 560 _c
432 560 500 534 552 482 _c
}_e{604 430 630 361 630 275 _c
450 333 _m
450 366 440 393 421 413 _c
401 433 376 444 345 444 _c
311 444 283 434 262 415 _c
241 396 228 369 223 333 _c
450 333 _l
_cl}_e}_d
/o{687 0 43 -13 644 560 _sc
344 435 _m
305 435 275 421 255 393 _c
235 365 225 325 225 273 _c
225 220 235 180 255 152 _c
275 124 305 111 344 111 _c
382 111 411 124 431 152 _c
451 180 462 220 462 273 _c
462 325 451 365 431 393 _c
411 421 382 435 344 435 _c
344 560 _m
438 560 511 534 564 484 _c
617 433 644 363 644 273 _c
644 183 617 112 564 62 _c
511 12 438 -13 344 -13 _c
250 -13 176 12 123 62 _c
69 112 43 183 43 273 _c
43 363 69 433 123 484 _c
176 534 250 560 344 560 _c
_cl}_d
/p{{716 0 84 -207 671 560 _sc
259 79 _m
259 -207 _l
84 -207 _l
84 547 _l
259 547 _l
259 467 _l
283 499 309 522 339 537 _c
368 552 402 560 440 560 _c
507 560 562 533 606 479 _c
649 425 671 357 671 273 _c
671 188 649 119 606 66 _c
562 13 507 -13 440 -13 _c
402 -13 368 -5 339 9 _c
309 23 283 47 259 79 _c
375 433 _m
337 433 309 419 289 392 _c
269 364 259 325 259 273 _c
}_e{259 221 269 181 289 154 _c
309 126 337 113 375 113 _c
412 113 440 126 460 154 _c
480 181 490 221 490 273 _c
490 325 480 364 460 392 _c
440 419 412 433 375 433 _c
_cl}_e}_d
/r{493 0 84 0 490 560 _sc
490 398 _m
474 405 459 410 444 414 _c
429 417 414 419 399 419 _c
354 419 319 404 295 376 _c
271 347 259 306 259 252 _c
259 0 _l
84 0 _l
84 547 _l
259 547 _l
259 457 _l
281 493 306 519 336 535 _c
365 551 400 560 441 560 _c
447 560 453 559 460 559 _c
466 559 476 558 490 556 _c
490 398 _l
_cl}_d
/s{{595 0 52 -13 548 560 _sc
511 530 _m
511 397 _l
473 412 437 424 403 432 _c
368 440 335 444 304 444 _c
270 444 246 439 230 431 _c
214 423 206 410 206 393 _c
206 379 212 368 224 361 _c
236 353 258 348 290 344 _c
321 340 _l
410 328 470 310 501 284 _c
532 258 548 217 548 161 _c
548 103 526 59 483 30 _c
440 1 376 -13 291 -13 _c
255 -13 217 -10 179 -5 _c
}_e{140 0 100 8 60 20 _c
60 153 _l
94 135 130 122 167 114 _c
203 106 241 102 279 102 _c
313 102 338 106 356 116 _c
373 125 382 139 382 158 _c
382 174 376 185 364 193 _c
352 201 328 207 293 211 _c
262 215 _l
184 224 130 242 99 269 _c
67 295 52 335 52 389 _c
52 447 71 490 111 518 _c
151 546 212 560 294 560 _c
326 560 359 557 395 552 _c
431 547 469 540 511 530 _c
}_e{_cl}_e}_d
/u{{712 0 78 -13 628 547 _sc
78 213 _m
78 547 _l
254 547 _l
254 492 _l
254 462 253 425 253 380 _c
253 335 253 305 253 291 _c
253 247 254 215 256 196 _c
258 176 262 162 268 154 _c
275 142 284 133 296 127 _c
307 121 320 118 336 118 _c
372 118 401 132 422 160 _c
442 188 453 227 453 277 _c
453 547 _l
628 547 _l
628 0 _l
453 0 _l
453 79 _l
427 47 399 23 369 9 _c
}_e{339 -5 307 -13 272 -13 _c
208 -13 160 6 127 44 _c
94 82 78 139 78 213 _c
_cl}_e}_d
end readonly def

/BuildGlyph
 {exch begin
 CharStrings exch
 2 copy known not{pop /.notdef}if
 true 3 1 roll get exec
 end}_d

/BuildChar {
 1 index /Encoding get exch get
 1 index /BuildGlyph get exec
}_d

FontName currentdict end definefont pop
end
%%EndProlog
mpldict begin
-467.958 33.078 translate
1547.916 725.844 0 0 clipbox
gsave
0 0 m
1547.915625 0 l
1547.915625 725.84375 l
0 725.84375 l
cl
1.000 setgray
fill
grestore
gsave
142.215625 171.54375 m
1537.215625 171.54375 l
1537.215625 715.14375 l
142.215625 715.14375 l
cl
1.000 setgray
fill
grestore
gsave
1395 543.6 142.2 171.5 clipbox
156.520383 171.54375 m
169.10857 171.54375 l
169.10857 175.200787 l
156.520383 175.200787 l
cl
0.122 0.467 0.706 setrgbcolor
fill
grestore
gsave
1395 543.6 142.2 171.5 clipbox
213.739415 171.54375 m
226.327602 171.54375 l
226.327602 177.177781 l
213.739415 177.177781 l
cl
0.122 0.467 0.706 setrgbcolor
fill
grestore
gsave
1395 543.6 142.2 171.5 clipbox
270.958447 171.54375 m
283.546634 171.54375 l
283.546634 181.301822 l
270.958447 181.301822 l
cl
0.122 0.467 0.706 setrgbcolor
fill
grestore
gsave
1395 543.6 142.2 171.5 clipbox
328.177479 171.54375 m
340.765666 171.54375 l
340.765666 190.62946 l
328.177479 190.62946 l
cl
0.122 0.467 0.706 setrgbcolor
fill
grestore
gsave
1395 543.6 142.2 171.5 clipbox
385.396511 171.54375 m
397.984698 171.54375 l
397.984698 190.04726 l
385.396511 190.04726 l
cl
0.122 0.467 0.706 setrgbcolor
fill
grestore
gsave
1395 543.6 142.2 171.5 clipbox
442.615543 171.54375 m
455.20373 171.54375 l
455.20373 190.927874 l
442.615543 190.927874 l
cl
0.122 0.467 0.706 setrgbcolor
fill
grestore
gsave
1395 543.6 142.2 171.5 clipbox
499.834575 171.54375 m
512.422762 171.54375 l
512.422762 178.451161 l
499.834575 178.451161 l
cl
0.122 0.467 0.706 setrgbcolor
fill
grestore
gsave
1395 543.6 142.2 171.5 clipbox
557.053607 171.54375 m
569.641794 171.54375 l
569.641794 180.990242 l
557.053607 180.990242 l
cl
0.122 0.467 0.706 setrgbcolor
fill
grestore
gsave
1395 543.6 142.2 171.5 clipbox
614.272639 171.54375 m
626.860826 171.54375 l
626.860826 188.080871 l
614.272639 188.080871 l
cl
0.122 0.467 0.706 setrgbcolor
fill
grestore
gsave
1395 543.6 142.2 171.5 clipbox
671.491671 171.54375 m
684.079858 171.54375 l
684.079858 195.739804 l
671.491671 195.739804 l
cl
0.122 0.467 0.706 setrgbcolor
fill
grestore
gsave
1395 543.6 142.2 171.5 clipbox
728.710703 171.54375 m
741.29889 171.54375 l
741.29889 203.211861 l
728.710703 203.211861 l
cl
0.122 0.467 0.706 setrgbcolor
fill
grestore
gsave
1395 543.6 142.2 171.5 clipbox
785.929735 171.54375 m
798.517922 171.54375 l
798.517922 203.825146 l
785.929735 203.825146 l
cl
0.122 0.467 0.706 setrgbcolor
fill
grestore
gsave
1395 543.6 142.2 171.5 clipbox
843.148767 171.54375 m
855.736954 171.54375 l
855.736954 185.493152 l
843.148767 185.493152 l
cl
0.122 0.467 0.706 setrgbcolor
fill
grestore
gsave
1395 543.6 142.2 171.5 clipbox
900.367799 171.54375 m
912.955986 171.54375 l
912.955986 190.009958 l
900.367799 190.009958 l
cl
0.122 0.467 0.706 setrgbcolor
fill
grestore
gsave
1395 543.6 142.2 171.5 clipbox
957.586831 171.54375 m
970.175018 171.54375 l
970.175018 203.738475 l
957.586831 203.738475 l
cl
0.122 0.467 0.706 setrgbcolor
fill
grestore
gsave
1395 543.6 142.2 171.5 clipbox
1014.805863 171.54375 m
1027.39405 171.54375 l
1027.39405 219.554062 l
1014.805863 219.554062 l
cl
0.122 0.467 0.706 setrgbcolor
fill
grestore
gsave
1395 543.6 142.2 171.5 clipbox
1072.024895 171.54375 m
1084.613082 171.54375 l
1084.613082 229.612742 l
1072.024895 229.612742 l
cl
0.122 0.467 0.706 setrgbcolor
fill
grestore
gsave
1395 543.6 142.2 171.5 clipbox
1129.243927 171.54375 m
1141.832114 171.54375 l
1141.832114 235.489601 l
1129.243927 235.489601 l
cl
0.122 0.467 0.706 setrgbcolor
fill
grestore
gsave
1395 543.6 142.2 171.5 clipbox
1186.462959 171.54375 m
1199.051146 171.54375 l
1199.051146 199.343448 l
1186.462959 199.343448 l
cl
0.122 0.467 0.706 setrgbcolor
fill
grestore
gsave
1395 543.6 142.2 171.5 clipbox
1243.681991 171.54375 m
1256.270178 171.54375 l
1256.270178 210.59359 l
1243.681991 210.59359 l
cl
0.122 0.467 0.706 setrgbcolor
fill
grestore
gsave
1395 543.6 142.2 171.5 clipbox
1300.901023 171.54375 m
1313.48921 171.54375 l
1313.48921 237.694063 l
1300.901023 237.694063 l
cl
0.122 0.467 0.706 setrgbcolor
fill
grestore
gsave
1395 543.6 142.2 171.5 clipbox
1358.120055 171.54375 m
1370.708242 171.54375 l
1370.708242 265.128422 l
1358.120055 265.128422 l
cl
0.122 0.467 0.706 setrgbcolor
fill
grestore
gsave
1395 543.6 142.2 171.5 clipbox
1415.339087 171.54375 m
1427.927274 171.54375 l
1427.927274 282.442298 l
1415.339087 282.442298 l
cl
0.122 0.467 0.706 setrgbcolor
fill
grestore
gsave
1395 543.6 142.2 171.5 clipbox
1472.558119 171.54375 m
1485.146306 171.54375 l
1485.146306 291.30659 l
1472.558119 291.30659 l
cl
0.122 0.467 0.706 setrgbcolor
fill
grestore
gsave
1395 543.6 142.2 171.5 clipbox
169.10857 171.54375 m
181.696757 171.54375 l
181.696757 175.200787 l
169.10857 175.200787 l
cl
1.000 0.498 0.055 setrgbcolor
fill
grestore
gsave
1395 543.6 142.2 171.5 clipbox
226.327602 171.54375 m
238.915789 171.54375 l
238.915789 178.622676 l
226.327602 178.622676 l
cl
1.000 0.498 0.055 setrgbcolor
fill
grestore
gsave
1395 543.6 142.2 171.5 clipbox
283.546634 171.54375 m
296.134821 171.54375 l
296.134821 185.586772 l
283.546634 185.586772 l
cl
1.000 0.498 0.055 setrgbcolor
fill
grestore
gsave
1395 543.6 142.2 171.5 clipbox
340.765666 171.54375 m
353.353853 171.54375 l
353.353853 198.199892 l
340.765666 198.199892 l
cl
1.000 0.498 0.055 setrgbcolor
fill
grestore
gsave
1395 543.6 142.2 171.5 clipbox
397.984698 171.54375 m
410.572885 171.54375 l
410.572885 215.040182 l
397.984698 215.040182 l
cl
1.000 0.498 0.055 setrgbcolor
fill
grestore
gsave
1395 543.6 142.2 171.5 clipbox
455.20373 171.54375 m
467.791917 171.54375 l
467.791917 224.166317 l
455.20373 224.166317 l
cl
1.000 0.498 0.055 setrgbcolor
fill
grestore
gsave
1395 543.6 142.2 171.5 clipbox
512.422762 171.54375 m
525.010949 171.54375 l
525.010949 178.473469 l
512.422762 178.473469 l
cl
1.000 0.498 0.055 setrgbcolor
fill
grestore
gsave
1395 543.6 142.2 171.5 clipbox
569.641794 171.54375 m
582.229981 171.54375 l
582.229981 185.29238 l
569.641794 185.29238 l
cl
1.000 0.498 0.055 setrgbcolor
fill
grestore
gsave
1395 543.6 142.2 171.5 clipbox
626.860826 171.54375 m
639.449013 171.54375 l
639.449013 197.787378 l
626.860826 197.787378 l
cl
1.000 0.498 0.055 setrgbcolor
fill
grestore
gsave
1395 543.6 142.2 171.5 clipbox
684.079858 171.54375 m
696.668045 171.54375 l
696.668045 223.82987 l
684.079858 223.82987 l
cl
1.000 0.498 0.055 setrgbcolor
fill
grestore
gsave
1395 543.6 142.2 171.5 clipbox
741.29889 171.54375 m
753.887077 171.54375 l
753.887077 258.808697 l
741.29889 258.808697 l
cl
1.000 0.498 0.055 setrgbcolor
fill
grestore
gsave
1395 543.6 142.2 171.5 clipbox
798.517922 171.54375 m
811.106109 171.54375 l
811.106109 279.269087 l
798.517922 279.269087 l
cl
1.000 0.498 0.055 setrgbcolor
fill
grestore
gsave
1395 543.6 142.2 171.5 clipbox
855.736954 171.54375 m
868.325141 171.54375 l
868.325141 185.155607 l
855.736954 185.155607 l
cl
1.000 0.498 0.055 setrgbcolor
fill
grestore
gsave
1395 543.6 142.2 171.5 clipbox
912.955986 171.54375 m
925.544173 171.54375 l
925.544173 199.277987 l
912.955986 199.277987 l
cl
1.000 0.498 0.055 setrgbcolor
fill
grestore
gsave
1395 543.6 142.2 171.5 clipbox
970.175018 171.54375 m
982.763205 171.54375 l
982.763205 225.05388 l
970.175018 225.05388 l
cl
1.000 0.498 0.055 setrgbcolor
fill
grestore
gsave
1395 543.6 142.2 171.5 clipbox
1027.39405 171.54375 m
1039.982237 171.54375 l
1039.982237 278.881441 l
1027.39405 278.881441 l
cl
1.000 0.498 0.055 setrgbcolor
fill
grestore
gsave
1395 543.6 142.2 171.5 clipbox
1084.613082 171.54375 m
1097.201269 171.54375 l
1097.201269 347.857546 l
1084.613082 347.857546 l
cl
1.000 0.498 0.055 setrgbcolor
fill
grestore
gsave
1395 543.6 142.2 171.5 clipbox
1141.832114 171.54375 m
1154.420301 171.54375 l
1154.420301 383.499394 l
1141.832114 383.499394 l
cl
1.000 0.498 0.055 setrgbcolor
fill
grestore
gsave
1395 543.6 142.2 171.5 clipbox
1199.051146 171.54375 m
1211.639333 171.54375 l
1211.639333 198.150888 l
1199.051146 198.150888 l
cl
1.000 0.498 0.055 setrgbcolor
fill
grestore
gsave
1395 543.6 142.2 171.5 clipbox
1256.270178 171.54375 m
1268.858365 171.54375 l
1268.858365 229.1227 l
1256.270178 229.1227 l
cl
1.000 0.498 0.055 setrgbcolor
fill
grestore
gsave
1395 543.6 142.2 171.5 clipbox
1313.48921 171.54375 m
1326.077397 171.54375 l
1326.077397 284.089793 l
1313.48921 284.089793 l
cl
1.000 0.498 0.055 setrgbcolor
fill
grestore
gsave
1395 543.6 142.2 171.5 clipbox
1370.708242 171.54375 m
1383.296429 171.54375 l
1383.296429 388.710672 l
1370.708242 388.710672 l
cl
1.000 0.498 0.055 setrgbcolor
fill
grestore
gsave
1395 543.6 142.2 171.5 clipbox
1427.927274 171.54375 m
1440.515461 171.54375 l
1440.515461 524.396616 l
1427.927274 524.396616 l
cl
1.000 0.498 0.055 setrgbcolor
fill
grestore
gsave
1395 543.6 142.2 171.5 clipbox
1485.146306 171.54375 m
1497.734493 171.54375 l
1497.734493 565.154293 l
1485.146306 565.154293 l
cl
1.000 0.498 0.055 setrgbcolor
fill
grestore
gsave
1395 543.6 142.2 171.5 clipbox
181.696757 171.54375 m
194.284944 171.54375 l
194.284944 175.200787 l
181.696757 175.200787 l
cl
0.173 0.627 0.173 setrgbcolor
fill
grestore
gsave
1395 543.6 142.2 171.5 clipbox
238.915789 171.54375 m
251.503976 171.54375 l
251.503976 177.989643 l
238.915789 177.989643 l
cl
0.173 0.627 0.173 setrgbcolor
fill
grestore
gsave
1395 543.6 142.2 171.5 clipbox
296.134821 171.54375 m
308.723008 171.54375 l
308.723008 184.780761 l
296.134821 184.780761 l
cl
0.173 0.627 0.173 setrgbcolor
fill
grestore
gsave
1395 543.6 142.2 171.5 clipbox
353.353853 171.54375 m
365.94204 171.54375 l
365.94204 193.860087 l
353.353853 193.860087 l
cl
0.173 0.627 0.173 setrgbcolor
fill
grestore
gsave
1395 543.6 142.2 171.5 clipbox
410.572885 171.54375 m
423.161072 171.54375 l
423.161072 215.4004 l
410.572885 215.4004 l
cl
0.173 0.627 0.173 setrgbcolor
fill
grestore
gsave
1395 543.6 142.2 171.5 clipbox
467.791917 171.54375 m
480.380104 171.54375 l
480.380104 223.576803 l
467.791917 223.576803 l
cl
0.173 0.627 0.173 setrgbcolor
fill
grestore
gsave
1395 543.6 142.2 171.5 clipbox
525.010949 171.54375 m
537.599136 171.54375 l
537.599136 178.74921 l
525.010949 178.74921 l
cl
0.173 0.627 0.173 setrgbcolor
fill
grestore
gsave
1395 543.6 142.2 171.5 clipbox
582.229981 171.54375 m
594.818168 171.54375 l
594.818168 181.060457 l
582.229981 181.060457 l
cl
0.173 0.627 0.173 setrgbcolor
fill
grestore
gsave
1395 543.6 142.2 171.5 clipbox
639.449013 171.54375 m
652.0372 171.54375 l
652.0372 188.709516 l
639.449013 188.709516 l
cl
0.173 0.627 0.173 setrgbcolor
fill
grestore
gsave
1395 543.6 142.2 171.5 clipbox
696.668045 171.54375 m
709.256232 171.54375 l
709.256232 200.442387 l
696.668045 200.442387 l
cl
0.173 0.627 0.173 setrgbcolor
fill
grestore
gsave
1395 543.6 142.2 171.5 clipbox
753.887077 171.54375 m
766.475264 171.54375 l
766.475264 214.521614 l
753.887077 214.521614 l
cl
0.173 0.627 0.173 setrgbcolor
fill
grestore
gsave
1395 543.6 142.2 171.5 clipbox
811.106109 171.54375 m
823.694296 171.54375 l
823.694296 218.424404 l
811.106109 218.424404 l
cl
0.173 0.627 0.173 setrgbcolor
fill
grestore
gsave
1395 543.6 142.2 171.5 clipbox
868.325141 171.54375 m
880.913328 171.54375 l
880.913328 187.056535 l
868.325141 187.056535 l
cl
0.173 0.627 0.173 setrgbcolor
fill
grestore
gsave
1395 543.6 142.2 171.5 clipbox
925.544173 171.54375 m
938.13236 171.54375 l
938.13236 192.720188 l
925.544173 192.720188 l
cl
0.173 0.627 0.173 setrgbcolor
fill
grestore
gsave
1395 543.6 142.2 171.5 clipbox
982.763205 171.54375 m
995.351392 171.54375 l
995.351392 210.818498 l
982.763205 210.818498 l
cl
0.173 0.627 0.173 setrgbcolor
fill
grestore
gsave
1395 543.6 142.2 171.5 clipbox
1039.982237 171.54375 m
1052.570424 171.54375 l
1052.570424 241.457154 l
1039.982237 241.457154 l
cl
0.173 0.627 0.173 setrgbcolor
fill
grestore
gsave
1395 543.6 142.2 171.5 clipbox
1097.201269 171.54375 m
1109.789456 171.54375 l
1109.789456 273.012628 l
1097.201269 273.012628 l
cl
0.173 0.627 0.173 setrgbcolor
fill
grestore
gsave
1395 543.6 142.2 171.5 clipbox
1154.420301 171.54375 m
1167.008488 171.54375 l
1167.008488 288.772995 l
1154.420301 288.772995 l
cl
0.173 0.627 0.173 setrgbcolor
fill
grestore
gsave
1395 543.6 142.2 171.5 clipbox
1211.639333 171.54375 m
1224.22752 171.54375 l
1224.22752 202.479357 l
1211.639333 202.479357 l
cl
0.173 0.627 0.173 setrgbcolor
fill
grestore
gsave
1395 543.6 142.2 171.5 clipbox
1268.858365 171.54375 m
1281.446552 171.54375 l
1281.446552 213.618326 l
1268.858365 213.618326 l
cl
0.173 0.627 0.173 setrgbcolor
fill
grestore
gsave
1395 543.6 142.2 171.5 clipbox
1326.077397 171.54375 m
1338.665584 171.54375 l
1338.665584 248.044574 l
1326.077397 248.044574 l
cl
0.173 0.627 0.173 setrgbcolor
fill
grestore
gsave
1395 543.6 142.2 171.5 clipbox
1383.296429 171.54375 m
1395.884616 171.54375 l
1395.884616 301.691478 l
1383.296429 301.691478 l
cl
0.173 0.627 0.173 setrgbcolor
fill
grestore
gsave
1395 543.6 142.2 171.5 clipbox
1440.515461 171.54375 m
1453.103648 171.54375 l
1453.103648 370.563357 l
1440.515461 370.563357 l
cl
0.173 0.627 0.173 setrgbcolor
fill
grestore
gsave
1395 543.6 142.2 171.5 clipbox
1497.734493 171.54375 m
1510.32268 171.54375 l
1510.32268 382.010614 l
1497.734493 382.010614 l
cl
0.173 0.627 0.173 setrgbcolor
fill
grestore
gsave
1395 543.6 142.2 171.5 clipbox
194.284944 171.54375 m
206.873131 171.54375 l
206.873131 175.200787 l
194.284944 175.200787 l
cl
0.839 0.153 0.157 setrgbcolor
fill
grestore
gsave
1395 543.6 142.2 171.5 clipbox
251.503976 171.54375 m
264.092163 171.54375 l
264.092163 179.422836 l
251.503976 179.422836 l
cl
0.839 0.153 0.157 setrgbcolor
fill
grestore
gsave
1395 543.6 142.2 171.5 clipbox
308.723008 171.54375 m
321.311195 171.54375 l
321.311195 186.502494 l
308.723008 186.502494 l
cl
0.839 0.153 0.157 setrgbcolor
fill
grestore
gsave
1395 543.6 142.2 171.5 clipbox
365.94204 171.54375 m
378.530227 171.54375 l
378.530227 200.427759 l
365.94204 200.427759 l
cl
0.839 0.153 0.157 setrgbcolor
fill
grestore
gsave
1395 543.6 142.2 171.5 clipbox
423.161072 171.54375 m
435.749259 171.54375 l
435.749259 214.867204 l
423.161072 214.867204 l
cl
0.839 0.153 0.157 setrgbcolor
fill
grestore
gsave
1395 543.6 142.2 171.5 clipbox
480.380104 171.54375 m
492.968291 171.54375 l
492.968291 227.220675 l
480.380104 227.220675 l
cl
0.839 0.153 0.157 setrgbcolor
fill
grestore
gsave
1395 543.6 142.2 171.5 clipbox
537.599136 171.54375 m
550.187323 171.54375 l
550.187323 179.300691 l
537.599136 179.300691 l
cl
0.839 0.153 0.157 setrgbcolor
fill
grestore
gsave
1395 543.6 142.2 171.5 clipbox
594.818168 171.54375 m
607.406355 171.54375 l
607.406355 187.332641 l
594.818168 187.332641 l
cl
0.839 0.153 0.157 setrgbcolor
fill
grestore
gsave
1395 543.6 142.2 171.5 clipbox
652.0372 171.54375 m
664.625387 171.54375 l
664.625387 202.719624 l
652.0372 202.719624 l
cl
0.839 0.153 0.157 setrgbcolor
fill
grestore
gsave
1395 543.6 142.2 171.5 clipbox
709.256232 171.54375 m
721.844419 171.54375 l
721.844419 231.748818 l
709.256232 231.748818 l
cl
0.839 0.153 0.157 setrgbcolor
fill
grestore
gsave
1395 543.6 142.2 171.5 clipbox
766.475264 171.54375 m
779.063451 171.54375 l
779.063451 279.07307 l
766.475264 279.07307 l
cl
0.839 0.153 0.157 setrgbcolor
fill
grestore
gsave
1395 543.6 142.2 171.5 clipbox
823.694296 171.54375 m
836.282483 171.54375 l
836.282483 305.191994 l
823.694296 305.191994 l
cl
0.839 0.153 0.157 setrgbcolor
fill
grestore
gsave
1395 543.6 142.2 171.5 clipbox
880.913328 171.54375 m
893.501515 171.54375 l
893.501515 187.348001 l
880.913328 187.348001 l
cl
0.839 0.153 0.157 setrgbcolor
fill
grestore
gsave
1395 543.6 142.2 171.5 clipbox
938.13236 171.54375 m
950.720547 171.54375 l
950.720547 203.09703 l
938.13236 203.09703 l
cl
0.839 0.153 0.157 setrgbcolor
fill
grestore
gsave
1395 543.6 142.2 171.5 clipbox
995.351392 171.54375 m
1007.939579 171.54375 l
1007.939579 233.277459 l
995.351392 233.277459 l
cl
0.839 0.153 0.157 setrgbcolor
fill
grestore
gsave
1395 543.6 142.2 171.5 clipbox
1052.570424 171.54375 m
1065.158611 171.54375 l
1065.158611 291.511384 l
1052.570424 291.511384 l
cl
0.839 0.153 0.157 setrgbcolor
fill
grestore
gsave
1395 543.6 142.2 171.5 clipbox
1109.789456 171.54375 m
1122.377643 171.54375 l
1122.377643 384.636367 l
1109.789456 384.636367 l
cl
0.839 0.153 0.157 setrgbcolor
fill
grestore
gsave
1395 543.6 142.2 171.5 clipbox
1167.008488 171.54375 m
1179.596675 171.54375 l
1179.596675 436.439027 l
1167.008488 436.439027 l
cl
0.839 0.153 0.157 setrgbcolor
fill
grestore
gsave
1395 543.6 142.2 171.5 clipbox
1224.22752 171.54375 m
1236.815707 171.54375 l
1236.815707 203.081305 l
1224.22752 203.081305 l
cl
0.839 0.153 0.157 setrgbcolor
fill
grestore
gsave
1395 543.6 142.2 171.5 clipbox
1281.446552 171.54375 m
1294.034739 171.54375 l
1294.034739 233.897327 l
1281.446552 233.897327 l
cl
0.839 0.153 0.157 setrgbcolor
fill
grestore
gsave
1395 543.6 142.2 171.5 clipbox
1338.665584 171.54375 m
1351.253771 171.54375 l
1351.253771 295.887029 l
1338.665584 295.887029 l
cl
0.839 0.153 0.157 setrgbcolor
fill
grestore
gsave
1395 543.6 142.2 171.5 clipbox
1395.884616 171.54375 m
1408.472803 171.54375 l
1408.472803 412.538827 l
1395.884616 412.538827 l
cl
0.839 0.153 0.157 setrgbcolor
fill
grestore
gsave
1395 543.6 142.2 171.5 clipbox
1453.103648 171.54375 m
1465.691835 171.54375 l
1465.691835 588.79082 l
1453.103648 588.79082 l
cl
0.839 0.153 0.157 setrgbcolor
fill
grestore
gsave
1395 543.6 142.2 171.5 clipbox
1510.32268 171.54375 m
1522.910867 171.54375 l
1522.910867 689.258036 l
1510.32268 689.258036 l
cl
0.839 0.153 0.157 setrgbcolor
fill
grestore
0.800 setlinewidth
1 setlinejoin
2 setlinecap
[] 0 setdash
0.690 setgray
gsave
1395 543.6 142.2 171.5 clipbox
181.696757 171.54375 m
181.696757 715.14375 l
stroke
grestore
0 setlinecap
0.000 setgray
gsave
/o {
gsave
newpath
translate
0.8 setlinewidth
1 setlinejoin
0 setlinecap
0 0 m
0 -3.5 l

gsave
0.000 setgray
fill
grestore
stroke
grestore
} bind def
181.697 171.544 o
grestore
/DejaVuSans findfont
35.000 scalefont
setfont
gsave
191.353007 86.184375 translate
90.000000 rotate
0.000000 0.000000 m /one glyphshow
22.268066 0.000000 m /plus glyphshow
51.594238 0.000000 m /one glyphshow
grestore
2 setlinecap
0.690 setgray
gsave
1395 543.6 142.2 171.5 clipbox
238.915789 171.54375 m
238.915789 715.14375 l
stroke
grestore
0 setlinecap
0.000 setgray
gsave
/o {
gsave
newpath
translate
0.8 setlinewidth
1 setlinejoin
0 setlinecap
0 0 m
0 -3.5 l

gsave
0.000 setgray
fill
grestore
stroke
grestore
} bind def
238.916 171.544 o
grestore
gsave
248.572039 86.184375 translate
90.000000 rotate
0.000000 0.000000 m /one glyphshow
22.268066 0.000000 m /plus glyphshow
51.594238 0.000000 m /two glyphshow
grestore
2 setlinecap
0.690 setgray
gsave
1395 543.6 142.2 171.5 clipbox
296.134821 171.54375 m
296.134821 715.14375 l
stroke
grestore
0 setlinecap
0.000 setgray
gsave
/o {
gsave
newpath
translate
0.8 setlinewidth
1 setlinejoin
0 setlinecap
0 0 m
0 -3.5 l

gsave
0.000 setgray
fill
grestore
stroke
grestore
} bind def
296.135 171.544 o
grestore
gsave
305.791071 86.184375 translate
90.000000 rotate
0.000000 0.000000 m /one glyphshow
22.268066 0.000000 m /plus glyphshow
51.594238 0.000000 m /four glyphshow
grestore
2 setlinecap
0.690 setgray
gsave
1395 543.6 142.2 171.5 clipbox
353.353853 171.54375 m
353.353853 715.14375 l
stroke
grestore
0 setlinecap
0.000 setgray
gsave
/o {
gsave
newpath
translate
0.8 setlinewidth
1 setlinejoin
0 setlinecap
0 0 m
0 -3.5 l

gsave
0.000 setgray
fill
grestore
stroke
grestore
} bind def
353.354 171.544 o
grestore
gsave
363.010103 86.184375 translate
90.000000 rotate
0.000000 0.000000 m /one glyphshow
22.268066 0.000000 m /plus glyphshow
51.594238 0.000000 m /eight glyphshow
grestore
2 setlinecap
0.690 setgray
gsave
1395 543.6 142.2 171.5 clipbox
410.572885 171.54375 m
410.572885 715.14375 l
stroke
grestore
0 setlinecap
0.000 setgray
gsave
/o {
gsave
newpath
translate
0.8 setlinewidth
1 setlinejoin
0 setlinecap
0 0 m
0 -3.5 l

gsave
0.000 setgray
fill
grestore
stroke
grestore
} bind def
410.573 171.544 o
grestore
gsave
420.229135 63.918750 translate
90.000000 rotate
0.000000 0.000000 m /one glyphshow
22.268066 0.000000 m /plus glyphshow
51.594238 0.000000 m /one glyphshow
73.862305 0.000000 m /six glyphshow
grestore
2 setlinecap
0.690 setgray
gsave
1395 543.6 142.2 171.5 clipbox
467.791917 171.54375 m
467.791917 715.14375 l
stroke
grestore
0 setlinecap
0.000 setgray
gsave
/o {
gsave
newpath
translate
0.8 setlinewidth
1 setlinejoin
0 setlinecap
0 0 m
0 -3.5 l

gsave
0.000 setgray
fill
grestore
stroke
grestore
} bind def
467.792 171.544 o
grestore
gsave
477.448167 63.918750 translate
90.000000 rotate
0.000000 0.000000 m /one glyphshow
22.268066 0.000000 m /plus glyphshow
51.594238 0.000000 m /two glyphshow
73.862305 0.000000 m /zero glyphshow
grestore
2 setlinecap
0.690 setgray
gsave
1395 543.6 142.2 171.5 clipbox
525.010949 171.54375 m
525.010949 715.14375 l
stroke
grestore
0 setlinecap
0.000 setgray
gsave
/o {
gsave
newpath
translate
0.8 setlinewidth
1 setlinejoin
0 setlinecap
0 0 m
0 -3.5 l

gsave
0.000 setgray
fill
grestore
stroke
grestore
} bind def
525.011 171.544 o
grestore
gsave
534.667199 86.184375 translate
90.000000 rotate
0.000000 0.000000 m /two glyphshow
22.268066 0.000000 m /plus glyphshow
51.594238 0.000000 m /one glyphshow
grestore
2 setlinecap
0.690 setgray
gsave
1395 543.6 142.2 171.5 clipbox
582.229981 171.54375 m
582.229981 715.14375 l
stroke
grestore
0 setlinecap
0.000 setgray
gsave
/o {
gsave
newpath
translate
0.8 setlinewidth
1 setlinejoin
0 setlinecap
0 0 m
0 -3.5 l

gsave
0.000 setgray
fill
grestore
stroke
grestore
} bind def
582.23 171.544 o
grestore
gsave
591.886231 86.184375 translate
90.000000 rotate
0.000000 0.000000 m /two glyphshow
22.268066 0.000000 m /plus glyphshow
51.594238 0.000000 m /two glyphshow
grestore
2 setlinecap
0.690 setgray
gsave
1395 543.6 142.2 171.5 clipbox
639.449013 171.54375 m
639.449013 715.14375 l
stroke
grestore
0 setlinecap
0.000 setgray
gsave
/o {
gsave
newpath
translate
0.8 setlinewidth
1 setlinejoin
0 setlinecap
0 0 m
0 -3.5 l

gsave
0.000 setgray
fill
grestore
stroke
grestore
} bind def
639.449 171.544 o
grestore
gsave
649.105263 86.184375 translate
90.000000 rotate
0.000000 0.000000 m /two glyphshow
22.268066 0.000000 m /plus glyphshow
51.594238 0.000000 m /four glyphshow
grestore
2 setlinecap
0.690 setgray
gsave
1395 543.6 142.2 171.5 clipbox
696.668045 171.54375 m
696.668045 715.14375 l
stroke
grestore
0 setlinecap
0.000 setgray
gsave
/o {
gsave
newpath
translate
0.8 setlinewidth
1 setlinejoin
0 setlinecap
0 0 m
0 -3.5 l

gsave
0.000 setgray
fill
grestore
stroke
grestore
} bind def
696.668 171.544 o
grestore
gsave
706.324295 86.184375 translate
90.000000 rotate
0.000000 0.000000 m /two glyphshow
22.268066 0.000000 m /plus glyphshow
51.594238 0.000000 m /eight glyphshow
grestore
2 setlinecap
0.690 setgray
gsave
1395 543.6 142.2 171.5 clipbox
753.887077 171.54375 m
753.887077 715.14375 l
stroke
grestore
0 setlinecap
0.000 setgray
gsave
/o {
gsave
newpath
translate
0.8 setlinewidth
1 setlinejoin
0 setlinecap
0 0 m
0 -3.5 l

gsave
0.000 setgray
fill
grestore
stroke
grestore
} bind def
753.887 171.544 o
grestore
gsave
763.543327 63.918750 translate
90.000000 rotate
0.000000 0.000000 m /two glyphshow
22.268066 0.000000 m /plus glyphshow
51.594238 0.000000 m /one glyphshow
73.862305 0.000000 m /six glyphshow
grestore
2 setlinecap
0.690 setgray
gsave
1395 543.6 142.2 171.5 clipbox
811.106109 171.54375 m
811.106109 715.14375 l
stroke
grestore
0 setlinecap
0.000 setgray
gsave
/o {
gsave
newpath
translate
0.8 setlinewidth
1 setlinejoin
0 setlinecap
0 0 m
0 -3.5 l

gsave
0.000 setgray
fill
grestore
stroke
grestore
} bind def
811.106 171.544 o
grestore
gsave
820.762359 63.918750 translate
90.000000 rotate
0.000000 0.000000 m /two glyphshow
22.268066 0.000000 m /plus glyphshow
51.594238 0.000000 m /two glyphshow
73.862305 0.000000 m /zero glyphshow
grestore
2 setlinecap
0.690 setgray
gsave
1395 543.6 142.2 171.5 clipbox
868.325141 171.54375 m
868.325141 715.14375 l
stroke
grestore
0 setlinecap
0.000 setgray
gsave
/o {
gsave
newpath
translate
0.8 setlinewidth
1 setlinejoin
0 setlinecap
0 0 m
0 -3.5 l

gsave
0.000 setgray
fill
grestore
stroke
grestore
} bind def
868.325 171.544 o
grestore
gsave
877.981391 86.184375 translate
90.000000 rotate
0.000000 0.000000 m /four glyphshow
22.268066 0.000000 m /plus glyphshow
51.594238 0.000000 m /one glyphshow
grestore
2 setlinecap
0.690 setgray
gsave
1395 543.6 142.2 171.5 clipbox
925.544173 171.54375 m
925.544173 715.14375 l
stroke
grestore
0 setlinecap
0.000 setgray
gsave
/o {
gsave
newpath
translate
0.8 setlinewidth
1 setlinejoin
0 setlinecap
0 0 m
0 -3.5 l

gsave
0.000 setgray
fill
grestore
stroke
grestore
} bind def
925.544 171.544 o
grestore
gsave
935.200423 86.184375 translate
90.000000 rotate
0.000000 0.000000 m /four glyphshow
22.268066 0.000000 m /plus glyphshow
51.594238 0.000000 m /two glyphshow
grestore
2 setlinecap
0.690 setgray
gsave
1395 543.6 142.2 171.5 clipbox
982.763205 171.54375 m
982.763205 715.14375 l
stroke
grestore
0 setlinecap
0.000 setgray
gsave
/o {
gsave
newpath
translate
0.8 setlinewidth
1 setlinejoin
0 setlinecap
0 0 m
0 -3.5 l

gsave
0.000 setgray
fill
grestore
stroke
grestore
} bind def
982.763 171.544 o
grestore
gsave
992.419455 86.184375 translate
90.000000 rotate
0.000000 0.000000 m /four glyphshow
22.268066 0.000000 m /plus glyphshow
51.594238 0.000000 m /four glyphshow
grestore
2 setlinecap
0.690 setgray
gsave
1395 543.6 142.2 171.5 clipbox
1039.982237 171.54375 m
1039.982237 715.14375 l
stroke
grestore
0 setlinecap
0.000 setgray
gsave
/o {
gsave
newpath
translate
0.8 setlinewidth
1 setlinejoin
0 setlinecap
0 0 m
0 -3.5 l

gsave
0.000 setgray
fill
grestore
stroke
grestore
} bind def
1039.98 171.544 o
grestore
gsave
1049.638487 86.184375 translate
90.000000 rotate
0.000000 0.000000 m /four glyphshow
22.268066 0.000000 m /plus glyphshow
51.594238 0.000000 m /eight glyphshow
grestore
2 setlinecap
0.690 setgray
gsave
1395 543.6 142.2 171.5 clipbox
1097.201269 171.54375 m
1097.201269 715.14375 l
stroke
grestore
0 setlinecap
0.000 setgray
gsave
/o {
gsave
newpath
translate
0.8 setlinewidth
1 setlinejoin
0 setlinecap
0 0 m
0 -3.5 l

gsave
0.000 setgray
fill
grestore
stroke
grestore
} bind def
1097.2 171.544 o
grestore
gsave
1106.857519 63.918750 translate
90.000000 rotate
0.000000 0.000000 m /four glyphshow
22.268066 0.000000 m /plus glyphshow
51.594238 0.000000 m /one glyphshow
73.862305 0.000000 m /six glyphshow
grestore
2 setlinecap
0.690 setgray
gsave
1395 543.6 142.2 171.5 clipbox
1154.420301 171.54375 m
1154.420301 715.14375 l
stroke
grestore
0 setlinecap
0.000 setgray
gsave
/o {
gsave
newpath
translate
0.8 setlinewidth
1 setlinejoin
0 setlinecap
0 0 m
0 -3.5 l

gsave
0.000 setgray
fill
grestore
stroke
grestore
} bind def
1154.42 171.544 o
grestore
gsave
1164.076551 63.918750 translate
90.000000 rotate
0.000000 0.000000 m /four glyphshow
22.268066 0.000000 m /plus glyphshow
51.594238 0.000000 m /two glyphshow
73.862305 0.000000 m /zero glyphshow
grestore
2 setlinecap
0.690 setgray
gsave
1395 543.6 142.2 171.5 clipbox
1211.639333 171.54375 m
1211.639333 715.14375 l
stroke
grestore
0 setlinecap
0.000 setgray
gsave
/o {
gsave
newpath
translate
0.8 setlinewidth
1 setlinejoin
0 setlinecap
0 0 m
0 -3.5 l

gsave
0.000 setgray
fill
grestore
stroke
grestore
} bind def
1211.64 171.544 o
grestore
gsave
1221.295583 86.184375 translate
90.000000 rotate
0.000000 0.000000 m /eight glyphshow
22.268066 0.000000 m /plus glyphshow
51.594238 0.000000 m /one glyphshow
grestore
2 setlinecap
0.690 setgray
gsave
1395 543.6 142.2 171.5 clipbox
1268.858365 171.54375 m
1268.858365 715.14375 l
stroke
grestore
0 setlinecap
0.000 setgray
gsave
/o {
gsave
newpath
translate
0.8 setlinewidth
1 setlinejoin
0 setlinecap
0 0 m
0 -3.5 l

gsave
0.000 setgray
fill
grestore
stroke
grestore
} bind def
1268.86 171.544 o
grestore
gsave
1278.514615 86.184375 translate
90.000000 rotate
0.000000 0.000000 m /eight glyphshow
22.268066 0.000000 m /plus glyphshow
51.594238 0.000000 m /two glyphshow
grestore
2 setlinecap
0.690 setgray
gsave
1395 543.6 142.2 171.5 clipbox
1326.077397 171.54375 m
1326.077397 715.14375 l
stroke
grestore
0 setlinecap
0.000 setgray
gsave
/o {
gsave
newpath
translate
0.8 setlinewidth
1 setlinejoin
0 setlinecap
0 0 m
0 -3.5 l

gsave
0.000 setgray
fill
grestore
stroke
grestore
} bind def
1326.08 171.544 o
grestore
gsave
1335.733647 86.184375 translate
90.000000 rotate
0.000000 0.000000 m /eight glyphshow
22.268066 0.000000 m /plus glyphshow
51.594238 0.000000 m /four glyphshow
grestore
2 setlinecap
0.690 setgray
gsave
1395 543.6 142.2 171.5 clipbox
1383.296429 171.54375 m
1383.296429 715.14375 l
stroke
grestore
0 setlinecap
0.000 setgray
gsave
/o {
gsave
newpath
translate
0.8 setlinewidth
1 setlinejoin
0 setlinecap
0 0 m
0 -3.5 l

gsave
0.000 setgray
fill
grestore
stroke
grestore
} bind def
1383.3 171.544 o
grestore
gsave
1392.952679 86.184375 translate
90.000000 rotate
0.000000 0.000000 m /eight glyphshow
22.268066 0.000000 m /plus glyphshow
51.594238 0.000000 m /eight glyphshow
grestore
2 setlinecap
0.690 setgray
gsave
1395 543.6 142.2 171.5 clipbox
1440.515461 171.54375 m
1440.515461 715.14375 l
stroke
grestore
0 setlinecap
0.000 setgray
gsave
/o {
gsave
newpath
translate
0.8 setlinewidth
1 setlinejoin
0 setlinecap
0 0 m
0 -3.5 l

gsave
0.000 setgray
fill
grestore
stroke
grestore
} bind def
1440.52 171.544 o
grestore
gsave
1450.171711 63.918750 translate
90.000000 rotate
0.000000 0.000000 m /eight glyphshow
22.268066 0.000000 m /plus glyphshow
51.594238 0.000000 m /one glyphshow
73.862305 0.000000 m /six glyphshow
grestore
2 setlinecap
0.690 setgray
gsave
1395 543.6 142.2 171.5 clipbox
1497.734493 171.54375 m
1497.734493 715.14375 l
stroke
grestore
0 setlinecap
0.000 setgray
gsave
/o {
gsave
newpath
translate
0.8 setlinewidth
1 setlinejoin
0 setlinecap
0 0 m
0 -3.5 l

gsave
0.000 setgray
fill
grestore
stroke
grestore
} bind def
1497.73 171.544 o
grestore
gsave
1507.390743 63.918750 translate
90.000000 rotate
0.000000 0.000000 m /eight glyphshow
22.268066 0.000000 m /plus glyphshow
51.594238 0.000000 m /two glyphshow
73.862305 0.000000 m /zero glyphshow
grestore
/DejaVuSans-Bold findfont
40.000 scalefont
setfont
gsave
675.004688 15.528125 translate
0.000000 rotate
0.000000 0.000000 m /N glyphshow
33.476562 0.000000 m /o glyphshow
60.957031 0.000000 m /d glyphshow
89.589844 0.000000 m /e glyphshow
116.718750 0.000000 m /s glyphshow
140.527344 0.000000 m /space glyphshow
154.453125 0.000000 m /plus glyphshow
187.968750 0.000000 m /space glyphshow
201.894531 0.000000 m /C glyphshow
231.250000 0.000000 m /o glyphshow
258.730469 0.000000 m /r glyphshow
278.457031 0.000000 m /e glyphshow
305.585938 0.000000 m /s glyphshow
grestore
2 setlinecap
0.690 setgray
gsave
1395 543.6 142.2 171.5 clipbox
142.215625 171.54375 m
1537.215625 171.54375 l
stroke
grestore
0 setlinecap
0.000 setgray
gsave
/o {
gsave
newpath
translate
0.8 setlinewidth
1 setlinejoin
0 setlinecap
0 0 m
-3.5 0 l

gsave
0.000 setgray
fill
grestore
stroke
grestore
} bind def
142.216 171.544 o
grestore
/DejaVuSans findfont
35.000 scalefont
setfont
gsave
108.450000 158.246875 translate
0.000000 rotate
0.000000 0.000000 m /zero glyphshow
grestore
2 setlinecap
0.690 setgray
gsave
1395 543.6 142.2 171.5 clipbox
142.215625 244.684489 m
1537.215625 244.684489 l
stroke
grestore
0 setlinecap
0.000 setgray
gsave
/o {
gsave
newpath
translate
0.8 setlinewidth
1 setlinejoin
0 setlinecap
0 0 m
-3.5 0 l

gsave
0.000 setgray
fill
grestore
stroke
grestore
} bind def
142.216 244.684 o
grestore
gsave
86.184375 231.387614 translate
0.000000 rotate
0.000000 0.000000 m /two glyphshow
22.268066 0.000000 m /zero glyphshow
grestore
2 setlinecap
0.690 setgray
gsave
1395 543.6 142.2 171.5 clipbox
142.215625 317.825228 m
1537.215625 317.825228 l
stroke
grestore
0 setlinecap
0.000 setgray
gsave
/o {
gsave
newpath
translate
0.8 setlinewidth
1 setlinejoin
0 setlinecap
0 0 m
-3.5 0 l

gsave
0.000 setgray
fill
grestore
stroke
grestore
} bind def
142.216 317.825 o
grestore
gsave
86.184375 304.528353 translate
0.000000 rotate
0.000000 0.000000 m /four glyphshow
22.268066 0.000000 m /zero glyphshow
grestore
2 setlinecap
0.690 setgray
gsave
1395 543.6 142.2 171.5 clipbox
142.215625 390.965966 m
1537.215625 390.965966 l
stroke
grestore
0 setlinecap
0.000 setgray
gsave
/o {
gsave
newpath
translate
0.8 setlinewidth
1 setlinejoin
0 setlinecap
0 0 m
-3.5 0 l

gsave
0.000 setgray
fill
grestore
stroke
grestore
} bind def
142.216 390.966 o
grestore
gsave
86.184375 377.669091 translate
0.000000 rotate
0.000000 0.000000 m /six glyphshow
22.268066 0.000000 m /zero glyphshow
grestore
2 setlinecap
0.690 setgray
gsave
1395 543.6 142.2 171.5 clipbox
142.215625 464.106705 m
1537.215625 464.106705 l
stroke
grestore
0 setlinecap
0.000 setgray
gsave
/o {
gsave
newpath
translate
0.8 setlinewidth
1 setlinejoin
0 setlinecap
0 0 m
-3.5 0 l

gsave
0.000 setgray
fill
grestore
stroke
grestore
} bind def
142.216 464.107 o
grestore
gsave
86.184375 450.809830 translate
0.000000 rotate
0.000000 0.000000 m /eight glyphshow
22.268066 0.000000 m /zero glyphshow
grestore
2 setlinecap
0.690 setgray
gsave
1395 543.6 142.2 171.5 clipbox
142.215625 537.247444 m
1537.215625 537.247444 l
stroke
grestore
0 setlinecap
0.000 setgray
gsave
/o {
gsave
newpath
translate
0.8 setlinewidth
1 setlinejoin
0 setlinecap
0 0 m
-3.5 0 l

gsave
0.000 setgray
fill
grestore
stroke
grestore
} bind def
142.216 537.247 o
grestore
gsave
63.918750 523.950569 translate
0.000000 rotate
0.000000 0.000000 m /one glyphshow
22.268066 0.000000 m /zero glyphshow
44.536133 0.000000 m /zero glyphshow
grestore
2 setlinecap
0.690 setgray
gsave
1395 543.6 142.2 171.5 clipbox
142.215625 610.388183 m
1537.215625 610.388183 l
stroke
grestore
0 setlinecap
0.000 setgray
gsave
/o {
gsave
newpath
translate
0.8 setlinewidth
1 setlinejoin
0 setlinecap
0 0 m
-3.5 0 l

gsave
0.000 setgray
fill
grestore
stroke
grestore
} bind def
142.216 610.388 o
grestore
gsave
63.918750 597.091308 translate
0.000000 rotate
0.000000 0.000000 m /one glyphshow
22.268066 0.000000 m /two glyphshow
44.536133 0.000000 m /zero glyphshow
grestore
2 setlinecap
0.690 setgray
gsave
1395 543.6 142.2 171.5 clipbox
142.215625 683.528922 m
1537.215625 683.528922 l
stroke
grestore
0 setlinecap
0.000 setgray
gsave
/o {
gsave
newpath
translate
0.8 setlinewidth
1 setlinejoin
0 setlinecap
0 0 m
-3.5 0 l

gsave
0.000 setgray
fill
grestore
stroke
grestore
} bind def
142.216 683.529 o
grestore
gsave
63.918750 670.232047 translate
0.000000 rotate
0.000000 0.000000 m /one glyphshow
22.268066 0.000000 m /four glyphshow
44.536133 0.000000 m /zero glyphshow
grestore
/DejaVuSans-Bold findfont
40.000 scalefont
setfont
gsave
37.590625 344.609375 translate
90.000000 rotate
0.000000 0.000000 m /S glyphshow
28.808594 0.000000 m /p glyphshow
57.441406 0.000000 m /e glyphshow
84.570312 0.000000 m /e glyphshow
111.699219 0.000000 m /d glyphshow
140.332031 0.000000 m /u glyphshow
168.808594 0.000000 m /p glyphshow
grestore
6.000 setlinewidth
2 setlinecap
0.122 0.467 0.706 setrgbcolor
gsave
1395 543.6 142.2 171.5 clipbox
467.791917 190.927874 m
811.106109 203.825146 l
1154.420301 235.489601 l
1497.734493 291.30659 l
stroke
grestore
1.000 setlinewidth
0 setlinecap
gsave
1395 543.6 142.2 171.5 clipbox
/o {
gsave
newpath
translate
1.0 setlinewidth
1 setlinejoin
0 setlinecap
0 -12.5 m
3.315039 -12.5 6.494748 -11.182921 8.838835 -8.838835 c
11.182921 -6.494748 12.5 -3.315039 12.5 0 c
12.5 3.315039 11.182921 6.494748 8.838835 8.838835 c
6.494748 11.182921 3.315039 12.5 0 12.5 c
-3.315039 12.5 -6.494748 11.182921 -8.838835 8.838835 c
-11.182921 6.494748 -12.5 3.315039 -12.5 0 c
-12.5 -3.315039 -11.182921 -6.494748 -8.838835 -8.838835 c
-6.494748 -11.182921 -3.315039 -12.5 0 -12.5 c
cl

gsave
0.122 0.467 0.706 setrgbcolor
fill
grestore
stroke
grestore
} bind def
467.792 190.928 o
811.106 203.825 o
1154.42 235.49 o
1497.73 291.307 o
grestore
6.000 setlinewidth
2 setlinecap
1.000 0.498 0.055 setrgbcolor
gsave
1395 543.6 142.2 171.5 clipbox
467.791917 224.166317 m
811.106109 279.269087 l
1154.420301 383.499394 l
1497.734493 565.154293 l
stroke
grestore
1.000 setlinewidth
0 setlinecap
gsave
1395 543.6 142.2 171.5 clipbox
/o {
gsave
newpath
translate
1.0 setlinewidth
1 setlinejoin
0 setlinecap
0 -12.5 m
3.315039 -12.5 6.494748 -11.182921 8.838835 -8.838835 c
11.182921 -6.494748 12.5 -3.315039 12.5 0 c
12.5 3.315039 11.182921 6.494748 8.838835 8.838835 c
6.494748 11.182921 3.315039 12.5 0 12.5 c
-3.315039 12.5 -6.494748 11.182921 -8.838835 8.838835 c
-11.182921 6.494748 -12.5 3.315039 -12.5 0 c
-12.5 -3.315039 -11.182921 -6.494748 -8.838835 -8.838835 c
-6.494748 -11.182921 -3.315039 -12.5 0 -12.5 c
cl

gsave
1.000 0.498 0.055 setrgbcolor
fill
grestore
stroke
grestore
} bind def
467.792 224.166 o
811.106 279.269 o
1154.42 383.499 o
1497.73 565.154 o
grestore
6.000 setlinewidth
2 setlinecap
0.173 0.627 0.173 setrgbcolor
gsave
1395 543.6 142.2 171.5 clipbox
467.791917 223.576803 m
811.106109 218.424404 l
1154.420301 288.772995 l
1497.734493 382.010614 l
stroke
grestore
1.000 setlinewidth
0 setlinecap
gsave
1395 543.6 142.2 171.5 clipbox
/o {
gsave
newpath
translate
1.0 setlinewidth
1 setlinejoin
0 setlinecap
0 -12.5 m
3.315039 -12.5 6.494748 -11.182921 8.838835 -8.838835 c
11.182921 -6.494748 12.5 -3.315039 12.5 0 c
12.5 3.315039 11.182921 6.494748 8.838835 8.838835 c
6.494748 11.182921 3.315039 12.5 0 12.5 c
-3.315039 12.5 -6.494748 11.182921 -8.838835 8.838835 c
-11.182921 6.494748 -12.5 3.315039 -12.5 0 c
-12.5 -3.315039 -11.182921 -6.494748 -8.838835 -8.838835 c
-6.494748 -11.182921 -3.315039 -12.5 0 -12.5 c
cl

gsave
0.173 0.627 0.173 setrgbcolor
fill
grestore
stroke
grestore
} bind def
467.792 223.577 o
811.106 218.424 o
1154.42 288.773 o
1497.73 382.011 o
grestore
6.000 setlinewidth
2 setlinecap
0.839 0.153 0.157 setrgbcolor
gsave
1395 543.6 142.2 171.5 clipbox
467.791917 227.220675 m
811.106109 305.191994 l
1154.420301 436.439027 l
1497.734493 689.258036 l
stroke
grestore
1.000 setlinewidth
0 setlinecap
gsave
1395 543.6 142.2 171.5 clipbox
/o {
gsave
newpath
translate
1.0 setlinewidth
1 setlinejoin
0 setlinecap
0 -12.5 m
3.315039 -12.5 6.494748 -11.182921 8.838835 -8.838835 c
11.182921 -6.494748 12.5 -3.315039 12.5 0 c
12.5 3.315039 11.182921 6.494748 8.838835 8.838835 c
6.494748 11.182921 3.315039 12.5 0 12.5 c
-3.315039 12.5 -6.494748 11.182921 -8.838835 8.838835 c
-11.182921 6.494748 -12.5 3.315039 -12.5 0 c
-12.5 -3.315039 -11.182921 -6.494748 -8.838835 -8.838835 c
-6.494748 -11.182921 -3.315039 -12.5 0 -12.5 c
cl

gsave
0.839 0.153 0.157 setrgbcolor
fill
grestore
stroke
grestore
} bind def
467.792 227.221 o
811.106 305.192 o
1154.42 436.439 o
1497.73 689.258 o
grestore
[6.4 1.6 1 1.6] 0 setdash
0.412 setgray
gsave
1395 543.6 142.2 171.5 clipbox
142.215625 190.927874 m
1537.215625 190.927874 l
stroke
grestore
gsave
1395 543.6 142.2 171.5 clipbox
142.215625 203.825146 m
1537.215625 203.825146 l
stroke
grestore
gsave
1395 543.6 142.2 171.5 clipbox
142.215625 235.489601 m
1537.215625 235.489601 l
stroke
grestore
gsave
1395 543.6 142.2 171.5 clipbox
142.215625 291.30659 m
1537.215625 291.30659 l
stroke
grestore
gsave
1395 543.6 142.2 171.5 clipbox
142.215625 224.166317 m
1537.215625 224.166317 l
stroke
grestore
gsave
1395 543.6 142.2 171.5 clipbox
142.215625 279.269087 m
1537.215625 279.269087 l
stroke
grestore
gsave
1395 543.6 142.2 171.5 clipbox
142.215625 383.499394 m
1537.215625 383.499394 l
stroke
grestore
gsave
1395 543.6 142.2 171.5 clipbox
142.215625 565.154293 m
1537.215625 565.154293 l
stroke
grestore
gsave
1395 543.6 142.2 171.5 clipbox
142.215625 223.576803 m
1537.215625 223.576803 l
stroke
grestore
gsave
1395 543.6 142.2 171.5 clipbox
142.215625 218.424404 m
1537.215625 218.424404 l
stroke
grestore
gsave
1395 543.6 142.2 171.5 clipbox
142.215625 288.772995 m
1537.215625 288.772995 l
stroke
grestore
gsave
1395 543.6 142.2 171.5 clipbox
142.215625 382.010614 m
1537.215625 382.010614 l
stroke
grestore
gsave
1395 543.6 142.2 171.5 clipbox
142.215625 227.220675 m
1537.215625 227.220675 l
stroke
grestore
gsave
1395 543.6 142.2 171.5 clipbox
142.215625 305.191994 m
1537.215625 305.191994 l
stroke
grestore
gsave
1395 543.6 142.2 171.5 clipbox
142.215625 436.439027 m
1537.215625 436.439027 l
stroke
grestore
gsave
1395 543.6 142.2 171.5 clipbox
142.215625 689.258036 m
1537.215625 689.258036 l
stroke
grestore
2.000 setlinewidth
0 setlinejoin
2 setlinecap
[] 0 setdash
0.000 setgray
gsave
142.215625 171.54375 m
142.215625 715.14375 l
stroke
grestore
gsave
1537.215625 171.54375 m
1537.215625 715.14375 l
stroke
grestore
gsave
142.215625 171.54375 m
1537.215625 171.54375 l
stroke
grestore
gsave
142.215625 715.14375 m
1537.215625 715.14375 l
stroke
grestore
1.000 setlinewidth
0 setlinecap
0.800 setgray
gsave
170.215625 443.83125 m
637.23125 443.83125 l
642.564583 443.83125 645.23125 446.497917 645.23125 451.83125 c
645.23125 687.14375 l
645.23125 692.477083 642.564583 695.14375 637.23125 695.14375 c
170.215625 695.14375 l
164.882292 695.14375 162.215625 692.477083 162.215625 687.14375 c
162.215625 451.83125 l
162.215625 446.497917 164.882292 443.83125 170.215625 443.83125 c
cl
gsave
1.000 setgray
fill
grestore
stroke
grestore
6.000 setlinewidth
1 setlinejoin
2 setlinecap
[] 0 setdash
0.122 0.467 0.706 setrgbcolor
gsave
178.215625 662.753125 m
258.215625 662.753125 l
stroke
grestore
1.000 setlinewidth
0 setlinecap
gsave
/o {
gsave
newpath
translate
1.0 setlinewidth
1 setlinejoin
0 setlinecap
0 -12.5 m
3.315039 -12.5 6.494748 -11.182921 8.838835 -8.838835 c
11.182921 -6.494748 12.5 -3.315039 12.5 0 c
12.5 3.315039 11.182921 6.494748 8.838835 8.838835 c
6.494748 11.182921 3.315039 12.5 0 12.5 c
-3.315039 12.5 -6.494748 11.182921 -8.838835 8.838835 c
-11.182921 6.494748 -12.5 3.315039 -12.5 0 c
-12.5 -3.315039 -11.182921 -6.494748 -8.838835 -8.838835 c
-6.494748 -11.182921 -3.315039 -12.5 0 -12.5 c
cl

gsave
0.122 0.467 0.706 setrgbcolor
fill
grestore
stroke
grestore
} bind def
218.216 662.753 o
grestore
0.000 setgray
/DejaVuSans findfont
40.000 scalefont
setfont
gsave
290.215625 648.753125 translate
0.000000 rotate
0.000000 0.000000 m /P glyphshow
24.121094 0.000000 m /one glyphshow
49.570312 0.000000 m /underscore glyphshow
69.570312 0.000000 m /M glyphshow
104.082031 0.000000 m /P glyphshow
128.203125 0.000000 m /I glyphshow
140.000000 0.000000 m /plus glyphshow
173.515625 0.000000 m /O glyphshow
205.000000 0.000000 m /p glyphshow
230.390625 0.000000 m /e glyphshow
255.000000 0.000000 m /n glyphshow
280.351562 0.000000 m /M glyphshow
314.863281 0.000000 m /P glyphshow
grestore
6.000 setlinewidth
2 setlinecap
1.000 0.498 0.055 setrgbcolor
gsave
178.215625 602.925 m
258.215625 602.925 l
stroke
grestore
1.000 setlinewidth
0 setlinecap
gsave
/o {
gsave
newpath
translate
1.0 setlinewidth
1 setlinejoin
0 setlinecap
0 -12.5 m
3.315039 -12.5 6.494748 -11.182921 8.838835 -8.838835 c
11.182921 -6.494748 12.5 -3.315039 12.5 0 c
12.5 3.315039 11.182921 6.494748 8.838835 8.838835 c
6.494748 11.182921 3.315039 12.5 0 12.5 c
-3.315039 12.5 -6.494748 11.182921 -8.838835 8.838835 c
-11.182921 6.494748 -12.5 3.315039 -12.5 0 c
-12.5 -3.315039 -11.182921 -6.494748 -8.838835 -8.838835 c
-6.494748 -11.182921 -3.315039 -12.5 0 -12.5 c
cl

gsave
1.000 0.498 0.055 setrgbcolor
fill
grestore
stroke
grestore
} bind def
218.216 602.925 o
grestore
0.000 setgray
gsave
290.215625 588.925000 translate
0.000000 rotate
0.000000 0.000000 m /P glyphshow
24.121094 0.000000 m /one glyphshow
49.570312 0.000000 m /underscore glyphshow
69.570312 0.000000 m /M glyphshow
104.082031 0.000000 m /P glyphshow
128.203125 0.000000 m /I glyphshow
140.000000 0.000000 m /hyphen glyphshow
154.433594 0.000000 m /P glyphshow
178.539062 0.000000 m /e glyphshow
203.148438 0.000000 m /r glyphshow
219.562500 0.000000 m /hyphen glyphshow
233.996094 0.000000 m /C glyphshow
261.925781 0.000000 m /o glyphshow
286.398438 0.000000 m /r glyphshow
302.843750 0.000000 m /e glyphshow
grestore
6.000 setlinewidth
2 setlinecap
0.173 0.627 0.173 setrgbcolor
gsave
178.215625 543.096875 m
258.215625 543.096875 l
stroke
grestore
1.000 setlinewidth
0 setlinecap
gsave
/o {
gsave
newpath
translate
1.0 setlinewidth
1 setlinejoin
0 setlinecap
0 -12.5 m
3.315039 -12.5 6.494748 -11.182921 8.838835 -8.838835 c
11.182921 -6.494748 12.5 -3.315039 12.5 0 c
12.5 3.315039 11.182921 6.494748 8.838835 8.838835 c
6.494748 11.182921 3.315039 12.5 0 12.5 c
-3.315039 12.5 -6.494748 11.182921 -8.838835 8.838835 c
-11.182921 6.494748 -12.5 3.315039 -12.5 0 c
-12.5 -3.315039 -11.182921 -6.494748 -8.838835 -8.838835 c
-6.494748 -11.182921 -3.315039 -12.5 0 -12.5 c
cl

gsave
0.173 0.627 0.173 setrgbcolor
fill
grestore
stroke
grestore
} bind def
218.216 543.097 o
grestore
0.000 setgray
gsave
290.215625 529.096875 translate
0.000000 rotate
0.000000 0.000000 m /P glyphshow
24.121094 0.000000 m /four glyphshow
49.570312 0.000000 m /underscore glyphshow
69.570312 0.000000 m /M glyphshow
104.082031 0.000000 m /P glyphshow
128.203125 0.000000 m /I glyphshow
140.000000 0.000000 m /plus glyphshow
173.515625 0.000000 m /O glyphshow
205.000000 0.000000 m /p glyphshow
230.390625 0.000000 m /e glyphshow
255.000000 0.000000 m /n glyphshow
280.351562 0.000000 m /M glyphshow
314.863281 0.000000 m /P glyphshow
grestore
6.000 setlinewidth
2 setlinecap
0.839 0.153 0.157 setrgbcolor
gsave
178.215625 483.26875 m
258.215625 483.26875 l
stroke
grestore
1.000 setlinewidth
0 setlinecap
gsave
/o {
gsave
newpath
translate
1.0 setlinewidth
1 setlinejoin
0 setlinecap
0 -12.5 m
3.315039 -12.5 6.494748 -11.182921 8.838835 -8.838835 c
11.182921 -6.494748 12.5 -3.315039 12.5 0 c
12.5 3.315039 11.182921 6.494748 8.838835 8.838835 c
6.494748 11.182921 3.315039 12.5 0 12.5 c
-3.315039 12.5 -6.494748 11.182921 -8.838835 8.838835 c
-11.182921 6.494748 -12.5 3.315039 -12.5 0 c
-12.5 -3.315039 -11.182921 -6.494748 -8.838835 -8.838835 c
-6.494748 -11.182921 -3.315039 -12.5 0 -12.5 c
cl

gsave
0.839 0.153 0.157 setrgbcolor
fill
grestore
stroke
grestore
} bind def
218.216 483.269 o
grestore
0.000 setgray
gsave
290.215625 469.268750 translate
0.000000 rotate
0.000000 0.000000 m /P glyphshow
24.121094 0.000000 m /four glyphshow
49.570312 0.000000 m /underscore glyphshow
69.570312 0.000000 m /M glyphshow
104.082031 0.000000 m /P glyphshow
128.203125 0.000000 m /I glyphshow
140.000000 0.000000 m /hyphen glyphshow
154.433594 0.000000 m /P glyphshow
178.539062 0.000000 m /e glyphshow
203.148438 0.000000 m /r glyphshow
219.562500 0.000000 m /hyphen glyphshow
233.996094 0.000000 m /C glyphshow
261.925781 0.000000 m /o glyphshow
286.398438 0.000000 m /r glyphshow
302.843750 0.000000 m /e glyphshow
grestore

end
showpage
